1,587,335,140,57,162,-1,-1,-1,-1
1,629,72,133,78,220,-1,-1,-1,-1
1,633,393,97,88,248,-1,-1,-1,-1
1,634,147,152,67,188,-1,-1,-1,-1
1,635,281,184,39,110,-1,-1,-1,-1
2,635,287,186,40,112,-1,-1,-1,-1
2,637,258,186,36,101,-1,-1,-1,-1
3,635,284,189,41,115,-1,-1,-1,-1
3,637,265,186,35,98,-1,-1,-1,-1
3,638,43,193,60,144,-1,-1,-1,-1
3,639,595,206,46,130,-1,-1,-1,-1
4,635,291,192,41,114,-1,-1,-1,-1
4,638,32,187,61,146,-1,-1,-1,-1
4,639,594,209,46,131,-1,-1,-1,-1
5,635,289,195,38,109,-1,-1,-1,-1
5,637,253,203,29,83,-1,-1,-1,-1
5,638,28,187,63,152,-1,-1,-1,-1
5,639,595,208,47,133,-1,-1,-1,-1
6,635,296,192,37,105,-1,-1,-1,-1
6,637,254,199,29,81,-1,-1,-1,-1
6,638,21,178,64,154,-1,-1,-1,-1
7,635,283,194,39,110,-1,-1,-1,-1
7,637,257,204,29,82,-1,-1,-1,-1
7,638,12,178,67,164,-1,-1,-1,-1
8,635,276,189,39,111,-1,-1,-1,-1
8,637,258,202,29,82,-1,-1,-1,-1
8,638,0,173,68,166,-1,-1,-1,-1
9,635,275,193,39,111,-1,-1,-1,-1
9,637,254,208,27,77,-1,-1,-1,-1
9,638,-7,170,69,170,-1,-1,-1,-1
9,642,313,205,30,84,-1,-1,-1,-1
10,635,274,188,39,109,-1,-1,-1,-1
10,637,248,211,26,74,-1,-1,-1,-1
10,642,313,202,30,85,-1,-1,-1,-1
11,635,274,192,38,106,-1,-1,-1,-1
11,637,247,213,25,72,-1,-1,-1,-1
11,642,314,204,31,87,-1,-1,-1,-1
11,643,383,217,23,65,-1,-1,-1,-1
12,635,277,197,37,104,-1,-1,-1,-1
12,642,315,207,31,88,-1,-1,-1,-1
12,643,386,220,23,66,-1,-1,-1,-1
13,635,277,197,35,99,-1,-1,-1,-1
13,642,316,208,32,89,-1,-1,-1,-1
13,643,387,221,24,69,-1,-1,-1,-1
14,635,280,192,34,96,-1,-1,-1,-1
15,635,279,194,35,98,-1,-1,-1,-1
15,637,249,212,21,60,-1,-1,-1,-1
15,642,319,202,32,91,-1,-1,-1,-1
16,635,278,198,35,98,-1,-1,-1,-1
16,637,243,227,21,58,-1,-1,-1,-1
16,642,319,204,32,91,-1,-1,-1,-1
17,635,277,199,35,99,-1,-1,-1,-1
17,637,246,218,21,59,-1,-1,-1,-1
17,642,318,204,32,92,-1,-1,-1,-1
17,645,111,190,50,142,-1,-1,-1,-1
18,635,278,195,35,99,-1,-1,-1,-1
18,637,240,228,20,58,-1,-1,-1,-1
18,642,319,206,32,91,-1,-1,-1,-1
18,645,112,189,52,145,-1,-1,-1,-1
19,635,279,194,36,101,-1,-1,-1,-1
19,637,242,218,21,59,-1,-1,-1,-1
19,642,318,201,33,92,-1,-1,-1,-1
19,643,383,217,23,64,-1,-1,-1,-1
19,645,98,178,56,156,-1,-1,-1,-1
20,635,278,187,36,102,-1,-1,-1,-1
20,637,235,211,21,59,-1,-1,-1,-1
20,642,322,193,32,92,-1,-1,-1,-1
20,643,385,223,22,63,-1,-1,-1,-1
20,645,92,178,57,159,-1,-1,-1,-1
21,635,277,190,36,102,-1,-1,-1,-1
21,637,241,212,20,56,-1,-1,-1,-1
21,642,323,192,33,92,-1,-1,-1,-1
21,643,382,220,23,66,-1,-1,-1,-1
21,645,83,170,59,165,-1,-1,-1,-1
22,635,278,184,36,101,-1,-1,-1,-1
22,637,240,209,19,54,-1,-1,-1,-1
22,643,384,224,23,66,-1,-1,-1,-1
22,645,79,178,59,165,-1,-1,-1,-1
23,635,278,183,36,102,-1,-1,-1,-1
23,637,241,214,19,54,-1,-1,-1,-1
23,642,321,198,34,95,-1,-1,-1,-1
23,643,381,219,24,68,-1,-1,-1,-1
23,645,62,166,64,181,-1,-1,-1,-1
24,637,240,211,19,53,-1,-1,-1,-1
24,642,322,193,34,95,-1,-1,-1,-1
24,643,382,221,24,67,-1,-1,-1,-1
24,645,59,161,66,186,-1,-1,-1,-1
25,635,276,202,32,90,-1,-1,-1,-1
25,637,239,211,18,52,-1,-1,-1,-1
25,642,322,196,35,98,-1,-1,-1,-1
25,643,380,218,24,69,-1,-1,-1,-1
25,645,44,155,71,201,-1,-1,-1,-1
26,635,280,197,31,89,-1,-1,-1,-1
26,642,326,192,35,98,-1,-1,-1,-1
26,643,379,218,24,69,-1,-1,-1,-1
26,645,31,161,73,205,-1,-1,-1,-1
27,635,277,195,35,99,-1,-1,-1,-1
27,642,327,191,35,99,-1,-1,-1,-1
27,643,379,217,24,68,-1,-1,-1,-1
27,645,16,142,81,228,-1,-1,-1,-1
28,635,276,188,36,102,-1,-1,-1,-1
28,643,382,219,23,66,-1,-1,-1,-1
28,645,1,141,84,235,-1,-1,-1,-1
29,635,276,194,34,96,-1,-1,-1,-1
29,643,382,219,23,66,-1,-1,-1,-1
29,645,-4,136,86,241,-1,-1,-1,-1
29,648,154,199,30,86,-1,-1,-1,-1
30,635,279,187,33,93,-1,-1,-1,-1
30,645,-13,134,85,239,-1,-1,-1,-1
30,648,154,203,32,91,-1,-1,-1,-1
31,635,277,190,34,97,-1,-1,-1,-1
31,645,-22,130,88,247,-1,-1,-1,-1
31,648,152,203,34,96,-1,-1,-1,-1
32,635,277,192,35,99,-1,-1,-1,-1
33,635,276,193,37,105,-1,-1,-1,-1
33,642,327,199,34,96,-1,-1,-1,-1
34,635,277,187,38,108,-1,-1,-1,-1
34,642,325,200,34,96,-1,-1,-1,-1
35,635,275,195,36,103,-1,-1,-1,-1
35,642,323,206,33,92,-1,-1,-1,-1
35,648,132,207,37,103,-1,-1,-1,-1
36,635,274,188,36,101,-1,-1,-1,-1
36,642,323,210,32,91,-1,-1,-1,-1
36,648,130,202,37,104,-1,-1,-1,-1
37,635,274,188,36,101,-1,-1,-1,-1
37,642,320,201,35,98,-1,-1,-1,-1
37,643,376,218,25,71,-1,-1,-1,-1
37,648,118,202,38,107,-1,-1,-1,-1
38,642,316,191,36,101,-1,-1,-1,-1
38,643,376,223,25,70,-1,-1,-1,-1
38,648,116,197,38,108,-1,-1,-1,-1
39,642,316,190,36,101,-1,-1,-1,-1
39,643,376,223,25,71,-1,-1,-1,-1
39,648,106,195,39,111,-1,-1,-1,-1
40,648,99,187,40,112,-1,-1,-1,-1
41,642,317,192,39,110,-1,-1,-1,-1
41,648,94,188,43,122,-1,-1,-1,-1
42,642,316,194,39,111,-1,-1,-1,-1
42,648,92,184,44,124,-1,-1,-1,-1
43,635,271,198,37,103,-1,-1,-1,-1
43,642,322,204,33,93,-1,-1,-1,-1
43,648,86,185,46,129,-1,-1,-1,-1
44,635,274,188,37,103,-1,-1,-1,-1
44,642,321,201,30,84,-1,-1,-1,-1
44,648,81,181,46,130,-1,-1,-1,-1
45,635,272,184,41,115,-1,-1,-1,-1
45,642,317,193,35,99,-1,-1,-1,-1
45,648,72,179,50,140,-1,-1,-1,-1
46,635,273,182,42,118,-1,-1,-1,-1
46,642,315,192,36,102,-1,-1,-1,-1
46,648,66,173,50,142,-1,-1,-1,-1
47,635,272,183,42,119,-1,-1,-1,-1
47,642,314,187,39,109,-1,-1,-1,-1
47,648,54,178,55,155,-1,-1,-1,-1
48,635,274,176,42,119,-1,-1,-1,-1
48,642,314,185,39,111,-1,-1,-1,-1
48,648,47,174,57,160,-1,-1,-1,-1
49,635,276,183,42,118,-1,-1,-1,-1
49,642,311,188,39,111,-1,-1,-1,-1
49,648,30,172,63,176,-1,-1,-1,-1
50,635,275,180,41,116,-1,-1,-1,-1
50,642,311,192,39,111,-1,-1,-1,-1
50,648,20,168,64,180,-1,-1,-1,-1
51,635,275,188,40,112,-1,-1,-1,-1
51,642,311,191,40,112,-1,-1,-1,-1
51,643,382,214,26,72,-1,-1,-1,-1
51,648,9,161,67,188,-1,-1,-1,-1
52,635,279,187,39,109,-1,-1,-1,-1
52,643,385,214,26,75,-1,-1,-1,-1
52,648,-4,150,68,190,-1,-1,-1,-1
53,635,277,190,39,111,-1,-1,-1,-1
53,642,311,195,39,109,-1,-1,-1,-1
53,643,383,212,28,78,-1,-1,-1,-1
53,648,-12,147,70,196,-1,-1,-1,-1
54,635,277,187,39,111,-1,-1,-1,-1
54,642,308,201,38,108,-1,-1,-1,-1
54,643,383,212,28,78,-1,-1,-1,-1
55,635,278,194,37,104,-1,-1,-1,-1
55,642,312,201,34,97,-1,-1,-1,-1
55,643,383,210,29,83,-1,-1,-1,-1
56,635,281,187,36,101,-1,-1,-1,-1
56,642,312,204,33,92,-1,-1,-1,-1
56,643,377,207,30,84,-1,-1,-1,-1
57,635,281,189,39,111,-1,-1,-1,-1
57,642,313,197,35,100,-1,-1,-1,-1
57,643,377,206,30,85,-1,-1,-1,-1
57,651,45,171,84,236,-1,-1,-1,-1
58,635,280,192,40,113,-1,-1,-1,-1
58,642,313,199,36,102,-1,-1,-1,-1
58,651,23,99,86,241,-1,-1,-1,-1
59,635,284,195,38,107,-1,-1,-1,-1
59,642,312,196,37,105,-1,-1,-1,-1
59,651,32,136,85,238,-1,-1,-1,-1
60,635,287,185,37,104,-1,-1,-1,-1
60,642,314,199,37,105,-1,-1,-1,-1
60,651,9,76,84,236,-1,-1,-1,-1
61,635,288,190,38,109,-1,-1,-1,-1
61,642,313,196,38,108,-1,-1,-1,-1
61,651,1,113,91,257,-1,-1,-1,-1
62,635,288,185,39,111,-1,-1,-1,-1
62,642,315,196,39,109,-1,-1,-1,-1
62,651,-11,105,93,261,-1,-1,-1,-1
63,635,284,188,39,111,-1,-1,-1,-1
63,642,316,195,39,109,-1,-1,-1,-1
63,651,-19,94,95,266,-1,-1,-1,-1
64,635,289,184,39,110,-1,-1,-1,-1
64,642,318,196,39,109,-1,-1,-1,-1
65,635,286,187,39,111,-1,-1,-1,-1
65,642,320,194,38,108,-1,-1,-1,-1
65,652,-3,308,59,116,-1,-1,-1,-1
66,635,289,183,39,110,-1,-1,-1,-1
66,642,323,195,38,108,-1,-1,-1,-1
66,652,-15,310,58,116,-1,-1,-1,-1
67,635,286,189,38,108,-1,-1,-1,-1
67,642,323,194,40,112,-1,-1,-1,-1
67,652,-22,312,59,117,-1,-1,-1,-1
68,635,288,188,38,106,-1,-1,-1,-1
68,642,324,195,40,112,-1,-1,-1,-1
69,635,285,190,38,108,-1,-1,-1,-1
69,642,324,193,42,117,-1,-1,-1,-1
70,635,289,186,38,109,-1,-1,-1,-1
70,642,324,193,42,119,-1,-1,-1,-1
71,635,286,190,35,99,-1,-1,-1,-1
71,642,326,193,41,116,-1,-1,-1,-1
72,635,290,186,33,94,-1,-1,-1,-1
72,642,327,197,41,115,-1,-1,-1,-1
73,635,288,192,38,107,-1,-1,-1,-1
73,642,332,199,39,111,-1,-1,-1,-1
73,643,375,210,30,84,-1,-1,-1,-1
74,635,292,188,39,111,-1,-1,-1,-1
74,642,333,204,39,109,-1,-1,-1,-1
74,643,379,214,29,82,-1,-1,-1,-1
75,635,292,194,39,110,-1,-1,-1,-1
75,642,337,203,40,112,-1,-1,-1,-1
75,643,379,214,29,82,-1,-1,-1,-1
76,635,295,191,38,108,-1,-1,-1,-1
76,642,339,206,40,112,-1,-1,-1,-1
77,635,302,195,39,111,-1,-1,-1,-1
77,642,339,197,43,121,-1,-1,-1,-1
78,635,302,192,40,112,-1,-1,-1,-1
78,642,342,205,44,123,-1,-1,-1,-1
79,635,303,191,42,118,-1,-1,-1,-1
79,642,342,194,46,129,-1,-1,-1,-1
80,635,303,184,42,119,-1,-1,-1,-1
80,642,344,197,46,130,-1,-1,-1,-1
81,635,306,190,41,114,-1,-1,-1,-1
81,642,346,196,45,128,-1,-1,-1,-1
82,635,305,186,40,113,-1,-1,-1,-1
82,642,351,205,45,126,-1,-1,-1,-1
83,635,305,187,43,122,-1,-1,-1,-1
83,642,353,199,44,123,-1,-1,-1,-1
84,635,304,180,44,125,-1,-1,-1,-1
84,642,356,200,43,121,-1,-1,-1,-1
85,635,305,184,45,127,-1,-1,-1,-1
85,642,355,197,43,121,-1,-1,-1,-1
86,635,305,186,45,127,-1,-1,-1,-1
86,642,361,208,42,120,-1,-1,-1,-1
87,635,306,187,44,123,-1,-1,-1,-1
87,642,358,202,42,118,-1,-1,-1,-1
87,643,410,199,39,109,-1,-1,-1,-1
88,635,305,180,43,122,-1,-1,-1,-1
88,642,359,210,41,117,-1,-1,-1,-1
88,643,411,202,38,108,-1,-1,-1,-1
89,635,304,181,46,128,-1,-1,-1,-1
89,642,357,199,41,115,-1,-1,-1,-1
89,643,412,198,38,107,-1,-1,-1,-1
90,635,305,171,46,130,-1,-1,-1,-1
90,642,360,204,40,113,-1,-1,-1,-1
90,643,413,194,37,106,-1,-1,-1,-1
91,635,307,177,46,131,-1,-1,-1,-1
91,642,365,194,42,120,-1,-1,-1,-1
91,643,415,193,38,107,-1,-1,-1,-1
92,635,307,179,46,130,-1,-1,-1,-1
92,642,364,204,43,122,-1,-1,-1,-1
93,635,307,181,46,131,-1,-1,-1,-1
93,642,367,195,44,125,-1,-1,-1,-1
93,643,418,190,41,114,-1,-1,-1,-1
93,655,442,167,46,129,-1,-1,-1,-1
93,656,358,-7,177,296,-1,-1,-1,-1
94,635,307,171,46,131,-1,-1,-1,-1
94,642,367,194,45,126,-1,-1,-1,-1
94,643,417,190,41,115,-1,-1,-1,-1
94,655,441,178,45,126,-1,-1,-1,-1
94,656,366,-31,170,284,-1,-1,-1,-1
95,635,308,172,48,134,-1,-1,-1,-1
95,642,369,190,45,126,-1,-1,-1,-1
95,643,419,189,41,117,-1,-1,-1,-1
95,655,440,183,44,123,-1,-1,-1,-1
95,656,361,-5,173,288,-1,-1,-1,-1
96,635,310,169,48,135,-1,-1,-1,-1
96,642,368,192,45,126,-1,-1,-1,-1
96,656,366,-32,173,287,-1,-1,-1,-1
97,635,309,167,50,141,-1,-1,-1,-1
97,642,369,183,46,129,-1,-1,-1,-1
97,655,436,167,47,132,-1,-1,-1,-1
97,656,370,-34,170,282,-1,-1,-1,-1
98,635,309,158,51,143,-1,-1,-1,-1
98,642,368,190,46,128,-1,-1,-1,-1
98,655,444,168,47,133,-1,-1,-1,-1
99,635,309,169,48,136,-1,-1,-1,-1
99,642,368,185,46,129,-1,-1,-1,-1
99,655,437,165,47,133,-1,-1,-1,-1
100,635,311,162,47,133,-1,-1,-1,-1
100,642,366,186,45,128,-1,-1,-1,-1
100,655,425,170,47,132,-1,-1,-1,-1
101,635,312,168,47,133,-1,-1,-1,-1
101,642,369,184,45,126,-1,-1,-1,-1
101,655,429,168,48,135,-1,-1,-1,-1
102,635,313,158,47,133,-1,-1,-1,-1
102,642,369,187,44,124,-1,-1,-1,-1
102,655,423,170,48,136,-1,-1,-1,-1
103,635,310,164,49,138,-1,-1,-1,-1
103,642,369,181,45,127,-1,-1,-1,-1
103,655,428,167,49,138,-1,-1,-1,-1
104,635,308,159,49,139,-1,-1,-1,-1
104,642,367,181,45,127,-1,-1,-1,-1
104,655,420,167,49,138,-1,-1,-1,-1
105,635,308,169,48,135,-1,-1,-1,-1
105,642,365,177,47,134,-1,-1,-1,-1
105,655,425,164,50,140,-1,-1,-1,-1
106,635,306,172,47,133,-1,-1,-1,-1
106,642,365,170,48,136,-1,-1,-1,-1
106,655,420,166,50,140,-1,-1,-1,-1
107,635,307,176,46,131,-1,-1,-1,-1
107,642,364,176,48,135,-1,-1,-1,-1
107,655,427,167,49,139,-1,-1,-1,-1
108,635,304,170,46,129,-1,-1,-1,-1
108,642,359,175,48,134,-1,-1,-1,-1
108,655,417,171,49,138,-1,-1,-1,-1
109,635,302,174,47,134,-1,-1,-1,-1
109,642,353,181,47,132,-1,-1,-1,-1
109,655,424,168,52,145,-1,-1,-1,-1
110,635,302,173,48,134,-1,-1,-1,-1
110,642,349,183,47,131,-1,-1,-1,-1
110,655,415,167,52,147,-1,-1,-1,-1
111,635,305,177,47,131,-1,-1,-1,-1
111,642,349,183,47,132,-1,-1,-1,-1
111,655,424,166,51,143,-1,-1,-1,-1
111,658,93,211,28,79,-1,-1,-1,-1
112,635,304,168,46,129,-1,-1,-1,-1
112,642,352,182,47,131,-1,-1,-1,-1
112,655,418,169,50,140,-1,-1,-1,-1
112,658,88,218,28,79,-1,-1,-1,-1
113,635,304,173,47,132,-1,-1,-1,-1
113,642,351,180,46,130,-1,-1,-1,-1
113,655,427,164,52,148,-1,-1,-1,-1
113,658,84,223,28,80,-1,-1,-1,-1
113,659,511,175,52,138,-1,-1,-1,-1
114,635,305,164,47,133,-1,-1,-1,-1
114,642,350,179,46,129,-1,-1,-1,-1
114,655,419,163,53,149,-1,-1,-1,-1
114,659,518,184,53,138,-1,-1,-1,-1
115,635,304,170,48,136,-1,-1,-1,-1
115,642,348,178,46,131,-1,-1,-1,-1
115,655,426,163,54,151,-1,-1,-1,-1
115,659,512,184,50,131,-1,-1,-1,-1
115,660,133,176,41,116,-1,-1,-1,-1
116,635,304,168,48,135,-1,-1,-1,-1
116,642,346,184,46,131,-1,-1,-1,-1
116,655,422,169,53,151,-1,-1,-1,-1
116,659,516,187,49,128,-1,-1,-1,-1
116,660,133,159,42,117,-1,-1,-1,-1
117,635,302,174,48,136,-1,-1,-1,-1
117,642,347,185,45,128,-1,-1,-1,-1
117,655,427,168,56,157,-1,-1,-1,-1
117,658,57,188,44,125,-1,-1,-1,-1
117,659,511,187,48,125,-1,-1,-1,-1
117,660,123,170,46,128,-1,-1,-1,-1
117,661,534,190,51,125,-1,-1,-1,-1
118,635,302,163,48,135,-1,-1,-1,-1
118,642,345,194,45,126,-1,-1,-1,-1
118,655,425,166,56,158,-1,-1,-1,-1
118,658,55,172,45,128,-1,-1,-1,-1
118,659,507,166,47,123,-1,-1,-1,-1
118,660,128,158,47,132,-1,-1,-1,-1
118,661,543,198,49,120,-1,-1,-1,-1
119,635,302,175,46,130,-1,-1,-1,-1
119,642,345,191,44,124,-1,-1,-1,-1
119,655,430,168,57,160,-1,-1,-1,-1
119,658,42,182,45,128,-1,-1,-1,-1
119,659,506,162,46,121,-1,-1,-1,-1
119,660,116,169,49,139,-1,-1,-1,-1
119,661,532,190,51,124,-1,-1,-1,-1
120,635,298,170,45,126,-1,-1,-1,-1
120,642,343,200,43,121,-1,-1,-1,-1
120,655,424,166,57,160,-1,-1,-1,-1
120,658,32,180,45,127,-1,-1,-1,-1
120,660,116,171,50,141,-1,-1,-1,-1
120,661,535,191,51,124,-1,-1,-1,-1
121,635,291,179,41,117,-1,-1,-1,-1
121,642,340,193,43,122,-1,-1,-1,-1
121,655,429,167,58,162,-1,-1,-1,-1
121,658,21,184,48,135,-1,-1,-1,-1
121,660,98,175,50,142,-1,-1,-1,-1
121,661,513,183,56,135,-1,-1,-1,-1
122,635,284,176,40,112,-1,-1,-1,-1
122,642,330,200,43,121,-1,-1,-1,-1
122,655,417,171,57,162,-1,-1,-1,-1
122,658,3,177,48,136,-1,-1,-1,-1
122,660,90,173,50,140,-1,-1,-1,-1
122,661,503,179,57,138,-1,-1,-1,-1
123,635,278,177,44,125,-1,-1,-1,-1
123,642,322,192,44,123,-1,-1,-1,-1
123,643,341,194,42,118,-1,-1,-1,-1
123,655,416,171,58,164,-1,-1,-1,-1
123,658,-3,175,50,141,-1,-1,-1,-1
123,660,64,175,51,143,-1,-1,-1,-1
123,661,498,177,58,139,-1,-1,-1,-1
124,635,269,173,46,129,-1,-1,-1,-1
124,642,312,197,43,122,-1,-1,-1,-1
124,643,332,197,41,116,-1,-1,-1,-1
124,660,53,150,51,143,-1,-1,-1,-1
125,635,258,178,47,132,-1,-1,-1,-1
125,642,308,191,43,121,-1,-1,-1,-1
125,643,329,197,41,116,-1,-1,-1,-1
125,655,411,155,59,166,-1,-1,-1,-1
125,660,44,148,52,146,-1,-1,-1,-1
125,661,470,160,66,162,-1,-1,-1,-1
126,635,257,174,47,132,-1,-1,-1,-1
126,642,307,200,43,121,-1,-1,-1,-1
126,655,403,158,58,164,-1,-1,-1,-1
126,661,466,152,65,165,-1,-1,-1,-1
127,635,255,180,46,129,-1,-1,-1,-1
127,642,306,191,44,123,-1,-1,-1,-1
127,655,401,157,59,166,-1,-1,-1,-1
127,660,22,151,62,174,-1,-1,-1,-1
127,661,468,163,60,155,-1,-1,-1,-1
127,664,184,202,38,107,-1,-1,-1,-1
128,635,256,180,45,127,-1,-1,-1,-1
128,642,304,195,44,124,-1,-1,-1,-1
128,660,11,133,63,177,-1,-1,-1,-1
128,661,476,162,57,149,-1,-1,-1,-1
128,664,179,207,38,106,-1,-1,-1,-1
129,635,256,181,45,127,-1,-1,-1,-1
129,642,305,190,43,122,-1,-1,-1,-1
129,660,5,141,66,185,-1,-1,-1,-1
129,661,471,160,57,151,-1,-1,-1,-1
129,664,178,204,39,110,-1,-1,-1,-1
130,635,256,171,45,126,-1,-1,-1,-1
130,642,305,198,43,121,-1,-1,-1,-1
130,660,-4,119,66,186,-1,-1,-1,-1
130,664,172,203,39,111,-1,-1,-1,-1
131,635,255,174,46,128,-1,-1,-1,-1
131,642,304,189,44,124,-1,-1,-1,-1
131,660,-13,115,68,191,-1,-1,-1,-1
131,664,172,202,41,115,-1,-1,-1,-1
132,635,256,171,46,129,-1,-1,-1,-1
132,642,303,202,44,124,-1,-1,-1,-1
132,664,167,199,41,116,-1,-1,-1,-1
133,635,254,174,47,133,-1,-1,-1,-1
133,642,305,190,45,126,-1,-1,-1,-1
133,664,164,199,42,117,-1,-1,-1,-1
134,635,258,169,47,133,-1,-1,-1,-1
134,642,304,200,45,126,-1,-1,-1,-1
135,635,255,173,48,135,-1,-1,-1,-1
135,642,305,189,45,126,-1,-1,-1,-1
135,664,156,195,47,133,-1,-1,-1,-1
136,635,258,167,48,136,-1,-1,-1,-1
136,642,307,190,44,125,-1,-1,-1,-1
136,664,155,207,48,136,-1,-1,-1,-1
137,635,255,169,49,139,-1,-1,-1,-1
137,642,307,185,45,127,-1,-1,-1,-1
137,664,150,190,54,153,-1,-1,-1,-1
138,635,252,163,49,139,-1,-1,-1,-1
138,642,304,187,45,127,-1,-1,-1,-1
138,664,142,191,56,158,-1,-1,-1,-1
139,635,253,172,46,129,-1,-1,-1,-1
139,642,305,186,44,125,-1,-1,-1,-1
139,664,141,187,60,169,-1,-1,-1,-1
140,635,254,165,44,125,-1,-1,-1,-1
140,642,305,186,44,125,-1,-1,-1,-1
140,664,134,197,61,173,-1,-1,-1,-1
141,635,252,173,44,125,-1,-1,-1,-1
141,642,305,186,45,126,-1,-1,-1,-1
141,664,120,190,64,181,-1,-1,-1,-1
142,635,254,164,44,125,-1,-1,-1,-1
142,642,303,186,45,126,-1,-1,-1,-1
142,664,115,191,65,182,-1,-1,-1,-1
143,635,252,170,46,131,-1,-1,-1,-1
143,642,305,185,46,128,-1,-1,-1,-1
143,664,106,181,71,200,-1,-1,-1,-1
143,669,145,198,56,159,-1,-1,-1,-1
144,635,251,167,47,132,-1,-1,-1,-1
144,642,304,192,46,129,-1,-1,-1,-1
144,664,99,185,73,205,-1,-1,-1,-1
144,669,143,208,57,159,-1,-1,-1,-1
145,635,251,172,47,134,-1,-1,-1,-1
145,642,305,188,45,128,-1,-1,-1,-1
145,664,95,169,79,223,-1,-1,-1,-1
145,669,143,207,57,161,-1,-1,-1,-1
146,635,252,167,47,134,-1,-1,-1,-1
146,642,305,178,45,128,-1,-1,-1,-1
146,664,85,178,81,228,-1,-1,-1,-1
147,635,252,171,48,134,-1,-1,-1,-1
147,642,307,180,46,130,-1,-1,-1,-1
147,664,67,156,93,262,-1,-1,-1,-1
148,635,254,166,47,134,-1,-1,-1,-1
148,642,305,179,46,130,-1,-1,-1,-1
148,664,56,133,97,271,-1,-1,-1,-1
149,635,254,172,48,134,-1,-1,-1,-1
149,642,306,181,47,134,-1,-1,-1,-1
149,655,346,181,45,127,-1,-1,-1,-1
149,664,32,111,116,325,-1,-1,-1,-1
150,635,254,169,47,134,-1,-1,-1,-1
150,642,305,176,48,134,-1,-1,-1,-1
150,655,345,176,44,125,-1,-1,-1,-1
150,664,10,46,124,348,-1,-1,-1,-1
151,635,253,176,48,135,-1,-1,-1,-1
151,642,306,180,48,136,-1,-1,-1,-1
151,655,343,176,44,123,-1,-1,-1,-1
151,664,26,88,122,343,-1,-1,-1,-1
152,635,255,172,48,135,-1,-1,-1,-1
152,642,306,174,48,135,-1,-1,-1,-1
152,664,13,62,119,335,-1,-1,-1,-1
153,635,254,177,48,134,-1,-1,-1,-1
153,642,307,180,47,133,-1,-1,-1,-1
153,664,4,46,137,383,-1,-1,-1,-1
154,635,253,174,47,134,-1,-1,-1,-1
154,642,306,177,47,131,-1,-1,-1,-1
154,664,-14,-39,142,398,-1,-1,-1,-1
155,635,254,181,44,123,-1,-1,-1,-1
155,642,306,180,48,134,-1,-1,-1,-1
155,661,439,166,54,149,-1,-1,-1,-1
155,664,-22,-53,147,411,-1,-1,-1,-1
156,635,256,169,42,119,-1,-1,-1,-1
156,642,307,175,48,135,-1,-1,-1,-1
156,661,437,161,52,146,-1,-1,-1,-1
157,635,252,179,44,125,-1,-1,-1,-1
157,642,306,181,49,138,-1,-1,-1,-1
157,661,456,180,49,139,-1,-1,-1,-1
158,635,255,169,45,126,-1,-1,-1,-1
158,642,308,176,49,138,-1,-1,-1,-1
158,661,464,196,48,135,-1,-1,-1,-1
159,635,253,177,48,135,-1,-1,-1,-1
159,642,307,184,49,139,-1,-1,-1,-1
159,661,468,189,51,143,-1,-1,-1,-1
160,635,254,167,49,137,-1,-1,-1,-1
160,642,308,179,49,139,-1,-1,-1,-1
160,661,471,191,51,144,-1,-1,-1,-1
161,635,255,177,45,126,-1,-1,-1,-1
161,642,307,186,47,133,-1,-1,-1,-1
161,661,474,194,51,144,-1,-1,-1,-1
162,635,258,166,43,121,-1,-1,-1,-1
162,642,310,185,46,130,-1,-1,-1,-1
163,635,256,171,48,136,-1,-1,-1,-1
163,642,309,188,46,131,-1,-1,-1,-1
164,635,260,166,50,141,-1,-1,-1,-1
164,642,311,185,46,130,-1,-1,-1,-1
165,635,261,171,52,147,-1,-1,-1,-1
165,642,312,189,46,129,-1,-1,-1,-1
166,635,262,164,52,148,-1,-1,-1,-1
166,642,314,195,46,128,-1,-1,-1,-1
167,635,262,168,54,151,-1,-1,-1,-1
167,642,321,206,40,113,-1,-1,-1,-1
168,635,266,164,54,151,-1,-1,-1,-1
168,642,322,209,37,106,-1,-1,-1,-1
169,635,266,166,54,152,-1,-1,-1,-1
169,642,320,198,41,117,-1,-1,-1,-1
169,661,476,183,47,133,-1,-1,-1,-1
169,673,25,217,23,63,-1,-1,-1,-1
170,635,266,159,54,151,-1,-1,-1,-1
170,642,319,195,43,120,-1,-1,-1,-1
170,661,474,174,47,133,-1,-1,-1,-1
170,673,23,214,22,62,-1,-1,-1,-1
171,635,264,160,56,157,-1,-1,-1,-1
171,642,318,184,46,129,-1,-1,-1,-1
171,661,475,173,47,132,-1,-1,-1,-1
171,673,22,213,22,60,-1,-1,-1,-1
171,675,92,177,42,119,-1,-1,-1,-1
172,635,262,149,56,159,-1,-1,-1,-1
172,642,316,182,47,131,-1,-1,-1,-1
172,675,87,175,43,121,-1,-1,-1,-1
173,635,264,160,51,142,-1,-1,-1,-1
173,642,315,178,48,136,-1,-1,-1,-1
173,675,81,174,45,126,-1,-1,-1,-1
173,676,220,220,14,41,-1,-1,-1,-1
173,677,166,191,37,104,-1,-1,-1,-1
174,635,267,163,48,135,-1,-1,-1,-1
174,642,316,180,49,137,-1,-1,-1,-1
174,675,75,179,45,128,-1,-1,-1,-1
174,676,220,221,14,41,-1,-1,-1,-1
174,677,168,185,38,106,-1,-1,-1,-1
175,635,266,161,51,143,-1,-1,-1,-1
175,642,313,176,50,140,-1,-1,-1,-1
175,675,70,172,46,128,-1,-1,-1,-1
175,676,220,222,14,40,-1,-1,-1,-1
175,677,168,183,39,109,-1,-1,-1,-1
176,635,265,156,51,143,-1,-1,-1,-1
176,642,316,177,50,141,-1,-1,-1,-1
176,675,69,168,46,129,-1,-1,-1,-1
177,635,265,157,54,151,-1,-1,-1,-1
177,642,314,178,50,140,-1,-1,-1,-1
177,675,59,161,50,141,-1,-1,-1,-1
177,677,159,186,40,112,-1,-1,-1,-1
178,635,265,149,54,152,-1,-1,-1,-1
178,642,320,159,49,138,-1,-1,-1,-1
178,675,55,160,51,144,-1,-1,-1,-1
178,677,157,185,40,113,-1,-1,-1,-1
179,635,264,155,53,150,-1,-1,-1,-1
179,642,315,163,50,140,-1,-1,-1,-1
179,675,47,152,56,159,-1,-1,-1,-1
179,677,156,187,42,120,-1,-1,-1,-1
180,635,267,151,53,148,-1,-1,-1,-1
180,642,317,149,50,140,-1,-1,-1,-1
180,675,44,153,58,163,-1,-1,-1,-1
180,677,152,182,43,122,-1,-1,-1,-1
181,635,269,156,52,147,-1,-1,-1,-1
181,642,312,160,50,140,-1,-1,-1,-1
181,675,35,149,61,171,-1,-1,-1,-1
181,677,151,183,46,130,-1,-1,-1,-1
182,635,272,152,52,145,-1,-1,-1,-1
182,642,313,158,49,139,-1,-1,-1,-1
182,675,31,140,61,172,-1,-1,-1,-1
182,677,150,169,47,132,-1,-1,-1,-1
183,635,271,159,52,147,-1,-1,-1,-1
183,642,312,164,49,138,-1,-1,-1,-1
183,675,23,142,65,182,-1,-1,-1,-1
183,677,149,176,48,134,-1,-1,-1,-1
184,635,272,154,52,146,-1,-1,-1,-1
184,642,315,167,48,135,-1,-1,-1,-1
184,675,15,139,66,184,-1,-1,-1,-1
184,677,145,169,48,134,-1,-1,-1,-1
185,635,272,162,52,146,-1,-1,-1,-1
185,642,313,172,47,134,-1,-1,-1,-1
185,675,4,132,70,198,-1,-1,-1,-1
185,677,143,174,52,146,-1,-1,-1,-1
186,635,269,158,51,144,-1,-1,-1,-1
186,642,315,174,47,132,-1,-1,-1,-1
186,675,-8,122,71,200,-1,-1,-1,-1
186,677,140,164,53,150,-1,-1,-1,-1
187,635,271,161,50,142,-1,-1,-1,-1
187,642,317,182,44,124,-1,-1,-1,-1
187,675,-14,119,73,205,-1,-1,-1,-1
187,677,136,164,60,168,-1,-1,-1,-1
188,635,267,156,50,141,-1,-1,-1,-1
188,642,316,192,43,120,-1,-1,-1,-1
188,677,130,151,62,174,-1,-1,-1,-1
189,635,271,160,47,133,-1,-1,-1,-1
189,642,316,185,45,126,-1,-1,-1,-1
189,677,128,149,63,178,-1,-1,-1,-1
190,635,273,165,46,129,-1,-1,-1,-1
190,642,315,186,45,128,-1,-1,-1,-1
191,635,274,168,48,135,-1,-1,-1,-1
191,642,313,179,48,137,-1,-1,-1,-1
191,675,29,134,80,224,-1,-1,-1,-1
191,677,113,142,78,219,-1,-1,-1,-1
192,635,273,152,48,136,-1,-1,-1,-1
192,642,315,182,49,139,-1,-1,-1,-1
192,675,23,127,80,225,-1,-1,-1,-1
192,677,110,131,80,225,-1,-1,-1,-1
193,635,277,164,49,139,-1,-1,-1,-1
193,642,314,176,50,141,-1,-1,-1,-1
193,675,15,121,87,244,-1,-1,-1,-1
193,677,103,136,85,238,-1,-1,-1,-1
194,635,273,153,50,140,-1,-1,-1,-1
194,642,316,176,50,141,-1,-1,-1,-1
194,675,1,127,89,250,-1,-1,-1,-1
194,677,96,133,86,242,-1,-1,-1,-1
195,635,273,163,52,146,-1,-1,-1,-1
195,642,313,175,50,142,-1,-1,-1,-1
195,675,-1,125,91,256,-1,-1,-1,-1
195,677,91,134,95,266,-1,-1,-1,-1
196,635,273,159,52,147,-1,-1,-1,-1
196,642,316,178,50,141,-1,-1,-1,-1
196,677,79,111,97,272,-1,-1,-1,-1
197,635,275,166,52,145,-1,-1,-1,-1
197,642,315,176,48,135,-1,-1,-1,-1
197,677,69,111,106,297,-1,-1,-1,-1
198,635,273,165,51,145,-1,-1,-1,-1
198,642,315,178,47,133,-1,-1,-1,-1
198,677,65,47,108,303,-1,-1,-1,-1
199,635,272,165,53,149,-1,-1,-1,-1
199,642,311,168,52,146,-1,-1,-1,-1
199,677,38,61,126,353,-1,-1,-1,-1
200,635,274,159,53,149,-1,-1,-1,-1
200,642,309,166,53,150,-1,-1,-1,-1
200,677,16,26,133,374,-1,-1,-1,-1
201,635,272,165,54,152,-1,-1,-1,-1
201,642,313,167,54,151,-1,-1,-1,-1
201,677,4,36,141,397,-1,-1,-1,-1
202,635,274,168,54,152,-1,-1,-1,-1
202,642,318,170,53,150,-1,-1,-1,-1
202,677,-16,-13,144,404,-1,-1,-1,-1
203,635,272,170,53,149,-1,-1,-1,-1
203,642,319,173,51,144,-1,-1,-1,-1
203,677,-16,8,150,422,-1,-1,-1,-1
203,680,121,168,55,154,-1,-1,-1,-1
204,635,270,161,52,146,-1,-1,-1,-1
204,642,318,175,50,141,-1,-1,-1,-1
204,677,-39,-28,150,421,-1,-1,-1,-1
204,680,121,159,53,149,-1,-1,-1,-1
205,635,269,165,50,142,-1,-1,-1,-1
205,642,318,176,48,137,-1,-1,-1,-1
205,677,-48,-38,155,434,-1,-1,-1,-1
205,680,114,167,55,155,-1,-1,-1,-1
206,635,269,160,50,140,-1,-1,-1,-1
206,642,316,167,48,134,-1,-1,-1,-1
206,680,113,150,55,154,-1,-1,-1,-1
207,635,270,168,49,139,-1,-1,-1,-1
207,642,317,172,48,135,-1,-1,-1,-1
207,680,111,148,54,153,-1,-1,-1,-1
208,635,271,166,49,138,-1,-1,-1,-1
208,642,320,174,48,135,-1,-1,-1,-1
209,635,271,174,50,141,-1,-1,-1,-1
209,642,321,181,47,134,-1,-1,-1,-1
209,680,87,181,56,157,-1,-1,-1,-1
210,635,272,170,51,142,-1,-1,-1,-1
210,642,320,176,47,133,-1,-1,-1,-1
210,680,84,179,56,156,-1,-1,-1,-1
211,635,272,175,52,147,-1,-1,-1,-1
211,642,328,182,47,133,-1,-1,-1,-1
211,680,81,177,59,166,-1,-1,-1,-1
212,635,274,169,53,148,-1,-1,-1,-1
212,642,327,178,47,132,-1,-1,-1,-1
212,680,82,159,60,168,-1,-1,-1,-1
213,635,276,171,52,147,-1,-1,-1,-1
213,642,331,181,47,133,-1,-1,-1,-1
213,680,76,164,62,173,-1,-1,-1,-1
214,635,277,165,52,147,-1,-1,-1,-1
214,642,330,175,47,133,-1,-1,-1,-1
214,680,73,159,62,173,-1,-1,-1,-1
215,635,279,171,49,139,-1,-1,-1,-1
215,642,331,177,48,135,-1,-1,-1,-1
215,680,57,151,66,186,-1,-1,-1,-1
216,635,283,171,48,135,-1,-1,-1,-1
216,642,330,170,48,135,-1,-1,-1,-1
216,680,53,141,67,189,-1,-1,-1,-1
217,635,282,175,50,141,-1,-1,-1,-1
217,642,332,179,48,134,-1,-1,-1,-1
217,680,48,148,64,179,-1,-1,-1,-1
218,635,286,168,50,142,-1,-1,-1,-1
218,642,335,176,47,134,-1,-1,-1,-1
218,680,43,152,62,175,-1,-1,-1,-1
219,635,286,173,50,142,-1,-1,-1,-1
219,642,338,179,48,136,-1,-1,-1,-1
219,680,44,156,57,162,-1,-1,-1,-1
220,635,289,169,50,141,-1,-1,-1,-1
220,642,337,174,48,135,-1,-1,-1,-1
220,680,38,160,56,156,-1,-1,-1,-1
221,635,286,172,52,146,-1,-1,-1,-1
221,642,338,178,48,134,-1,-1,-1,-1
221,680,33,161,55,156,-1,-1,-1,-1
222,635,288,166,52,146,-1,-1,-1,-1
222,642,338,174,47,132,-1,-1,-1,-1
223,635,287,169,48,137,-1,-1,-1,-1
223,642,339,174,48,136,-1,-1,-1,-1
224,635,290,167,47,132,-1,-1,-1,-1
224,642,341,177,48,137,-1,-1,-1,-1
225,635,287,174,49,138,-1,-1,-1,-1
225,642,340,178,49,139,-1,-1,-1,-1
226,635,289,169,49,139,-1,-1,-1,-1
226,642,338,178,50,140,-1,-1,-1,-1
227,635,287,176,48,136,-1,-1,-1,-1
227,642,338,180,50,140,-1,-1,-1,-1
227,684,213,214,29,83,-1,-1,-1,-1
228,635,293,171,48,135,-1,-1,-1,-1
228,642,339,171,49,139,-1,-1,-1,-1
228,684,208,209,29,82,-1,-1,-1,-1
229,635,294,172,48,135,-1,-1,-1,-1
229,642,340,180,48,136,-1,-1,-1,-1
229,684,213,213,29,82,-1,-1,-1,-1
230,642,341,174,47,133,-1,-1,-1,-1
230,684,205,210,29,81,-1,-1,-1,-1
231,642,340,177,47,133,-1,-1,-1,-1
231,684,194,209,29,82,-1,-1,-1,-1
232,642,342,171,47,131,-1,-1,-1,-1
232,684,191,205,29,81,-1,-1,-1,-1
233,635,289,175,51,142,-1,-1,-1,-1
233,642,341,179,46,130,-1,-1,-1,-1
233,684,184,205,31,86,-1,-1,-1,-1
234,635,296,168,50,140,-1,-1,-1,-1
234,642,342,175,45,128,-1,-1,-1,-1
234,684,183,203,31,87,-1,-1,-1,-1
235,635,297,173,50,142,-1,-1,-1,-1
235,642,342,183,46,130,-1,-1,-1,-1
235,684,180,201,31,89,-1,-1,-1,-1
235,687,94,194,38,106,-1,-1,-1,-1
236,635,301,171,50,141,-1,-1,-1,-1
236,642,344,176,46,129,-1,-1,-1,-1
236,687,94,185,40,114,-1,-1,-1,-1
237,635,294,178,47,131,-1,-1,-1,-1
237,642,341,185,46,130,-1,-1,-1,-1
237,687,90,187,42,118,-1,-1,-1,-1
238,635,294,175,45,126,-1,-1,-1,-1
238,642,341,177,46,129,-1,-1,-1,-1
238,687,86,181,42,119,-1,-1,-1,-1
239,635,294,175,44,125,-1,-1,-1,-1
239,642,339,181,46,129,-1,-1,-1,-1
239,687,73,180,45,127,-1,-1,-1,-1
240,642,340,173,45,127,-1,-1,-1,-1
240,687,71,179,46,129,-1,-1,-1,-1
241,635,308,183,44,124,-1,-1,-1,-1
241,642,337,185,45,127,-1,-1,-1,-1
241,687,63,175,49,138,-1,-1,-1,-1
242,635,308,179,43,123,-1,-1,-1,-1
242,642,338,179,45,126,-1,-1,-1,-1
242,687,59,166,50,141,-1,-1,-1,-1
243,635,296,186,43,120,-1,-1,-1,-1
243,642,337,188,46,128,-1,-1,-1,-1
243,687,50,168,53,149,-1,-1,-1,-1
243,688,119,177,49,138,-1,-1,-1,-1
244,635,296,180,42,119,-1,-1,-1,-1
244,642,340,195,45,128,-1,-1,-1,-1
244,687,41,174,53,150,-1,-1,-1,-1
244,688,116,181,49,138,-1,-1,-1,-1
245,635,305,186,43,123,-1,-1,-1,-1
245,642,336,196,45,128,-1,-1,-1,-1
245,687,33,174,54,153,-1,-1,-1,-1
245,688,110,181,52,146,-1,-1,-1,-1
246,635,304,184,44,123,-1,-1,-1,-1
246,642,336,187,45,128,-1,-1,-1,-1
246,687,22,169,54,153,-1,-1,-1,-1
246,688,108,186,52,146,-1,-1,-1,-1
247,635,304,185,43,122,-1,-1,-1,-1
247,642,337,186,45,127,-1,-1,-1,-1
247,684,119,180,51,145,-1,-1,-1,-1
247,687,14,165,59,165,-1,-1,-1,-1
247,688,94,175,57,159,-1,-1,-1,-1
248,642,338,179,45,126,-1,-1,-1,-1
248,684,117,171,52,146,-1,-1,-1,-1
248,687,7,159,60,169,-1,-1,-1,-1
248,688,91,175,58,162,-1,-1,-1,-1
249,635,292,187,44,123,-1,-1,-1,-1
249,642,337,186,43,122,-1,-1,-1,-1
249,684,116,175,55,154,-1,-1,-1,-1
249,687,0,162,61,172,-1,-1,-1,-1
249,688,79,170,59,165,-1,-1,-1,-1
249,690,208,218,38,107,-1,-1,-1,-1
250,635,293,182,43,121,-1,-1,-1,-1
250,642,336,181,42,120,-1,-1,-1,-1
250,684,109,169,55,155,-1,-1,-1,-1
250,687,-13,158,60,170,-1,-1,-1,-1
250,688,70,149,58,165,-1,-1,-1,-1
250,690,205,209,39,110,-1,-1,-1,-1
251,635,289,185,44,125,-1,-1,-1,-1
251,642,335,189,43,121,-1,-1,-1,-1
251,684,106,166,59,166,-1,-1,-1,-1
251,687,-8,165,59,165,-1,-1,-1,-1
251,688,54,155,61,172,-1,-1,-1,-1
251,690,195,195,46,129,-1,-1,-1,-1
252,635,290,181,44,124,-1,-1,-1,-1
252,642,334,185,43,121,-1,-1,-1,-1
252,684,105,162,60,169,-1,-1,-1,-1
252,687,-10,165,57,160,-1,-1,-1,-1
252,688,50,130,62,174,-1,-1,-1,-1
252,690,194,196,48,134,-1,-1,-1,-1
253,635,288,187,44,125,-1,-1,-1,-1
253,642,335,188,43,122,-1,-1,-1,-1
253,684,91,163,62,175,-1,-1,-1,-1
253,687,-16,164,58,164,-1,-1,-1,-1
253,688,44,149,65,184,-1,-1,-1,-1
253,690,188,188,50,140,-1,-1,-1,-1
254,635,288,181,44,125,-1,-1,-1,-1
254,642,335,185,43,122,-1,-1,-1,-1
254,684,77,157,62,176,-1,-1,-1,-1
254,688,38,148,66,185,-1,-1,-1,-1
254,690,187,187,50,141,-1,-1,-1,-1
255,635,286,183,44,124,-1,-1,-1,-1
255,642,333,188,43,121,-1,-1,-1,-1
255,684,71,154,67,188,-1,-1,-1,-1
255,688,31,146,67,189,-1,-1,-1,-1
255,690,182,184,52,146,-1,-1,-1,-1
256,635,287,178,44,123,-1,-1,-1,-1
256,642,332,184,43,120,-1,-1,-1,-1
256,684,64,154,67,190,-1,-1,-1,-1
256,690,184,181,52,147,-1,-1,-1,-1
257,635,287,184,40,112,-1,-1,-1,-1
257,642,333,192,40,113,-1,-1,-1,-1
257,684,52,157,71,199,-1,-1,-1,-1
257,690,179,181,52,146,-1,-1,-1,-1
258,635,290,182,38,107,-1,-1,-1,-1
258,642,332,194,39,110,-1,-1,-1,-1
258,684,46,149,72,202,-1,-1,-1,-1
258,690,180,182,51,145,-1,-1,-1,-1
259,635,286,186,41,116,-1,-1,-1,-1
259,642,326,195,41,115,-1,-1,-1,-1
259,684,39,155,75,210,-1,-1,-1,-1
259,690,177,181,50,142,-1,-1,-1,-1
260,635,285,181,42,118,-1,-1,-1,-1
260,642,326,188,41,117,-1,-1,-1,-1
260,684,37,130,75,211,-1,-1,-1,-1
260,690,174,186,50,140,-1,-1,-1,-1
261,635,285,190,42,118,-1,-1,-1,-1
261,642,323,193,43,121,-1,-1,-1,-1
261,684,39,160,66,185,-1,-1,-1,-1
261,690,171,182,53,148,-1,-1,-1,-1
262,635,285,189,41,117,-1,-1,-1,-1
262,642,324,196,43,121,-1,-1,-1,-1
262,684,28,156,62,174,-1,-1,-1,-1
262,690,167,198,53,150,-1,-1,-1,-1
263,635,284,190,42,118,-1,-1,-1,-1
263,642,324,196,40,114,-1,-1,-1,-1
263,684,7,154,79,222,-1,-1,-1,-1
263,690,155,182,64,180,-1,-1,-1,-1
264,635,285,186,42,118,-1,-1,-1,-1
264,642,327,184,39,110,-1,-1,-1,-1
264,684,-6,136,83,234,-1,-1,-1,-1
264,690,154,186,67,188,-1,-1,-1,-1
265,635,283,185,43,122,-1,-1,-1,-1
265,642,325,188,42,118,-1,-1,-1,-1
265,684,-14,133,86,242,-1,-1,-1,-1
265,690,148,181,68,190,-1,-1,-1,-1
266,635,284,179,44,124,-1,-1,-1,-1
266,642,325,180,42,119,-1,-1,-1,-1
266,690,147,192,67,187,-1,-1,-1,-1
267,635,279,180,45,128,-1,-1,-1,-1
267,642,326,187,42,119,-1,-1,-1,-1
267,690,141,180,72,203,-1,-1,-1,-1
268,635,278,172,46,130,-1,-1,-1,-1
268,642,327,184,42,119,-1,-1,-1,-1
268,690,143,175,74,208,-1,-1,-1,-1
269,635,276,179,46,130,-1,-1,-1,-1
269,642,327,191,42,118,-1,-1,-1,-1
269,690,136,171,77,216,-1,-1,-1,-1
270,635,274,174,46,131,-1,-1,-1,-1
270,642,325,179,42,117,-1,-1,-1,-1
270,690,138,177,77,218,-1,-1,-1,-1
271,635,274,178,46,129,-1,-1,-1,-1
271,642,323,188,42,119,-1,-1,-1,-1
271,690,127,165,81,227,-1,-1,-1,-1
272,635,275,173,45,128,-1,-1,-1,-1
272,642,323,176,42,119,-1,-1,-1,-1
272,690,130,182,81,229,-1,-1,-1,-1
273,635,272,169,49,139,-1,-1,-1,-1
273,642,320,182,44,123,-1,-1,-1,-1
273,690,118,161,84,235,-1,-1,-1,-1
274,635,269,160,51,144,-1,-1,-1,-1
274,642,318,168,44,124,-1,-1,-1,-1
274,690,115,155,84,236,-1,-1,-1,-1
275,635,269,165,51,145,-1,-1,-1,-1
275,642,318,180,44,125,-1,-1,-1,-1
275,690,96,142,97,271,-1,-1,-1,-1
276,635,268,161,52,145,-1,-1,-1,-1
276,642,319,169,44,125,-1,-1,-1,-1
276,690,85,126,101,283,-1,-1,-1,-1
277,635,269,169,50,142,-1,-1,-1,-1
277,642,317,181,45,127,-1,-1,-1,-1
277,690,79,122,104,292,-1,-1,-1,-1
278,635,267,163,49,139,-1,-1,-1,-1
278,642,315,178,45,127,-1,-1,-1,-1
279,635,269,170,49,138,-1,-1,-1,-1
279,642,317,183,46,129,-1,-1,-1,-1
279,690,46,127,110,308,-1,-1,-1,-1
280,635,268,164,48,137,-1,-1,-1,-1
280,642,320,173,46,130,-1,-1,-1,-1
280,690,32,86,112,314,-1,-1,-1,-1
281,635,269,168,50,141,-1,-1,-1,-1
281,642,321,181,44,124,-1,-1,-1,-1
281,690,15,87,122,341,-1,-1,-1,-1
282,635,269,160,51,143,-1,-1,-1,-1
282,642,325,168,43,120,-1,-1,-1,-1
282,690,0,48,125,351,-1,-1,-1,-1
283,635,268,166,52,146,-1,-1,-1,-1
283,642,325,178,43,120,-1,-1,-1,-1
283,690,-10,39,128,360,-1,-1,-1,-1
284,635,266,151,52,147,-1,-1,-1,-1
284,642,325,167,42,119,-1,-1,-1,-1
285,635,270,169,51,143,-1,-1,-1,-1
285,642,327,181,43,121,-1,-1,-1,-1
286,635,273,166,50,141,-1,-1,-1,-1
286,642,328,181,43,122,-1,-1,-1,-1
287,635,274,175,49,138,-1,-1,-1,-1
287,642,330,185,44,125,-1,-1,-1,-1
287,697,539,195,50,141,-1,-1,-1,-1
288,635,279,173,48,137,-1,-1,-1,-1
288,642,334,178,45,126,-1,-1,-1,-1
288,697,549,187,50,142,-1,-1,-1,-1
289,635,279,176,49,139,-1,-1,-1,-1
289,642,337,184,47,134,-1,-1,-1,-1
289,697,553,185,51,144,-1,-1,-1,-1
290,635,285,169,50,140,-1,-1,-1,-1
290,642,345,169,48,136,-1,-1,-1,-1
291,635,289,173,50,140,-1,-1,-1,-1
291,642,349,175,49,138,-1,-1,-1,-1
292,635,295,169,49,139,-1,-1,-1,-1
292,642,350,161,49,138,-1,-1,-1,-1
293,635,297,171,52,146,-1,-1,-1,-1
293,642,352,173,49,139,-1,-1,-1,-1
294,635,299,156,53,148,-1,-1,-1,-1
294,642,354,162,49,139,-1,-1,-1,-1
295,635,303,168,52,146,-1,-1,-1,-1
295,642,361,174,49,138,-1,-1,-1,-1
296,635,308,166,51,144,-1,-1,-1,-1
296,642,366,161,49,137,-1,-1,-1,-1
297,635,310,171,51,143,-1,-1,-1,-1
297,642,369,171,51,145,-1,-1,-1,-1
298,635,314,167,50,142,-1,-1,-1,-1
298,642,376,155,52,147,-1,-1,-1,-1
299,635,317,172,51,142,-1,-1,-1,-1
299,642,375,166,54,151,-1,-1,-1,-1
299,700,249,219,18,52,-1,-1,-1,-1
300,635,322,157,50,141,-1,-1,-1,-1
300,642,381,153,53,151,-1,-1,-1,-1
300,700,245,215,18,52,-1,-1,-1,-1
301,635,326,166,53,149,-1,-1,-1,-1
301,642,381,167,52,147,-1,-1,-1,-1
301,700,243,213,19,53,-1,-1,-1,-1
301,701,226,215,22,62,-1,-1,-1,-1
302,635,329,165,53,149,-1,-1,-1,-1
302,642,385,156,51,144,-1,-1,-1,-1
302,701,228,216,22,63,-1,-1,-1,-1
303,635,333,171,51,145,-1,-1,-1,-1
303,642,389,172,51,143,-1,-1,-1,-1
303,701,229,217,22,63,-1,-1,-1,-1
304,635,337,164,51,143,-1,-1,-1,-1
304,642,394,161,50,141,-1,-1,-1,-1
305,635,340,171,52,145,-1,-1,-1,-1
305,642,397,175,49,137,-1,-1,-1,-1
305,697,590,190,47,132,-1,-1,-1,-1
305,702,249,214,19,55,-1,-1,-1,-1
306,635,346,166,52,147,-1,-1,-1,-1
306,642,402,162,48,135,-1,-1,-1,-1
306,697,598,166,46,129,-1,-1,-1,-1
306,702,253,213,19,55,-1,-1,-1,-1
307,635,355,176,42,118,-1,-1,-1,-1
307,642,407,174,49,138,-1,-1,-1,-1
307,697,597,183,46,130,-1,-1,-1,-1
307,702,255,214,20,56,-1,-1,-1,-1
308,635,365,173,38,106,-1,-1,-1,-1
308,642,419,162,49,137,-1,-1,-1,-1
308,697,599,185,45,128,-1,-1,-1,-1
309,635,367,171,48,136,-1,-1,-1,-1
309,642,427,171,45,127,-1,-1,-1,-1
309,697,602,185,45,128,-1,-1,-1,-1
310,635,370,162,51,144,-1,-1,-1,-1
310,642,432,166,44,123,-1,-1,-1,-1
311,635,370,170,53,150,-1,-1,-1,-1
311,642,431,178,48,135,-1,-1,-1,-1
312,635,374,169,54,151,-1,-1,-1,-1
312,642,433,166,49,139,-1,-1,-1,-1
313,635,375,171,54,153,-1,-1,-1,-1
313,642,435,174,52,147,-1,-1,-1,-1
314,635,380,167,55,154,-1,-1,-1,-1
314,642,438,159,53,151,-1,-1,-1,-1
315,635,384,172,54,152,-1,-1,-1,-1
315,642,439,168,54,152,-1,-1,-1,-1
316,635,389,166,53,151,-1,-1,-1,-1
316,642,443,153,54,151,-1,-1,-1,-1
317,635,388,171,54,152,-1,-1,-1,-1
317,642,445,162,55,155,-1,-1,-1,-1
318,635,392,166,54,152,-1,-1,-1,-1
318,642,449,148,55,155,-1,-1,-1,-1
319,635,394,171,55,154,-1,-1,-1,-1
319,642,451,167,55,154,-1,-1,-1,-1
320,635,395,166,55,154,-1,-1,-1,-1
320,642,455,156,54,152,-1,-1,-1,-1
321,635,395,169,57,160,-1,-1,-1,-1
321,642,456,170,54,153,-1,-1,-1,-1
322,635,398,165,58,162,-1,-1,-1,-1
322,642,459,159,54,153,-1,-1,-1,-1
323,635,397,170,57,162,-1,-1,-1,-1
323,642,459,171,55,154,-1,-1,-1,-1
324,635,400,165,57,160,-1,-1,-1,-1
324,642,463,157,54,153,-1,-1,-1,-1
325,635,400,171,56,158,-1,-1,-1,-1
325,642,460,168,57,160,-1,-1,-1,-1
325,708,219,199,37,104,-1,-1,-1,-1
325,711,248,211,30,86,-1,-1,-1,-1
326,635,405,171,55,155,-1,-1,-1,-1
326,642,464,154,57,162,-1,-1,-1,-1
326,708,212,206,37,106,-1,-1,-1,-1
326,711,246,211,31,87,-1,-1,-1,-1
327,635,403,174,55,156,-1,-1,-1,-1
327,642,462,167,59,165,-1,-1,-1,-1
327,708,223,206,35,100,-1,-1,-1,-1
327,711,246,204,32,92,-1,-1,-1,-1
328,635,408,166,55,155,-1,-1,-1,-1
328,642,461,153,59,166,-1,-1,-1,-1
328,708,235,206,34,96,-1,-1,-1,-1
328,711,242,204,33,92,-1,-1,-1,-1
329,635,406,171,57,159,-1,-1,-1,-1
329,642,466,169,59,165,-1,-1,-1,-1
329,708,238,207,34,97,-1,-1,-1,-1
329,711,241,202,33,94,-1,-1,-1,-1
330,635,408,167,57,160,-1,-1,-1,-1
330,642,470,159,58,163,-1,-1,-1,-1
331,635,408,171,55,153,-1,-1,-1,-1
331,642,470,167,58,164,-1,-1,-1,-1
331,711,232,196,41,116,-1,-1,-1,-1
331,713,187,197,42,117,-1,-1,-1,-1
332,635,408,155,55,151,-1,-1,-1,-1
332,642,473,153,58,163,-1,-1,-1,-1
332,711,230,183,42,118,-1,-1,-1,-1
332,713,188,197,41,117,-1,-1,-1,-1
333,635,406,167,55,152,-1,-1,-1,-1
333,642,469,164,58,164,-1,-1,-1,-1
333,711,222,185,46,128,-1,-1,-1,-1
333,713,178,192,45,126,-1,-1,-1,-1
334,635,407,156,55,152,-1,-1,-1,-1
334,642,471,151,58,162,-1,-1,-1,-1
334,711,213,180,47,132,-1,-1,-1,-1
334,713,175,193,45,128,-1,-1,-1,-1
335,635,406,167,57,156,-1,-1,-1,-1
335,642,470,166,57,160,-1,-1,-1,-1
335,711,212,180,48,135,-1,-1,-1,-1
335,713,165,185,49,138,-1,-1,-1,-1
335,714,0,183,43,121,-1,-1,-1,-1
336,635,407,146,58,157,-1,-1,-1,-1
336,642,474,154,56,158,-1,-1,-1,-1
336,711,203,181,48,137,-1,-1,-1,-1
336,713,161,185,50,142,-1,-1,-1,-1
336,714,-6,186,43,121,-1,-1,-1,-1
337,635,405,162,56,152,-1,-1,-1,-1
337,642,473,171,56,157,-1,-1,-1,-1
337,711,202,181,52,146,-1,-1,-1,-1
337,713,154,185,51,145,-1,-1,-1,-1
337,714,-8,185,43,122,-1,-1,-1,-1
337,715,582,207,38,103,-1,-1,-1,-1
338,635,406,163,55,149,-1,-1,-1,-1
338,642,477,160,55,156,-1,-1,-1,-1
338,711,198,179,53,149,-1,-1,-1,-1
338,713,148,184,52,145,-1,-1,-1,-1
338,715,584,211,38,103,-1,-1,-1,-1
339,635,403,168,56,151,-1,-1,-1,-1
339,642,474,171,56,157,-1,-1,-1,-1
339,711,188,174,58,163,-1,-1,-1,-1
339,713,137,182,54,151,-1,-1,-1,-1
339,715,578,210,38,103,-1,-1,-1,-1
340,635,404,164,56,151,-1,-1,-1,-1
340,642,477,156,55,156,-1,-1,-1,-1
340,711,179,173,59,167,-1,-1,-1,-1
340,713,128,186,54,152,-1,-1,-1,-1
340,715,578,216,37,102,-1,-1,-1,-1
341,635,405,171,54,144,-1,-1,-1,-1
341,642,475,167,56,159,-1,-1,-1,-1
341,711,171,167,65,182,-1,-1,-1,-1
341,713,114,172,60,170,-1,-1,-1,-1
341,715,574,207,38,105,-1,-1,-1,-1
342,635,407,163,54,141,-1,-1,-1,-1
342,642,479,154,56,158,-1,-1,-1,-1
342,711,165,159,67,188,-1,-1,-1,-1
342,713,108,158,63,176,-1,-1,-1,-1
342,715,573,206,38,105,-1,-1,-1,-1
343,635,405,169,56,144,-1,-1,-1,-1
343,642,476,167,57,160,-1,-1,-1,-1
343,711,146,157,72,202,-1,-1,-1,-1
343,713,99,159,67,188,-1,-1,-1,-1
343,715,570,207,38,102,-1,-1,-1,-1
343,716,247,206,24,68,-1,-1,-1,-1
344,635,409,148,56,145,-1,-1,-1,-1
344,642,478,153,57,160,-1,-1,-1,-1
344,711,145,151,74,208,-1,-1,-1,-1
344,713,98,134,68,191,-1,-1,-1,-1
344,715,569,207,38,100,-1,-1,-1,-1
344,716,244,197,23,66,-1,-1,-1,-1
345,635,408,163,54,140,-1,-1,-1,-1
345,642,476,166,58,162,-1,-1,-1,-1
345,711,137,150,79,223,-1,-1,-1,-1
345,713,80,147,74,208,-1,-1,-1,-1
345,715,566,201,42,109,-1,-1,-1,-1
345,716,244,195,23,66,-1,-1,-1,-1
346,635,414,162,53,136,-1,-1,-1,-1
346,642,481,166,58,163,-1,-1,-1,-1
346,711,130,135,81,227,-1,-1,-1,-1
346,713,66,156,76,214,-1,-1,-1,-1
346,715,564,202,43,111,-1,-1,-1,-1
347,635,409,167,54,138,-1,-1,-1,-1
347,642,476,173,57,161,-1,-1,-1,-1
347,711,118,133,87,246,-1,-1,-1,-1
347,713,49,156,80,224,-1,-1,-1,-1
347,715,561,203,43,110,-1,-1,-1,-1
348,635,411,161,54,137,-1,-1,-1,-1
348,642,479,168,57,160,-1,-1,-1,-1
348,711,103,115,89,251,-1,-1,-1,-1
348,713,38,157,81,227,-1,-1,-1,-1
348,715,556,204,42,109,-1,-1,-1,-1
349,635,405,169,57,146,-1,-1,-1,-1
349,642,473,174,56,157,-1,-1,-1,-1
349,711,69,115,101,284,-1,-1,-1,-1
349,713,29,155,83,233,-1,-1,-1,-1
349,715,549,201,42,110,-1,-1,-1,-1
349,716,223,208,29,83,-1,-1,-1,-1
350,635,400,165,58,148,-1,-1,-1,-1
350,642,470,168,55,155,-1,-1,-1,-1
350,711,24,76,106,297,-1,-1,-1,-1
350,715,546,203,41,110,-1,-1,-1,-1
350,716,218,200,30,84,-1,-1,-1,-1
351,635,395,169,60,155,-1,-1,-1,-1
351,642,473,185,51,143,-1,-1,-1,-1
351,711,21,81,119,334,-1,-1,-1,-1
351,715,542,208,39,103,-1,-1,-1,-1
351,716,212,203,31,86,-1,-1,-1,-1
352,635,392,164,61,157,-1,-1,-1,-1
352,642,473,174,49,138,-1,-1,-1,-1
352,711,8,40,125,350,-1,-1,-1,-1
352,715,543,209,38,101,-1,-1,-1,-1
352,716,208,193,31,87,-1,-1,-1,-1
353,635,391,168,61,158,-1,-1,-1,-1
353,642,470,180,53,149,-1,-1,-1,-1
353,711,-2,32,129,362,-1,-1,-1,-1
353,715,536,206,41,109,-1,-1,-1,-1
353,716,204,193,31,89,-1,-1,-1,-1
354,635,392,164,61,158,-1,-1,-1,-1
354,642,471,172,54,152,-1,-1,-1,-1
354,715,537,208,42,111,-1,-1,-1,-1
