1,541,653,146,23,65,-1,-1,-1,-1
1,596,622,259,37,106,-1,-1,-1,-1
1,597,640,242,36,103,-1,-1,-1,-1
1,598,212,153,31,86,-1,-1,-1,-1
1,607,395,160,26,69,-1,-1,-1,-1
3,608,418,162,113,229,-1,-1,-1,-1
3,609,67,124,100,282,-1,-1,-1,-1
3,610,205,198,55,141,-1,-1,-1,-1
3,611,268,197,84,184,-1,-1,-1,-1
3,612,154,223,61,167,-1,-1,-1,-1
4,608,421,178,114,232,-1,-1,-1,-1
4,609,82,146,100,281,-1,-1,-1,-1
4,610,209,197,58,149,-1,-1,-1,-1
4,611,261,191,85,187,-1,-1,-1,-1
4,612,152,189,66,181,-1,-1,-1,-1
5,608,430,168,113,230,-1,-1,-1,-1
5,609,87,146,100,280,-1,-1,-1,-1
5,610,214,190,59,152,-1,-1,-1,-1
5,611,259,206,84,187,-1,-1,-1,-1
5,612,156,196,67,185,-1,-1,-1,-1
6,608,439,167,113,230,-1,-1,-1,-1
6,609,92,138,101,279,-1,-1,-1,-1
6,610,220,193,58,152,-1,-1,-1,-1
6,611,253,202,84,187,-1,-1,-1,-1
6,612,166,180,68,186,-1,-1,-1,-1
7,608,444,172,116,239,-1,-1,-1,-1
7,609,104,160,100,273,-1,-1,-1,-1
7,610,212,190,61,160,-1,-1,-1,-1
7,611,236,190,86,194,-1,-1,-1,-1
7,612,178,182,63,175,-1,-1,-1,-1
8,608,455,168,115,240,-1,-1,-1,-1
8,609,113,147,100,270,-1,-1,-1,-1
8,610,210,192,61,161,-1,-1,-1,-1
8,611,228,189,86,195,-1,-1,-1,-1
8,612,186,189,61,170,-1,-1,-1,-1
9,608,461,162,114,240,-1,-1,-1,-1
9,609,123,140,101,269,-1,-1,-1,-1
9,610,211,197,61,161,-1,-1,-1,-1
9,611,224,192,86,195,-1,-1,-1,-1
9,612,194,185,60,168,-1,-1,-1,-1
10,608,469,167,116,250,-1,-1,-1,-1
10,609,132,157,103,272,-1,-1,-1,-1
10,610,211,196,62,163,-1,-1,-1,-1
10,611,221,185,88,201,-1,-1,-1,-1
10,612,200,182,60,168,-1,-1,-1,-1
11,608,476,160,114,253,-1,-1,-1,-1
11,609,138,139,104,272,-1,-1,-1,-1
11,611,215,181,88,203,-1,-1,-1,-1
12,608,479,148,112,254,-1,-1,-1,-1
12,609,144,128,105,272,-1,-1,-1,-1
12,611,209,177,88,204,-1,-1,-1,-1
13,608,495,162,112,254,-1,-1,-1,-1
13,609,158,141,108,282,-1,-1,-1,-1
13,610,260,202,55,146,-1,-1,-1,-1
13,611,225,192,76,179,-1,-1,-1,-1
14,608,498,156,110,252,-1,-1,-1,-1
14,609,169,137,108,284,-1,-1,-1,-1
14,610,268,200,53,143,-1,-1,-1,-1
14,611,230,204,71,168,-1,-1,-1,-1
15,608,504,158,109,251,-1,-1,-1,-1
15,609,173,125,108,284,-1,-1,-1,-1
15,610,274,198,52,142,-1,-1,-1,-1
15,611,247,203,69,165,-1,-1,-1,-1
16,608,515,170,108,248,-1,-1,-1,-1
16,609,181,136,108,288,-1,-1,-1,-1
16,610,278,200,52,144,-1,-1,-1,-1
16,611,247,204,68,162,-1,-1,-1,-1
17,608,519,168,107,245,-1,-1,-1,-1
17,609,191,132,107,286,-1,-1,-1,-1
17,610,285,197,52,143,-1,-1,-1,-1
18,608,527,160,107,244,-1,-1,-1,-1
18,609,194,140,106,285,-1,-1,-1,-1
18,610,290,203,51,143,-1,-1,-1,-1
19,608,531,167,109,249,-1,-1,-1,-1
19,609,204,154,107,286,-1,-1,-1,-1
19,610,294,198,53,147,-1,-1,-1,-1
19,612,165,180,73,206,-1,-1,-1,-1
20,608,541,158,108,249,-1,-1,-1,-1
20,609,209,148,108,285,-1,-1,-1,-1
20,610,298,200,53,147,-1,-1,-1,-1
20,612,165,190,72,202,-1,-1,-1,-1
21,608,543,159,108,250,-1,-1,-1,-1
21,609,214,136,108,285,-1,-1,-1,-1
21,610,300,187,53,148,-1,-1,-1,-1
21,612,159,191,71,199,-1,-1,-1,-1
22,608,546,166,104,246,-1,-1,-1,-1
22,609,224,156,109,283,-1,-1,-1,-1
22,610,309,192,55,151,-1,-1,-1,-1
22,612,151,184,72,203,-1,-1,-1,-1
23,608,550,164,100,242,-1,-1,-1,-1
23,609,242,136,110,281,-1,-1,-1,-1
23,610,313,189,55,152,-1,-1,-1,-1
23,612,148,174,72,203,-1,-1,-1,-1
24,608,549,159,97,240,-1,-1,-1,-1
24,609,258,141,111,280,-1,-1,-1,-1
24,610,316,182,55,152,-1,-1,-1,-1
24,612,142,177,72,203,-1,-1,-1,-1
24,613,238,239,52,147,-1,-1,-1,-1
25,608,554,158,97,240,-1,-1,-1,-1
25,609,261,158,110,275,-1,-1,-1,-1
25,610,306,172,65,176,-1,-1,-1,-1
25,612,127,179,75,210,-1,-1,-1,-1
25,613,236,205,56,158,-1,-1,-1,-1
26,609,277,144,109,271,-1,-1,-1,-1
26,610,311,160,68,184,-1,-1,-1,-1
26,612,127,175,76,211,-1,-1,-1,-1
26,613,241,220,57,160,-1,-1,-1,-1
27,609,284,137,109,270,-1,-1,-1,-1
27,610,313,158,70,187,-1,-1,-1,-1
27,612,121,180,77,211,-1,-1,-1,-1
27,613,244,227,57,162,-1,-1,-1,-1
27,614,-3,224,46,129,-1,-1,-1,-1
28,609,284,150,115,287,-1,-1,-1,-1
28,610,326,160,67,182,-1,-1,-1,-1
28,612,115,188,78,202,-1,-1,-1,-1
28,613,242,209,60,168,-1,-1,-1,-1
28,614,12,228,46,130,-1,-1,-1,-1
29,609,299,137,115,292,-1,-1,-1,-1
29,610,336,149,65,178,-1,-1,-1,-1
29,612,113,191,78,198,-1,-1,-1,-1
29,613,241,211,61,171,-1,-1,-1,-1
29,614,11,236,47,133,-1,-1,-1,-1
30,609,304,135,114,294,-1,-1,-1,-1
30,610,341,156,64,176,-1,-1,-1,-1
30,612,105,182,80,197,-1,-1,-1,-1
30,613,242,209,62,173,-1,-1,-1,-1
30,614,10,228,48,136,-1,-1,-1,-1
31,609,308,153,115,295,-1,-1,-1,-1
31,610,346,154,65,178,-1,-1,-1,-1
31,612,89,182,81,196,-1,-1,-1,-1
31,613,248,198,62,175,-1,-1,-1,-1
31,614,20,227,49,139,-1,-1,-1,-1
32,609,318,125,115,295,-1,-1,-1,-1
32,612,78,185,81,195,-1,-1,-1,-1
32,613,252,205,62,175,-1,-1,-1,-1
32,614,16,209,50,142,-1,-1,-1,-1
33,609,332,117,115,295,-1,-1,-1,-1
33,612,71,190,81,194,-1,-1,-1,-1
33,613,257,208,63,176,-1,-1,-1,-1
33,614,16,200,52,147,-1,-1,-1,-1
34,609,336,144,116,295,-1,-1,-1,-1
34,612,44,181,92,219,-1,-1,-1,-1
34,613,262,193,66,182,-1,-1,-1,-1
34,614,19,198,52,146,-1,-1,-1,-1
35,609,341,122,116,292,-1,-1,-1,-1
35,612,36,181,93,221,-1,-1,-1,-1
35,613,267,203,67,184,-1,-1,-1,-1
35,614,40,192,56,156,-1,-1,-1,-1
36,609,352,120,116,290,-1,-1,-1,-1
36,613,273,212,68,185,-1,-1,-1,-1
36,614,43,189,59,166,-1,-1,-1,-1
37,609,355,146,118,297,-1,-1,-1,-1
37,613,280,197,69,184,-1,-1,-1,-1
37,614,52,199,64,181,-1,-1,-1,-1
38,609,366,135,119,299,-1,-1,-1,-1
38,613,286,197,69,183,-1,-1,-1,-1
38,614,52,200,68,192,-1,-1,-1,-1
39,609,373,151,118,300,-1,-1,-1,-1
39,613,288,203,69,183,-1,-1,-1,-1
39,614,51,198,72,202,-1,-1,-1,-1
40,609,384,158,115,293,-1,-1,-1,-1
40,613,295,195,70,181,-1,-1,-1,-1
40,614,68,197,73,205,-1,-1,-1,-1
41,609,394,150,111,287,-1,-1,-1,-1
41,612,15,179,85,205,-1,-1,-1,-1
41,613,304,199,70,180,-1,-1,-1,-1
41,614,62,181,74,208,-1,-1,-1,-1
42,609,404,137,110,285,-1,-1,-1,-1
42,612,15,177,84,203,-1,-1,-1,-1
42,613,304,198,71,180,-1,-1,-1,-1
42,614,75,177,75,210,-1,-1,-1,-1
43,609,415,147,112,296,-1,-1,-1,-1
43,612,6,180,89,216,-1,-1,-1,-1
43,613,306,194,71,180,-1,-1,-1,-1
43,614,91,178,80,224,-1,-1,-1,-1
44,609,422,152,111,299,-1,-1,-1,-1
44,612,-4,173,90,219,-1,-1,-1,-1
44,613,307,201,71,180,-1,-1,-1,-1
44,614,97,153,82,229,-1,-1,-1,-1
45,609,428,154,110,299,-1,-1,-1,-1
45,612,-8,179,90,220,-1,-1,-1,-1
45,613,313,200,71,180,-1,-1,-1,-1
45,614,99,150,83,233,-1,-1,-1,-1
46,609,441,158,110,297,-1,-1,-1,-1
46,612,-4,185,83,205,-1,-1,-1,-1
46,613,312,192,70,178,-1,-1,-1,-1
46,614,114,169,84,236,-1,-1,-1,-1
47,609,448,143,110,296,-1,-1,-1,-1
47,612,-13,190,79,198,-1,-1,-1,-1
47,613,317,202,69,176,-1,-1,-1,-1
47,614,118,172,85,238,-1,-1,-1,-1
48,609,453,141,110,295,-1,-1,-1,-1
48,612,-20,195,77,195,-1,-1,-1,-1
48,613,325,205,68,175,-1,-1,-1,-1
48,614,126,168,86,240,-1,-1,-1,-1
48,616,462,186,66,162,-1,-1,-1,-1
48,617,40,212,46,113,-1,-1,-1,-1
49,609,462,154,112,296,-1,-1,-1,-1
49,612,-21,185,78,208,-1,-1,-1,-1
49,613,332,198,69,176,-1,-1,-1,-1
49,614,138,174,89,243,-1,-1,-1,-1
49,616,448,196,59,145,-1,-1,-1,-1
49,617,36,214,46,113,-1,-1,-1,-1
50,609,467,122,113,295,-1,-1,-1,-1
50,612,-28,186,75,211,-1,-1,-1,-1
50,613,337,196,69,175,-1,-1,-1,-1
50,614,141,169,91,243,-1,-1,-1,-1
50,616,454,198,56,139,-1,-1,-1,-1
51,609,471,113,114,295,-1,-1,-1,-1
51,612,-29,208,72,203,-1,-1,-1,-1
51,613,342,195,69,175,-1,-1,-1,-1
51,614,148,161,93,243,-1,-1,-1,-1
51,616,459,199,55,138,-1,-1,-1,-1
52,609,486,143,115,296,-1,-1,-1,-1
52,612,-35,210,73,204,-1,-1,-1,-1
52,613,343,192,70,178,-1,-1,-1,-1
52,614,160,174,93,241,-1,-1,-1,-1
52,616,465,200,57,144,-1,-1,-1,-1
53,609,489,118,115,295,-1,-1,-1,-1
53,613,350,190,70,177,-1,-1,-1,-1
53,614,167,173,92,240,-1,-1,-1,-1
53,616,468,203,56,146,-1,-1,-1,-1
54,609,490,111,116,295,-1,-1,-1,-1
54,613,356,199,70,177,-1,-1,-1,-1
54,614,174,169,92,240,-1,-1,-1,-1
54,616,473,199,56,146,-1,-1,-1,-1
55,609,506,138,118,304,-1,-1,-1,-1
55,613,360,197,72,181,-1,-1,-1,-1
55,614,192,176,91,242,-1,-1,-1,-1
55,616,480,204,56,147,-1,-1,-1,-1
56,609,514,126,117,305,-1,-1,-1,-1
56,613,361,202,73,182,-1,-1,-1,-1
56,614,204,174,89,240,-1,-1,-1,-1
56,616,485,200,56,147,-1,-1,-1,-1
57,609,520,118,116,305,-1,-1,-1,-1
57,613,363,199,74,182,-1,-1,-1,-1
57,614,213,169,87,240,-1,-1,-1,-1
57,616,489,203,56,147,-1,-1,-1,-1
58,609,530,135,116,311,-1,-1,-1,-1
58,613,369,197,74,181,-1,-1,-1,-1
58,614,223,176,90,242,-1,-1,-1,-1
58,616,494,205,57,149,-1,-1,-1,-1
59,609,535,115,113,311,-1,-1,-1,-1
59,613,370,203,73,180,-1,-1,-1,-1
59,614,225,174,92,240,-1,-1,-1,-1
59,616,501,207,58,149,-1,-1,-1,-1
60,609,537,121,111,310,-1,-1,-1,-1
60,613,375,203,73,180,-1,-1,-1,-1
60,614,232,169,93,240,-1,-1,-1,-1
60,616,508,201,58,149,-1,-1,-1,-1
61,609,544,146,106,299,-1,-1,-1,-1
61,613,374,195,74,183,-1,-1,-1,-1
61,614,243,182,95,237,-1,-1,-1,-1
61,616,513,201,59,152,-1,-1,-1,-1
62,609,539,158,103,289,-1,-1,-1,-1
62,613,381,198,74,182,-1,-1,-1,-1
62,614,252,187,97,234,-1,-1,-1,-1
62,616,517,206,59,152,-1,-1,-1,-1
63,609,545,164,100,281,-1,-1,-1,-1
63,613,382,194,73,182,-1,-1,-1,-1
63,614,261,189,99,233,-1,-1,-1,-1
63,616,525,202,58,152,-1,-1,-1,-1
64,609,550,186,94,263,-1,-1,-1,-1
64,613,391,193,74,183,-1,-1,-1,-1
64,614,269,188,102,238,-1,-1,-1,-1
64,616,532,201,58,152,-1,-1,-1,-1
65,609,537,191,90,253,-1,-1,-1,-1
65,613,393,199,74,182,-1,-1,-1,-1
65,614,276,183,103,239,-1,-1,-1,-1
65,616,535,205,57,152,-1,-1,-1,-1
66,609,537,189,88,248,-1,-1,-1,-1
66,613,394,208,74,182,-1,-1,-1,-1
66,614,285,192,104,239,-1,-1,-1,-1
66,616,540,202,56,152,-1,-1,-1,-1
66,618,592,225,45,126,-1,-1,-1,-1
67,609,539,192,87,245,-1,-1,-1,-1
67,613,399,198,73,181,-1,-1,-1,-1
67,614,299,184,106,247,-1,-1,-1,-1
67,616,547,203,56,147,-1,-1,-1,-1
67,618,592,228,44,125,-1,-1,-1,-1
68,613,411,202,72,180,-1,-1,-1,-1
68,614,305,171,105,249,-1,-1,-1,-1
68,616,550,210,56,145,-1,-1,-1,-1
69,613,415,201,71,180,-1,-1,-1,-1
69,614,313,170,104,250,-1,-1,-1,-1
69,616,557,210,57,144,-1,-1,-1,-1
70,613,426,198,71,178,-1,-1,-1,-1
70,614,328,177,102,247,-1,-1,-1,-1
70,616,561,211,59,145,-1,-1,-1,-1
71,613,423,209,71,175,-1,-1,-1,-1
71,614,329,159,101,245,-1,-1,-1,-1
71,616,567,206,60,145,-1,-1,-1,-1
