3,1,500,159,26,72,1,-1,-1,-1
3,2,629,239,41,84,1,-1,-1,-1
3,3,264,220,31,87,1,-1,-1,-1
4,1,497,163,26,71,1,-1,-1,-1
4,2,618,242,40,83,1,-1,-1,-1
4,3,276,222,31,86,1,-1,-1,-1
5,1,491,162,27,75,1,-1,-1,-1
5,2,606,240,40,82,1,-1,-1,-1
5,3,282,215,33,91,1,-1,-1,-1
6,1,490,162,27,75,1,-1,-1,-1
6,2,597,240,39,81,1,-1,-1,-1
6,3,286,214,33,93,1,-1,-1,-1
7,1,482,159,29,80,1,-1,-1,-1
7,2,586,236,41,86,1,-1,-1,-1
7,3,291,213,34,94,1,-1,-1,-1
8,1,482,161,29,81,1,-1,-1,-1
8,2,579,235,41,87,1,-1,-1,-1
8,3,296,213,34,93,1,-1,-1,-1
9,1,475,160,29,81,1,-1,-1,-1
9,2,569,233,41,89,1,-1,-1,-1
9,3,303,213,32,89,1,-1,-1,-1
10,1,474,164,29,81,1,-1,-1,-1
10,2,562,230,40,90,1,-1,-1,-1
10,3,308,213,32,87,1,-1,-1,-1
11,1,468,166,29,80,1,-1,-1,-1
11,2,547,230,41,93,1,-1,-1,-1
11,3,316,208,32,87,1,-1,-1,-1
12,1,465,166,29,79,1,-1,-1,-1
12,2,537,233,40,94,1,-1,-1,-1
12,3,323,206,32,87,1,-1,-1,-1
13,1,458,166,29,78,1,-1,-1,-1
13,2,528,234,38,89,1,-1,-1,-1
13,3,327,202,33,90,1,-1,-1,-1
13,5,747,317,19,54,1,-1,-1,-1
14,1,453,171,28,78,1,-1,-1,-1
14,2,515,236,36,86,1,-1,-1,-1
14,3,332,199,34,90,1,-1,-1,-1
14,5,740,315,20,56,1,-1,-1,-1
15,1,447,171,29,79,1,-1,-1,-1
15,2,504,235,36,87,1,-1,-1,-1
15,3,338,197,34,89,1,-1,-1,-1
15,5,735,311,20,58,1,-1,-1,-1
16,1,444,170,29,79,1,-1,-1,-1
16,2,496,236,36,86,1,-1,-1,-1
16,3,343,196,33,88,1,-1,-1,-1
16,5,731,306,21,60,1,-1,-1,-1
17,1,438,170,28,76,1,-1,-1,-1
17,2,487,236,35,84,1,-1,-1,-1
17,3,346,196,33,88,1,-1,-1,-1
17,5,728,302,22,62,1,-1,-1,-1
18,1,432,172,28,75,1,-1,-1,-1
18,2,476,233,34,83,1,-1,-1,-1
18,3,355,195,33,87,1,-1,-1,-1
18,5,719,300,22,64,1,-1,-1,-1
19,1,428,173,28,75,1,-1,-1,-1
19,2,463,232,35,86,1,-1,-1,-1
19,3,356,194,33,89,1,-1,-1,-1
19,5,709,298,23,65,1,-1,-1,-1
20,2,456,232,35,86,1,-1,-1,-1
20,3,359,192,33,89,1,-1,-1,-1
20,5,707,294,23,66,1,-1,-1,-1
21,2,443,231,36,87,1,-1,-1,-1
21,3,364,191,33,90,1,-1,-1,-1
21,5,695,285,26,75,1,-1,-1,-1
21,6,727,274,34,97,1,-1,-1,-1
22,2,434,231,37,87,1,-1,-1,-1
22,3,366,189,32,90,1,-1,-1,-1
22,5,689,283,28,80,1,-1,-1,-1
22,6,721,268,34,97,1,-1,-1,-1
23,2,426,231,36,85,1,-1,-1,-1
23,3,369,187,33,92,1,-1,-1,-1
23,5,682,278,29,83,1,-1,-1,-1
23,6,715,267,35,99,1,-1,-1,-1
24,2,420,227,34,84,1,-1,-1,-1
24,3,373,188,33,92,1,-1,-1,-1
24,5,674,278,30,84,1,-1,-1,-1
24,6,706,257,35,99,1,-1,-1,-1
25,2,402,198,44,111,1,-1,-1,-1
25,3,380,183,33,93,1,-1,-1,-1
25,5,666,270,30,86,1,-1,-1,-1
25,6,694,257,34,97,1,-1,-1,-1
26,2,398,183,47,119,1,-1,-1,-1
26,3,384,178,32,91,1,-1,-1,-1
26,5,662,271,31,87,1,-1,-1,-1
26,6,690,258,34,96,1,-1,-1,-1
27,2,393,180,47,124,1,-1,-1,-1
27,3,382,178,35,98,1,-1,-1,-1
27,5,654,266,31,89,1,-1,-1,-1
27,6,683,257,35,98,1,-1,-1,-1
28,2,397,175,46,124,1,-1,-1,-1
28,3,380,176,35,99,1,-1,-1,-1
28,5,651,262,32,89,1,-1,-1,-1
28,6,681,262,35,99,1,-1,-1,-1
29,2,388,170,48,128,1,-1,-1,-1
29,3,380,177,36,102,1,-1,-1,-1
29,5,644,259,32,90,1,-1,-1,-1
29,6,674,257,35,100,1,-1,-1,-1
30,3,380,174,36,101,1,-1,-1,-1
30,5,639,258,32,90,1,-1,-1,-1
30,6,670,252,35,99,1,-1,-1,-1
31,3,380,176,35,99,1,-1,-1,-1
31,5,630,257,33,92,1,-1,-1,-1
31,6,666,253,33,94,1,-1,-1,-1
32,3,381,169,34,97,1,-1,-1,-1
32,5,625,254,33,93,1,-1,-1,-1
32,6,658,243,32,90,1,-1,-1,-1
33,3,381,176,34,96,1,-1,-1,-1
33,5,617,253,33,93,1,-1,-1,-1
33,6,650,247,33,93,1,-1,-1,-1
34,3,383,171,33,94,1,-1,-1,-1
34,5,614,247,33,94,1,-1,-1,-1
34,6,642,244,34,95,1,-1,-1,-1
35,3,383,178,32,90,1,-1,-1,-1
35,5,609,243,35,99,1,-1,-1,-1
35,6,636,242,34,95,1,-1,-1,-1
36,3,385,183,31,87,1,-1,-1,-1
36,5,606,238,36,101,1,-1,-1,-1
37,3,383,182,30,84,1,-1,-1,-1
37,5,605,238,35,99,1,-1,-1,-1
38,3,386,185,29,82,1,-1,-1,-1
38,5,605,241,35,96,1,-1,-1,-1
39,3,382,182,28,80,1,-1,-1,-1
39,5,587,234,35,99,1,-1,-1,-1
39,6,606,233,34,97,1,-1,-1,-1
39,9,416,183,30,84,1,-1,-1,-1
40,3,379,181,28,79,1,-1,-1,-1
40,5,579,231,35,99,1,-1,-1,-1
40,6,602,228,34,95,1,-1,-1,-1
40,9,416,184,29,83,1,-1,-1,-1
41,3,379,178,28,80,1,-1,-1,-1
41,5,569,228,35,99,1,-1,-1,-1
41,6,596,229,35,98,1,-1,-1,-1
41,9,425,181,29,81,1,-1,-1,-1
42,3,378,183,28,79,1,-1,-1,-1
42,5,563,234,35,98,1,-1,-1,-1
42,6,593,223,35,98,1,-1,-1,-1
42,9,431,178,28,80,1,-1,-1,-1
43,3,382,180,28,79,1,-1,-1,-1
43,5,565,229,34,94,1,-1,-1,-1
43,6,587,221,35,98,1,-1,-1,-1
43,9,436,185,27,75,1,-1,-1,-1
43,10,741,302,23,65,1,-1,-1,-1
44,3,380,180,27,77,1,-1,-1,-1
44,5,554,229,33,92,1,-1,-1,-1
44,9,441,183,26,73,1,-1,-1,-1
44,10,733,302,23,64,1,-1,-1,-1
45,3,382,178,27,76,1,-1,-1,-1
45,5,546,223,33,92,1,-1,-1,-1
45,6,576,224,32,91,1,-1,-1,-1
45,9,442,184,25,71,1,-1,-1,-1
45,10,725,292,25,72,1,-1,-1,-1
46,3,379,180,27,75,1,-1,-1,-1
46,5,541,223,33,92,1,-1,-1,-1
46,6,575,224,31,89,1,-1,-1,-1
46,9,444,182,25,71,1,-1,-1,-1
46,10,718,285,26,75,1,-1,-1,-1
47,3,381,177,28,79,1,-1,-1,-1
47,5,535,220,33,92,1,-1,-1,-1
47,6,571,223,32,91,1,-1,-1,-1
47,9,438,177,26,74,1,-1,-1,-1
47,10,711,290,26,74,1,-1,-1,-1
48,3,377,179,28,80,1,-1,-1,-1
48,5,525,221,33,92,1,-1,-1,-1
48,6,568,219,32,91,1,-1,-1,-1
48,9,441,172,27,75,1,-1,-1,-1
48,10,702,286,26,74,1,-1,-1,-1
49,3,378,179,28,79,1,-1,-1,-1
49,5,519,217,34,93,1,-1,-1,-1
49,6,564,217,32,90,1,-1,-1,-1
49,9,435,174,26,73,1,-1,-1,-1
49,10,694,278,27,78,1,-1,-1,-1
50,3,375,181,27,77,1,-1,-1,-1
50,5,517,216,34,93,1,-1,-1,-1
50,6,562,214,32,89,1,-1,-1,-1
50,9,436,174,25,72,1,-1,-1,-1
50,10,688,277,28,79,1,-1,-1,-1
51,3,376,179,28,79,1,-1,-1,-1
51,5,507,215,35,95,1,-1,-1,-1
51,6,553,215,32,89,1,-1,-1,-1
51,9,428,174,25,72,1,-1,-1,-1
51,10,679,272,29,83,1,-1,-1,-1
52,3,375,182,28,79,1,-1,-1,-1
52,5,503,210,35,95,1,-1,-1,-1
52,6,547,214,32,88,1,-1,-1,-1
52,9,420,179,26,72,1,-1,-1,-1
52,10,672,270,30,86,1,-1,-1,-1
53,3,376,181,28,79,1,-1,-1,-1
53,5,498,208,35,97,1,-1,-1,-1
53,6,542,210,32,90,1,-1,-1,-1
53,9,414,174,27,76,1,-1,-1,-1
53,10,666,266,30,85,1,-1,-1,-1
54,3,375,186,27,78,1,-1,-1,-1
54,5,495,204,35,96,1,-1,-1,-1
54,6,539,206,32,90,1,-1,-1,-1
54,9,412,179,27,76,1,-1,-1,-1
54,10,662,261,30,86,1,-1,-1,-1
55,3,379,181,28,79,1,-1,-1,-1
55,5,487,205,34,95,1,-1,-1,-1
55,6,530,207,33,93,1,-1,-1,-1
55,9,410,179,27,76,1,-1,-1,-1
55,10,652,260,31,88,1,-1,-1,-1
56,3,378,182,28,79,1,-1,-1,-1
56,5,484,206,34,94,1,-1,-1,-1
56,6,527,198,33,93,1,-1,-1,-1
56,10,646,260,31,88,1,-1,-1,-1
57,3,379,179,28,80,1,-1,-1,-1
57,5,481,205,33,92,1,-1,-1,-1
57,6,523,202,33,93,1,-1,-1,-1
57,10,640,256,32,90,1,-1,-1,-1
58,3,379,182,28,79,1,-1,-1,-1
58,5,476,202,32,91,1,-1,-1,-1
58,6,519,199,32,91,1,-1,-1,-1
58,10,633,250,32,92,1,-1,-1,-1
59,3,381,179,27,77,1,-1,-1,-1
59,5,473,202,33,92,1,-1,-1,-1
59,6,516,202,31,87,1,-1,-1,-1
59,10,626,243,33,95,1,-1,-1,-1
60,3,378,179,27,76,1,-1,-1,-1
60,5,472,199,32,91,1,-1,-1,-1
60,6,513,202,30,84,1,-1,-1,-1
60,10,624,240,34,95,1,-1,-1,-1
61,3,375,179,27,76,1,-1,-1,-1
61,5,467,198,33,93,1,-1,-1,-1
61,6,503,202,29,83,1,-1,-1,-1
61,10,616,238,33,93,1,-1,-1,-1
62,3,371,179,27,75,1,-1,-1,-1
62,5,466,199,33,93,1,-1,-1,-1
62,6,499,202,29,82,1,-1,-1,-1
62,10,614,239,32,91,1,-1,-1,-1
63,3,381,179,27,76,1,-1,-1,-1
63,5,464,195,32,91,1,-1,-1,-1
63,6,493,201,28,81,1,-1,-1,-1
63,10,610,235,32,92,1,-1,-1,-1
64,3,380,186,26,75,1,-1,-1,-1
64,5,463,198,32,90,1,-1,-1,-1
64,6,493,197,28,80,1,-1,-1,-1
64,10,609,236,32,91,1,-1,-1,-1
65,3,383,181,26,74,1,-1,-1,-1
65,5,460,195,31,87,1,-1,-1,-1
65,6,488,197,28,80,1,-1,-1,-1
65,10,604,232,32,91,1,-1,-1,-1
65,12,339,163,28,79,1,-1,-1,-1
66,3,377,180,26,73,1,-1,-1,-1
66,5,457,195,30,85,1,-1,-1,-1
66,6,489,199,28,80,1,-1,-1,-1
66,10,601,226,32,89,1,-1,-1,-1
66,12,329,168,27,78,1,-1,-1,-1
67,3,382,180,26,75,1,-1,-1,-1
67,5,454,193,30,85,1,-1,-1,-1
67,6,486,196,28,79,1,-1,-1,-1
67,10,599,224,31,88,1,-1,-1,-1
67,12,323,170,25,70,1,-1,-1,-1
68,3,377,182,27,76,1,-1,-1,-1
68,5,450,194,30,84,1,-1,-1,-1
68,6,486,193,28,78,1,-1,-1,-1
68,10,598,221,31,87,1,-1,-1,-1
68,12,319,171,24,67,1,-1,-1,-1
69,3,378,180,28,79,1,-1,-1,-1
69,5,450,192,30,83,1,-1,-1,-1
69,6,483,194,27,78,1,-1,-1,-1
69,10,592,217,31,88,1,-1,-1,-1
69,12,304,168,25,71,1,-1,-1,-1
70,3,376,183,28,81,1,-1,-1,-1
70,5,447,194,29,81,1,-1,-1,-1
70,6,481,192,27,77,1,-1,-1,-1
70,10,590,219,31,88,1,-1,-1,-1
70,12,299,164,25,72,1,-1,-1,-1
71,3,377,182,28,80,1,-1,-1,-1
71,5,451,190,30,82,1,-1,-1,-1
71,6,479,191,27,77,1,-1,-1,-1
71,10,587,212,31,87,1,-1,-1,-1
71,12,293,171,25,69,1,-1,-1,-1
72,3,375,182,28,80,1,-1,-1,-1
72,5,448,191,30,82,1,-1,-1,-1
72,6,479,188,27,76,1,-1,-1,-1
72,10,587,214,31,86,1,-1,-1,-1
72,12,288,170,25,68,1,-1,-1,-1
73,3,376,180,29,81,1,-1,-1,-1
73,5,454,187,29,82,1,-1,-1,-1
73,6,477,188,27,76,1,-1,-1,-1
73,10,582,208,31,87,1,-1,-1,-1
73,12,282,172,23,63,1,-1,-1,-1
74,3,375,179,29,81,1,-1,-1,-1
74,5,449,187,29,81,1,-1,-1,-1
74,6,478,187,26,75,1,-1,-1,-1
74,10,581,211,30,86,1,-1,-1,-1
74,12,276,170,23,62,1,-1,-1,-1
75,3,377,180,28,80,1,-1,-1,-1
75,5,456,185,28,80,1,-1,-1,-1
75,6,477,188,26,75,1,-1,-1,-1
75,10,578,206,30,86,1,-1,-1,-1
75,12,271,172,24,64,1,-1,-1,-1
75,13,424,177,29,83,1,-1,-1,-1
76,3,374,178,28,78,1,-1,-1,-1
76,5,458,187,28,79,1,-1,-1,-1
76,6,478,182,26,74,1,-1,-1,-1
76,10,576,202,30,85,1,-1,-1,-1
76,12,265,169,24,64,1,-1,-1,-1
76,13,422,177,30,84,1,-1,-1,-1
77,3,377,179,28,78,1,-1,-1,-1
77,5,456,180,27,77,1,-1,-1,-1
77,6,477,178,26,75,1,-1,-1,-1
77,10,576,202,29,82,1,-1,-1,-1
77,12,260,172,27,69,1,-1,-1,-1
77,13,423,173,30,84,1,-1,-1,-1
78,3,375,180,27,78,1,-1,-1,-1
78,5,452,182,27,75,1,-1,-1,-1
78,6,477,174,26,73,1,-1,-1,-1
78,10,577,203,28,81,1,-1,-1,-1
78,12,257,172,28,71,1,-1,-1,-1
78,13,421,180,29,83,1,-1,-1,-1
79,3,378,177,28,80,1,-1,-1,-1
79,5,455,177,27,76,1,-1,-1,-1
79,6,475,177,26,75,1,-1,-1,-1
79,10,574,199,28,79,1,-1,-1,-1
79,12,257,173,29,73,1,-1,-1,-1
79,13,421,176,30,84,1,-1,-1,-1
80,3,375,176,28,80,1,-1,-1,-1
80,5,453,179,27,76,1,-1,-1,-1
80,6,475,175,26,74,1,-1,-1,-1
80,10,572,199,27,78,1,-1,-1,-1
80,12,256,170,29,74,1,-1,-1,-1
80,13,418,180,30,84,1,-1,-1,-1
81,3,378,174,30,85,1,-1,-1,-1
81,5,454,173,27,78,1,-1,-1,-1
81,6,475,175,26,72,1,-1,-1,-1
81,10,570,196,28,78,1,-1,-1,-1
81,12,256,173,29,74,1,-1,-1,-1
81,13,423,174,30,85,1,-1,-1,-1
82,3,375,175,31,86,1,-1,-1,-1
82,5,450,173,27,77,1,-1,-1,-1
82,6,474,169,25,71,1,-1,-1,-1
82,10,570,190,28,78,1,-1,-1,-1
82,12,257,170,29,74,1,-1,-1,-1
82,13,422,178,30,84,1,-1,-1,-1
83,3,380,175,30,85,1,-1,-1,-1
83,5,452,172,27,77,1,-1,-1,-1
83,6,477,173,24,69,1,-1,-1,-1
83,10,568,190,27,77,1,-1,-1,-1
83,12,259,174,29,74,1,-1,-1,-1
83,13,422,177,30,85,1,-1,-1,-1
83,15,270,45,15,38,1,-1,-1,-1
84,3,377,179,30,84,1,-1,-1,-1
84,5,451,169,27,76,1,-1,-1,-1
84,6,479,170,24,68,1,-1,-1,-1
84,10,567,189,27,76,1,-1,-1,-1
84,12,263,173,28,73,1,-1,-1,-1
84,15,268,50,14,38,1,-1,-1,-1
85,3,380,178,29,83,1,-1,-1,-1
85,5,452,168,27,76,1,-1,-1,-1
85,6,480,171,24,68,1,-1,-1,-1
85,10,565,186,27,77,1,-1,-1,-1
85,12,266,175,28,72,1,-1,-1,-1
85,15,266,46,15,38,1,-1,-1,-1
86,3,375,182,29,82,1,-1,-1,-1
86,5,452,165,27,75,1,-1,-1,-1
86,6,482,168,24,68,1,-1,-1,-1
86,10,565,183,27,77,1,-1,-1,-1
86,12,270,176,27,71,1,-1,-1,-1
86,15,261,48,14,38,1,-1,-1,-1
87,3,380,179,28,80,1,-1,-1,-1
87,5,454,165,27,75,1,-1,-1,-1
87,6,483,169,24,69,1,-1,-1,-1
87,10,566,181,28,81,1,-1,-1,-1
87,12,273,181,28,71,1,-1,-1,-1
87,15,257,51,14,36,1,-1,-1,-1
87,16,496,335,17,43,1,-1,-1,-1
88,3,377,179,28,78,1,-1,-1,-1
88,5,454,162,26,75,1,-1,-1,-1
88,6,485,165,24,68,1,-1,-1,-1
88,10,566,178,28,80,1,-1,-1,-1
88,12,277,182,28,71,1,-1,-1,-1
88,15,256,54,14,36,1,-1,-1,-1
88,16,498,337,17,44,1,-1,-1,-1
89,3,379,179,28,79,1,-1,-1,-1
89,5,458,161,27,76,1,-1,-1,-1
89,6,484,162,25,71,1,-1,-1,-1
89,10,568,175,28,79,1,-1,-1,-1
89,12,279,182,30,76,1,-1,-1,-1
89,15,254,56,14,35,1,-1,-1,-1
89,16,497,336,17,44,1,-1,-1,-1
90,3,379,179,28,78,1,-1,-1,-1
90,5,459,159,27,75,1,-1,-1,-1
90,6,486,161,25,72,1,-1,-1,-1
90,10,569,173,28,78,1,-1,-1,-1
90,12,285,186,30,78,1,-1,-1,-1
90,16,497,336,17,43,1,-1,-1,-1
91,3,381,178,28,79,1,-1,-1,-1
91,5,458,160,27,76,1,-1,-1,-1
91,6,488,161,25,71,1,-1,-1,-1
91,10,570,173,28,80,1,-1,-1,-1
91,12,287,186,30,78,1,-1,-1,-1
91,15,248,53,15,38,1,-1,-1,-1
91,16,497,336,17,43,1,-1,-1,-1
92,3,380,178,28,79,1,-1,-1,-1
92,5,462,158,27,75,1,-1,-1,-1
92,6,489,162,25,71,1,-1,-1,-1
92,10,572,170,28,80,1,-1,-1,-1
92,12,292,185,30,78,1,-1,-1,-1
92,15,246,54,15,39,1,-1,-1,-1
93,3,382,177,29,81,1,-1,-1,-1
93,5,465,159,25,72,1,-1,-1,-1
93,6,489,158,25,72,1,-1,-1,-1
93,10,575,167,28,79,1,-1,-1,-1
93,12,298,188,30,77,1,-1,-1,-1
93,15,242,55,13,33,1,-1,-1,-1
93,16,495,335,17,45,1,-1,-1,-1
94,3,383,181,29,81,1,-1,-1,-1
94,5,468,156,25,70,1,-1,-1,-1
94,6,496,157,25,72,1,-1,-1,-1
94,10,577,163,28,79,1,-1,-1,-1
94,12,305,189,29,77,1,-1,-1,-1
94,15,240,56,13,30,1,-1,-1,-1
94,16,495,340,17,46,1,-1,-1,-1
95,3,385,176,29,82,1,-1,-1,-1
95,5,470,155,25,70,1,-1,-1,-1
95,6,492,155,24,68,1,-1,-1,-1
95,10,578,165,28,79,1,-1,-1,-1
95,12,308,193,30,77,1,-1,-1,-1
95,15,237,57,14,32,1,-1,-1,-1
95,16,496,337,17,44,1,-1,-1,-1
96,3,385,178,29,82,1,-1,-1,-1
96,6,491,153,23,67,1,-1,-1,-1
96,10,579,164,28,78,1,-1,-1,-1
96,12,313,194,30,76,1,-1,-1,-1
96,15,236,57,14,32,1,-1,-1,-1
96,16,497,337,17,44,1,-1,-1,-1
97,3,385,176,30,84,1,-1,-1,-1
97,6,490,151,25,70,1,-1,-1,-1
97,10,581,162,26,74,1,-1,-1,-1
97,12,318,189,32,85,1,-1,-1,-1
97,15,232,57,14,34,1,-1,-1,-1
97,16,496,335,17,44,1,-1,-1,-1
98,3,382,177,30,85,1,-1,-1,-1
98,6,489,152,25,71,1,-1,-1,-1
98,10,586,165,25,72,1,-1,-1,-1
98,12,325,191,33,88,1,-1,-1,-1
98,15,231,59,15,33,1,-1,-1,-1
98,16,497,337,16,43,1,-1,-1,-1
99,3,383,177,30,86,1,-1,-1,-1
99,6,492,148,25,72,1,-1,-1,-1
99,10,586,159,26,75,1,-1,-1,-1
99,12,330,189,33,88,1,-1,-1,-1
99,15,228,58,15,34,1,-1,-1,-1
99,16,497,335,17,43,1,-1,-1,-1
100,3,382,179,30,85,1,-1,-1,-1
100,6,495,149,25,72,1,-1,-1,-1
100,10,588,159,27,76,1,-1,-1,-1
100,12,339,189,32,87,1,-1,-1,-1
100,15,225,58,15,34,1,-1,-1,-1
100,16,497,335,16,43,1,-1,-1,-1
101,3,378,184,30,84,1,-1,-1,-1
101,6,497,146,26,73,1,-1,-1,-1
101,10,589,150,28,79,1,-1,-1,-1
101,12,345,193,32,87,1,-1,-1,-1
101,15,220,57,16,36,1,-1,-1,-1
101,16,496,334,17,44,1,-1,-1,-1
102,3,379,185,29,83,1,-1,-1,-1
102,6,500,148,26,73,1,-1,-1,-1
102,10,592,152,28,80,1,-1,-1,-1
102,12,350,195,31,86,1,-1,-1,-1
102,15,218,59,16,36,1,-1,-1,-1
102,16,496,336,17,44,1,-1,-1,-1
103,3,372,185,31,87,1,-1,-1,-1
103,5,520,147,25,71,1,-1,-1,-1
103,6,500,143,26,74,1,-1,-1,-1
103,10,593,148,29,82,1,-1,-1,-1
103,12,355,196,32,87,1,-1,-1,-1
103,15,217,54,17,37,1,-1,-1,-1
103,16,495,335,17,45,1,-1,-1,-1
103,17,214,57,16,38,1,-1,-1,-1
104,3,374,181,31,87,1,-1,-1,-1
104,5,526,148,24,69,1,-1,-1,-1
104,6,501,142,26,74,1,-1,-1,-1
104,10,598,150,29,82,1,-1,-1,-1
104,15,214,56,17,37,1,-1,-1,-1
104,16,496,337,17,46,1,-1,-1,-1
104,17,212,58,16,39,1,-1,-1,-1
105,3,374,181,31,88,1,-1,-1,-1
105,5,528,146,23,66,1,-1,-1,-1
105,6,503,141,25,70,1,-1,-1,-1
105,10,599,146,28,79,1,-1,-1,-1
105,12,373,193,33,89,1,-1,-1,-1
105,15,211,54,17,39,1,-1,-1,-1
105,16,496,335,17,46,1,-1,-1,-1
105,17,205,59,16,39,1,-1,-1,-1
106,5,533,144,23,64,1,-1,-1,-1
106,6,509,141,24,68,1,-1,-1,-1
106,10,604,146,28,78,1,-1,-1,-1
106,12,381,190,33,90,1,-1,-1,-1
106,15,206,56,17,39,1,-1,-1,-1
106,16,497,335,17,45,1,-1,-1,-1
106,17,205,60,16,38,1,-1,-1,-1
107,3,383,178,33,92,1,-1,-1,-1
107,5,533,142,23,66,1,-1,-1,-1
107,6,511,139,25,68,1,-1,-1,-1
107,10,607,144,27,77,1,-1,-1,-1
107,12,387,190,33,90,1,-1,-1,-1
107,15,201,58,17,38,1,-1,-1,-1
107,16,496,335,17,45,1,-1,-1,-1
107,17,202,61,16,38,1,-1,-1,-1
108,3,379,172,33,92,1,-1,-1,-1
108,5,537,141,23,66,1,-1,-1,-1
108,6,516,139,25,68,1,-1,-1,-1
108,10,611,145,27,76,1,-1,-1,-1
108,15,199,62,17,38,1,-1,-1,-1
108,16,497,337,17,45,1,-1,-1,-1
109,3,378,173,32,91,1,-1,-1,-1
109,5,541,140,23,66,1,-1,-1,-1
109,6,526,139,25,68,1,-1,-1,-1
109,10,613,143,26,74,1,-1,-1,-1
109,15,195,59,17,39,1,-1,-1,-1
109,16,495,336,17,45,1,-1,-1,-1
110,3,374,175,32,90,1,-1,-1,-1
110,6,530,139,25,68,1,-1,-1,-1
110,10,617,142,25,72,1,-1,-1,-1
110,15,194,62,17,40,1,-1,-1,-1
110,16,497,337,17,45,1,-1,-1,-1
111,3,374,175,29,82,1,-1,-1,-1
111,5,556,141,23,66,1,-1,-1,-1
111,6,534,137,25,69,1,-1,-1,-1
111,10,617,140,24,69,1,-1,-1,-1
111,15,192,60,17,40,1,-1,-1,-1
111,16,496,336,17,46,1,-1,-1,-1
112,3,372,173,28,79,1,-1,-1,-1
112,5,556,142,23,65,1,-1,-1,-1
112,6,534,136,25,69,1,-1,-1,-1
112,10,621,141,24,68,1,-1,-1,-1
112,15,191,61,17,40,1,-1,-1,-1
112,16,498,337,17,46,1,-1,-1,-1
113,3,371,177,27,78,1,-1,-1,-1
113,5,560,139,23,65,1,-1,-1,-1
113,6,538,135,26,71,1,-1,-1,-1
113,10,623,139,24,69,1,-1,-1,-1
113,15,190,60,17,40,1,-1,-1,-1
113,16,496,336,17,44,1,-1,-1,-1
114,3,371,178,27,77,1,-1,-1,-1
114,5,563,137,23,65,1,-1,-1,-1
114,6,539,134,26,71,1,-1,-1,-1
114,10,630,141,24,69,1,-1,-1,-1
114,15,185,64,17,40,1,-1,-1,-1
114,16,497,340,17,44,1,-1,-1,-1
115,3,370,178,27,77,1,-1,-1,-1
115,5,565,137,23,64,1,-1,-1,-1
115,6,541,133,26,71,1,-1,-1,-1
115,10,631,140,24,69,1,-1,-1,-1
115,15,183,60,18,42,1,-1,-1,-1
115,16,496,337,17,44,1,-1,-1,-1
115,17,175,61,17,41,1,-1,-1,-1
115,20,458,203,29,78,1,-1,-1,-1
116,3,372,182,27,77,1,-1,-1,-1
116,5,568,139,22,63,1,-1,-1,-1
116,6,543,132,26,71,1,-1,-1,-1
116,10,635,137,24,68,1,-1,-1,-1
116,15,179,64,18,42,1,-1,-1,-1
116,16,497,342,17,44,1,-1,-1,-1
116,17,176,60,17,41,1,-1,-1,-1
116,20,464,202,28,77,1,-1,-1,-1
117,3,371,181,27,77,1,-1,-1,-1
117,5,568,137,22,62,1,-1,-1,-1
117,6,543,131,26,71,1,-1,-1,-1
117,10,636,137,25,71,1,-1,-1,-1
117,15,177,64,18,43,1,-1,-1,-1
117,16,496,339,17,43,1,-1,-1,-1
117,17,171,62,17,40,1,-1,-1,-1
117,20,471,204,29,79,1,-1,-1,-1
117,21,730,167,36,103,1,-1,-1,-1
118,3,374,185,27,76,1,-1,-1,-1
118,5,574,138,22,61,1,-1,-1,-1
118,6,549,130,25,71,1,-1,-1,-1
118,10,639,137,25,71,1,-1,-1,-1
118,16,497,337,16,43,1,-1,-1,-1
118,17,165,65,17,40,1,-1,-1,-1
118,20,483,208,29,79,1,-1,-1,-1
118,21,723,179,37,106,1,-1,-1,-1
119,3,373,185,27,77,1,-1,-1,-1
119,5,570,135,23,65,1,-1,-1,-1
119,6,552,132,26,72,1,-1,-1,-1
119,10,642,135,24,68,1,-1,-1,-1
119,16,497,337,17,43,1,-1,-1,-1
119,17,162,65,17,40,1,-1,-1,-1
119,20,490,206,31,86,1,-1,-1,-1
119,21,720,221,27,76,1,-1,-1,-1
120,3,374,188,27,76,1,-1,-1,-1
120,5,572,137,23,66,1,-1,-1,-1
120,6,553,130,26,72,1,-1,-1,-1
120,10,646,134,24,67,1,-1,-1,-1
120,16,499,341,17,43,1,-1,-1,-1
120,20,497,204,31,87,1,-1,-1,-1
120,21,711,240,22,63,1,-1,-1,-1
121,3,375,183,29,81,1,-1,-1,-1
121,5,574,133,23,65,1,-1,-1,-1
121,6,556,129,26,72,1,-1,-1,-1
121,10,653,133,23,65,1,-1,-1,-1
121,16,499,342,17,43,1,-1,-1,-1
121,20,508,207,31,86,1,-1,-1,-1
121,21,698,224,25,71,1,-1,-1,-1
122,3,373,181,29,82,1,-1,-1,-1
122,5,577,132,22,64,1,-1,-1,-1
122,10,657,134,22,64,1,-1,-1,-1
122,20,518,210,31,85,1,-1,-1,-1
122,21,687,221,26,72,1,-1,-1,-1
123,3,377,179,30,84,1,-1,-1,-1
123,5,578,126,23,65,1,-1,-1,-1
123,10,658,127,24,69,1,-1,-1,-1
123,17,153,72,16,38,1,-1,-1,-1
123,20,529,214,30,81,1,-1,-1,-1
123,21,678,219,26,74,1,-1,-1,-1
123,22,737,160,26,73,1,-1,-1,-1
124,3,377,184,30,84,1,-1,-1,-1
124,5,576,124,23,66,1,-1,-1,-1
124,10,662,125,25,70,1,-1,-1,-1
124,17,155,73,16,38,1,-1,-1,-1
124,20,538,219,30,79,1,-1,-1,-1
124,21,666,221,26,75,1,-1,-1,-1
124,22,742,153,23,65,1,-1,-1,-1
125,3,380,181,29,83,1,-1,-1,-1
125,5,578,123,24,67,1,-1,-1,-1
125,6,597,131,25,71,1,-1,-1,-1
125,10,663,130,24,68,1,-1,-1,-1
125,17,149,73,16,38,1,-1,-1,-1
125,20,544,217,31,82,1,-1,-1,-1
125,21,653,220,27,76,1,-1,-1,-1
125,22,741,152,17,49,1,-1,-1,-1
126,3,380,181,29,83,1,-1,-1,-1
126,5,579,123,24,67,1,-1,-1,-1
126,6,599,130,25,70,1,-1,-1,-1
126,10,665,131,24,68,1,-1,-1,-1
126,17,150,74,16,38,1,-1,-1,-1
126,20,551,219,31,83,1,-1,-1,-1
126,21,647,217,27,76,1,-1,-1,-1
126,22,740,153,16,47,1,-1,-1,-1
127,3,382,177,30,85,1,-1,-1,-1
127,5,580,120,24,68,1,-1,-1,-1
127,6,600,124,26,71,1,-1,-1,-1
127,10,672,126,23,65,1,-1,-1,-1
127,17,146,73,18,41,1,-1,-1,-1
127,20,557,216,33,89,1,-1,-1,-1
127,21,639,217,29,81,1,-1,-1,-1
127,22,741,152,13,38,1,-1,-1,-1
127,24,665,136,23,64,1,-1,-1,-1
128,3,380,181,30,86,1,-1,-1,-1
128,5,583,119,25,68,1,-1,-1,-1
128,6,602,119,26,71,1,-1,-1,-1
128,10,673,126,23,64,1,-1,-1,-1
128,17,142,74,18,41,1,-1,-1,-1
128,20,568,217,33,91,1,-1,-1,-1
128,21,627,212,30,84,1,-1,-1,-1
128,24,670,127,23,65,1,-1,-1,-1
129,3,381,178,30,86,1,-1,-1,-1
129,5,586,118,25,69,1,-1,-1,-1
129,6,601,117,26,72,1,-1,-1,-1
129,10,675,124,23,66,1,-1,-1,-1
129,17,142,76,17,38,1,-1,-1,-1
129,20,576,217,33,90,1,-1,-1,-1
129,21,618,211,30,84,1,-1,-1,-1
129,24,671,125,23,66,1,-1,-1,-1
130,3,379,182,30,85,1,-1,-1,-1
130,5,588,117,25,69,1,-1,-1,-1
130,6,606,113,26,72,1,-1,-1,-1
130,10,676,127,24,67,1,-1,-1,-1
130,17,139,76,16,36,1,-1,-1,-1
130,20,585,221,32,89,1,-1,-1,-1
130,21,609,201,30,85,1,-1,-1,-1
131,3,380,182,29,83,1,-1,-1,-1
131,5,591,116,25,66,1,-1,-1,-1
131,6,604,116,25,68,1,-1,-1,-1
131,10,681,120,25,70,1,-1,-1,-1
131,17,136,79,17,38,1,-1,-1,-1
131,20,597,219,33,90,1,-1,-1,-1
131,21,601,200,29,83,1,-1,-1,-1
132,3,378,182,29,82,1,-1,-1,-1
132,5,594,115,24,65,1,-1,-1,-1
132,6,599,119,24,66,1,-1,-1,-1
132,10,684,119,25,70,1,-1,-1,-1
132,17,131,77,17,38,1,-1,-1,-1
132,20,603,217,33,89,1,-1,-1,-1
133,3,380,184,28,80,1,-1,-1,-1
133,5,596,114,24,65,1,-1,-1,-1
133,6,604,118,24,64,1,-1,-1,-1
133,10,686,117,24,69,1,-1,-1,-1
133,16,495,335,18,46,1,-1,-1,-1
133,17,131,79,17,38,1,-1,-1,-1
133,20,610,219,33,86,1,-1,-1,-1
133,21,578,203,30,84,1,-1,-1,-1
134,3,381,186,28,78,1,-1,-1,-1
134,6,604,119,23,63,1,-1,-1,-1
134,10,688,119,24,68,1,-1,-1,-1
134,16,496,340,18,46,1,-1,-1,-1
134,17,127,81,17,38,1,-1,-1,-1
134,20,618,227,33,85,1,-1,-1,-1
134,21,574,200,30,85,1,-1,-1,-1
135,3,381,186,28,79,1,-1,-1,-1
135,6,606,118,24,63,1,-1,-1,-1
135,10,692,121,23,65,1,-1,-1,-1
135,16,495,336,18,46,1,-1,-1,-1
135,17,126,80,16,35,1,-1,-1,-1
135,20,628,226,33,85,1,-1,-1,-1
135,21,567,198,30,86,1,-1,-1,-1
136,3,381,187,27,78,1,-1,-1,-1
136,6,604,119,24,63,1,-1,-1,-1
136,10,695,122,22,63,1,-1,-1,-1
136,16,495,344,18,46,1,-1,-1,-1
136,17,122,81,15,34,1,-1,-1,-1
136,20,633,227,33,85,1,-1,-1,-1
136,21,562,195,30,86,1,-1,-1,-1
137,3,382,185,28,79,1,-1,-1,-1
137,6,608,114,25,66,1,-1,-1,-1
137,10,697,121,24,68,1,-1,-1,-1
137,15,114,80,19,45,1,-1,-1,-1
137,16,495,338,18,47,1,-1,-1,-1
137,17,120,81,16,36,1,-1,-1,-1
137,20,639,225,33,85,1,-1,-1,-1
137,21,556,195,30,84,1,-1,-1,-1
137,28,718,249,40,95,1,-1,-1,-1
138,3,383,186,27,78,1,-1,-1,-1
138,6,610,112,25,67,1,-1,-1,-1
138,10,699,120,24,69,1,-1,-1,-1
138,15,113,80,18,44,1,-1,-1,-1
138,16,496,341,18,47,1,-1,-1,-1
138,17,116,82,16,36,1,-1,-1,-1
138,20,654,226,33,85,1,-1,-1,-1
138,21,548,190,29,82,1,-1,-1,-1
138,28,704,251,40,96,1,-1,-1,-1
139,3,384,184,28,78,1,-1,-1,-1
139,6,612,112,25,65,1,-1,-1,-1
139,10,701,118,23,67,1,-1,-1,-1
139,15,110,81,18,44,1,-1,-1,-1
139,16,496,341,18,47,1,-1,-1,-1
139,17,115,81,16,36,1,-1,-1,-1
139,20,663,224,35,89,1,-1,-1,-1
139,21,542,194,27,77,1,-1,-1,-1
139,28,686,233,44,105,1,-1,-1,-1
140,3,383,185,27,78,1,-1,-1,-1
140,6,613,113,24,64,1,-1,-1,-1
140,10,703,115,23,66,1,-1,-1,-1
140,17,111,83,15,36,1,-1,-1,-1
140,20,670,221,36,90,1,-1,-1,-1
140,21,534,192,27,75,1,-1,-1,-1
140,28,680,236,44,106,1,-1,-1,-1
141,3,385,186,27,76,1,-1,-1,-1
141,5,634,114,23,61,1,-1,-1,-1
141,6,615,110,24,63,1,-1,-1,-1
141,10,704,116,24,67,1,-1,-1,-1
141,16,496,336,18,47,1,-1,-1,-1
141,17,106,82,15,36,1,-1,-1,-1
141,20,678,221,36,90,1,-1,-1,-1
141,21,522,193,28,77,1,-1,-1,-1
141,28,674,228,45,108,1,-1,-1,-1
141,30,416,178,28,80,1,-1,-1,-1
142,3,386,189,26,75,1,-1,-1,-1
142,5,637,114,22,61,1,-1,-1,-1
142,6,618,111,24,62,1,-1,-1,-1
142,10,706,119,24,67,1,-1,-1,-1
142,16,497,337,18,46,1,-1,-1,-1
142,17,103,83,15,36,1,-1,-1,-1
142,21,515,191,29,78,1,-1,-1,-1
142,28,674,228,44,107,1,-1,-1,-1
142,30,416,182,28,79,1,-1,-1,-1
143,3,385,187,28,78,1,-1,-1,-1
143,5,639,114,22,61,1,-1,-1,-1
143,6,617,112,23,60,1,-1,-1,-1
143,10,705,116,24,67,1,-1,-1,-1
143,16,497,337,18,46,1,-1,-1,-1
143,17,98,83,16,36,1,-1,-1,-1
143,21,510,189,29,77,1,-1,-1,-1
143,28,659,230,42,104,1,-1,-1,-1
143,30,412,181,31,86,1,-1,-1,-1
144,3,384,187,28,78,1,-1,-1,-1
144,5,641,112,22,60,1,-1,-1,-1
144,6,622,111,23,60,1,-1,-1,-1
144,10,708,113,24,67,1,-1,-1,-1
144,17,94,85,16,36,1,-1,-1,-1
144,21,501,188,28,76,1,-1,-1,-1
144,28,648,231,41,101,1,-1,-1,-1
144,30,413,176,31,88,1,-1,-1,-1
145,3,383,189,28,78,1,-1,-1,-1
145,5,639,112,22,60,1,-1,-1,-1
145,6,624,111,23,59,1,-1,-1,-1
145,10,709,115,23,66,1,-1,-1,-1
145,17,91,84,17,40,1,-1,-1,-1
145,21,491,183,30,80,1,-1,-1,-1
145,28,637,230,42,103,1,-1,-1,-1
145,30,413,180,32,90,1,-1,-1,-1
145,31,716,226,32,84,1,-1,-1,-1
146,3,383,190,27,77,1,-1,-1,-1
146,5,639,111,22,60,1,-1,-1,-1
146,6,628,110,23,59,1,-1,-1,-1
146,10,710,116,23,65,1,-1,-1,-1
146,17,90,84,17,41,1,-1,-1,-1
146,21,484,181,31,80,1,-1,-1,-1
146,28,632,228,41,103,1,-1,-1,-1
146,30,414,183,31,89,1,-1,-1,-1
146,31,724,230,31,82,1,-1,-1,-1
147,3,382,191,27,76,1,-1,-1,-1
147,5,641,110,22,60,1,-1,-1,-1
147,6,626,109,23,59,1,-1,-1,-1
147,10,710,114,21,61,1,-1,-1,-1
147,16,496,334,17,45,1,-1,-1,-1
147,17,86,84,17,42,1,-1,-1,-1
147,21,470,178,31,83,1,-1,-1,-1
147,24,719,118,20,57,1,-1,-1,-1
147,28,621,228,38,97,1,-1,-1,-1
147,30,413,183,30,86,1,-1,-1,-1
147,31,737,232,30,79,1,-1,-1,-1
148,3,384,192,26,74,1,-1,-1,-1
148,5,640,114,22,59,1,-1,-1,-1
148,6,630,109,23,59,1,-1,-1,-1
148,10,712,115,21,59,1,-1,-1,-1
148,16,497,338,17,45,1,-1,-1,-1
148,21,463,178,31,84,1,-1,-1,-1
148,24,715,117,19,55,1,-1,-1,-1
148,28,614,228,37,95,1,-1,-1,-1
148,30,413,189,29,83,1,-1,-1,-1
148,31,743,236,29,78,1,-1,-1,-1
149,3,385,192,28,79,1,-1,-1,-1
149,5,642,111,23,60,1,-1,-1,-1
149,6,627,108,24,60,1,-1,-1,-1
149,10,714,115,20,58,1,-1,-1,-1
149,16,496,335,17,46,1,-1,-1,-1
149,21,452,179,32,84,1,-1,-1,-1
149,24,716,116,19,55,1,-1,-1,-1
149,28,605,229,36,93,1,-1,-1,-1
149,30,413,190,29,83,1,-1,-1,-1
149,31,750,238,29,76,1,-1,-1,-1
150,3,388,195,28,80,1,-1,-1,-1
150,5,638,108,23,60,1,-1,-1,-1
150,6,631,110,24,60,1,-1,-1,-1
150,16,496,340,17,46,1,-1,-1,-1
150,21,442,181,32,84,1,-1,-1,-1
150,28,598,226,35,91,1,-1,-1,-1
151,3,390,195,28,81,1,-1,-1,-1
151,5,646,108,21,57,1,-1,-1,-1
151,6,633,110,23,60,1,-1,-1,-1
151,16,496,340,17,46,1,-1,-1,-1
151,17,76,84,18,42,1,-1,-1,-1
151,21,438,186,32,84,1,-1,-1,-1
151,28,589,223,35,92,1,-1,-1,-1
152,3,393,200,28,80,1,-1,-1,-1
152,5,648,102,21,55,1,-1,-1,-1
152,17,71,86,18,42,1,-1,-1,-1
152,21,435,188,31,83,1,-1,-1,-1
152,28,583,224,35,92,1,-1,-1,-1
153,3,394,202,28,81,1,-1,-1,-1
153,5,649,104,22,59,1,-1,-1,-1
153,10,701,111,22,62,1,-1,-1,-1
153,17,64,88,17,42,1,-1,-1,-1
153,21,436,188,33,90,1,-1,-1,-1
153,24,718,121,19,55,1,-1,-1,-1
153,28,572,224,33,88,1,-1,-1,-1
153,30,414,181,33,92,1,-1,-1,-1
154,5,647,107,23,61,1,-1,-1,-1
154,10,702,114,22,63,1,-1,-1,-1
154,17,60,91,17,41,1,-1,-1,-1
154,21,436,189,33,91,1,-1,-1,-1
154,24,715,121,19,54,1,-1,-1,-1
154,28,566,225,32,85,1,-1,-1,-1
154,30,414,180,32,92,1,-1,-1,-1
155,5,649,107,22,58,1,-1,-1,-1
155,10,696,112,21,61,1,-1,-1,-1
155,17,57,89,17,40,1,-1,-1,-1
155,21,437,190,32,91,1,-1,-1,-1
155,24,722,123,19,53,1,-1,-1,-1
155,28,557,221,32,86,1,-1,-1,-1
155,30,412,184,32,92,1,-1,-1,-1
156,5,649,109,21,57,1,-1,-1,-1
156,10,693,113,21,59,1,-1,-1,-1
156,17,53,91,16,39,1,-1,-1,-1
156,21,443,194,32,90,1,-1,-1,-1
156,24,727,113,18,52,1,-1,-1,-1
156,28,548,220,31,85,1,-1,-1,-1
156,30,409,186,32,91,1,-1,-1,-1
157,5,648,108,20,55,1,-1,-1,-1
157,10,687,110,20,58,1,-1,-1,-1
157,17,52,89,16,39,1,-1,-1,-1
157,21,446,194,32,90,1,-1,-1,-1
157,24,729,112,18,51,1,-1,-1,-1
157,28,539,219,31,84,1,-1,-1,-1
157,30,413,188,33,93,1,-1,-1,-1
158,5,650,108,20,54,1,-1,-1,-1
158,10,684,122,20,57,1,-1,-1,-1
158,17,48,91,16,39,1,-1,-1,-1
158,21,455,197,32,89,1,-1,-1,-1
158,28,530,221,31,83,1,-1,-1,-1
158,30,416,188,33,92,1,-1,-1,-1
159,5,652,107,21,56,1,-1,-1,-1
159,10,683,112,22,63,1,-1,-1,-1
159,17,43,89,17,41,1,-1,-1,-1
159,21,459,200,31,88,1,-1,-1,-1
159,28,520,219,32,85,1,-1,-1,-1
159,30,416,188,33,93,1,-1,-1,-1
159,34,373,173,27,77,1,-1,-1,-1
160,5,655,107,21,57,1,-1,-1,-1
160,10,680,114,23,64,1,-1,-1,-1
160,17,43,91,17,41,1,-1,-1,-1
160,21,466,202,31,86,1,-1,-1,-1
160,28,515,218,32,86,1,-1,-1,-1
160,34,368,179,25,71,1,-1,-1,-1
161,5,657,105,23,61,1,-1,-1,-1
161,10,680,107,23,65,1,-1,-1,-1
161,16,494,336,18,46,1,-1,-1,-1
161,17,36,91,18,45,1,-1,-1,-1
161,21,464,197,32,92,1,-1,-1,-1
161,28,507,217,32,85,1,-1,-1,-1
161,34,355,176,25,71,1,-1,-1,-1
162,5,658,102,24,63,1,-1,-1,-1
162,10,674,102,23,65,1,-1,-1,-1
162,16,494,342,18,46,1,-1,-1,-1
162,17,33,93,19,45,1,-1,-1,-1
162,21,474,204,33,93,1,-1,-1,-1
162,34,349,177,25,71,1,-1,-1,-1
163,3,435,203,32,92,1,-1,-1,-1
163,5,659,103,26,69,1,-1,-1,-1
163,10,676,101,24,67,1,-1,-1,-1
163,16,494,342,18,46,1,-1,-1,-1
163,17,33,92,17,43,1,-1,-1,-1
163,21,474,205,33,93,1,-1,-1,-1
163,34,338,173,26,73,1,-1,-1,-1
163,35,482,199,35,99,1,-1,-1,-1
164,3,437,208,33,92,1,-1,-1,-1
164,5,660,106,27,71,1,-1,-1,-1
164,10,679,92,24,68,1,-1,-1,-1
164,17,30,96,17,42,1,-1,-1,-1
164,34,333,168,26,73,1,-1,-1,-1
164,35,483,203,35,98,1,-1,-1,-1
165,3,445,206,33,92,1,-1,-1,-1
165,5,660,106,28,73,1,-1,-1,-1
165,10,679,96,24,67,1,-1,-1,-1
165,17,30,97,17,42,1,-1,-1,-1
165,34,327,171,26,73,1,-1,-1,-1
165,35,483,202,34,97,1,-1,-1,-1
166,3,447,213,32,91,1,-1,-1,-1
166,5,657,103,28,74,1,-1,-1,-1
166,10,682,90,24,67,1,-1,-1,-1
166,17,25,99,17,42,1,-1,-1,-1
166,34,320,169,26,72,1,-1,-1,-1
166,35,491,201,34,95,1,-1,-1,-1
167,3,451,211,32,92,1,-1,-1,-1
167,5,655,108,27,73,1,-1,-1,-1
167,10,682,96,22,63,1,-1,-1,-1
167,17,24,100,17,40,1,-1,-1,-1
167,21,494,204,33,92,1,-1,-1,-1
167,34,308,169,27,72,1,-1,-1,-1
167,35,493,201,34,95,1,-1,-1,-1
168,3,453,217,32,91,1,-1,-1,-1
168,5,650,117,26,72,1,-1,-1,-1
168,10,686,93,22,61,1,-1,-1,-1
168,17,18,100,16,39,1,-1,-1,-1
168,21,500,206,32,91,1,-1,-1,-1
168,34,305,169,27,71,1,-1,-1,-1
169,3,454,217,32,91,1,-1,-1,-1
169,5,649,114,25,68,1,-1,-1,-1
169,10,686,99,20,56,1,-1,-1,-1
169,17,15,101,16,39,1,-1,-1,-1
169,21,508,205,33,92,1,-1,-1,-1
169,34,293,170,28,71,1,-1,-1,-1
170,3,453,211,32,91,1,-1,-1,-1
170,5,643,120,24,67,1,-1,-1,-1
170,10,690,105,19,53,1,-1,-1,-1
170,21,513,202,33,92,1,-1,-1,-1
170,34,287,168,29,71,1,-1,-1,-1
171,3,448,207,33,94,1,-1,-1,-1
171,5,641,115,24,66,1,-1,-1,-1
171,10,687,103,20,55,1,-1,-1,-1
171,21,520,203,33,91,1,-1,-1,-1
171,34,280,167,29,72,1,-1,-1,-1
172,3,455,209,34,94,1,-1,-1,-1
172,5,634,120,23,66,1,-1,-1,-1
172,10,683,97,20,55,1,-1,-1,-1
172,21,530,208,32,90,1,-1,-1,-1
172,34,270,167,29,72,1,-1,-1,-1
173,3,454,205,35,96,1,-1,-1,-1
173,5,624,118,25,69,1,-1,-1,-1
173,10,684,99,21,57,1,-1,-1,-1
173,21,534,206,33,93,1,-1,-1,-1
173,34,263,169,29,70,1,-1,-1,-1
174,3,461,205,34,96,1,-1,-1,-1
174,5,622,120,25,70,1,-1,-1,-1
174,10,678,101,21,57,1,-1,-1,-1
174,21,538,208,33,93,1,-1,-1,-1
174,34,257,169,30,69,1,-1,-1,-1
175,3,467,207,33,94,1,-1,-1,-1
175,5,613,115,27,76,1,-1,-1,-1
175,10,681,102,21,56,1,-1,-1,-1
175,21,545,207,32,90,1,-1,-1,-1
175,34,247,168,30,70,1,-1,-1,-1
176,3,474,210,33,92,1,-1,-1,-1
176,5,612,122,27,77,1,-1,-1,-1
176,10,679,100,21,56,1,-1,-1,-1
176,21,553,212,31,88,1,-1,-1,-1
176,34,241,169,31,69,1,-1,-1,-1
177,3,478,215,32,92,1,-1,-1,-1
177,5,609,126,26,73,1,-1,-1,-1
177,10,681,102,22,57,1,-1,-1,-1
177,21,559,212,31,88,1,-1,-1,-1
177,28,389,205,36,96,1,-1,-1,-1
177,34,232,165,30,69,1,-1,-1,-1
178,3,485,213,32,90,1,-1,-1,-1
178,5,603,127,25,71,1,-1,-1,-1
178,10,679,100,22,57,1,-1,-1,-1
178,21,567,216,31,87,1,-1,-1,-1
178,28,383,207,35,96,1,-1,-1,-1
178,34,222,164,30,68,1,-1,-1,-1
179,3,489,217,32,90,1,-1,-1,-1
179,5,597,122,26,74,1,-1,-1,-1
179,10,684,99,22,57,1,-1,-1,-1
179,21,572,217,30,86,1,-1,-1,-1
179,28,379,207,33,89,1,-1,-1,-1
179,34,216,165,31,69,1,-1,-1,-1
180,3,492,216,31,88,1,-1,-1,-1
180,5,595,126,26,73,1,-1,-1,-1
180,10,682,101,22,57,1,-1,-1,-1
180,21,577,218,31,85,1,-1,-1,-1
180,28,373,208,31,86,1,-1,-1,-1
180,34,210,165,31,68,1,-1,-1,-1
181,3,498,220,32,89,1,-1,-1,-1
181,5,589,125,25,72,1,-1,-1,-1
181,10,686,101,21,55,1,-1,-1,-1
181,21,586,218,32,87,1,-1,-1,-1
181,28,361,211,32,86,1,-1,-1,-1
181,34,201,165,29,65,1,-1,-1,-1
182,3,505,224,32,89,1,-1,-1,-1
182,5,585,126,25,71,1,-1,-1,-1
182,10,684,100,20,54,1,-1,-1,-1
182,21,596,216,32,88,1,-1,-1,-1
182,28,355,213,32,85,1,-1,-1,-1
182,34,195,165,29,64,1,-1,-1,-1
183,3,509,223,32,92,1,-1,-1,-1
183,5,582,127,24,68,1,-1,-1,-1
183,10,688,104,19,50,1,-1,-1,-1
183,21,599,217,34,92,1,-1,-1,-1
183,24,724,117,15,42,1,-1,-1,-1
183,28,345,207,33,90,1,-1,-1,-1
183,34,188,165,28,63,1,-1,-1,-1
184,3,515,226,33,92,1,-1,-1,-1
184,5,576,134,24,67,1,-1,-1,-1
184,10,685,102,18,48,1,-1,-1,-1
184,21,608,218,34,92,1,-1,-1,-1
184,24,722,119,15,42,1,-1,-1,-1
184,28,336,206,33,91,1,-1,-1,-1
185,3,522,226,32,92,1,-1,-1,-1
185,5,570,134,25,72,1,-1,-1,-1
185,10,688,103,18,49,1,-1,-1,-1
185,21,614,222,34,90,1,-1,-1,-1
185,24,722,120,14,41,1,-1,-1,-1
185,28,328,209,33,87,1,-1,-1,-1
186,3,528,228,32,91,1,-1,-1,-1
186,5,568,133,26,74,1,-1,-1,-1
186,10,686,100,18,48,1,-1,-1,-1
186,21,622,223,33,88,1,-1,-1,-1
186,28,322,211,33,85,1,-1,-1,-1
187,3,534,228,34,95,1,-1,-1,-1
187,5,561,130,26,75,1,-1,-1,-1
187,10,689,102,18,49,1,-1,-1,-1
187,21,631,223,35,92,1,-1,-1,-1
187,28,310,207,32,84,1,-1,-1,-1
188,3,541,231,33,94,1,-1,-1,-1
188,5,557,133,26,74,1,-1,-1,-1
188,10,687,103,18,48,1,-1,-1,-1
188,21,639,227,36,93,1,-1,-1,-1
188,28,304,208,31,82,1,-1,-1,-1
189,3,547,231,34,97,1,-1,-1,-1
189,5,550,138,27,76,1,-1,-1,-1
189,10,686,94,21,57,1,-1,-1,-1
189,21,646,228,35,91,1,-1,-1,-1
189,28,292,202,33,88,1,-1,-1,-1
189,34,148,163,28,62,1,-1,-1,-1
190,3,551,231,34,96,1,-1,-1,-1
190,5,545,138,27,76,1,-1,-1,-1
190,10,684,93,22,60,1,-1,-1,-1
190,21,654,233,35,90,1,-1,-1,-1
190,28,285,203,33,89,1,-1,-1,-1
190,34,141,161,28,62,1,-1,-1,-1
191,3,558,242,34,95,1,-1,-1,-1
191,5,541,140,25,72,1,-1,-1,-1
191,10,688,98,20,55,1,-1,-1,-1
191,21,656,230,37,96,1,-1,-1,-1
191,24,725,117,15,42,1,-1,-1,-1
191,28,279,198,34,89,1,-1,-1,-1
191,34,143,163,26,57,1,-1,-1,-1
192,3,561,242,33,93,1,-1,-1,-1
192,5,537,138,25,70,1,-1,-1,-1
192,10,686,102,19,53,1,-1,-1,-1
192,21,659,229,37,98,1,-1,-1,-1
192,24,724,114,15,42,1,-1,-1,-1
192,28,272,201,34,89,1,-1,-1,-1
192,34,137,164,24,54,1,-1,-1,-1
193,3,566,241,34,97,1,-1,-1,-1
193,5,530,140,25,72,1,-1,-1,-1
193,10,688,94,21,58,1,-1,-1,-1
193,21,664,230,38,100,1,-1,-1,-1
193,24,724,114,15,42,1,-1,-1,-1
193,28,265,196,32,84,1,-1,-1,-1
193,34,131,163,26,56,1,-1,-1,-1
194,3,570,246,34,96,1,-1,-1,-1
194,5,525,143,26,72,1,-1,-1,-1
194,10,686,89,21,59,1,-1,-1,-1
194,21,671,229,38,101,1,-1,-1,-1
194,28,261,198,31,81,1,-1,-1,-1
194,34,120,159,27,56,1,-1,-1,-1
195,3,575,249,33,94,1,-1,-1,-1
195,5,520,142,25,72,1,-1,-1,-1
195,10,688,89,22,61,1,-1,-1,-1
195,21,675,233,38,101,1,-1,-1,-1
195,28,257,195,32,83,1,-1,-1,-1
195,34,114,152,29,61,1,-1,-1,-1
196,3,585,254,32,91,1,-1,-1,-1
196,5,514,144,25,71,1,-1,-1,-1
196,10,685,90,22,62,1,-1,-1,-1
196,21,682,234,38,100,1,-1,-1,-1
196,28,247,190,32,83,1,-1,-1,-1
196,34,107,154,29,63,1,-1,-1,-1
197,3,592,254,35,98,1,-1,-1,-1
197,5,510,145,26,73,1,-1,-1,-1
197,10,687,96,20,55,1,-1,-1,-1
197,21,686,241,36,94,1,-1,-1,-1
197,28,241,193,30,79,1,-1,-1,-1
197,34,101,151,27,61,1,-1,-1,-1
198,3,595,257,35,100,1,-1,-1,-1
198,5,507,142,26,73,1,-1,-1,-1
198,10,685,100,19,52,1,-1,-1,-1
198,21,692,247,35,91,1,-1,-1,-1
198,28,237,194,30,77,1,-1,-1,-1
198,34,97,150,27,60,1,-1,-1,-1
199,3,604,262,35,99,1,-1,-1,-1
199,5,499,142,26,73,1,-1,-1,-1
199,10,689,102,19,52,1,-1,-1,-1
199,21,697,249,38,99,1,-1,-1,-1
199,24,720,111,15,42,1,-1,-1,-1
199,28,228,192,30,77,1,-1,-1,-1
199,34,86,153,29,64,1,-1,-1,-1
200,3,610,262,35,98,1,-1,-1,-1
200,5,493,144,26,73,1,-1,-1,-1
200,10,692,107,19,52,1,-1,-1,-1
200,21,702,254,38,101,1,-1,-1,-1
200,24,719,113,15,42,1,-1,-1,-1
200,28,223,191,30,77,1,-1,-1,-1
200,34,83,153,30,65,1,-1,-1,-1
