4,71,1488,439,55,155,1,-1,-1,-1
4,70,579,416,61,173,1,-1,-1,-1
4,69,1369,416,73,207,1,-1,-1,-1
4,56,1450,430,60,169,1,-1,-1,-1
5,70,564,420,61,173,1,-1,-1,-1
5,69,1363,419,73,205,1,-1,-1,-1
5,56,1440,430,60,168,1,-1,-1,-1
6,73,651,406,76,202,1,-1,-1,-1
6,70,554,420,63,178,1,-1,-1,-1
6,69,1359,420,76,213,1,-1,-1,-1
6,56,1435,429,61,170,1,-1,-1,-1
7,73,643,414,77,199,1,-1,-1,-1
7,70,548,418,66,184,1,-1,-1,-1
7,69,1352,418,80,225,1,-1,-1,-1
7,56,1429,428,64,181,1,-1,-1,-1
8,73,646,418,73,192,1,-1,-1,-1
8,70,544,420,66,184,1,-1,-1,-1
8,69,1356,424,78,219,1,-1,-1,-1
8,56,1419,430,65,182,1,-1,-1,-1
9,73,646,418,71,191,1,-1,-1,-1
9,70,546,421,64,180,1,-1,-1,-1
9,69,1357,424,77,216,1,-1,-1,-1
9,56,1416,430,64,181,1,-1,-1,-1
10,73,641,419,70,191,1,-1,-1,-1
10,70,552,425,62,175,1,-1,-1,-1
10,69,1367,428,77,216,1,-1,-1,-1
10,56,1410,436,66,186,1,-1,-1,-1
11,75,1145,423,40,86,1,-1,-1,-1
11,73,638,422,69,191,1,-1,-1,-1
11,70,554,426,62,176,1,-1,-1,-1
11,56,1407,439,67,189,1,-1,-1,-1
12,75,1146,421,41,86,1,-1,-1,-1
12,73,637,421,69,191,1,-1,-1,-1
12,70,563,424,64,180,1,-1,-1,-1
13,75,1147,422,42,87,1,-1,-1,-1
13,73,634,420,69,192,1,-1,-1,-1
13,70,564,422,64,180,1,-1,-1,-1
14,75,1149,420,43,89,1,-1,-1,-1
14,73,636,417,70,195,1,-1,-1,-1
14,70,562,422,63,178,1,-1,-1,-1
14,69,1377,418,86,241,1,-1,-1,-1
15,73,636,414,66,185,1,-1,-1,-1
15,70,568,421,65,182,1,-1,-1,-1
15,69,1376,417,86,241,1,-1,-1,-1
16,73,635,416,61,172,1,-1,-1,-1
16,70,579,418,69,191,1,-1,-1,-1
16,69,1374,414,85,240,1,-1,-1,-1
17,70,577,417,71,193,1,-1,-1,-1
17,69,1372,414,86,243,1,-1,-1,-1
18,70,574,417,75,196,1,-1,-1,-1
18,69,1369,414,87,244,1,-1,-1,-1
19,70,571,420,79,201,1,-1,-1,-1
19,69,1365,417,86,243,1,-1,-1,-1
20,70,560,423,80,207,1,-1,-1,-1
20,69,1361,424,86,241,1,-1,-1,-1
21,70,551,427,87,214,1,-1,-1,-1
21,69,1354,425,86,241,1,-1,-1,-1
22,70,547,431,92,217,1,-1,-1,-1
22,69,1346,420,88,248,1,-1,-1,-1
23,70,540,432,92,221,1,-1,-1,-1
23,69,1339,426,90,252,1,-1,-1,-1
24,70,530,435,89,221,1,-1,-1,-1
24,69,1331,427,91,257,1,-1,-1,-1
25,69,1313,417,97,272,1,-1,-1,-1
26,78,256,436,92,215,1,-1,-1,-1
26,69,1302,414,98,274,1,-1,-1,-1
29,79,430,431,86,231,1,-1,-1,-1
29,67,1240,427,88,249,1,-1,-1,-1
30,67,1238,435,85,240,1,-1,-1,-1
31,67,1236,441,84,237,1,-1,-1,-1
32,82,299,443,77,216,1,-1,-1,-1
32,80,348,426,92,259,1,-1,-1,-1
32,67,1234,442,85,238,1,-1,-1,-1
33,83,1150,441,77,215,1,-1,-1,-1
33,82,300,443,86,241,1,-1,-1,-1
33,80,338,432,94,260,1,-1,-1,-1
33,67,1229,448,85,239,1,-1,-1,-1
34,83,1145,445,74,208,1,-1,-1,-1
34,82,284,436,92,258,1,-1,-1,-1
34,67,1226,459,87,244,1,-1,-1,-1
35,83,1138,453,70,197,1,-1,-1,-1
35,82,277,445,94,265,1,-1,-1,-1
35,67,1224,455,90,252,1,-1,-1,-1
36,83,1132,456,68,190,1,-1,-1,-1
36,82,275,440,97,273,1,-1,-1,-1
36,67,1222,452,91,255,1,-1,-1,-1
37,84,77,455,86,200,1,-1,-1,-1
37,83,1120,458,69,195,1,-1,-1,-1
37,82,269,448,101,270,1,-1,-1,-1
37,67,1218,447,92,257,1,-1,-1,-1
38,84,72,456,87,202,1,-1,-1,-1
38,83,1110,458,70,197,1,-1,-1,-1
38,82,260,448,107,275,1,-1,-1,-1
38,67,1217,445,93,262,1,-1,-1,-1
39,84,74,460,85,199,1,-1,-1,-1
39,83,1101,461,69,193,1,-1,-1,-1
39,67,1219,443,96,269,1,-1,-1,-1
40,67,1221,435,98,276,1,-1,-1,-1
41,67,1220,428,101,285,1,-1,-1,-1
42,82,179,432,126,296,1,-1,-1,-1
42,67,1221,428,104,291,1,-1,-1,-1
43,82,170,428,131,300,1,-1,-1,-1
44,82,156,425,133,309,1,-1,-1,-1
44,80,273,438,60,169,1,-1,-1,-1
45,83,1067,424,66,187,1,-1,-1,-1
45,82,144,422,131,304,1,-1,-1,-1
46,83,1063,423,68,191,1,-1,-1,-1
46,82,140,422,128,298,1,-1,-1,-1
47,83,1058,421,69,194,1,-1,-1,-1
47,82,150,421,118,288,1,-1,-1,-1
47,67,1223,423,112,315,1,-1,-1,-1
48,83,1053,424,68,192,1,-1,-1,-1
48,67,1224,422,112,314,1,-1,-1,-1
49,83,1044,422,68,191,1,-1,-1,-1
49,67,1227,423,111,311,1,-1,-1,-1
50,87,58,432,143,333,1,-1,-1,-1
50,83,1029,420,69,194,1,-1,-1,-1
50,67,1230,424,112,315,1,-1,-1,-1
51,87,41,429,149,339,1,-1,-1,-1
51,83,1019,420,72,196,1,-1,-1,-1
51,67,1232,421,114,320,1,-1,-1,-1
52,87,33,423,139,328,1,-1,-1,-1
52,83,1015,416,70,194,1,-1,-1,-1
52,67,1233,422,115,322,1,-1,-1,-1
53,89,170,432,76,205,1,-1,-1,-1
53,87,38,422,128,315,1,-1,-1,-1
53,83,1006,415,70,195,1,-1,-1,-1
53,67,1235,419,116,325,1,-1,-1,-1
54,89,167,426,80,212,1,-1,-1,-1
54,87,15,432,132,328,1,-1,-1,-1
54,86,843,425,52,122,1,-1,-1,-1
54,83,1004,418,70,194,1,-1,-1,-1
54,67,1236,418,116,326,1,-1,-1,-1
55,89,162,430,72,201,1,-1,-1,-1
55,87,-3,414,129,344,1,-1,-1,-1
55,86,839,424,50,118,1,-1,-1,-1
55,83,1001,419,68,189,1,-1,-1,-1
55,67,1237,411,117,329,1,-1,-1,-1
56,86,833,422,50,117,1,-1,-1,-1
56,67,1236,408,120,337,1,-1,-1,-1
57,67,1235,408,121,341,1,-1,-1,-1
58,90,99,426,71,200,1,-1,-1,-1
58,67,1237,408,123,346,1,-1,-1,-1
59,90,96,426,71,200,1,-1,-1,-1
59,83,967,415,65,175,1,-1,-1,-1
59,67,1239,404,126,354,1,-1,-1,-1
60,90,95,431,70,196,1,-1,-1,-1
60,83,962,419,65,173,1,-1,-1,-1
60,67,1248,404,131,368,1,-1,-1,-1
61,90,92,426,76,208,1,-1,-1,-1
61,83,959,423,68,172,1,-1,-1,-1
61,67,1252,402,137,385,1,-1,-1,-1
62,90,89,426,78,212,1,-1,-1,-1
62,83,959,424,67,172,1,-1,-1,-1
62,67,1259,400,138,388,1,-1,-1,-1
63,90,88,422,78,212,1,-1,-1,-1
63,83,958,427,68,173,1,-1,-1,-1
63,67,1263,400,138,386,1,-1,-1,-1
64,90,89,419,76,213,1,-1,-1,-1
64,83,958,427,68,173,1,-1,-1,-1
64,67,1275,397,140,392,1,-1,-1,-1
65,90,87,425,78,213,1,-1,-1,-1
65,83,957,424,68,173,1,-1,-1,-1
65,67,1287,398,140,392,1,-1,-1,-1
66,90,82,422,77,213,1,-1,-1,-1
66,83,955,424,68,172,1,-1,-1,-1
66,67,1295,400,142,399,1,-1,-1,-1
67,90,83,419,77,216,1,-1,-1,-1
67,83,947,423,69,171,1,-1,-1,-1
67,67,1304,397,145,408,1,-1,-1,-1
68,90,80,417,79,217,1,-1,-1,-1
68,83,943,419,68,168,1,-1,-1,-1
68,67,1313,394,149,417,1,-1,-1,-1
69,90,81,416,76,213,1,-1,-1,-1
69,83,939,415,69,167,1,-1,-1,-1
69,67,1319,391,153,428,1,-1,-1,-1
70,90,80,417,73,205,1,-1,-1,-1
70,83,932,415,70,167,1,-1,-1,-1
70,67,1329,383,161,453,1,-1,-1,-1
71,90,83,419,68,193,1,-1,-1,-1
71,83,925,413,70,168,1,-1,-1,-1
71,67,1334,376,167,469,1,-1,-1,-1
72,90,79,419,69,194,1,-1,-1,-1
72,67,1338,371,170,477,1,-1,-1,-1
73,90,78,418,68,191,1,-1,-1,-1
73,67,1356,367,173,485,1,-1,-1,-1
74,90,80,420,65,183,1,-1,-1,-1
74,67,1365,367,176,494,1,-1,-1,-1
75,92,880,418,64,161,1,-1,-1,-1
75,90,76,422,65,182,1,-1,-1,-1
75,67,1380,368,179,501,1,-1,-1,-1
76,92,878,418,65,166,1,-1,-1,-1
76,90,73,422,65,178,1,-1,-1,-1
76,67,1394,363,183,514,1,-1,-1,-1
77,92,880,419,65,167,1,-1,-1,-1
77,90,72,423,62,175,1,-1,-1,-1
77,89,10,423,75,204,1,-1,-1,-1
77,67,1404,368,185,520,1,-1,-1,-1
78,92,876,418,65,167,1,-1,-1,-1
78,90,72,423,61,170,1,-1,-1,-1
78,89,11,423,72,204,1,-1,-1,-1
78,67,1413,373,184,516,1,-1,-1,-1
79,92,871,417,65,167,1,-1,-1,-1
79,90,76,419,64,179,1,-1,-1,-1
79,67,1422,377,181,507,1,-1,-1,-1
80,92,869,418,63,160,1,-1,-1,-1
80,90,80,409,66,185,1,-1,-1,-1
80,67,1449,381,182,512,1,-1,-1,-1
81,92,868,419,63,159,1,-1,-1,-1
81,90,85,398,71,199,1,-1,-1,-1
81,67,1465,382,185,518,1,-1,-1,-1
82,92,863,417,64,158,1,-1,-1,-1
82,90,82,384,77,215,1,-1,-1,-1
82,67,1487,363,183,514,1,-1,-1,-1
83,92,862,417,64,158,1,-1,-1,-1
83,90,79,389,76,214,1,-1,-1,-1
83,67,1498,369,185,518,1,-1,-1,-1
84,92,862,415,65,159,1,-1,-1,-1
84,90,77,400,74,207,1,-1,-1,-1
84,67,1503,393,189,530,1,-1,-1,-1
85,92,860,414,65,162,1,-1,-1,-1
85,90,74,404,70,197,1,-1,-1,-1
85,67,1527,401,195,547,1,-1,-1,-1
86,92,854,410,67,168,1,-1,-1,-1
86,90,66,411,66,185,1,-1,-1,-1
86,67,1544,396,202,568,1,-1,-1,-1
87,92,850,408,66,166,1,-1,-1,-1
87,67,1555,386,210,590,1,-1,-1,-1
88,92,846,407,68,167,1,-1,-1,-1
88,67,1568,376,218,611,1,-1,-1,-1
89,92,841,408,72,167,1,-1,-1,-1
89,67,1581,359,232,651,1,-1,-1,-1
90,92,846,410,72,171,1,-1,-1,-1
90,67,1621,360,236,662,1,-1,-1,-1
91,67,1636,347,246,689,1,-1,-1,-1
92,67,1651,341,249,698,1,-1,-1,-1
93,67,1667,340,245,687,1,-1,-1,-1
94,67,1684,348,238,666,1,-1,-1,-1
95,92,830,398,76,172,1,-1,-1,-1
95,67,1704,364,227,635,1,-1,-1,-1
96,92,829,392,77,173,1,-1,-1,-1
97,92,830,388,78,172,1,-1,-1,-1
98,92,831,389,77,176,1,-1,-1,-1
99,92,832,387,76,178,1,-1,-1,-1
100,92,832,385,75,180,1,-1,-1,-1
100,67,1780,400,164,459,1,-1,-1,-1
101,95,742,381,47,124,1,-1,-1,-1
101,92,832,381,74,184,1,-1,-1,-1
101,67,1779,400,159,445,1,-1,-1,-1
102,95,751,384,49,128,1,-1,-1,-1
102,67,1777,399,157,439,1,-1,-1,-1
103,95,756,379,53,137,1,-1,-1,-1
103,67,1774,397,157,440,1,-1,-1,-1
104,95,746,381,51,135,1,-1,-1,-1
104,67,1773,398,157,441,1,-1,-1,-1
105,95,752,380,50,139,1,-1,-1,-1
106,95,754,382,50,140,1,-1,-1,-1
108,95,771,381,50,141,1,-1,-1,-1
109,95,767,384,50,140,1,-1,-1,-1
110,95,773,382,49,138,1,-1,-1,-1
110,67,1714,369,186,522,1,-1,-1,-1
111,95,775,380,50,141,1,-1,-1,-1
111,67,1710,358,191,535,1,-1,-1,-1
112,95,772,380,51,142,1,-1,-1,-1
112,67,1707,364,191,535,1,-1,-1,-1
113,95,771,383,50,141,1,-1,-1,-1
113,67,1704,364,192,539,1,-1,-1,-1
114,95,766,382,50,140,1,-1,-1,-1
114,67,1704,364,193,540,1,-1,-1,-1
115,96,682,379,53,126,1,-1,-1,-1
115,95,765,386,52,146,1,-1,-1,-1
115,67,1700,351,194,545,1,-1,-1,-1
116,67,1706,341,194,530,1,-1,-1,-1
117,67,1697,345,195,547,1,-1,-1,-1
118,67,1698,352,194,543,1,-1,-1,-1
119,67,1698,358,194,543,1,-1,-1,-1
120,67,1702,359,196,551,1,-1,-1,-1
122,101,866,381,59,162,1,-1,-1,-1
123,101,871,382,59,163,1,-1,-1,-1
124,101,877,382,57,160,1,-1,-1,-1
125,101,873,380,57,159,1,-1,-1,-1
126,101,873,374,57,160,1,-1,-1,-1
126,95,768,365,47,128,1,-1,-1,-1
126,67,1760,378,170,477,1,-1,-1,-1
127,101,867,375,53,150,1,-1,-1,-1
127,95,767,366,46,124,1,-1,-1,-1
127,67,1766,383,164,459,1,-1,-1,-1
128,101,874,375,52,146,1,-1,-1,-1
128,95,763,367,45,120,1,-1,-1,-1
128,67,1771,382,158,444,1,-1,-1,-1
129,101,877,372,50,142,1,-1,-1,-1
130,104,943,370,62,172,1,-1,-1,-1
130,101,867,373,49,137,1,-1,-1,-1
131,104,950,367,65,174,1,-1,-1,-1
132,104,959,363,63,173,1,-1,-1,-1
133,104,960,368,61,168,1,-1,-1,-1
134,104,963,366,58,164,1,-1,-1,-1
135,104,962,368,55,156,1,-1,-1,-1
135,103,64,381,69,195,1,-1,-1,-1
136,104,963,364,55,155,1,-1,-1,-1
136,103,61,376,73,205,1,-1,-1,-1
137,103,62,371,74,207,1,-1,-1,-1
138,103,65,371,74,207,1,-1,-1,-1
139,103,66,371,74,207,1,-1,-1,-1
140,103,65,368,75,210,1,-1,-1,-1
141,103,66,367,74,208,1,-1,-1,-1
142,103,65,368,74,209,1,-1,-1,-1
143,103,69,369,74,207,1,-1,-1,-1
144,103,69,369,74,209,1,-1,-1,-1
145,103,71,368,75,211,1,-1,-1,-1
146,103,70,367,76,213,1,-1,-1,-1
147,103,69,363,77,217,1,-1,-1,-1
148,103,70,362,78,219,1,-1,-1,-1
149,103,74,367,75,212,1,-1,-1,-1
150,103,74,364,77,216,1,-1,-1,-1
151,103,74,366,76,214,1,-1,-1,-1
152,103,74,364,78,219,1,-1,-1,-1
153,103,74,358,82,226,1,-1,-1,-1
154,103,75,357,82,226,1,-1,-1,-1
155,112,1114,324,65,182,1,-1,-1,-1
155,103,76,357,82,226,1,-1,-1,-1
156,114,870,313,46,128,1,-1,-1,-1
156,112,1113,320,65,183,1,-1,-1,-1
156,103,78,356,83,225,1,-1,-1,-1
157,114,876,314,46,127,1,-1,-1,-1
157,113,935,318,55,155,1,-1,-1,-1
157,112,1115,321,64,181,1,-1,-1,-1
157,103,76,357,83,225,1,-1,-1,-1
158,114,873,316,47,129,1,-1,-1,-1
158,113,944,320,57,161,1,-1,-1,-1
158,112,1116,321,64,181,1,-1,-1,-1
158,103,73,358,85,225,1,-1,-1,-1
159,114,868,314,50,134,1,-1,-1,-1
159,113,947,317,60,169,1,-1,-1,-1
159,112,1116,318,66,184,1,-1,-1,-1
159,103,66,358,88,225,1,-1,-1,-1
160,114,866,313,50,135,1,-1,-1,-1
160,113,947,319,59,167,1,-1,-1,-1
160,112,1118,320,64,180,1,-1,-1,-1
160,103,66,360,86,225,1,-1,-1,-1
161,114,854,318,50,136,1,-1,-1,-1
161,113,955,320,62,175,1,-1,-1,-1
162,114,854,318,49,134,1,-1,-1,-1
162,113,958,320,63,176,1,-1,-1,-1
162,105,16,353,87,230,1,-1,-1,-1
163,113,958,320,64,178,1,-1,-1,-1
163,109,1104,318,71,198,1,-1,-1,-1
163,105,15,352,92,232,1,-1,-1,-1
164,113,956,320,63,171,1,-1,-1,-1
164,109,1103,317,71,198,1,-1,-1,-1
164,105,11,355,90,234,1,-1,-1,-1
164,104,1069,321,66,185,1,-1,-1,-1
165,113,955,323,62,165,1,-1,-1,-1
165,109,1101,322,68,192,1,-1,-1,-1
165,105,9,358,84,233,1,-1,-1,-1
165,104,1073,324,65,183,1,-1,-1,-1
166,113,951,326,62,164,1,-1,-1,-1
166,105,7,367,79,221,1,-1,-1,-1
166,104,1080,323,66,185,1,-1,-1,-1
167,118,1690,342,201,563,1,-1,-1,-1
167,113,951,328,63,168,1,-1,-1,-1
167,105,4,374,75,211,1,-1,-1,-1
167,104,1080,324,65,184,1,-1,-1,-1
168,118,1682,334,203,570,1,-1,-1,-1
168,117,772,321,43,119,1,-1,-1,-1
168,114,823,325,48,135,1,-1,-1,-1
168,113,954,334,64,172,1,-1,-1,-1
168,105,5,381,69,194,1,-1,-1,-1
168,104,1077,324,66,186,1,-1,-1,-1
169,118,1663,318,208,583,1,-1,-1,-1
169,117,765,323,45,125,1,-1,-1,-1
169,114,829,326,50,142,1,-1,-1,-1
169,113,949,334,66,175,1,-1,-1,-1
169,104,1076,326,67,189,1,-1,-1,-1
170,119,291,348,45,126,1,-1,-1,-1
170,118,1654,304,205,574,1,-1,-1,-1
170,104,1069,323,69,194,1,-1,-1,-1
171,104,1057,323,69,195,1,-1,-1,-1
172,104,1048,323,70,197,1,-1,-1,-1
173,104,1045,323,70,197,1,-1,-1,-1
174,118,1586,293,200,560,1,-1,-1,-1
174,104,1041,321,71,200,1,-1,-1,-1
175,118,1575,303,200,561,1,-1,-1,-1
175,104,1037,319,72,202,1,-1,-1,-1
176,118,1565,303,198,556,1,-1,-1,-1
176,104,1039,320,72,204,1,-1,-1,-1
177,122,1725,352,176,494,1,-1,-1,-1
177,118,1555,327,197,553,1,-1,-1,-1
177,104,1041,322,73,204,1,-1,-1,-1
178,122,1718,347,181,507,1,-1,-1,-1
178,121,863,336,58,158,1,-1,-1,-1
178,120,555,338,58,164,1,-1,-1,-1
178,118,1545,337,196,549,1,-1,-1,-1
178,104,1040,323,73,204,1,-1,-1,-1
179,122,1710,342,184,516,1,-1,-1,-1
179,121,862,333,57,155,1,-1,-1,-1
179,120,549,343,57,161,1,-1,-1,-1
179,118,1537,344,194,545,1,-1,-1,-1
179,104,1041,322,72,204,1,-1,-1,-1
180,122,1704,334,186,521,1,-1,-1,-1
180,121,863,329,58,159,1,-1,-1,-1
180,118,1532,339,194,543,1,-1,-1,-1
180,117,755,324,44,124,1,-1,-1,-1
180,104,1043,319,72,203,1,-1,-1,-1
181,122,1698,324,188,528,1,-1,-1,-1
181,121,867,325,58,160,1,-1,-1,-1
181,118,1523,331,192,539,1,-1,-1,-1
181,117,751,320,45,126,1,-1,-1,-1
181,104,1045,315,72,202,1,-1,-1,-1
182,122,1693,318,191,535,1,-1,-1,-1
182,121,867,320,59,163,1,-1,-1,-1
182,118,1510,323,194,544,1,-1,-1,-1
182,117,741,316,46,128,1,-1,-1,-1
182,104,1045,311,72,202,1,-1,-1,-1
183,122,1690,311,193,543,1,-1,-1,-1
183,121,870,318,58,161,1,-1,-1,-1
183,118,1506,308,196,551,1,-1,-1,-1
183,117,736,312,46,130,1,-1,-1,-1
183,104,1046,309,72,202,1,-1,-1,-1
184,122,1690,308,194,544,1,-1,-1,-1
184,121,870,315,57,159,1,-1,-1,-1
184,118,1500,306,194,545,1,-1,-1,-1
184,117,740,310,46,131,1,-1,-1,-1
184,104,1046,307,72,202,1,-1,-1,-1
185,123,661,310,37,97,1,-1,-1,-1
185,122,1689,278,194,543,1,-1,-1,-1
185,121,870,314,57,160,1,-1,-1,-1
185,118,1493,301,194,545,1,-1,-1,-1
185,104,1045,305,72,202,1,-1,-1,-1
186,123,665,311,37,99,1,-1,-1,-1
186,122,1685,262,195,547,1,-1,-1,-1
186,121,867,313,57,161,1,-1,-1,-1
186,118,1492,296,193,542,1,-1,-1,-1
186,104,1047,306,71,200,1,-1,-1,-1
187,123,671,312,37,98,1,-1,-1,-1
187,122,1678,286,198,555,1,-1,-1,-1
187,121,868,315,58,162,1,-1,-1,-1
187,118,1487,300,192,540,1,-1,-1,-1
187,104,1048,308,71,199,1,-1,-1,-1
188,122,1676,297,202,566,1,-1,-1,-1
188,121,872,314,59,165,1,-1,-1,-1
188,118,1482,300,192,538,1,-1,-1,-1
188,104,1048,306,72,201,1,-1,-1,-1
189,122,1674,305,205,574,1,-1,-1,-1
189,121,871,317,59,166,1,-1,-1,-1
189,118,1475,298,192,540,1,-1,-1,-1
189,104,1050,308,72,202,1,-1,-1,-1
190,122,1673,309,207,581,1,-1,-1,-1
190,121,871,318,58,163,1,-1,-1,-1
190,118,1462,314,193,540,1,-1,-1,-1
190,104,1053,310,71,201,1,-1,-1,-1
191,122,1671,315,209,587,1,-1,-1,-1
191,121,866,319,58,163,1,-1,-1,-1
191,104,1053,316,72,202,1,-1,-1,-1
192,122,1670,323,210,590,1,-1,-1,-1
192,121,866,322,58,163,1,-1,-1,-1
192,104,1054,319,72,203,1,-1,-1,-1
193,122,1664,325,214,600,1,-1,-1,-1
193,121,864,322,58,164,1,-1,-1,-1
193,104,1056,320,74,208,1,-1,-1,-1
194,124,255,315,38,106,1,-1,-1,-1
194,122,1650,317,220,616,1,-1,-1,-1
194,121,865,323,59,167,1,-1,-1,-1
194,104,1058,320,75,212,1,-1,-1,-1
195,124,256,312,38,107,1,-1,-1,-1
195,122,1642,309,225,630,1,-1,-1,-1
195,121,860,324,60,168,1,-1,-1,-1
195,104,1060,320,76,214,1,-1,-1,-1
196,122,1634,298,230,645,1,-1,-1,-1
196,121,858,324,59,166,1,-1,-1,-1
196,118,1403,338,200,561,1,-1,-1,-1
196,104,1064,320,78,218,1,-1,-1,-1
197,122,1629,290,232,649,1,-1,-1,-1
197,121,859,325,58,164,1,-1,-1,-1
197,118,1398,341,200,561,1,-1,-1,-1
197,104,1067,320,79,221,1,-1,-1,-1
198,122,1629,285,233,647,1,-1,-1,-1
198,121,853,326,57,161,1,-1,-1,-1
198,118,1390,357,198,556,1,-1,-1,-1
198,104,1069,319,80,225,1,-1,-1,-1
199,122,1630,288,233,645,1,-1,-1,-1
199,121,855,326,58,164,1,-1,-1,-1
199,118,1390,352,197,553,1,-1,-1,-1
199,104,1072,317,82,229,1,-1,-1,-1
200,122,1608,301,227,637,1,-1,-1,-1
200,121,855,330,59,165,1,-1,-1,-1
200,118,1385,360,195,546,1,-1,-1,-1
200,104,1075,317,82,230,1,-1,-1,-1
201,122,1600,310,227,637,1,-1,-1,-1
201,118,1390,340,193,541,1,-1,-1,-1
201,104,1082,319,84,236,1,-1,-1,-1
202,122,1592,325,227,638,1,-1,-1,-1
202,118,1383,373,194,545,1,-1,-1,-1
202,104,1086,318,87,239,1,-1,-1,-1
203,122,1615,316,232,650,1,-1,-1,-1
203,118,1387,350,194,545,1,-1,-1,-1
203,104,1103,323,86,242,1,-1,-1,-1
204,122,1627,325,233,653,1,-1,-1,-1
204,118,1393,349,196,549,1,-1,-1,-1
204,104,1111,328,87,244,1,-1,-1,-1
205,122,1631,331,235,658,1,-1,-1,-1
205,120,547,336,73,176,1,-1,-1,-1
205,118,1398,358,197,551,1,-1,-1,-1
205,104,1122,329,87,245,1,-1,-1,-1
206,122,1636,344,234,655,1,-1,-1,-1
206,120,552,341,72,174,1,-1,-1,-1
206,118,1403,367,198,556,1,-1,-1,-1
206,104,1141,339,85,240,1,-1,-1,-1
207,122,1646,352,230,646,1,-1,-1,-1
207,120,554,343,72,175,1,-1,-1,-1
207,118,1403,395,197,552,1,-1,-1,-1
207,104,1154,344,84,237,1,-1,-1,-1
208,126,957,359,64,171,1,-1,-1,-1
208,122,1652,355,228,638,1,-1,-1,-1
208,120,558,340,72,177,1,-1,-1,-1
208,118,1402,403,197,554,1,-1,-1,-1
208,104,1163,344,85,240,1,-1,-1,-1
209,126,957,357,66,172,1,-1,-1,-1
209,122,1656,352,226,634,1,-1,-1,-1
209,120,566,336,70,175,1,-1,-1,-1
209,118,1404,416,198,554,1,-1,-1,-1
209,104,1171,343,86,241,1,-1,-1,-1
210,126,951,357,63,168,1,-1,-1,-1
210,122,1661,351,224,629,1,-1,-1,-1
210,120,574,340,68,173,1,-1,-1,-1
210,118,1407,387,201,563,1,-1,-1,-1
210,104,1178,341,87,244,1,-1,-1,-1
211,126,944,354,61,163,1,-1,-1,-1
211,122,1664,344,224,628,1,-1,-1,-1
211,120,579,336,67,173,1,-1,-1,-1
211,118,1412,366,198,556,1,-1,-1,-1
212,122,1667,340,223,626,1,-1,-1,-1
212,121,852,323,57,160,1,-1,-1,-1
212,120,585,336,66,179,1,-1,-1,-1
212,118,1415,356,196,551,1,-1,-1,-1
213,122,1668,337,223,624,1,-1,-1,-1
213,121,855,321,56,158,1,-1,-1,-1
213,120,589,337,66,180,1,-1,-1,-1
213,118,1415,359,196,550,1,-1,-1,-1
214,122,1669,336,223,625,1,-1,-1,-1
214,118,1410,345,195,547,1,-1,-1,-1
215,122,1670,339,223,625,1,-1,-1,-1
215,118,1408,369,198,556,1,-1,-1,-1
216,122,1668,345,224,627,1,-1,-1,-1
216,118,1412,380,200,561,1,-1,-1,-1
216,104,1237,334,93,261,1,-1,-1,-1
217,122,1665,351,226,634,1,-1,-1,-1
217,118,1414,387,202,567,1,-1,-1,-1
217,104,1244,336,94,264,1,-1,-1,-1
218,122,1665,356,227,635,1,-1,-1,-1
218,118,1415,395,203,569,1,-1,-1,-1
218,104,1251,338,94,264,1,-1,-1,-1
219,122,1664,360,227,636,1,-1,-1,-1
219,118,1414,401,205,574,1,-1,-1,-1
219,104,1258,337,96,269,1,-1,-1,-1
220,126,949,354,55,154,1,-1,-1,-1
220,122,1663,367,227,636,1,-1,-1,-1
220,121,855,341,51,144,1,-1,-1,-1
220,118,1410,410,206,578,1,-1,-1,-1
220,104,1266,337,96,270,1,-1,-1,-1
221,126,950,354,54,152,1,-1,-1,-1
221,122,1659,373,228,638,1,-1,-1,-1
221,118,1401,412,208,585,1,-1,-1,-1
221,104,1273,341,97,272,1,-1,-1,-1
222,128,1043,359,53,148,1,-1,-1,-1
222,126,951,356,53,150,1,-1,-1,-1
222,122,1653,372,229,643,1,-1,-1,-1
222,118,1393,408,210,589,1,-1,-1,-1
222,104,1275,340,97,271,1,-1,-1,-1
223,128,1046,359,52,147,1,-1,-1,-1
223,122,1647,368,233,653,1,-1,-1,-1
223,118,1386,403,212,595,1,-1,-1,-1
223,104,1277,340,97,272,1,-1,-1,-1
224,128,1053,357,53,148,1,-1,-1,-1
224,122,1642,357,235,658,1,-1,-1,-1
224,118,1384,395,213,597,1,-1,-1,-1
224,104,1280,339,98,275,1,-1,-1,-1
225,128,1059,356,55,149,1,-1,-1,-1
225,122,1640,350,234,657,1,-1,-1,-1
225,118,1380,387,211,593,1,-1,-1,-1
225,104,1281,339,99,277,1,-1,-1,-1
226,122,1643,344,232,651,1,-1,-1,-1
226,118,1378,389,207,580,1,-1,-1,-1
226,104,1295,347,104,291,1,-1,-1,-1
227,122,1640,342,233,654,1,-1,-1,-1
227,118,1379,391,205,574,1,-1,-1,-1
227,104,1304,345,107,302,1,-1,-1,-1
228,122,1638,339,235,658,1,-1,-1,-1
228,118,1378,393,204,573,1,-1,-1,-1
228,104,1307,331,109,305,1,-1,-1,-1
229,122,1639,341,236,661,1,-1,-1,-1
229,118,1379,396,204,571,1,-1,-1,-1
229,104,1311,334,112,313,1,-1,-1,-1
230,122,1638,346,235,658,1,-1,-1,-1
230,118,1377,396,205,576,1,-1,-1,-1
230,104,1318,332,115,322,1,-1,-1,-1
231,122,1637,355,236,661,1,-1,-1,-1
231,118,1377,399,205,574,1,-1,-1,-1
231,104,1323,338,115,324,1,-1,-1,-1
232,122,1634,356,238,668,1,-1,-1,-1
232,118,1373,397,206,578,1,-1,-1,-1
232,104,1330,341,118,332,1,-1,-1,-1
233,122,1631,354,242,680,1,-1,-1,-1
233,118,1371,397,208,583,1,-1,-1,-1
234,122,1633,350,243,682,1,-1,-1,-1
234,118,1370,399,210,588,1,-1,-1,-1
235,122,1637,343,242,677,1,-1,-1,-1
235,118,1372,395,210,589,1,-1,-1,-1
236,122,1641,333,240,672,1,-1,-1,-1
236,118,1377,390,210,588,1,-1,-1,-1
237,122,1643,332,237,664,1,-1,-1,-1
237,118,1379,388,206,578,1,-1,-1,-1
238,122,1646,331,234,657,1,-1,-1,-1
238,120,666,315,73,205,1,-1,-1,-1
238,118,1377,386,203,570,1,-1,-1,-1
239,122,1652,330,232,650,1,-1,-1,-1
239,120,666,314,75,211,1,-1,-1,-1
239,118,1379,381,202,568,1,-1,-1,-1
240,122,1652,328,232,651,1,-1,-1,-1
240,120,665,311,76,213,1,-1,-1,-1
240,118,1380,372,204,572,1,-1,-1,-1
241,122,1652,322,234,656,1,-1,-1,-1
241,120,667,309,74,203,1,-1,-1,-1
241,118,1383,360,206,579,1,-1,-1,-1
242,132,5,323,73,183,1,-1,-1,-1
242,122,1653,323,235,660,1,-1,-1,-1
242,120,670,312,75,205,1,-1,-1,-1
242,118,1385,350,208,583,1,-1,-1,-1
243,132,7,321,72,186,1,-1,-1,-1
243,122,1647,322,239,671,1,-1,-1,-1
243,120,671,308,76,203,1,-1,-1,-1
243,118,1377,343,211,593,1,-1,-1,-1
244,132,11,320,77,190,1,-1,-1,-1
244,122,1640,317,246,689,1,-1,-1,-1
244,120,671,306,78,203,1,-1,-1,-1
244,118,1378,343,215,602,1,-1,-1,-1
245,132,14,320,81,186,1,-1,-1,-1
245,128,1026,311,68,185,1,-1,-1,-1
245,122,1640,314,248,696,1,-1,-1,-1
245,120,671,308,80,205,1,-1,-1,-1
245,118,1377,338,218,611,1,-1,-1,-1
246,128,1035,310,68,186,1,-1,-1,-1
246,122,1645,321,245,688,1,-1,-1,-1
246,120,671,301,79,204,1,-1,-1,-1
246,118,1388,341,219,613,1,-1,-1,-1
247,128,1038,309,68,186,1,-1,-1,-1
247,122,1646,322,245,687,1,-1,-1,-1
247,120,671,302,80,209,1,-1,-1,-1
247,118,1390,347,219,614,1,-1,-1,-1
248,133,524,301,40,113,1,-1,-1,-1
248,128,1037,310,67,185,1,-1,-1,-1
248,122,1645,326,245,688,1,-1,-1,-1
248,120,670,299,80,213,1,-1,-1,-1
248,118,1391,353,220,616,1,-1,-1,-1
249,133,526,298,37,103,1,-1,-1,-1
249,128,1034,310,66,183,1,-1,-1,-1
249,126,938,314,51,143,1,-1,-1,-1
249,122,1646,328,243,682,1,-1,-1,-1
249,120,670,296,80,214,1,-1,-1,-1
249,118,1391,352,220,618,1,-1,-1,-1
250,133,522,294,35,98,1,-1,-1,-1
250,128,1035,307,63,176,1,-1,-1,-1
250,126,943,312,49,138,1,-1,-1,-1
250,122,1645,323,245,688,1,-1,-1,-1
250,118,1389,352,221,620,1,-1,-1,-1
251,133,528,290,38,107,1,-1,-1,-1
251,128,1051,312,64,174,1,-1,-1,-1
251,126,941,311,52,142,1,-1,-1,-1
251,122,1637,313,250,701,1,-1,-1,-1
251,118,1383,347,221,619,1,-1,-1,-1
252,133,526,288,37,104,1,-1,-1,-1
252,128,1054,309,62,172,1,-1,-1,-1
252,122,1636,306,251,702,1,-1,-1,-1
252,118,1377,344,220,616,1,-1,-1,-1
253,133,524,294,37,104,1,-1,-1,-1
253,128,1053,307,60,169,1,-1,-1,-1
253,122,1637,301,248,696,1,-1,-1,-1
253,118,1374,342,218,610,1,-1,-1,-1
254,133,524,293,37,104,1,-1,-1,-1
254,128,1052,307,59,166,1,-1,-1,-1
254,122,1644,302,245,688,1,-1,-1,-1
254,118,1376,337,218,611,1,-1,-1,-1
255,133,525,289,35,99,1,-1,-1,-1
255,122,1644,302,244,684,1,-1,-1,-1
255,118,1380,341,216,605,1,-1,-1,-1
256,133,527,297,37,104,1,-1,-1,-1
256,122,1654,300,243,680,1,-1,-1,-1
256,118,1384,336,218,613,1,-1,-1,-1
257,122,1661,307,240,674,1,-1,-1,-1
257,118,1392,334,220,616,1,-1,-1,-1
258,122,1661,313,241,675,1,-1,-1,-1
258,118,1391,333,222,622,1,-1,-1,-1
259,122,1666,317,238,667,1,-1,-1,-1
259,118,1396,336,221,621,1,-1,-1,-1
260,122,1666,321,236,663,1,-1,-1,-1
260,118,1402,337,220,617,1,-1,-1,-1
261,138,546,288,51,144,1,-1,-1,-1
261,136,61,312,63,162,1,-1,-1,-1
261,122,1676,321,232,651,1,-1,-1,-1
261,118,1404,339,219,614,1,-1,-1,-1
262,136,64,310,66,160,1,-1,-1,-1
262,122,1679,324,228,640,1,-1,-1,-1
263,136,72,306,66,154,1,-1,-1,-1
263,122,1686,326,223,626,1,-1,-1,-1
264,136,74,304,64,149,1,-1,-1,-1
264,122,1682,308,223,624,1,-1,-1,-1
265,138,559,270,55,142,1,-1,-1,-1
265,136,72,301,60,149,1,-1,-1,-1
265,122,1686,308,220,617,1,-1,-1,-1
265,118,1442,323,216,606,1,-1,-1,-1
266,122,1691,311,215,603,1,-1,-1,-1
266,118,1447,323,214,599,1,-1,-1,-1
267,122,1692,306,211,593,1,-1,-1,-1
267,118,1455,320,213,598,1,-1,-1,-1
268,122,1693,300,208,583,1,-1,-1,-1
268,118,1462,312,215,603,1,-1,-1,-1
269,122,1692,305,206,577,1,-1,-1,-1
269,118,1464,307,217,608,1,-1,-1,-1
270,122,1692,311,204,572,1,-1,-1,-1
270,118,1465,305,215,604,1,-1,-1,-1
271,126,963,276,61,170,1,-1,-1,-1
271,122,1689,307,205,574,1,-1,-1,-1
271,118,1466,299,217,608,1,-1,-1,-1
272,126,965,277,61,173,1,-1,-1,-1
272,122,1690,313,205,575,1,-1,-1,-1
272,118,1466,305,218,611,1,-1,-1,-1
273,126,965,272,62,174,1,-1,-1,-1
273,122,1690,311,206,577,1,-1,-1,-1
273,118,1467,303,220,617,1,-1,-1,-1
274,132,23,304,90,183,1,-1,-1,-1
274,122,1691,310,206,577,1,-1,-1,-1
274,118,1470,306,223,625,1,-1,-1,-1
275,132,22,305,88,183,1,-1,-1,-1
275,122,1692,309,205,574,1,-1,-1,-1
275,118,1470,304,225,630,1,-1,-1,-1
276,132,19,307,87,183,1,-1,-1,-1
276,122,1692,311,204,573,1,-1,-1,-1
276,118,1466,308,224,628,1,-1,-1,-1
277,132,14,307,84,181,1,-1,-1,-1
277,122,1694,315,204,572,1,-1,-1,-1
277,118,1465,312,223,625,1,-1,-1,-1
278,122,1691,317,204,573,1,-1,-1,-1
278,118,1456,309,223,625,1,-1,-1,-1
279,122,1688,316,205,576,1,-1,-1,-1
279,118,1449,304,222,622,1,-1,-1,-1
280,122,1684,305,208,583,1,-1,-1,-1
280,118,1441,296,222,622,1,-1,-1,-1
281,122,1679,294,213,596,1,-1,-1,-1
281,118,1430,281,222,622,1,-1,-1,-1
282,122,1672,280,218,612,1,-1,-1,-1
282,118,1425,271,223,624,1,-1,-1,-1
283,122,1669,274,222,621,1,-1,-1,-1
283,118,1427,267,221,621,1,-1,-1,-1
284,122,1666,272,225,630,1,-1,-1,-1
284,118,1425,262,223,625,1,-1,-1,-1
285,138,585,278,90,227,1,-1,-1,-1
285,122,1665,270,228,640,1,-1,-1,-1
285,118,1420,264,224,627,1,-1,-1,-1
286,138,580,268,90,203,1,-1,-1,-1
286,122,1664,271,231,646,1,-1,-1,-1
286,118,1420,265,225,631,1,-1,-1,-1
287,138,571,272,92,199,1,-1,-1,-1
287,122,1662,266,233,654,1,-1,-1,-1
287,118,1421,271,225,632,1,-1,-1,-1
288,138,566,278,92,208,1,-1,-1,-1
288,122,1664,263,232,651,1,-1,-1,-1
288,118,1424,276,225,630,1,-1,-1,-1
289,138,556,281,97,221,1,-1,-1,-1
289,122,1663,258,233,653,1,-1,-1,-1
289,118,1426,275,225,631,1,-1,-1,-1
290,138,553,276,95,224,1,-1,-1,-1
290,122,1666,256,232,650,1,-1,-1,-1
290,118,1427,271,224,629,1,-1,-1,-1
291,138,553,274,96,232,1,-1,-1,-1
291,122,1670,252,230,644,1,-1,-1,-1
291,118,1432,271,224,627,1,-1,-1,-1
292,146,1139,264,62,168,1,-1,-1,-1
292,138,547,267,91,228,1,-1,-1,-1
292,122,1676,253,227,635,1,-1,-1,-1
292,118,1446,267,221,620,1,-1,-1,-1
293,146,1138,258,62,165,1,-1,-1,-1
293,138,543,260,86,218,1,-1,-1,-1
293,122,1682,252,222,623,1,-1,-1,-1
293,118,1454,262,219,614,1,-1,-1,-1
294,146,1146,254,60,161,1,-1,-1,-1
294,138,542,251,81,206,1,-1,-1,-1
294,122,1688,250,218,610,1,-1,-1,-1
294,118,1461,257,217,609,1,-1,-1,-1
295,146,1147,252,59,158,1,-1,-1,-1
295,138,541,257,85,223,1,-1,-1,-1
295,122,1696,246,215,603,1,-1,-1,-1
295,118,1466,250,218,611,1,-1,-1,-1
296,146,1146,252,58,156,1,-1,-1,-1
296,138,536,238,81,216,1,-1,-1,-1
296,122,1702,240,211,593,1,-1,-1,-1
296,118,1473,244,220,617,1,-1,-1,-1
297,146,1148,251,57,154,1,-1,-1,-1
297,145,858,259,63,165,1,-1,-1,-1
297,138,517,243,85,223,1,-1,-1,-1
297,122,1703,245,208,582,1,-1,-1,-1
297,118,1487,234,222,623,1,-1,-1,-1
298,146,1147,248,58,155,1,-1,-1,-1
298,145,857,258,65,167,1,-1,-1,-1
298,122,1702,249,206,577,1,-1,-1,-1
298,118,1494,231,226,635,1,-1,-1,-1
299,146,1146,248,61,159,1,-1,-1,-1
299,145,865,254,66,167,1,-1,-1,-1
299,122,1700,255,204,573,1,-1,-1,-1
299,118,1496,231,229,641,1,-1,-1,-1
300,146,1146,246,61,158,1,-1,-1,-1
300,145,863,250,68,169,1,-1,-1,-1
300,122,1702,256,203,569,1,-1,-1,-1
300,118,1505,227,232,650,1,-1,-1,-1
301,146,1149,248,62,157,1,-1,-1,-1
301,145,858,233,72,183,1,-1,-1,-1
301,122,1704,262,201,563,1,-1,-1,-1
301,118,1509,231,233,654,1,-1,-1,-1
302,146,1152,251,61,154,1,-1,-1,-1
302,145,859,242,70,178,1,-1,-1,-1
302,122,1707,268,198,555,1,-1,-1,-1
302,118,1510,237,232,652,1,-1,-1,-1
303,146,1152,252,60,153,1,-1,-1,-1
303,122,1709,274,196,550,1,-1,-1,-1
303,118,1508,240,234,656,1,-1,-1,-1
304,146,1155,253,58,152,1,-1,-1,-1
304,122,1711,279,195,547,1,-1,-1,-1
304,118,1504,244,234,657,1,-1,-1,-1
305,149,93,258,39,97,1,-1,-1,-1
305,146,1152,254,58,151,1,-1,-1,-1
305,122,1710,283,195,547,1,-1,-1,-1
305,118,1500,244,234,657,1,-1,-1,-1
306,146,1150,253,58,151,1,-1,-1,-1
306,145,853,248,63,160,1,-1,-1,-1
306,122,1706,286,196,550,1,-1,-1,-1
306,118,1493,244,234,657,1,-1,-1,-1
307,146,1144,253,59,151,1,-1,-1,-1
307,122,1705,287,196,550,1,-1,-1,-1
307,118,1477,251,229,641,1,-1,-1,-1
308,146,1142,253,59,151,1,-1,-1,-1
308,122,1704,288,197,552,1,-1,-1,-1
308,118,1470,256,224,629,1,-1,-1,-1
309,149,86,256,44,109,1,-1,-1,-1
309,146,1140,253,58,153,1,-1,-1,-1
309,122,1706,290,196,550,1,-1,-1,-1
309,118,1468,260,222,622,1,-1,-1,-1
310,149,80,259,46,115,1,-1,-1,-1
310,146,1137,256,59,156,1,-1,-1,-1
310,145,849,251,58,152,1,-1,-1,-1
310,122,1706,291,196,551,1,-1,-1,-1
310,118,1466,261,218,613,1,-1,-1,-1
311,149,75,260,46,118,1,-1,-1,-1
311,146,1134,258,59,157,1,-1,-1,-1
311,145,856,254,55,146,1,-1,-1,-1
311,122,1709,290,196,551,1,-1,-1,-1
311,118,1469,264,216,606,1,-1,-1,-1
312,149,76,259,45,116,1,-1,-1,-1
312,146,1135,261,60,158,1,-1,-1,-1
312,145,851,253,54,144,1,-1,-1,-1
312,122,1712,291,195,548,1,-1,-1,-1
312,118,1476,270,215,602,1,-1,-1,-1
313,146,1135,260,61,158,1,-1,-1,-1
313,122,1714,295,194,545,1,-1,-1,-1
313,118,1486,275,215,602,1,-1,-1,-1
314,146,1134,262,63,161,1,-1,-1,-1
314,118,1485,286,217,607,1,-1,-1,-1
315,146,1133,265,63,163,1,-1,-1,-1
315,118,1494,294,216,607,1,-1,-1,-1
316,146,1138,264,62,162,1,-1,-1,-1
316,118,1505,294,216,607,1,-1,-1,-1
317,146,1141,263,62,164,1,-1,-1,-1
317,118,1521,298,215,604,1,-1,-1,-1
318,146,1144,262,62,165,1,-1,-1,-1
318,118,1534,306,214,601,1,-1,-1,-1
319,146,1147,260,63,166,1,-1,-1,-1
319,145,859,257,52,133,1,-1,-1,-1
319,118,1544,302,214,600,1,-1,-1,-1
320,146,1149,260,63,165,1,-1,-1,-1
320,145,858,257,53,133,1,-1,-1,-1
320,135,1047,257,62,165,1,-1,-1,-1
320,118,1553,294,213,598,1,-1,-1,-1
321,149,79,271,52,133,1,-1,-1,-1
321,146,1149,262,63,164,1,-1,-1,-1
321,145,860,258,52,131,1,-1,-1,-1
321,135,1047,259,61,164,1,-1,-1,-1
321,118,1561,288,211,591,1,-1,-1,-1
322,149,79,269,50,130,1,-1,-1,-1
322,146,1155,258,63,161,1,-1,-1,-1
322,118,1575,272,215,603,1,-1,-1,-1
323,149,80,272,49,132,1,-1,-1,-1
323,146,1160,256,63,159,1,-1,-1,-1
323,118,1583,265,216,606,1,-1,-1,-1
324,149,81,272,49,134,1,-1,-1,-1
324,146,1157,254,62,159,1,-1,-1,-1
324,118,1587,264,216,606,1,-1,-1,-1
325,149,82,269,49,139,1,-1,-1,-1
325,146,1161,252,63,159,1,-1,-1,-1
325,118,1593,259,215,604,1,-1,-1,-1
326,149,88,269,50,140,1,-1,-1,-1
326,146,1156,253,62,160,1,-1,-1,-1
326,118,1623,250,221,620,1,-1,-1,-1
327,149,100,269,52,148,1,-1,-1,-1
327,146,1155,253,61,158,1,-1,-1,-1
327,118,1634,246,229,641,1,-1,-1,-1
328,149,99,270,53,149,1,-1,-1,-1
328,146,1157,256,60,159,1,-1,-1,-1
328,118,1641,249,234,656,1,-1,-1,-1
329,149,104,275,53,150,1,-1,-1,-1
329,146,1151,258,61,163,1,-1,-1,-1
329,118,1645,252,239,671,1,-1,-1,-1
330,156,927,265,45,126,1,-1,-1,-1
330,149,103,278,54,153,1,-1,-1,-1
330,146,1148,260,61,164,1,-1,-1,-1
330,118,1647,251,241,676,1,-1,-1,-1
331,156,929,264,46,129,1,-1,-1,-1
331,149,105,276,54,151,1,-1,-1,-1
331,146,1142,263,60,165,1,-1,-1,-1
331,118,1650,256,242,679,1,-1,-1,-1
332,156,935,260,48,133,1,-1,-1,-1
332,149,101,276,54,151,1,-1,-1,-1
332,118,1651,265,244,684,1,-1,-1,-1
333,156,935,261,50,139,1,-1,-1,-1
333,150,760,273,80,212,1,-1,-1,-1
333,149,109,276,57,155,1,-1,-1,-1
333,118,1652,266,245,688,1,-1,-1,-1
334,156,938,260,50,142,1,-1,-1,-1
334,149,111,277,61,166,1,-1,-1,-1
334,118,1656,265,245,686,1,-1,-1,-1
335,149,110,274,65,182,1,-1,-1,-1
335,118,1658,261,244,683,1,-1,-1,-1
336,157,1209,260,61,164,1,-1,-1,-1
336,149,104,276,68,192,1,-1,-1,-1
336,118,1660,260,242,678,1,-1,-1,-1
337,157,1209,257,61,167,1,-1,-1,-1
337,150,744,270,92,237,1,-1,-1,-1
337,149,89,275,69,195,1,-1,-1,-1
337,118,1667,267,238,667,1,-1,-1,-1
338,157,1211,262,60,169,1,-1,-1,-1
338,149,86,270,71,199,1,-1,-1,-1
338,118,1669,269,236,661,1,-1,-1,-1
339,157,1213,268,61,169,1,-1,-1,-1
339,149,74,266,76,214,1,-1,-1,-1
339,118,1672,273,233,653,1,-1,-1,-1
340,157,1212,268,62,170,1,-1,-1,-1
340,149,76,266,80,226,1,-1,-1,-1
340,118,1676,280,230,644,1,-1,-1,-1
341,149,66,260,90,253,1,-1,-1,-1
341,118,1680,292,226,634,1,-1,-1,-1
342,149,56,257,90,252,1,-1,-1,-1
342,118,1686,315,222,621,1,-1,-1,-1
343,149,29,267,101,259,1,-1,-1,-1
343,118,1693,334,217,608,1,-1,-1,-1
344,149,15,273,103,264,1,-1,-1,-1
344,118,1698,346,213,597,1,-1,-1,-1
345,149,8,273,107,271,1,-1,-1,-1
345,118,1702,358,209,586,1,-1,-1,-1
346,118,1704,369,206,577,1,-1,-1,-1
347,118,1708,363,203,570,1,-1,-1,-1
348,118,1710,360,202,567,1,-1,-1,-1
349,149,-12,290,88,248,1,-1,-1,-1
351,159,669,306,93,239,1,-1,-1,-1
352,159,656,325,98,260,1,-1,-1,-1
353,159,648,337,123,329,1,-1,-1,-1
354,159,641,336,136,365,1,-1,-1,-1
354,157,1221,301,58,147,1,-1,-1,-1
354,153,661,280,78,202,1,-1,-1,-1
354,149,-7,279,73,193,1,-1,-1,-1
355,157,1222,302,59,149,1,-1,-1,-1
355,153,653,305,88,236,1,-1,-1,-1
356,153,653,301,94,233,1,-1,-1,-1
359,157,1219,312,57,147,1,-1,-1,-1
360,157,1219,315,57,149,1,-1,-1,-1
361,118,1707,387,198,554,1,-1,-1,-1
367,160,538,272,104,285,1,-1,-1,-1
368,160,535,271,116,321,1,-1,-1,-1
369,160,527,270,133,345,1,-1,-1,-1
370,160,528,264,132,355,1,-1,-1,-1
371,160,525,254,131,342,1,-1,-1,-1
372,160,524,258,135,368,1,-1,-1,-1
373,160,520,257,140,386,1,-1,-1,-1
374,160,517,252,139,391,1,-1,-1,-1
375,163,366,280,140,394,1,-1,-1,-1
375,160,516,252,140,392,1,-1,-1,-1
376,163,364,278,136,381,1,-1,-1,-1
376,160,518,261,137,386,1,-1,-1,-1
377,163,366,271,139,390,1,-1,-1,-1
377,160,503,247,138,386,1,-1,-1,-1
378,163,366,267,144,404,1,-1,-1,-1
378,160,501,243,136,381,1,-1,-1,-1
379,163,371,261,143,401,1,-1,-1,-1
379,160,495,241,137,386,1,-1,-1,-1
380,163,372,258,145,407,1,-1,-1,-1
380,160,482,240,144,404,1,-1,-1,-1
381,163,374,259,146,409,1,-1,-1,-1
381,160,472,236,150,421,1,-1,-1,-1
382,160,441,227,152,427,1,-1,-1,-1
383,160,424,226,155,431,1,-1,-1,-1
384,160,401,229,160,422,1,-1,-1,-1
385,160,408,229,155,422,1,-1,-1,-1
386,160,395,231,155,430,1,-1,-1,-1
387,160,376,239,160,439,1,-1,-1,-1
388,160,359,244,166,457,1,-1,-1,-1
389,160,347,240,170,466,1,-1,-1,-1
390,160,331,236,175,478,1,-1,-1,-1
391,160,318,233,178,486,1,-1,-1,-1
392,160,285,231,184,495,1,-1,-1,-1
393,160,264,230,192,502,1,-1,-1,-1
394,160,250,226,201,514,1,-1,-1,-1
395,160,240,227,204,524,1,-1,-1,-1
396,160,225,231,206,532,1,-1,-1,-1
397,160,226,232,206,533,1,-1,-1,-1
400,170,160,184,163,444,1,-1,-1,-1
401,170,149,185,158,428,1,-1,-1,-1
401,158,357,247,130,357,1,-1,-1,-1
401,146,1146,283,80,192,1,-1,-1,-1
402,170,93,223,179,494,1,-1,-1,-1
402,158,360,242,128,360,1,-1,-1,-1
402,146,1149,278,77,192,1,-1,-1,-1
403,170,61,201,202,562,1,-1,-1,-1
403,158,354,238,127,357,1,-1,-1,-1
403,146,1154,277,76,192,1,-1,-1,-1
404,170,33,194,213,596,1,-1,-1,-1
404,158,351,235,125,352,1,-1,-1,-1
404,146,1156,275,74,191,1,-1,-1,-1
405,170,11,193,214,600,1,-1,-1,-1
405,158,349,236,123,344,1,-1,-1,-1
405,146,1156,271,73,192,1,-1,-1,-1
406,171,863,259,64,168,1,-1,-1,-1
406,170,-1,205,207,581,1,-1,-1,-1
406,169,740,251,40,94,1,-1,-1,-1
406,158,345,232,120,338,1,-1,-1,-1
406,146,1157,270,72,192,1,-1,-1,-1
407,171,868,260,67,179,1,-1,-1,-1
407,169,751,245,41,97,1,-1,-1,-1
407,158,345,229,121,340,1,-1,-1,-1
407,146,1159,265,71,194,1,-1,-1,-1
408,169,749,246,42,100,1,-1,-1,-1
408,158,344,230,121,340,1,-1,-1,-1
408,146,1162,267,72,196,1,-1,-1,-1
409,169,747,249,42,102,1,-1,-1,-1
409,158,342,229,121,338,1,-1,-1,-1
409,146,1164,266,72,198,1,-1,-1,-1
410,158,340,234,123,334,1,-1,-1,-1
411,158,336,238,124,336,1,-1,-1,-1
414,172,317,265,116,280,1,-1,-1,-1
415,172,311,277,117,288,1,-1,-1,-1
416,172,303,277,121,294,1,-1,-1,-1
417,172,298,278,117,288,1,-1,-1,-1
418,172,302,272,124,301,1,-1,-1,-1
419,172,294,274,127,305,1,-1,-1,-1
420,172,294,275,123,302,1,-1,-1,-1
421,172,293,275,128,312,1,-1,-1,-1
422,172,295,271,134,324,1,-1,-1,-1
423,173,507,318,69,195,1,-1,-1,-1
424,173,501,312,78,210,1,-1,-1,-1
425,173,491,309,93,256,1,-1,-1,-1
425,158,327,260,144,360,1,-1,-1,-1
426,158,325,256,148,361,1,-1,-1,-1
427,158,330,258,149,370,1,-1,-1,-1
428,158,330,260,152,377,1,-1,-1,-1
429,158,331,262,153,384,1,-1,-1,-1
430,158,333,261,154,392,1,-1,-1,-1
431,158,338,254,151,390,1,-1,-1,-1
432,158,339,248,152,401,1,-1,-1,-1
433,158,341,243,151,403,1,-1,-1,-1
434,177,111,315,60,162,1,-1,-1,-1
434,158,341,241,152,403,1,-1,-1,-1
435,177,94,309,68,177,1,-1,-1,-1
435,173,509,301,62,170,1,-1,-1,-1
435,158,340,241,152,396,1,-1,-1,-1
436,177,95,287,69,186,1,-1,-1,-1
436,173,505,305,59,161,1,-1,-1,-1
436,158,341,244,153,393,1,-1,-1,-1
437,177,87,303,68,184,1,-1,-1,-1
437,173,486,309,61,158,1,-1,-1,-1
437,158,342,245,160,395,1,-1,-1,-1
438,177,79,312,69,181,1,-1,-1,-1
438,173,479,317,65,168,1,-1,-1,-1
438,158,342,246,163,399,1,-1,-1,-1
439,177,66,314,70,177,1,-1,-1,-1
439,158,341,252,168,404,1,-1,-1,-1
440,158,337,252,174,414,1,-1,-1,-1
441,158,340,246,175,417,1,-1,-1,-1
442,158,344,249,172,418,1,-1,-1,-1
443,158,347,248,170,418,1,-1,-1,-1
444,158,348,249,165,418,1,-1,-1,-1
445,158,352,250,161,419,1,-1,-1,-1
446,158,353,251,158,420,1,-1,-1,-1
447,158,350,252,156,423,1,-1,-1,-1
448,158,350,252,153,421,1,-1,-1,-1
449,158,347,250,153,424,1,-1,-1,-1
450,180,95,322,49,139,1,-1,-1,-1
450,158,347,246,155,432,1,-1,-1,-1
451,180,89,324,50,140,1,-1,-1,-1
451,158,344,248,159,437,1,-1,-1,-1
452,180,82,323,51,143,1,-1,-1,-1
452,158,337,244,165,442,1,-1,-1,-1
453,180,70,321,54,152,1,-1,-1,-1
453,179,1161,275,92,249,1,-1,-1,-1
453,158,335,252,170,448,1,-1,-1,-1
454,180,67,325,58,159,1,-1,-1,-1
454,179,1159,276,94,251,1,-1,-1,-1
454,158,339,254,176,449,1,-1,-1,-1
455,180,67,323,57,160,1,-1,-1,-1
455,179,1158,278,88,239,1,-1,-1,-1
455,158,343,255,176,453,1,-1,-1,-1
456,158,345,254,178,459,1,-1,-1,-1
457,158,350,258,177,458,1,-1,-1,-1
458,158,349,265,177,456,1,-1,-1,-1
459,181,768,306,53,148,1,-1,-1,-1
459,179,1149,296,71,201,1,-1,-1,-1
459,158,353,258,175,456,1,-1,-1,-1
460,179,1148,302,69,194,1,-1,-1,-1
460,158,351,251,175,458,1,-1,-1,-1
460,146,1213,284,90,253,1,-1,-1,-1
461,179,1146,306,66,185,1,-1,-1,-1
461,158,349,249,177,462,1,-1,-1,-1
461,146,1216,286,90,253,1,-1,-1,-1
462,179,1141,308,63,177,1,-1,-1,-1
462,158,353,243,175,460,1,-1,-1,-1
462,146,1217,285,91,256,1,-1,-1,-1
463,179,1137,310,59,167,1,-1,-1,-1
463,158,354,238,172,457,1,-1,-1,-1
463,146,1217,286,91,256,1,-1,-1,-1
464,179,1135,312,57,160,1,-1,-1,-1
464,158,350,236,173,457,1,-1,-1,-1
464,146,1217,285,91,257,1,-1,-1,-1
465,179,1142,310,57,161,1,-1,-1,-1
465,158,349,235,172,455,1,-1,-1,-1
465,146,1216,280,92,259,1,-1,-1,-1
466,158,347,238,172,457,1,-1,-1,-1
466,146,1216,280,93,262,1,-1,-1,-1
467,158,341,239,173,454,1,-1,-1,-1
467,146,1216,278,94,265,1,-1,-1,-1
468,158,334,242,170,464,1,-1,-1,-1
468,146,1218,280,95,268,1,-1,-1,-1
469,158,327,247,170,467,1,-1,-1,-1
469,146,1219,285,95,268,1,-1,-1,-1
470,179,1149,315,62,174,1,-1,-1,-1
470,158,319,252,172,472,1,-1,-1,-1
470,146,1219,288,95,266,1,-1,-1,-1
471,179,1150,316,64,179,1,-1,-1,-1
471,158,313,251,173,475,1,-1,-1,-1
471,146,1216,290,96,265,1,-1,-1,-1
472,179,1147,317,64,179,1,-1,-1,-1
472,158,312,248,169,475,1,-1,-1,-1
472,146,1217,290,97,264,1,-1,-1,-1
473,179,1143,316,63,177,1,-1,-1,-1
473,158,292,249,168,472,1,-1,-1,-1
473,146,1215,286,98,271,1,-1,-1,-1
474,158,281,255,171,475,1,-1,-1,-1
474,146,1215,284,98,275,1,-1,-1,-1
475,158,271,258,173,479,1,-1,-1,-1
475,146,1217,284,98,275,1,-1,-1,-1
476,158,267,258,174,481,1,-1,-1,-1
476,146,1217,285,99,275,1,-1,-1,-1
477,158,263,256,174,481,1,-1,-1,-1
477,146,1216,286,99,275,1,-1,-1,-1
478,158,255,258,178,483,1,-1,-1,-1
478,146,1218,287,100,277,1,-1,-1,-1
479,158,242,258,192,478,1,-1,-1,-1
479,146,1218,288,103,277,1,-1,-1,-1
480,158,237,253,197,491,1,-1,-1,-1
480,146,1218,291,102,281,1,-1,-1,-1
481,158,232,257,203,494,1,-1,-1,-1
481,146,1219,291,103,283,1,-1,-1,-1
482,158,230,264,206,490,1,-1,-1,-1
482,146,1220,289,106,285,1,-1,-1,-1
483,158,223,272,213,489,1,-1,-1,-1
483,146,1223,288,107,285,1,-1,-1,-1
484,158,222,276,218,492,1,-1,-1,-1
484,146,1228,288,108,286,1,-1,-1,-1
485,158,224,279,213,492,1,-1,-1,-1
485,146,1233,286,109,289,1,-1,-1,-1
486,158,209,319,225,546,1,-1,-1,-1
486,146,1235,283,109,289,1,-1,-1,-1
487,158,195,332,236,593,1,-1,-1,-1
487,146,1235,283,109,291,1,-1,-1,-1
488,158,203,283,226,574,1,-1,-1,-1
488,146,1237,282,109,292,1,-1,-1,-1
489,158,210,268,216,557,1,-1,-1,-1
489,146,1240,283,110,292,1,-1,-1,-1
490,158,218,268,207,541,1,-1,-1,-1
490,146,1247,282,110,293,1,-1,-1,-1
491,158,203,286,213,554,1,-1,-1,-1
491,146,1249,284,111,294,1,-1,-1,-1
492,158,200,283,216,562,1,-1,-1,-1
492,146,1255,281,111,295,1,-1,-1,-1
493,179,1154,316,53,150,1,-1,-1,-1
493,158,196,279,218,564,1,-1,-1,-1
493,146,1258,281,112,299,1,-1,-1,-1
494,179,1155,313,55,154,1,-1,-1,-1
494,158,187,283,224,565,1,-1,-1,-1
494,146,1261,280,112,299,1,-1,-1,-1
495,179,1158,319,55,155,1,-1,-1,-1
495,158,185,282,224,568,1,-1,-1,-1
495,146,1266,282,112,301,1,-1,-1,-1
496,179,1160,315,56,158,1,-1,-1,-1
496,158,184,281,225,569,1,-1,-1,-1
496,146,1268,279,112,303,1,-1,-1,-1
497,179,1163,321,56,159,1,-1,-1,-1
497,158,173,286,225,577,1,-1,-1,-1
497,146,1270,282,112,303,1,-1,-1,-1
498,179,1163,320,58,162,1,-1,-1,-1
498,158,167,283,225,579,1,-1,-1,-1
498,146,1272,282,112,302,1,-1,-1,-1
499,179,1164,320,57,161,1,-1,-1,-1
499,158,160,285,224,581,1,-1,-1,-1
499,146,1274,282,112,301,1,-1,-1,-1
500,187,835,302,61,171,1,-1,-1,-1
500,179,1162,319,58,161,1,-1,-1,-1
500,158,147,280,225,585,1,-1,-1,-1
500,146,1274,280,111,300,1,-1,-1,-1
501,190,942,307,55,148,1,-1,-1,-1
501,187,834,299,61,173,1,-1,-1,-1
501,179,1161,320,58,159,1,-1,-1,-1
501,158,138,275,223,591,1,-1,-1,-1
501,146,1286,280,115,303,1,-1,-1,-1
502,179,1162,319,57,157,1,-1,-1,-1
502,158,131,272,220,597,1,-1,-1,-1
502,146,1286,277,117,306,1,-1,-1,-1
503,188,334,332,79,221,1,-1,-1,-1
503,158,120,269,222,598,1,-1,-1,-1
503,146,1286,274,118,309,1,-1,-1,-1
504,188,332,324,75,212,1,-1,-1,-1
504,158,119,262,224,600,1,-1,-1,-1
504,146,1286,272,121,309,1,-1,-1,-1
505,188,327,322,76,213,1,-1,-1,-1
505,158,112,261,225,601,1,-1,-1,-1
505,146,1287,270,121,311,1,-1,-1,-1
506,192,670,308,44,123,1,-1,-1,-1
506,188,323,320,76,215,1,-1,-1,-1
506,158,104,255,227,607,1,-1,-1,-1
506,146,1288,269,122,313,1,-1,-1,-1
507,188,320,308,83,202,1,-1,-1,-1
507,158,88,266,239,600,1,-1,-1,-1
507,146,1288,267,126,315,1,-1,-1,-1
508,188,317,310,80,194,1,-1,-1,-1
508,158,78,268,248,612,1,-1,-1,-1
508,146,1291,268,127,317,1,-1,-1,-1
509,188,318,311,76,185,1,-1,-1,-1
509,158,81,254,250,628,1,-1,-1,-1
509,146,1298,268,128,319,1,-1,-1,-1
510,188,316,311,71,179,1,-1,-1,-1
510,158,59,237,252,642,1,-1,-1,-1
510,146,1307,267,127,320,1,-1,-1,-1
511,188,312,312,70,175,1,-1,-1,-1
511,158,48,238,254,646,1,-1,-1,-1
511,146,1312,268,126,322,1,-1,-1,-1
512,188,315,312,67,170,1,-1,-1,-1
512,158,44,231,257,654,1,-1,-1,-1
512,146,1319,266,124,325,1,-1,-1,-1
513,188,317,314,70,180,1,-1,-1,-1
513,158,31,233,257,657,1,-1,-1,-1
513,146,1326,261,124,330,1,-1,-1,-1
514,158,24,228,256,664,1,-1,-1,-1
514,146,1331,256,123,334,1,-1,-1,-1
515,158,15,230,251,669,1,-1,-1,-1
515,146,1335,253,122,336,1,-1,-1,-1
516,187,849,262,72,202,1,-1,-1,-1
516,158,10,230,247,674,1,-1,-1,-1
516,146,1339,247,121,338,1,-1,-1,-1
517,158,7,226,241,676,1,-1,-1,-1
517,146,1344,241,122,342,1,-1,-1,-1
518,158,7,233,232,651,1,-1,-1,-1
518,146,1345,237,124,346,1,-1,-1,-1
519,158,8,244,227,636,1,-1,-1,-1
519,146,1344,236,126,351,1,-1,-1,-1
520,158,7,253,222,623,1,-1,-1,-1
520,146,1346,237,126,354,1,-1,-1,-1
521,187,849,267,70,198,1,-1,-1,-1
521,158,11,258,218,610,1,-1,-1,-1
521,146,1346,237,128,358,1,-1,-1,-1
522,187,844,243,75,211,1,-1,-1,-1
522,158,15,262,215,603,1,-1,-1,-1
522,146,1344,237,131,360,1,-1,-1,-1
523,146,1344,239,131,362,1,-1,-1,-1
524,146,1344,240,130,364,1,-1,-1,-1
525,146,1343,241,129,363,1,-1,-1,-1
526,146,1343,243,128,359,1,-1,-1,-1
527,146,1344,244,127,357,1,-1,-1,-1
528,146,1345,243,127,356,1,-1,-1,-1
529,179,1138,273,59,165,1,-1,-1,-1
529,146,1348,241,128,358,1,-1,-1,-1
530,179,1140,269,58,164,1,-1,-1,-1
530,146,1346,239,129,362,1,-1,-1,-1
531,179,1136,275,57,161,1,-1,-1,-1
531,146,1345,236,130,366,1,-1,-1,-1
532,146,1344,235,131,368,1,-1,-1,-1
533,146,1341,233,133,373,1,-1,-1,-1
534,146,1339,229,139,383,1,-1,-1,-1
535,146,1341,228,137,384,1,-1,-1,-1
536,146,1340,225,139,388,1,-1,-1,-1
537,146,1341,223,143,389,1,-1,-1,-1
538,146,1342,222,141,390,1,-1,-1,-1
539,179,1122,265,58,164,1,-1,-1,-1
539,146,1347,220,140,390,1,-1,-1,-1
540,146,1349,219,141,389,1,-1,-1,-1
541,198,736,255,63,177,1,-1,-1,-1
541,146,1348,220,140,388,1,-1,-1,-1
542,198,735,254,61,173,1,-1,-1,-1
542,146,1347,220,139,386,1,-1,-1,-1
543,198,743,244,61,171,1,-1,-1,-1
543,190,951,255,51,137,1,-1,-1,-1
543,146,1348,217,139,387,1,-1,-1,-1
544,198,743,244,59,166,1,-1,-1,-1
544,190,947,254,50,137,1,-1,-1,-1
544,146,1367,211,140,394,1,-1,-1,-1
545,198,740,244,57,162,1,-1,-1,-1
545,190,947,251,49,136,1,-1,-1,-1
545,146,1378,211,140,392,1,-1,-1,-1
546,198,741,242,58,164,1,-1,-1,-1
546,190,948,250,49,134,1,-1,-1,-1
546,146,1379,206,142,399,1,-1,-1,-1
547,190,952,253,47,131,1,-1,-1,-1
547,146,1382,204,143,401,1,-1,-1,-1
548,190,949,258,49,135,1,-1,-1,-1
548,146,1380,198,148,415,1,-1,-1,-1
549,146,1381,197,152,420,1,-1,-1,-1
550,198,735,245,64,181,1,-1,-1,-1
550,196,126,270,85,187,1,-1,-1,-1
550,146,1387,197,155,424,1,-1,-1,-1
551,199,1335,225,128,359,1,-1,-1,-1
551,198,736,243,66,185,1,-1,-1,-1
551,196,121,268,90,197,1,-1,-1,-1
551,146,1394,194,156,428,1,-1,-1,-1
552,199,1338,227,128,360,1,-1,-1,-1
552,198,735,247,65,183,1,-1,-1,-1
552,196,116,270,91,199,1,-1,-1,-1
552,146,1399,196,156,430,1,-1,-1,-1
553,199,1337,227,128,359,1,-1,-1,-1
553,198,736,243,67,188,1,-1,-1,-1
553,196,95,267,94,197,1,-1,-1,-1
553,146,1403,194,158,434,1,-1,-1,-1
554,199,1339,224,128,360,1,-1,-1,-1
554,198,737,241,68,191,1,-1,-1,-1
554,196,84,265,92,190,1,-1,-1,-1
554,146,1408,191,159,437,1,-1,-1,-1
555,199,1340,222,129,361,1,-1,-1,-1
555,198,738,234,69,194,1,-1,-1,-1
555,196,77,263,90,188,1,-1,-1,-1
555,146,1411,188,160,441,1,-1,-1,-1
556,199,1341,220,129,363,1,-1,-1,-1
556,198,739,230,71,199,1,-1,-1,-1
556,196,73,263,89,188,1,-1,-1,-1
556,146,1413,185,162,444,1,-1,-1,-1
557,199,1344,225,126,354,1,-1,-1,-1
557,198,739,228,71,200,1,-1,-1,-1
557,196,70,262,85,188,1,-1,-1,-1
557,146,1413,184,161,447,1,-1,-1,-1
558,199,1346,224,126,353,1,-1,-1,-1
558,198,740,233,70,198,1,-1,-1,-1
558,146,1417,180,161,450,1,-1,-1,-1
559,199,1349,225,125,351,1,-1,-1,-1
559,198,737,234,71,199,1,-1,-1,-1
559,146,1418,183,160,449,1,-1,-1,-1
560,198,732,234,70,197,1,-1,-1,-1
560,146,1421,183,161,450,1,-1,-1,-1
561,198,740,248,68,193,1,-1,-1,-1
561,146,1418,186,162,455,1,-1,-1,-1
562,196,8,266,96,201,1,-1,-1,-1
562,146,1419,188,168,458,1,-1,-1,-1
563,146,1416,191,167,462,1,-1,-1,-1
564,146,1419,195,169,465,1,-1,-1,-1
565,198,732,237,75,201,1,-1,-1,-1
565,146,1421,200,168,467,1,-1,-1,-1
566,198,725,238,77,201,1,-1,-1,-1
566,146,1452,196,172,479,1,-1,-1,-1
567,198,725,240,78,203,1,-1,-1,-1
567,146,1467,194,177,488,1,-1,-1,-1
568,199,1419,224,147,413,1,-1,-1,-1
568,198,730,234,77,208,1,-1,-1,-1
568,146,1483,193,179,492,1,-1,-1,-1
569,199,1419,198,138,387,1,-1,-1,-1
569,198,731,235,76,208,1,-1,-1,-1
569,146,1495,183,180,502,1,-1,-1,-1
570,199,1423,195,136,382,1,-1,-1,-1
570,198,730,231,74,207,1,-1,-1,-1
570,146,1504,181,180,505,1,-1,-1,-1
571,199,1429,202,136,380,1,-1,-1,-1
571,198,735,239,71,200,1,-1,-1,-1
571,146,1509,183,180,505,1,-1,-1,-1
572,199,1437,217,138,388,1,-1,-1,-1
572,198,734,240,70,197,1,-1,-1,-1
572,146,1507,186,178,499,1,-1,-1,-1
573,199,1444,206,133,372,1,-1,-1,-1
573,198,736,240,70,197,1,-1,-1,-1
573,146,1499,187,174,489,1,-1,-1,-1
574,199,1474,214,143,402,1,-1,-1,-1
574,198,742,250,68,192,1,-1,-1,-1
574,146,1543,187,177,495,1,-1,-1,-1
575,199,1483,222,148,415,1,-1,-1,-1
575,198,748,236,72,203,1,-1,-1,-1
575,146,1561,188,179,501,1,-1,-1,-1
576,199,1487,225,153,429,1,-1,-1,-1
576,198,749,226,76,213,1,-1,-1,-1
576,146,1560,185,188,522,1,-1,-1,-1
577,199,1490,226,162,456,1,-1,-1,-1
577,198,746,249,82,202,1,-1,-1,-1
577,146,1558,186,199,527,1,-1,-1,-1
578,199,1490,225,165,463,1,-1,-1,-1
578,198,749,235,82,212,1,-1,-1,-1
578,146,1569,184,198,529,1,-1,-1,-1
579,199,1491,226,168,470,1,-1,-1,-1
579,146,1569,190,202,538,1,-1,-1,-1
580,199,1488,224,169,474,1,-1,-1,-1
580,146,1573,186,203,541,1,-1,-1,-1
581,199,1487,222,171,480,1,-1,-1,-1
581,146,1574,190,206,549,1,-1,-1,-1
582,199,1489,223,172,482,1,-1,-1,-1
582,198,743,249,76,204,1,-1,-1,-1
582,146,1575,189,207,558,1,-1,-1,-1
583,199,1490,227,172,482,1,-1,-1,-1
583,198,740,244,76,203,1,-1,-1,-1
583,146,1580,188,207,566,1,-1,-1,-1
584,199,1492,229,171,480,1,-1,-1,-1
584,198,741,242,76,204,1,-1,-1,-1
584,146,1582,186,206,575,1,-1,-1,-1
585,199,1498,231,171,479,1,-1,-1,-1
585,198,737,246,76,203,1,-1,-1,-1
585,146,1579,188,204,572,1,-1,-1,-1
586,199,1500,223,170,477,1,-1,-1,-1
586,198,735,245,74,201,1,-1,-1,-1
586,146,1578,190,202,568,1,-1,-1,-1
587,199,1507,219,171,481,1,-1,-1,-1
587,198,735,243,74,200,1,-1,-1,-1
587,146,1613,183,211,592,1,-1,-1,-1
588,199,1512,210,173,486,1,-1,-1,-1
588,198,733,244,74,196,1,-1,-1,-1
588,146,1622,182,222,617,1,-1,-1,-1
589,199,1517,216,170,478,1,-1,-1,-1
589,198,729,246,71,192,1,-1,-1,-1
589,146,1634,189,223,624,1,-1,-1,-1
590,199,1518,184,162,455,1,-1,-1,-1
590,146,1630,186,231,641,1,-1,-1,-1
591,199,1525,203,161,451,1,-1,-1,-1
591,146,1635,180,234,649,1,-1,-1,-1
592,146,1645,172,236,660,1,-1,-1,-1
593,198,744,263,73,202,1,-1,-1,-1
593,146,1661,177,233,653,1,-1,-1,-1
594,203,1568,207,202,566,1,-1,-1,-1
594,198,737,256,74,204,1,-1,-1,-1
594,146,1661,179,234,657,1,-1,-1,-1
595,203,1571,213,198,555,1,-1,-1,-1
595,198,732,254,73,204,1,-1,-1,-1
595,146,1669,189,232,651,1,-1,-1,-1
596,203,1573,217,198,555,1,-1,-1,-1
596,198,742,265,74,206,1,-1,-1,-1
596,146,1673,197,229,642,1,-1,-1,-1
597,203,1587,217,198,556,1,-1,-1,-1
597,198,746,268,75,209,1,-1,-1,-1
597,146,1681,201,226,634,1,-1,-1,-1
598,203,1598,215,199,558,1,-1,-1,-1
598,198,746,269,77,214,1,-1,-1,-1
598,146,1686,207,222,622,1,-1,-1,-1
599,203,1604,220,199,559,1,-1,-1,-1
599,198,737,258,78,215,1,-1,-1,-1
599,146,1685,212,221,618,1,-1,-1,-1
600,198,746,260,80,222,1,-1,-1,-1
600,146,1684,213,218,612,1,-1,-1,-1
601,198,749,271,79,214,1,-1,-1,-1
601,146,1686,216,213,597,1,-1,-1,-1
602,146,1681,218,212,595,1,-1,-1,-1
603,146,1670,230,214,601,1,-1,-1,-1
604,146,1671,235,216,606,1,-1,-1,-1
605,198,752,290,76,203,1,-1,-1,-1
605,146,1678,201,208,583,1,-1,-1,-1
606,198,753,282,81,213,1,-1,-1,-1
606,146,1687,234,206,579,1,-1,-1,-1
607,198,753,285,79,211,1,-1,-1,-1
607,146,1699,255,202,567,1,-1,-1,-1
608,198,752,280,82,219,1,-1,-1,-1
608,146,1707,262,199,557,1,-1,-1,-1
609,198,754,282,81,216,1,-1,-1,-1
609,146,1712,267,196,550,1,-1,-1,-1
610,198,753,282,79,211,1,-1,-1,-1
611,198,752,282,77,207,1,-1,-1,-1
612,198,751,283,75,206,1,-1,-1,-1
613,198,756,280,76,210,1,-1,-1,-1
614,198,759,274,78,216,1,-1,-1,-1
615,198,760,280,77,210,1,-1,-1,-1
616,201,839,295,77,192,1,-1,-1,-1
617,201,834,295,75,192,1,-1,-1,-1
629,201,830,293,73,196,1,-1,-1,-1
630,201,831,294,73,199,1,-1,-1,-1
631,201,831,294,74,198,1,-1,-1,-1
632,201,834,291,74,202,1,-1,-1,-1
633,201,835,292,74,203,1,-1,-1,-1
634,201,835,289,73,204,1,-1,-1,-1
635,201,838,287,76,207,1,-1,-1,-1
636,201,833,281,75,207,1,-1,-1,-1
637,201,835,283,74,204,1,-1,-1,-1
638,201,836,283,74,204,1,-1,-1,-1
639,201,839,288,72,201,1,-1,-1,-1
640,201,839,291,70,198,1,-1,-1,-1
641,201,857,300,69,192,1,-1,-1,-1
642,201,864,305,67,187,1,-1,-1,-1
643,208,1504,267,89,250,1,-1,-1,-1
644,208,1507,279,86,242,1,-1,-1,-1
647,201,855,296,69,189,1,-1,-1,-1
650,208,1560,280,87,243,1,-1,-1,-1
652,201,840,270,73,207,1,-1,-1,-1
653,201,845,266,77,217,1,-1,-1,-1
654,208,1606,276,93,261,1,-1,-1,-1
