4,639,494,159,28,75,1,-1,-1,-1
5,639,490,160,28,76,1,-1,-1,-1
6,639,486,160,29,78,1,-1,-1,-1
7,639,481,159,30,81,1,-1,-1,-1
8,639,478,159,29,82,1,-1,-1,-1
9,639,474,160,28,81,1,-1,-1,-1
10,641,565,235,32,87,1,-1,-1,-1
11,641,551,233,32,90,1,-1,-1,-1
12,641,539,234,31,88,1,-1,-1,-1
13,641,530,233,32,89,1,-1,-1,-1
13,639,456,165,31,81,1,-1,-1,-1
14,639,450,167,30,81,1,-1,-1,-1
15,643,727,292,33,95,1,-1,-1,-1
15,639,445,169,31,81,1,-1,-1,-1
16,643,721,285,37,103,1,-1,-1,-1
17,644,345,196,32,89,1,-1,-1,-1
17,643,718,281,37,105,1,-1,-1,-1
17,641,488,234,33,86,1,-1,-1,-1
18,644,351,195,31,88,1,-1,-1,-1
18,643,718,276,38,107,1,-1,-1,-1
18,641,473,232,34,86,1,-1,-1,-1
19,644,355,196,30,86,1,-1,-1,-1
19,643,723,278,36,103,1,-1,-1,-1
19,641,463,232,34,86,1,-1,-1,-1
20,644,359,194,32,88,1,-1,-1,-1
20,643,728,279,35,100,1,-1,-1,-1
20,641,455,231,33,86,1,-1,-1,-1
22,643,722,271,35,100,1,-1,-1,-1
23,645,676,265,40,107,1,-1,-1,-1
23,643,716,268,35,100,1,-1,-1,-1
24,643,698,262,38,107,1,-1,-1,-1
25,643,690,257,38,106,1,-1,-1,-1
26,644,382,180,33,92,1,-1,-1,-1
26,643,684,255,38,105,1,-1,-1,-1
27,645,649,257,38,105,1,-1,-1,-1
27,644,382,181,33,94,1,-1,-1,-1
27,643,680,255,38,105,1,-1,-1,-1
28,645,642,256,39,104,1,-1,-1,-1
28,644,382,184,33,94,1,-1,-1,-1
28,643,677,255,39,105,1,-1,-1,-1
29,645,638,253,38,103,1,-1,-1,-1
29,644,381,183,33,94,1,-1,-1,-1
29,643,672,252,39,105,1,-1,-1,-1
30,645,636,252,37,102,1,-1,-1,-1
30,644,381,183,33,94,1,-1,-1,-1
30,643,669,251,37,103,1,-1,-1,-1
33,639,379,183,33,93,1,-1,-1,-1
34,645,608,247,41,100,1,-1,-1,-1
34,639,379,183,32,90,1,-1,-1,-1
35,645,606,243,40,101,1,-1,-1,-1
35,639,380,183,31,88,1,-1,-1,-1
36,645,603,240,41,100,1,-1,-1,-1
36,639,380,185,30,85,1,-1,-1,-1
37,645,603,239,40,99,1,-1,-1,-1
37,639,379,182,30,84,1,-1,-1,-1
38,645,602,236,38,97,1,-1,-1,-1
38,639,379,182,29,83,1,-1,-1,-1
39,645,602,233,37,97,1,-1,-1,-1
39,639,378,179,30,84,1,-1,-1,-1
40,645,600,233,36,96,1,-1,-1,-1
40,639,378,177,29,82,1,-1,-1,-1
41,645,595,231,36,97,1,-1,-1,-1
41,639,378,177,28,80,1,-1,-1,-1
42,646,567,226,37,100,1,-1,-1,-1
42,639,381,178,28,79,1,-1,-1,-1
43,646,567,225,36,96,1,-1,-1,-1
43,639,382,179,27,78,1,-1,-1,-1
44,647,726,288,32,89,1,-1,-1,-1
44,646,554,223,35,95,1,-1,-1,-1
44,639,382,179,28,78,1,-1,-1,-1
45,646,546,221,34,94,1,-1,-1,-1
45,639,382,177,28,78,1,-1,-1,-1
46,646,539,221,34,93,1,-1,-1,-1
46,645,573,224,33,91,1,-1,-1,-1
46,639,382,176,28,80,1,-1,-1,-1
47,646,535,219,34,93,1,-1,-1,-1
47,645,570,223,33,91,1,-1,-1,-1
47,639,382,176,29,81,1,-1,-1,-1
48,646,526,218,34,94,1,-1,-1,-1
48,645,566,218,33,91,1,-1,-1,-1
48,639,380,176,29,81,1,-1,-1,-1
49,646,520,216,33,93,1,-1,-1,-1
49,645,563,217,33,90,1,-1,-1,-1
49,639,378,178,29,81,1,-1,-1,-1
50,647,685,268,32,92,1,-1,-1,-1
50,646,513,217,35,93,1,-1,-1,-1
50,645,560,217,33,90,1,-1,-1,-1
50,639,377,177,28,81,1,-1,-1,-1
51,647,675,263,35,100,1,-1,-1,-1
51,646,505,216,36,94,1,-1,-1,-1
51,639,376,177,28,80,1,-1,-1,-1
52,647,669,260,36,102,1,-1,-1,-1
52,646,501,212,36,95,1,-1,-1,-1
52,639,376,178,28,79,1,-1,-1,-1
53,647,662,255,37,106,1,-1,-1,-1
53,646,498,210,35,95,1,-1,-1,-1
53,639,376,180,28,78,1,-1,-1,-1
54,647,655,253,38,107,1,-1,-1,-1
54,646,492,209,34,95,1,-1,-1,-1
54,645,538,212,31,87,1,-1,-1,-1
54,639,376,180,28,78,1,-1,-1,-1
55,647,647,250,39,109,1,-1,-1,-1
55,646,486,207,34,95,1,-1,-1,-1
55,645,530,211,31,88,1,-1,-1,-1
55,639,379,179,28,78,1,-1,-1,-1
56,647,640,246,40,113,1,-1,-1,-1
56,646,483,205,33,94,1,-1,-1,-1
56,645,527,210,31,88,1,-1,-1,-1
56,639,380,179,28,79,1,-1,-1,-1
57,647,636,245,40,112,1,-1,-1,-1
57,646,481,204,33,93,1,-1,-1,-1
57,645,524,208,31,87,1,-1,-1,-1
57,639,380,179,28,79,1,-1,-1,-1
58,646,476,204,33,92,1,-1,-1,-1
58,645,521,208,30,84,1,-1,-1,-1
58,639,380,176,28,81,1,-1,-1,-1
59,646,473,202,33,92,1,-1,-1,-1
59,645,517,206,29,82,1,-1,-1,-1
59,639,380,176,28,81,1,-1,-1,-1
60,646,469,202,32,92,1,-1,-1,-1
60,639,378,177,28,79,1,-1,-1,-1
61,647,613,232,37,105,1,-1,-1,-1
61,646,467,200,32,92,1,-1,-1,-1
61,639,375,178,27,77,1,-1,-1,-1
62,647,610,229,37,104,1,-1,-1,-1
62,646,465,197,32,91,1,-1,-1,-1
63,647,608,229,36,101,1,-1,-1,-1
63,646,464,195,32,90,1,-1,-1,-1
63,645,492,199,29,81,1,-1,-1,-1
64,647,605,229,35,100,1,-1,-1,-1
64,646,461,193,32,90,1,-1,-1,-1
64,645,490,198,29,81,1,-1,-1,-1
65,647,602,228,34,96,1,-1,-1,-1
65,646,459,192,31,88,1,-1,-1,-1
65,645,487,197,29,82,1,-1,-1,-1
66,647,600,226,33,93,1,-1,-1,-1
66,646,456,193,31,87,1,-1,-1,-1
66,645,486,195,29,82,1,-1,-1,-1
67,647,598,223,32,91,1,-1,-1,-1
67,646,453,193,32,86,1,-1,-1,-1
67,645,484,194,29,81,1,-1,-1,-1
67,639,383,176,29,83,1,-1,-1,-1
68,647,596,221,33,92,1,-1,-1,-1
68,646,451,191,32,86,1,-1,-1,-1
68,645,484,194,29,81,1,-1,-1,-1
68,639,382,176,30,84,1,-1,-1,-1
69,646,450,190,32,84,1,-1,-1,-1
69,645,482,194,28,79,1,-1,-1,-1
69,639,379,176,30,85,1,-1,-1,-1
70,646,451,189,32,84,1,-1,-1,-1
70,645,480,192,28,80,1,-1,-1,-1
70,639,379,176,31,86,1,-1,-1,-1
71,646,452,188,31,83,1,-1,-1,-1
71,645,478,190,28,78,1,-1,-1,-1
72,647,583,207,32,90,1,-1,-1,-1
72,646,451,188,31,83,1,-1,-1,-1
72,645,477,190,27,76,1,-1,-1,-1
73,647,580,205,32,89,1,-1,-1,-1
73,646,455,186,30,82,1,-1,-1,-1
73,645,477,190,26,74,1,-1,-1,-1
74,647,579,206,30,86,1,-1,-1,-1
74,646,456,185,29,82,1,-1,-1,-1
74,639,376,176,30,85,1,-1,-1,-1
75,647,577,205,30,85,1,-1,-1,-1
75,639,376,178,30,84,1,-1,-1,-1
76,647,575,202,30,85,1,-1,-1,-1
76,639,377,177,30,84,1,-1,-1,-1
77,647,575,201,29,83,1,-1,-1,-1
77,639,378,178,29,82,1,-1,-1,-1
78,647,574,202,29,82,1,-1,-1,-1
78,639,378,179,28,80,1,-1,-1,-1
79,647,572,197,29,81,1,-1,-1,-1
79,639,379,177,28,81,1,-1,-1,-1
80,647,571,194,29,82,1,-1,-1,-1
80,639,380,177,29,81,1,-1,-1,-1
81,647,569,193,29,83,1,-1,-1,-1
81,646,455,171,27,77,1,-1,-1,-1
81,639,380,176,29,83,1,-1,-1,-1
82,647,566,191,30,84,1,-1,-1,-1
82,646,455,171,27,77,1,-1,-1,-1
82,639,380,176,29,83,1,-1,-1,-1
83,647,565,187,30,85,1,-1,-1,-1
83,646,454,172,27,76,1,-1,-1,-1
83,639,382,176,29,82,1,-1,-1,-1
84,647,563,186,30,84,1,-1,-1,-1
84,646,455,172,26,74,1,-1,-1,-1
84,639,382,177,29,82,1,-1,-1,-1
85,647,563,183,29,83,1,-1,-1,-1
85,646,453,169,26,74,1,-1,-1,-1
85,639,382,178,28,81,1,-1,-1,-1
86,654,483,170,25,71,1,-1,-1,-1
86,647,564,183,29,83,1,-1,-1,-1
86,646,454,166,26,74,1,-1,-1,-1
86,639,381,177,28,80,1,-1,-1,-1
87,654,484,169,25,70,1,-1,-1,-1
87,647,565,182,29,81,1,-1,-1,-1
87,646,455,166,26,74,1,-1,-1,-1
87,639,382,177,28,80,1,-1,-1,-1
88,654,483,168,25,72,1,-1,-1,-1
88,647,566,180,28,80,1,-1,-1,-1
88,646,456,165,26,74,1,-1,-1,-1
88,639,382,177,28,80,1,-1,-1,-1
89,654,483,162,26,74,1,-1,-1,-1
89,647,567,175,29,82,1,-1,-1,-1
89,646,459,162,27,75,1,-1,-1,-1
89,639,381,178,28,80,1,-1,-1,-1
90,654,486,160,26,73,1,-1,-1,-1
90,647,568,172,29,83,1,-1,-1,-1
90,639,381,179,28,80,1,-1,-1,-1
91,654,487,159,26,75,1,-1,-1,-1
91,647,569,172,29,83,1,-1,-1,-1
91,639,382,178,28,80,1,-1,-1,-1
92,654,487,157,27,76,1,-1,-1,-1
92,647,571,171,29,82,1,-1,-1,-1
92,639,383,178,28,80,1,-1,-1,-1
93,654,488,155,27,77,1,-1,-1,-1
93,647,574,167,29,81,1,-1,-1,-1
93,639,384,178,28,80,1,-1,-1,-1
94,654,488,153,27,77,1,-1,-1,-1
94,647,576,165,29,82,1,-1,-1,-1
94,639,384,177,28,80,1,-1,-1,-1
95,654,489,152,26,74,1,-1,-1,-1
95,647,577,164,29,82,1,-1,-1,-1
95,639,386,175,29,82,1,-1,-1,-1
96,654,492,153,26,74,1,-1,-1,-1
96,647,577,163,29,81,1,-1,-1,-1
96,639,387,175,30,85,1,-1,-1,-1
97,654,490,149,27,75,1,-1,-1,-1
97,647,579,160,28,80,1,-1,-1,-1
97,639,385,174,31,87,1,-1,-1,-1
98,658,229,57,17,34,1,-1,-1,-1
98,654,492,147,27,74,1,-1,-1,-1
98,647,581,156,28,79,1,-1,-1,-1
99,658,227,57,17,35,1,-1,-1,-1
99,654,492,146,28,74,1,-1,-1,-1
99,647,583,154,28,81,1,-1,-1,-1
100,658,223,56,17,36,1,-1,-1,-1
100,654,496,145,29,74,1,-1,-1,-1
100,647,586,150,29,82,1,-1,-1,-1
101,658,218,56,17,36,1,-1,-1,-1
101,654,497,145,29,74,1,-1,-1,-1
101,647,588,146,29,83,1,-1,-1,-1
102,658,215,57,17,36,1,-1,-1,-1
102,654,499,144,28,75,1,-1,-1,-1
102,647,588,144,29,82,1,-1,-1,-1
103,658,211,57,18,38,1,-1,-1,-1
103,654,499,141,27,75,1,-1,-1,-1
103,647,592,146,29,81,1,-1,-1,-1
104,658,206,57,18,39,1,-1,-1,-1
104,654,501,139,26,72,1,-1,-1,-1
104,647,595,145,28,81,1,-1,-1,-1
105,658,202,58,18,39,1,-1,-1,-1
105,654,502,139,26,71,1,-1,-1,-1
105,647,598,144,29,81,1,-1,-1,-1
106,659,528,142,23,66,1,-1,-1,-1
106,658,198,58,18,39,1,-1,-1,-1
106,654,506,139,26,71,1,-1,-1,-1
106,647,603,144,28,78,1,-1,-1,-1
107,659,530,140,25,70,1,-1,-1,-1
107,658,197,58,18,39,1,-1,-1,-1
107,654,509,138,27,70,1,-1,-1,-1
107,647,606,142,28,79,1,-1,-1,-1
108,659,531,139,25,70,1,-1,-1,-1
108,658,197,59,18,38,1,-1,-1,-1
108,647,610,141,28,79,1,-1,-1,-1
108,639,384,179,33,92,1,-1,-1,-1
109,659,531,138,25,71,1,-1,-1,-1
109,658,195,58,17,39,1,-1,-1,-1
109,647,612,140,27,78,1,-1,-1,-1
109,639,379,174,33,94,1,-1,-1,-1
110,659,531,138,26,70,1,-1,-1,-1
110,647,614,138,27,78,1,-1,-1,-1
111,659,533,137,25,70,1,-1,-1,-1
111,647,615,137,27,76,1,-1,-1,-1
112,659,536,136,26,70,1,-1,-1,-1
112,647,618,137,27,75,1,-1,-1,-1
113,659,538,135,26,71,1,-1,-1,-1
113,647,621,136,26,75,1,-1,-1,-1
114,661,562,138,23,65,1,-1,-1,-1
114,659,539,134,26,70,1,-1,-1,-1
114,647,624,134,26,74,1,-1,-1,-1
115,661,563,137,23,67,1,-1,-1,-1
115,659,540,133,26,71,1,-1,-1,-1
115,647,629,137,25,72,1,-1,-1,-1
116,661,564,136,24,67,1,-1,-1,-1
116,659,541,132,26,72,1,-1,-1,-1
116,657,465,204,31,81,1,-1,-1,-1
116,647,631,139,25,71,1,-1,-1,-1
117,661,565,135,23,65,1,-1,-1,-1
117,659,542,131,26,71,1,-1,-1,-1
117,657,471,204,31,80,1,-1,-1,-1
117,647,635,138,25,71,1,-1,-1,-1
118,661,567,133,23,66,1,-1,-1,-1
118,657,482,205,31,83,1,-1,-1,-1
118,647,638,136,25,70,1,-1,-1,-1
119,661,567,132,24,68,1,-1,-1,-1
119,657,492,206,29,83,1,-1,-1,-1
119,647,641,134,25,70,1,-1,-1,-1
120,661,568,130,24,69,1,-1,-1,-1
120,657,497,208,30,84,1,-1,-1,-1
120,647,645,133,25,70,1,-1,-1,-1
121,661,572,129,24,67,1,-1,-1,-1
121,647,652,132,24,69,1,-1,-1,-1
122,661,576,128,23,66,1,-1,-1,-1
122,647,655,130,25,70,1,-1,-1,-1
123,661,577,123,24,69,1,-1,-1,-1
123,647,658,127,24,69,1,-1,-1,-1
124,661,577,121,25,69,1,-1,-1,-1
124,657,535,215,33,82,1,-1,-1,-1
124,647,662,128,24,69,1,-1,-1,-1
125,661,577,121,26,69,1,-1,-1,-1
125,657,543,216,32,82,1,-1,-1,-1
125,647,663,130,25,70,1,-1,-1,-1
125,639,379,177,32,88,1,-1,-1,-1
126,661,577,119,27,69,1,-1,-1,-1
126,647,663,133,26,71,1,-1,-1,-1
126,639,380,175,31,88,1,-1,-1,-1
127,661,578,119,27,69,1,-1,-1,-1
127,647,663,135,27,70,1,-1,-1,-1
127,639,382,175,31,88,1,-1,-1,-1
128,661,582,117,28,70,1,-1,-1,-1
128,639,382,177,30,86,1,-1,-1,-1
129,661,584,117,28,70,1,-1,-1,-1
129,657,576,219,32,87,1,-1,-1,-1
129,639,382,178,29,83,1,-1,-1,-1
130,663,676,124,24,67,1,-1,-1,-1
130,661,586,114,27,68,1,-1,-1,-1
130,639,381,181,29,82,1,-1,-1,-1
131,664,601,118,25,67,1,-1,-1,-1
131,663,682,121,23,66,1,-1,-1,-1
131,639,381,182,29,81,1,-1,-1,-1
132,664,603,119,25,65,1,-1,-1,-1
132,663,685,121,23,64,1,-1,-1,-1
132,639,381,186,28,80,1,-1,-1,-1
133,664,605,117,25,64,1,-1,-1,-1
133,663,687,121,22,62,1,-1,-1,-1
134,665,130,80,16,36,1,-1,-1,-1
134,664,607,116,24,63,1,-1,-1,-1
134,663,690,120,22,62,1,-1,-1,-1
135,665,127,80,15,34,1,-1,-1,-1
135,664,607,117,25,63,1,-1,-1,-1
135,663,692,122,22,62,1,-1,-1,-1
135,662,564,196,34,89,1,-1,-1,-1
135,657,628,224,35,87,1,-1,-1,-1
136,665,124,80,15,34,1,-1,-1,-1
136,664,608,116,24,63,1,-1,-1,-1
136,663,694,122,23,64,1,-1,-1,-1
136,662,559,194,34,90,1,-1,-1,-1
136,657,632,222,37,87,1,-1,-1,-1
137,666,718,246,39,101,1,-1,-1,-1
137,665,121,81,15,35,1,-1,-1,-1
137,664,610,113,24,64,1,-1,-1,-1
137,663,697,123,23,65,1,-1,-1,-1
137,662,554,193,32,88,1,-1,-1,-1
137,657,638,223,36,86,1,-1,-1,-1
138,666,700,234,38,102,1,-1,-1,-1
138,665,117,81,15,35,1,-1,-1,-1
138,664,611,113,24,64,1,-1,-1,-1
138,663,698,118,24,67,1,-1,-1,-1
138,662,548,193,33,85,1,-1,-1,-1
138,657,652,225,35,88,1,-1,-1,-1
139,666,685,226,40,108,1,-1,-1,-1
139,665,115,81,15,35,1,-1,-1,-1
139,664,612,112,24,64,1,-1,-1,-1
139,663,700,116,24,69,1,-1,-1,-1
139,662,540,193,33,82,1,-1,-1,-1
139,657,662,224,36,89,1,-1,-1,-1
140,666,673,221,45,115,1,-1,-1,-1
140,665,114,82,15,35,1,-1,-1,-1
140,664,613,110,25,64,1,-1,-1,-1
140,663,700,114,25,70,1,-1,-1,-1
140,662,532,191,32,81,1,-1,-1,-1
141,665,107,81,15,35,1,-1,-1,-1
141,664,615,109,25,63,1,-1,-1,-1
141,663,702,114,25,72,1,-1,-1,-1
141,662,521,192,33,80,1,-1,-1,-1
142,665,102,81,15,35,1,-1,-1,-1
142,664,615,109,25,63,1,-1,-1,-1
142,663,703,112,26,73,1,-1,-1,-1
142,662,512,191,35,81,1,-1,-1,-1
143,665,98,83,15,35,1,-1,-1,-1
143,664,616,111,24,61,1,-1,-1,-1
143,663,704,112,25,72,1,-1,-1,-1
143,662,508,188,33,79,1,-1,-1,-1
143,657,698,227,37,96,1,-1,-1,-1
144,667,638,112,23,63,1,-1,-1,-1
144,665,93,84,15,36,1,-1,-1,-1
144,664,619,109,24,61,1,-1,-1,-1
144,663,705,113,26,73,1,-1,-1,-1
144,662,499,182,32,80,1,-1,-1,-1
144,657,709,226,38,92,1,-1,-1,-1
145,667,636,111,24,63,1,-1,-1,-1
145,666,636,228,39,106,1,-1,-1,-1
145,664,622,110,25,61,1,-1,-1,-1
145,663,707,113,25,72,1,-1,-1,-1
145,657,717,225,36,90,1,-1,-1,-1
146,667,638,109,24,63,1,-1,-1,-1
146,666,629,227,39,105,1,-1,-1,-1
146,664,622,109,26,60,1,-1,-1,-1
146,663,709,111,25,70,1,-1,-1,-1
146,657,725,227,35,87,1,-1,-1,-1
146,639,383,191,26,75,1,-1,-1,-1
147,667,639,109,24,62,1,-1,-1,-1
147,666,619,225,38,101,1,-1,-1,-1
147,657,737,228,33,85,1,-1,-1,-1
147,639,382,192,26,73,1,-1,-1,-1
148,667,639,109,23,61,1,-1,-1,-1
148,666,612,225,36,99,1,-1,-1,-1
148,657,741,229,31,84,1,-1,-1,-1
148,639,383,192,26,75,1,-1,-1,-1
149,667,641,109,23,60,1,-1,-1,-1
149,666,605,226,34,97,1,-1,-1,-1
149,639,385,192,27,77,1,-1,-1,-1
150,667,643,108,23,59,1,-1,-1,-1
150,666,595,224,36,97,1,-1,-1,-1
150,639,389,192,28,80,1,-1,-1,-1
151,667,647,108,22,58,1,-1,-1,-1
151,666,588,222,35,95,1,-1,-1,-1
151,639,390,193,29,82,1,-1,-1,-1
152,667,648,107,22,57,1,-1,-1,-1
152,666,581,222,33,94,1,-1,-1,-1
153,667,649,107,22,58,1,-1,-1,-1
153,666,571,221,33,91,1,-1,-1,-1
154,667,648,107,22,59,1,-1,-1,-1
154,666,564,220,33,90,1,-1,-1,-1
155,668,694,110,22,63,1,-1,-1,-1
155,667,649,107,22,58,1,-1,-1,-1
155,666,557,218,32,89,1,-1,-1,-1
156,668,688,106,22,61,1,-1,-1,-1
156,667,649,106,22,57,1,-1,-1,-1
156,666,547,217,32,88,1,-1,-1,-1
157,669,450,196,31,87,1,-1,-1,-1
157,668,684,107,21,59,1,-1,-1,-1
157,667,648,107,21,56,1,-1,-1,-1
157,666,538,217,32,86,1,-1,-1,-1
158,669,455,199,32,89,1,-1,-1,-1
158,668,683,104,24,66,1,-1,-1,-1
158,667,651,107,22,57,1,-1,-1,-1
158,666,528,217,33,86,1,-1,-1,-1
158,665,44,88,17,40,1,-1,-1,-1
158,662,378,171,34,91,1,-1,-1,-1
159,669,461,200,32,89,1,-1,-1,-1
159,668,682,105,24,67,1,-1,-1,-1
159,667,652,107,22,57,1,-1,-1,-1
159,666,520,218,33,86,1,-1,-1,-1
159,665,42,88,17,41,1,-1,-1,-1
160,669,465,200,34,91,1,-1,-1,-1
160,668,681,107,24,67,1,-1,-1,-1
160,667,654,107,22,58,1,-1,-1,-1
160,666,514,218,31,86,1,-1,-1,-1
160,665,39,89,17,41,1,-1,-1,-1
161,669,481,202,34,95,1,-1,-1,-1
161,668,680,104,24,67,1,-1,-1,-1
161,667,657,106,23,60,1,-1,-1,-1
161,665,35,91,17,43,1,-1,-1,-1
162,669,485,202,35,98,1,-1,-1,-1
162,668,678,103,25,67,1,-1,-1,-1
162,667,659,105,24,63,1,-1,-1,-1
162,665,34,92,17,43,1,-1,-1,-1
163,668,677,101,25,69,1,-1,-1,-1
163,667,660,105,26,66,1,-1,-1,-1
163,665,33,92,16,43,1,-1,-1,-1
164,668,677,99,26,69,1,-1,-1,-1
164,667,661,107,26,68,1,-1,-1,-1
165,668,677,99,25,69,1,-1,-1,-1
165,667,661,107,27,70,1,-1,-1,-1
165,666,481,205,32,89,1,-1,-1,-1
166,668,678,98,25,67,1,-1,-1,-1
166,667,659,107,27,71,1,-1,-1,-1
167,668,679,98,24,65,1,-1,-1,-1
167,667,655,109,26,71,1,-1,-1,-1
168,668,681,98,24,64,1,-1,-1,-1
168,667,653,110,27,72,1,-1,-1,-1
169,671,450,210,37,101,1,-1,-1,-1
169,668,683,99,23,61,1,-1,-1,-1
169,667,649,111,25,71,1,-1,-1,-1
170,671,445,204,39,103,1,-1,-1,-1
170,668,684,100,22,59,1,-1,-1,-1
170,667,646,112,24,69,1,-1,-1,-1
171,671,443,203,39,101,1,-1,-1,-1
171,668,684,101,22,58,1,-1,-1,-1
171,667,642,113,23,66,1,-1,-1,-1
172,671,448,201,38,99,1,-1,-1,-1
172,668,684,100,22,58,1,-1,-1,-1
173,671,450,201,38,99,1,-1,-1,-1
173,670,537,209,30,85,1,-1,-1,-1
173,668,684,100,22,58,1,-1,-1,-1
174,672,617,115,26,75,1,-1,-1,-1
174,671,456,201,36,97,1,-1,-1,-1
174,670,541,209,30,86,1,-1,-1,-1
174,668,682,100,23,58,1,-1,-1,-1
175,672,612,116,26,74,1,-1,-1,-1
175,670,547,207,31,87,1,-1,-1,-1
175,668,682,102,23,58,1,-1,-1,-1
176,672,609,119,25,72,1,-1,-1,-1
176,670,555,212,30,84,1,-1,-1,-1
176,668,682,102,23,58,1,-1,-1,-1
177,672,608,126,25,71,1,-1,-1,-1
177,670,561,214,29,82,1,-1,-1,-1
177,668,682,102,23,58,1,-1,-1,-1
178,672,602,123,25,70,1,-1,-1,-1
178,670,567,213,31,88,1,-1,-1,-1
178,668,683,97,23,59,1,-1,-1,-1
179,672,598,123,24,69,1,-1,-1,-1
179,670,571,215,33,88,1,-1,-1,-1
179,668,685,98,22,58,1,-1,-1,-1
179,662,215,165,33,69,1,-1,-1,-1
180,673,492,216,33,93,1,-1,-1,-1
180,672,597,128,24,69,1,-1,-1,-1
180,670,576,217,35,88,1,-1,-1,-1
180,668,685,98,22,58,1,-1,-1,-1
180,662,211,166,33,67,1,-1,-1,-1
181,673,498,219,33,93,1,-1,-1,-1
181,672,589,126,25,70,1,-1,-1,-1
181,670,585,218,35,89,1,-1,-1,-1
181,668,687,99,22,57,1,-1,-1,-1
182,673,503,220,33,93,1,-1,-1,-1
182,672,585,126,24,69,1,-1,-1,-1
182,670,593,218,35,90,1,-1,-1,-1
182,668,689,101,21,55,1,-1,-1,-1
183,673,508,221,33,94,1,-1,-1,-1
183,672,582,127,24,68,1,-1,-1,-1
183,670,598,219,35,91,1,-1,-1,-1
183,668,689,103,20,53,1,-1,-1,-1
184,673,517,222,35,95,1,-1,-1,-1
184,672,577,127,24,68,1,-1,-1,-1
184,670,606,221,37,90,1,-1,-1,-1
184,668,689,102,19,52,1,-1,-1,-1
185,673,522,223,35,94,1,-1,-1,-1
185,672,571,131,26,73,1,-1,-1,-1
185,670,613,223,37,90,1,-1,-1,-1
185,668,689,103,19,51,1,-1,-1,-1
186,673,528,225,33,94,1,-1,-1,-1
186,672,567,131,26,74,1,-1,-1,-1
186,670,621,224,36,90,1,-1,-1,-1
186,668,688,102,18,50,1,-1,-1,-1
187,673,535,227,34,95,1,-1,-1,-1
187,672,561,131,25,72,1,-1,-1,-1
187,670,630,224,37,92,1,-1,-1,-1
187,668,689,102,18,50,1,-1,-1,-1
188,673,540,229,34,95,1,-1,-1,-1
188,672,555,133,25,70,1,-1,-1,-1
188,670,636,225,39,92,1,-1,-1,-1
188,668,689,97,18,52,1,-1,-1,-1
189,673,547,231,34,96,1,-1,-1,-1
189,672,549,137,27,76,1,-1,-1,-1
189,670,644,227,38,92,1,-1,-1,-1
189,668,688,94,20,55,1,-1,-1,-1
190,672,543,137,28,78,1,-1,-1,-1
190,670,651,230,37,93,1,-1,-1,-1
190,668,689,93,20,56,1,-1,-1,-1
191,672,539,138,27,76,1,-1,-1,-1
191,670,655,231,36,95,1,-1,-1,-1
191,668,690,98,19,55,1,-1,-1,-1
192,672,536,138,27,75,1,-1,-1,-1
192,670,659,231,37,97,1,-1,-1,-1
192,668,691,100,19,54,1,-1,-1,-1
193,672,529,139,27,77,1,-1,-1,-1
193,670,664,232,38,98,1,-1,-1,-1
193,668,690,94,20,56,1,-1,-1,-1
194,673,571,248,33,92,1,-1,-1,-1
194,672,524,138,27,76,1,-1,-1,-1
194,670,671,230,37,99,1,-1,-1,-1
194,668,689,93,20,57,1,-1,-1,-1
195,673,576,251,32,91,1,-1,-1,-1
195,672,519,139,27,75,1,-1,-1,-1
195,670,675,234,37,100,1,-1,-1,-1
195,668,689,91,21,58,1,-1,-1,-1
195,662,117,154,28,59,1,-1,-1,-1
196,673,585,253,33,92,1,-1,-1,-1
196,670,679,239,39,98,1,-1,-1,-1
196,668,689,91,21,59,1,-1,-1,-1
197,673,593,257,33,93,1,-1,-1,-1
197,670,683,241,40,96,1,-1,-1,-1
197,668,688,96,20,56,1,-1,-1,-1
198,673,598,258,34,96,1,-1,-1,-1
198,670,689,245,40,95,1,-1,-1,-1
198,668,688,98,20,55,1,-1,-1,-1
199,673,605,262,35,100,1,-1,-1,-1
199,672,498,142,28,75,1,-1,-1,-1
199,670,697,250,39,97,1,-1,-1,-1
199,668,690,100,20,54,1,-1,-1,-1
199,666,226,192,32,79,1,-1,-1,-1
200,673,610,265,35,98,1,-1,-1,-1
200,672,492,142,28,75,1,-1,-1,-1
200,670,701,252,39,99,1,-1,-1,-1
200,668,691,102,19,53,1,-1,-1,-1
200,666,223,190,31,77,1,-1,-1,-1
201,673,615,266,35,99,1,-1,-1,-1
201,672,487,144,28,75,1,-1,-1,-1
201,670,704,254,39,100,1,-1,-1,-1
201,668,690,102,19,53,1,-1,-1,-1
201,666,219,190,31,77,1,-1,-1,-1
202,670,712,254,36,99,1,-1,-1,-1
202,668,690,103,19,52,1,-1,-1,-1
202,666,208,191,31,77,1,-1,-1,-1
203,670,718,256,35,99,1,-1,-1,-1
203,668,690,104,19,52,1,-1,-1,-1
203,666,201,191,31,77,1,-1,-1,-1
204,670,722,257,35,99,1,-1,-1,-1
204,668,688,104,19,51,1,-1,-1,-1
205,670,728,261,35,98,1,-1,-1,-1
205,668,686,104,19,52,1,-1,-1,-1
206,673,645,281,41,109,1,-1,-1,-1
206,670,734,263,33,94,1,-1,-1,-1
206,668,685,104,20,52,1,-1,-1,-1
207,673,648,283,40,109,1,-1,-1,-1
207,670,739,268,31,89,1,-1,-1,-1
207,668,685,105,20,52,1,-1,-1,-1
208,673,651,285,39,109,1,-1,-1,-1
208,670,743,281,29,82,1,-1,-1,-1
208,668,685,105,20,51,1,-1,-1,-1
209,673,652,289,38,108,1,-1,-1,-1
209,670,744,287,28,78,1,-1,-1,-1
209,668,685,105,20,51,1,-1,-1,-1
210,673,654,291,39,110,1,-1,-1,-1
210,670,748,294,25,72,1,-1,-1,-1
210,668,685,106,20,51,1,-1,-1,-1
211,674,35,144,21,60,1,-1,-1,-1
211,673,654,291,40,113,1,-1,-1,-1
211,668,684,107,20,50,1,-1,-1,-1
212,673,652,293,40,113,1,-1,-1,-1
212,668,685,107,21,50,1,-1,-1,-1
213,673,651,296,39,111,1,-1,-1,-1
213,668,685,107,21,50,1,-1,-1,-1
214,673,644,296,40,114,1,-1,-1,-1
214,668,684,108,21,51,1,-1,-1,-1
215,668,684,109,21,50,1,-1,-1,-1
216,668,682,108,21,51,1,-1,-1,-1
217,668,682,108,21,51,1,-1,-1,-1
218,668,682,107,22,52,1,-1,-1,-1
219,675,661,107,26,56,1,-1,-1,-1
219,668,680,108,22,53,1,-1,-1,-1
220,676,594,294,41,113,1,-1,-1,-1
220,675,660,108,26,56,1,-1,-1,-1
220,668,681,108,22,53,1,-1,-1,-1
221,676,583,293,39,110,1,-1,-1,-1
221,675,659,107,26,56,1,-1,-1,-1
221,668,680,108,22,53,1,-1,-1,-1
222,676,572,293,41,114,1,-1,-1,-1
222,675,657,107,25,56,1,-1,-1,-1
222,668,680,109,22,54,1,-1,-1,-1
223,676,563,289,42,115,1,-1,-1,-1
223,675,656,108,24,56,1,-1,-1,-1
223,668,680,110,22,54,1,-1,-1,-1
224,677,715,224,36,95,1,-1,-1,-1
224,676,556,286,40,112,1,-1,-1,-1
224,675,656,108,24,55,1,-1,-1,-1
224,668,679,110,22,53,1,-1,-1,-1
225,677,710,223,36,93,1,-1,-1,-1
225,676,553,286,37,105,1,-1,-1,-1
225,675,656,109,23,54,1,-1,-1,-1
225,668,679,110,22,54,1,-1,-1,-1
226,677,704,222,36,91,1,-1,-1,-1
226,676,541,284,38,107,1,-1,-1,-1
226,675,656,111,23,55,1,-1,-1,-1
226,668,679,110,22,54,1,-1,-1,-1
227,677,699,221,36,90,1,-1,-1,-1
227,676,534,282,39,109,1,-1,-1,-1
227,675,656,111,23,55,1,-1,-1,-1
227,668,678,110,21,54,1,-1,-1,-1
228,677,693,217,36,89,1,-1,-1,-1
228,676,523,279,42,109,1,-1,-1,-1
228,675,656,112,22,55,1,-1,-1,-1
228,668,676,110,21,54,1,-1,-1,-1
229,677,689,215,35,87,1,-1,-1,-1
229,676,518,275,43,108,1,-1,-1,-1
229,675,655,111,22,55,1,-1,-1,-1
229,668,676,109,21,54,1,-1,-1,-1
230,677,679,213,36,89,1,-1,-1,-1
230,675,655,112,22,56,1,-1,-1,-1
231,675,655,113,22,56,1,-1,-1,-1
232,678,722,286,38,109,1,-1,-1,-1
232,675,654,113,22,57,1,-1,-1,-1
233,679,42,174,24,62,1,-1,-1,-1
233,678,713,283,38,107,1,-1,-1,-1
233,676,491,267,38,108,1,-1,-1,-1
233,675,653,114,22,57,1,-1,-1,-1
234,679,41,174,23,60,1,-1,-1,-1
234,678,708,283,37,104,1,-1,-1,-1
234,676,485,266,38,107,1,-1,-1,-1
234,675,653,115,21,57,1,-1,-1,-1
235,679,41,175,23,60,1,-1,-1,-1
235,678,700,282,38,107,1,-1,-1,-1
235,677,643,203,34,85,1,-1,-1,-1
235,676,480,264,37,105,1,-1,-1,-1
235,675,653,116,22,56,1,-1,-1,-1
236,679,40,174,23,61,1,-1,-1,-1
236,678,692,281,37,106,1,-1,-1,-1
236,677,635,202,33,85,1,-1,-1,-1
236,676,469,255,39,110,1,-1,-1,-1
236,675,654,118,21,56,1,-1,-1,-1
237,679,40,173,23,61,1,-1,-1,-1
237,678,684,278,38,106,1,-1,-1,-1
237,676,463,252,40,108,1,-1,-1,-1
237,675,653,118,21,55,1,-1,-1,-1
238,679,40,174,23,61,1,-1,-1,-1
238,678,677,277,37,104,1,-1,-1,-1
238,676,457,251,40,106,1,-1,-1,-1
238,675,652,118,22,55,1,-1,-1,-1
239,679,40,174,23,61,1,-1,-1,-1
239,678,671,272,39,110,1,-1,-1,-1
239,676,453,251,41,105,1,-1,-1,-1
239,675,652,115,22,55,1,-1,-1,-1
240,679,40,174,23,62,1,-1,-1,-1
240,677,615,199,34,82,1,-1,-1,-1
240,676,449,249,41,103,1,-1,-1,-1
240,675,652,115,22,56,1,-1,-1,-1
241,679,40,174,23,62,1,-1,-1,-1
241,677,610,196,33,82,1,-1,-1,-1
241,676,445,246,39,101,1,-1,-1,-1
241,675,653,114,22,57,1,-1,-1,-1
242,679,40,174,23,62,1,-1,-1,-1
242,677,601,195,33,83,1,-1,-1,-1
242,675,652,117,21,57,1,-1,-1,-1
243,680,229,157,28,73,1,-1,-1,-1
243,679,40,174,23,62,1,-1,-1,-1
243,678,646,266,39,108,1,-1,-1,-1
243,677,595,195,32,85,1,-1,-1,-1
243,675,652,119,21,57,1,-1,-1,-1
244,680,228,157,27,73,1,-1,-1,-1
244,679,40,175,23,63,1,-1,-1,-1
244,678,640,263,40,108,1,-1,-1,-1
244,677,588,193,32,85,1,-1,-1,-1
244,675,652,120,21,57,1,-1,-1,-1
245,680,225,154,26,74,1,-1,-1,-1
245,679,41,174,23,63,1,-1,-1,-1
245,678,635,262,40,109,1,-1,-1,-1
245,677,584,192,31,85,1,-1,-1,-1
245,675,652,121,21,57,1,-1,-1,-1
246,680,216,151,27,76,1,-1,-1,-1
246,679,40,173,23,63,1,-1,-1,-1
246,678,630,259,38,108,1,-1,-1,-1
246,677,575,191,32,84,1,-1,-1,-1
246,675,654,126,21,56,1,-1,-1,-1
247,680,210,149,28,80,1,-1,-1,-1
247,679,40,174,23,64,1,-1,-1,-1
247,678,626,260,37,104,1,-1,-1,-1
247,677,570,189,32,83,1,-1,-1,-1
247,675,655,128,21,55,1,-1,-1,-1
248,680,204,150,29,79,1,-1,-1,-1
248,679,40,173,23,64,1,-1,-1,-1
248,678,621,259,36,103,1,-1,-1,-1
248,677,565,187,31,83,1,-1,-1,-1
248,675,655,130,21,54,1,-1,-1,-1
249,679,40,173,23,64,1,-1,-1,-1
249,678,615,257,39,103,1,-1,-1,-1
249,677,560,185,31,84,1,-1,-1,-1
249,675,655,131,21,54,1,-1,-1,-1
250,679,40,173,23,64,1,-1,-1,-1
250,678,607,256,42,102,1,-1,-1,-1
250,675,656,131,21,54,1,-1,-1,-1
251,679,40,173,23,64,1,-1,-1,-1
251,678,599,253,43,101,1,-1,-1,-1
251,675,654,131,21,53,1,-1,-1,-1
252,679,41,173,23,64,1,-1,-1,-1
252,678,592,252,41,101,1,-1,-1,-1
252,676,375,226,38,94,1,-1,-1,-1
252,675,652,130,20,53,1,-1,-1,-1
253,679,40,173,23,64,1,-1,-1,-1
253,678,586,251,38,101,1,-1,-1,-1
253,677,537,181,28,80,1,-1,-1,-1
253,676,369,225,39,94,1,-1,-1,-1
253,675,648,127,21,56,1,-1,-1,-1
254,679,40,172,23,64,1,-1,-1,-1
254,678,579,251,38,99,1,-1,-1,-1
254,676,365,224,39,95,1,-1,-1,-1
254,675,646,126,22,58,1,-1,-1,-1
255,679,40,172,24,64,1,-1,-1,-1
255,678,574,250,38,97,1,-1,-1,-1
255,675,645,127,23,59,1,-1,-1,-1
256,679,40,172,23,64,1,-1,-1,-1
256,678,568,248,37,97,1,-1,-1,-1
256,675,644,127,23,59,1,-1,-1,-1
257,679,40,172,23,64,1,-1,-1,-1
257,678,563,246,36,97,1,-1,-1,-1
257,675,643,128,24,60,1,-1,-1,-1
258,679,41,171,23,64,1,-1,-1,-1
258,678,556,245,36,96,1,-1,-1,-1
258,675,642,129,24,60,1,-1,-1,-1
259,679,41,172,23,64,1,-1,-1,-1
259,678,548,244,38,96,1,-1,-1,-1
259,677,498,173,29,77,1,-1,-1,-1
259,675,642,130,25,60,1,-1,-1,-1
260,679,40,172,23,64,1,-1,-1,-1
260,678,542,243,39,94,1,-1,-1,-1
260,677,493,172,29,76,1,-1,-1,-1
260,675,641,130,25,60,1,-1,-1,-1
261,681,622,127,27,63,1,-1,-1,-1
261,679,40,172,23,64,1,-1,-1,-1
261,678,533,242,39,93,1,-1,-1,-1
261,677,486,171,28,76,1,-1,-1,-1
261,675,639,132,25,58,1,-1,-1,-1
262,681,621,130,26,62,1,-1,-1,-1
262,679,40,171,24,64,1,-1,-1,-1
262,678,525,240,38,92,1,-1,-1,-1
262,677,480,170,28,76,1,-1,-1,-1
262,675,637,134,24,58,1,-1,-1,-1
263,681,619,131,26,62,1,-1,-1,-1
263,679,40,171,24,64,1,-1,-1,-1
263,677,471,171,29,75,1,-1,-1,-1
264,682,153,141,24,67,1,-1,-1,-1
264,681,618,131,26,62,1,-1,-1,-1
264,679,40,171,24,64,1,-1,-1,-1
264,677,464,170,28,75,1,-1,-1,-1
265,682,152,142,23,64,1,-1,-1,-1
265,681,617,131,26,62,1,-1,-1,-1
265,679,40,171,24,64,1,-1,-1,-1
265,677,458,170,28,74,1,-1,-1,-1
266,681,614,131,26,62,1,-1,-1,-1
266,679,40,171,23,64,1,-1,-1,-1
266,677,453,171,28,74,1,-1,-1,-1
266,675,635,135,24,57,1,-1,-1,-1
267,681,613,131,25,62,1,-1,-1,-1
267,679,40,171,23,63,1,-1,-1,-1
267,678,493,239,34,93,1,-1,-1,-1
267,677,446,170,28,74,1,-1,-1,-1
267,676,296,199,35,91,1,-1,-1,-1
268,681,611,131,25,62,1,-1,-1,-1
268,679,39,172,23,64,1,-1,-1,-1
268,678,484,237,35,94,1,-1,-1,-1
268,677,442,168,27,74,1,-1,-1,-1
268,676,291,195,36,92,1,-1,-1,-1
269,681,610,132,24,62,1,-1,-1,-1
269,679,38,172,23,63,1,-1,-1,-1
269,677,439,168,26,73,1,-1,-1,-1
269,676,289,194,36,91,1,-1,-1,-1
270,681,609,133,23,61,1,-1,-1,-1
270,679,37,172,22,63,1,-1,-1,-1
270,675,633,138,22,56,1,-1,-1,-1
271,681,609,134,23,61,1,-1,-1,-1
271,679,35,173,22,63,1,-1,-1,-1
271,675,633,138,22,56,1,-1,-1,-1
272,681,608,135,22,61,1,-1,-1,-1
272,679,34,173,22,63,1,-1,-1,-1
272,678,455,234,37,96,1,-1,-1,-1
272,675,633,139,22,56,1,-1,-1,-1
273,681,608,136,22,61,1,-1,-1,-1
273,679,33,172,22,63,1,-1,-1,-1
273,678,450,234,38,96,1,-1,-1,-1
273,675,633,140,21,56,1,-1,-1,-1
274,681,609,136,22,62,1,-1,-1,-1
274,679,30,172,23,64,1,-1,-1,-1
274,678,444,234,39,97,1,-1,-1,-1
274,675,632,141,21,56,1,-1,-1,-1
275,682,123,138,24,67,1,-1,-1,-1
275,681,610,136,23,62,1,-1,-1,-1
275,679,27,171,23,65,1,-1,-1,-1
275,678,439,232,38,97,1,-1,-1,-1
275,675,631,141,21,57,1,-1,-1,-1
276,682,120,138,24,66,1,-1,-1,-1
276,681,611,137,23,62,1,-1,-1,-1
277,682,119,139,23,65,1,-1,-1,-1
277,681,611,138,23,63,1,-1,-1,-1
278,682,117,141,23,64,1,-1,-1,-1
278,681,610,138,23,63,1,-1,-1,-1
278,677,379,167,28,70,1,-1,-1,-1
279,682,116,142,22,63,1,-1,-1,-1
279,681,610,139,23,62,1,-1,-1,-1
279,677,371,165,27,71,1,-1,-1,-1
280,682,116,143,22,62,1,-1,-1,-1
280,681,610,140,22,61,1,-1,-1,-1
280,679,3,171,28,66,1,-1,-1,-1
280,675,631,144,21,56,1,-1,-1,-1
281,682,116,143,22,61,1,-1,-1,-1
281,681,610,141,22,61,1,-1,-1,-1
281,679,0,170,28,67,1,-1,-1,-1
281,675,631,145,21,56,1,-1,-1,-1
282,682,115,144,22,61,1,-1,-1,-1
282,681,609,141,22,60,1,-1,-1,-1
282,679,0,168,27,66,1,-1,-1,-1
282,675,631,145,21,56,1,-1,-1,-1
283,682,119,145,22,62,1,-1,-1,-1
283,681,610,143,22,61,1,-1,-1,-1
283,679,0,166,26,67,1,-1,-1,-1
284,682,122,145,23,63,1,-1,-1,-1
284,681,610,144,22,63,1,-1,-1,-1
284,679,-1,163,25,67,1,-1,-1,-1
285,682,126,145,25,64,1,-1,-1,-1
285,681,610,144,22,64,1,-1,-1,-1
285,679,-1,164,24,68,1,-1,-1,-1
286,682,131,144,25,64,1,-1,-1,-1
286,681,608,143,22,64,1,-1,-1,-1
286,679,-2,165,23,66,1,-1,-1,-1
286,678,381,222,33,87,1,-1,-1,-1
287,681,608,144,23,64,1,-1,-1,-1
287,678,375,222,35,88,1,-1,-1,-1
287,676,256,174,29,82,1,-1,-1,-1
288,681,608,145,23,65,1,-1,-1,-1
288,678,370,220,37,88,1,-1,-1,-1
288,676,256,172,29,83,1,-1,-1,-1
289,681,608,147,23,65,1,-1,-1,-1
289,678,361,222,36,90,1,-1,-1,-1
289,676,257,170,30,85,1,-1,-1,-1
290,681,607,148,23,65,1,-1,-1,-1
290,678,357,223,35,92,1,-1,-1,-1
290,676,257,169,30,86,1,-1,-1,-1
291,681,611,154,23,62,1,-1,-1,-1
291,676,257,169,31,86,1,-1,-1,-1
292,683,586,144,27,76,1,-1,-1,-1
292,681,612,157,23,61,1,-1,-1,-1
293,683,585,144,28,78,1,-1,-1,-1
293,681,613,158,24,61,1,-1,-1,-1
294,683,583,144,28,78,1,-1,-1,-1
294,681,613,159,24,61,1,-1,-1,-1
295,683,582,147,28,77,1,-1,-1,-1
295,681,612,160,24,61,1,-1,-1,-1
296,683,581,147,27,78,1,-1,-1,-1
296,681,611,160,24,62,1,-1,-1,-1
297,683,581,146,27,77,1,-1,-1,-1
297,681,610,160,25,64,1,-1,-1,-1
298,683,579,147,27,77,1,-1,-1,-1
298,681,611,161,26,65,1,-1,-1,-1
299,683,578,149,27,77,1,-1,-1,-1
299,681,610,162,26,66,1,-1,-1,-1
300,683,579,156,27,77,1,-1,-1,-1
300,681,611,163,26,66,1,-1,-1,-1
301,683,579,159,27,76,1,-1,-1,-1
301,681,614,163,25,66,1,-1,-1,-1
302,683,578,160,27,75,1,-1,-1,-1
302,681,616,164,25,66,1,-1,-1,-1
303,683,579,162,26,74,1,-1,-1,-1
303,681,617,165,25,67,1,-1,-1,-1
304,683,580,162,26,75,1,-1,-1,-1
304,681,617,166,25,68,1,-1,-1,-1
304,677,214,157,29,74,1,-1,-1,-1
305,683,580,164,26,74,1,-1,-1,-1
305,681,616,167,25,68,1,-1,-1,-1
305,677,208,160,31,76,1,-1,-1,-1
306,683,583,166,26,73,1,-1,-1,-1
306,681,613,168,25,68,1,-1,-1,-1
306,678,292,203,35,89,1,-1,-1,-1
306,677,208,161,31,77,1,-1,-1,-1
307,683,584,166,26,73,1,-1,-1,-1
307,681,611,168,26,69,1,-1,-1,-1
307,678,286,205,36,87,1,-1,-1,-1
307,677,210,161,31,76,1,-1,-1,-1
308,683,586,166,27,74,1,-1,-1,-1
308,681,610,168,26,69,1,-1,-1,-1
308,678,281,206,36,86,1,-1,-1,-1
308,677,212,162,31,76,1,-1,-1,-1
309,683,588,168,28,75,1,-1,-1,-1
309,681,609,170,26,70,1,-1,-1,-1
309,677,217,163,31,76,1,-1,-1,-1
310,683,588,170,28,76,1,-1,-1,-1
310,681,608,173,27,71,1,-1,-1,-1
311,683,587,170,29,76,1,-1,-1,-1
311,681,608,173,28,72,1,-1,-1,-1
312,683,586,171,29,77,1,-1,-1,-1
312,681,609,174,28,72,1,-1,-1,-1
313,683,588,171,29,78,1,-1,-1,-1
313,681,610,175,28,73,1,-1,-1,-1
313,678,256,177,33,92,1,-1,-1,-1
314,686,385,150,27,70,1,-1,-1,-1
314,683,588,173,29,79,1,-1,-1,-1
314,681,610,176,28,74,1,-1,-1,-1
314,678,258,171,32,90,1,-1,-1,-1
315,683,588,174,28,80,1,-1,-1,-1
315,681,610,177,28,76,1,-1,-1,-1
316,683,590,175,28,80,1,-1,-1,-1
316,681,609,177,28,76,1,-1,-1,-1
317,683,591,176,29,81,1,-1,-1,-1
317,681,608,177,28,76,1,-1,-1,-1
318,683,592,177,29,82,1,-1,-1,-1
318,681,608,178,28,77,1,-1,-1,-1
319,681,607,179,28,78,1,-1,-1,-1
320,681,605,180,28,80,1,-1,-1,-1
321,681,605,180,28,80,1,-1,-1,-1
322,681,608,184,28,79,1,-1,-1,-1
322,678,211,177,27,77,1,-1,-1,-1
323,687,306,170,35,87,1,-1,-1,-1
323,681,608,186,28,79,1,-1,-1,-1
323,678,208,174,27,77,1,-1,-1,-1
324,681,607,187,28,80,1,-1,-1,-1
325,681,607,189,29,82,1,-1,-1,-1
326,681,607,190,30,83,1,-1,-1,-1
327,690,636,194,28,80,1,-1,-1,-1
327,689,462,145,27,73,1,-1,-1,-1
327,688,239,175,27,71,1,-1,-1,-1
327,681,609,191,31,83,1,-1,-1,-1
328,690,636,195,29,81,1,-1,-1,-1
328,689,465,146,27,73,1,-1,-1,-1
328,688,245,177,27,71,1,-1,-1,-1
328,681,610,193,31,82,1,-1,-1,-1
329,690,638,195,30,85,1,-1,-1,-1
329,689,469,144,27,71,1,-1,-1,-1
329,688,251,176,28,70,1,-1,-1,-1
329,681,611,194,32,83,1,-1,-1,-1
330,690,639,198,31,86,1,-1,-1,-1
330,688,257,180,27,72,1,-1,-1,-1
330,681,611,195,32,83,1,-1,-1,-1
331,690,641,199,32,86,1,-1,-1,-1
331,681,610,197,32,84,1,-1,-1,-1
332,690,642,199,33,86,1,-1,-1,-1
332,681,611,199,32,84,1,-1,-1,-1
333,690,646,201,32,87,1,-1,-1,-1
333,681,612,199,32,85,1,-1,-1,-1
334,691,301,199,31,88,1,-1,-1,-1
334,690,650,202,32,87,1,-1,-1,-1
334,681,615,199,32,87,1,-1,-1,-1
335,691,304,200,31,87,1,-1,-1,-1
335,690,652,202,31,88,1,-1,-1,-1
335,689,487,152,26,73,1,-1,-1,-1
335,681,618,198,31,88,1,-1,-1,-1
336,691,304,198,33,92,1,-1,-1,-1
336,690,653,202,31,88,1,-1,-1,-1
336,681,623,201,32,89,1,-1,-1,-1
337,691,308,199,34,92,1,-1,-1,-1
337,690,652,203,31,86,1,-1,-1,-1
337,687,393,172,34,92,1,-1,-1,-1
337,681,627,202,33,89,1,-1,-1,-1
338,691,310,198,35,94,1,-1,-1,-1
338,690,648,204,32,85,1,-1,-1,-1
339,690,647,205,34,87,1,-1,-1,-1
340,690,646,205,34,89,1,-1,-1,-1
341,690,645,206,34,90,1,-1,-1,-1
342,690,646,213,34,88,1,-1,-1,-1
343,694,679,217,33,89,1,-1,-1,-1
343,690,645,215,33,88,1,-1,-1,-1
344,694,682,217,33,89,1,-1,-1,-1
344,691,344,203,33,94,1,-1,-1,-1
344,690,646,217,33,88,1,-1,-1,-1
345,694,681,220,33,89,1,-1,-1,-1
345,690,646,219,33,88,1,-1,-1,-1
346,694,683,221,34,90,1,-1,-1,-1
346,690,648,220,34,89,1,-1,-1,-1
347,694,685,221,34,91,1,-1,-1,-1
347,690,651,221,36,90,1,-1,-1,-1
348,694,686,220,35,92,1,-1,-1,-1
348,690,653,221,36,91,1,-1,-1,-1
348,687,451,173,35,96,1,-1,-1,-1
349,694,685,219,36,92,1,-1,-1,-1
349,687,454,175,34,93,1,-1,-1,-1
350,694,684,218,37,93,1,-1,-1,-1
350,691,371,216,35,100,1,-1,-1,-1
350,687,463,184,36,91,1,-1,-1,-1
351,694,686,219,38,93,1,-1,-1,-1
351,691,379,212,35,98,1,-1,-1,-1
352,694,688,222,38,93,1,-1,-1,-1
352,691,386,220,33,94,1,-1,-1,-1
353,694,686,225,38,91,1,-1,-1,-1
354,694,685,227,38,90,1,-1,-1,-1
355,694,686,227,38,91,1,-1,-1,-1
356,694,686,229,38,92,1,-1,-1,-1
356,687,507,189,36,88,1,-1,-1,-1
357,694,686,231,37,93,1,-1,-1,-1
358,697,721,239,30,84,1,-1,-1,-1
358,694,687,232,38,94,1,-1,-1,-1
359,697,724,240,29,81,1,-1,-1,-1
359,694,688,232,38,95,1,-1,-1,-1
360,698,373,175,29,77,1,-1,-1,-1
360,697,725,238,29,82,1,-1,-1,-1
360,694,695,229,40,96,1,-1,-1,-1
360,687,532,193,34,88,1,-1,-1,-1
361,698,368,176,29,79,1,-1,-1,-1
361,697,727,240,29,82,1,-1,-1,-1
361,687,536,194,34,87,1,-1,-1,-1
362,697,727,246,30,85,1,-1,-1,-1
362,687,546,195,33,89,1,-1,-1,-1
363,697,728,250,29,81,1,-1,-1,-1
364,697,726,251,29,83,1,-1,-1,-1
365,697,722,249,32,90,1,-1,-1,-1
366,699,463,178,32,74,1,-1,-1,-1
366,697,722,250,33,92,1,-1,-1,-1
366,687,570,197,34,91,1,-1,-1,-1
367,698,343,172,29,74,1,-1,-1,-1
367,697,724,254,31,88,1,-1,-1,-1
367,691,472,248,35,99,1,-1,-1,-1
367,687,574,198,34,92,1,-1,-1,-1
368,698,339,173,31,73,1,-1,-1,-1
368,697,726,256,31,88,1,-1,-1,-1
368,691,478,249,36,100,1,-1,-1,-1
368,687,580,197,34,95,1,-1,-1,-1
369,698,333,175,32,71,1,-1,-1,-1
369,697,730,258,32,89,1,-1,-1,-1
369,691,486,250,36,101,1,-1,-1,-1
369,687,587,199,36,96,1,-1,-1,-1
370,697,734,259,32,91,1,-1,-1,-1
370,691,494,254,35,99,1,-1,-1,-1
370,687,591,199,37,97,1,-1,-1,-1
371,699,487,172,32,79,1,-1,-1,-1
371,697,737,260,31,89,1,-1,-1,-1
371,691,499,254,35,99,1,-1,-1,-1
371,687,596,198,36,97,1,-1,-1,-1
372,699,491,170,31,77,1,-1,-1,-1
372,697,739,263,29,81,1,-1,-1,-1
372,691,504,255,37,100,1,-1,-1,-1
372,687,603,198,35,98,1,-1,-1,-1
373,699,494,169,30,77,1,-1,-1,-1
373,697,744,267,25,71,1,-1,-1,-1
373,691,508,255,39,101,1,-1,-1,-1
373,687,609,200,33,93,1,-1,-1,-1
374,699,499,165,32,79,1,-1,-1,-1
374,691,517,254,41,101,1,-1,-1,-1
374,687,617,199,35,99,1,-1,-1,-1
375,699,504,162,31,77,1,-1,-1,-1
375,691,523,255,40,102,1,-1,-1,-1
375,687,622,200,37,100,1,-1,-1,-1
376,699,509,161,29,75,1,-1,-1,-1
376,698,300,175,34,73,1,-1,-1,-1
376,691,528,256,39,103,1,-1,-1,-1
376,687,625,202,38,101,1,-1,-1,-1
377,699,513,162,29,73,1,-1,-1,-1
377,698,294,174,35,75,1,-1,-1,-1
377,691,536,258,40,104,1,-1,-1,-1
377,687,635,202,37,101,1,-1,-1,-1
378,699,518,163,27,72,1,-1,-1,-1
378,691,542,258,39,105,1,-1,-1,-1
378,687,644,202,36,101,1,-1,-1,-1
379,699,522,161,27,72,1,-1,-1,-1
379,691,548,257,38,108,1,-1,-1,-1
379,687,649,204,37,102,1,-1,-1,-1
380,699,528,160,26,72,1,-1,-1,-1
380,691,555,264,37,104,1,-1,-1,-1
380,687,652,205,38,102,1,-1,-1,-1
381,699,534,159,26,71,1,-1,-1,-1
381,691,563,263,38,108,1,-1,-1,-1
382,699,538,157,26,70,1,-1,-1,-1
382,691,569,266,39,107,1,-1,-1,-1
383,699,540,155,26,70,1,-1,-1,-1
383,691,574,266,38,107,1,-1,-1,-1
384,699,546,156,26,69,1,-1,-1,-1
384,687,682,207,38,106,1,-1,-1,-1
385,687,687,204,40,109,1,-1,-1,-1
386,687,692,203,41,108,1,-1,-1,-1
387,687,701,210,40,105,1,-1,-1,-1
388,691,610,281,36,103,1,-1,-1,-1
389,699,566,148,27,69,1,-1,-1,-1
389,698,251,186,32,82,1,-1,-1,-1
389,691,616,282,36,102,1,-1,-1,-1
390,699,569,147,27,70,1,-1,-1,-1
390,698,253,188,31,83,1,-1,-1,-1
390,691,624,281,40,107,1,-1,-1,-1
391,699,571,145,27,70,1,-1,-1,-1
392,699,574,143,27,71,1,-1,-1,-1
393,699,577,140,27,72,1,-1,-1,-1
394,699,579,138,27,71,1,-1,-1,-1
394,691,654,290,37,105,1,-1,-1,-1
395,699,581,136,27,71,1,-1,-1,-1
395,691,660,291,37,105,1,-1,-1,-1
396,699,584,136,27,71,1,-1,-1,-1
396,691,670,293,37,105,1,-1,-1,-1
397,699,586,135,26,70,1,-1,-1,-1
397,691,676,297,37,104,1,-1,-1,-1
398,699,586,134,26,70,1,-1,-1,-1
398,691,681,298,37,104,1,-1,-1,-1
399,700,270,196,31,88,1,-1,-1,-1
399,699,587,134,25,68,1,-1,-1,-1
399,691,685,298,37,104,1,-1,-1,-1
400,700,271,195,31,88,1,-1,-1,-1
400,699,588,134,25,67,1,-1,-1,-1
400,691,691,296,41,111,1,-1,-1,-1
401,699,589,134,25,66,1,-1,-1,-1
401,691,695,298,43,109,1,-1,-1,-1
402,699,588,134,25,66,1,-1,-1,-1
402,691,699,300,45,106,1,-1,-1,-1
403,699,588,133,25,65,1,-1,-1,-1
404,699,588,133,25,64,1,-1,-1,-1
408,702,297,210,26,74,1,-1,-1,-1
408,701,573,132,23,65,1,-1,-1,-1
409,702,298,210,26,74,1,-1,-1,-1
409,701,574,133,22,63,1,-1,-1,-1
410,702,298,209,26,74,1,-1,-1,-1
410,701,575,134,22,62,1,-1,-1,-1
411,702,297,208,26,75,1,-1,-1,-1
411,701,575,135,22,62,1,-1,-1,-1
412,702,297,209,26,74,1,-1,-1,-1
412,701,574,135,22,64,1,-1,-1,-1
413,702,298,209,26,74,1,-1,-1,-1
413,701,573,135,23,65,1,-1,-1,-1
414,702,297,208,27,75,1,-1,-1,-1
414,701,571,135,24,67,1,-1,-1,-1
415,702,296,207,27,77,1,-1,-1,-1
415,701,567,136,25,68,1,-1,-1,-1
416,702,295,205,29,81,1,-1,-1,-1
416,701,564,136,25,68,1,-1,-1,-1
417,702,294,203,30,84,1,-1,-1,-1
417,701,561,136,25,70,1,-1,-1,-1
418,702,294,202,31,87,1,-1,-1,-1
418,701,559,137,26,70,1,-1,-1,-1
419,702,293,200,32,90,1,-1,-1,-1
419,701,556,139,26,69,1,-1,-1,-1
420,702,293,199,32,92,1,-1,-1,-1
420,701,552,141,26,68,1,-1,-1,-1
421,702,293,199,33,92,1,-1,-1,-1
421,701,549,143,26,66,1,-1,-1,-1
422,702,293,199,32,91,1,-1,-1,-1
422,701,546,144,25,65,1,-1,-1,-1
423,702,294,201,31,88,1,-1,-1,-1
423,701,543,145,26,65,1,-1,-1,-1
424,702,295,203,30,85,1,-1,-1,-1
424,701,539,148,26,65,1,-1,-1,-1
425,703,726,280,33,94,1,-1,-1,-1
425,702,296,205,29,82,1,-1,-1,-1
425,701,536,149,26,65,1,-1,-1,-1
426,703,718,272,38,108,1,-1,-1,-1
426,702,297,206,28,79,1,-1,-1,-1
426,701,534,148,26,65,1,-1,-1,-1
427,703,714,269,41,113,1,-1,-1,-1
427,702,297,208,27,76,1,-1,-1,-1
427,701,532,149,26,66,1,-1,-1,-1
428,702,298,209,27,75,1,-1,-1,-1
428,701,531,150,26,67,1,-1,-1,-1
429,701,530,150,26,67,1,-1,-1,-1
430,701,527,151,26,67,1,-1,-1,-1
431,701,525,151,26,68,1,-1,-1,-1
432,703,679,268,38,106,1,-1,-1,-1
432,701,522,156,26,66,1,-1,-1,-1
433,703,670,268,36,102,1,-1,-1,-1
434,703,663,263,38,108,1,-1,-1,-1
435,703,658,262,39,106,1,-1,-1,-1
436,703,653,263,38,106,1,-1,-1,-1
436,702,299,208,26,75,1,-1,-1,-1
437,703,642,260,36,103,1,-1,-1,-1
437,702,299,207,26,73,1,-1,-1,-1
437,701,505,162,27,66,1,-1,-1,-1
438,703,634,259,36,102,1,-1,-1,-1
438,702,300,207,25,71,1,-1,-1,-1
438,701,503,162,27,67,1,-1,-1,-1
439,703,629,257,36,102,1,-1,-1,-1
439,702,300,208,25,70,1,-1,-1,-1
439,701,500,163,27,67,1,-1,-1,-1
440,703,624,258,36,103,1,-1,-1,-1
440,702,300,209,24,69,1,-1,-1,-1
440,701,498,163,28,68,1,-1,-1,-1
441,703,615,257,36,101,1,-1,-1,-1
441,702,300,210,24,69,1,-1,-1,-1
441,701,494,165,28,69,1,-1,-1,-1
442,703,608,254,36,101,1,-1,-1,-1
442,702,300,210,24,69,1,-1,-1,-1
442,701,491,167,28,70,1,-1,-1,-1
443,703,602,253,37,100,1,-1,-1,-1
443,702,300,210,24,69,1,-1,-1,-1
443,701,489,170,28,71,1,-1,-1,-1
444,703,594,251,37,99,1,-1,-1,-1
444,702,300,211,24,69,1,-1,-1,-1
444,701,487,171,28,72,1,-1,-1,-1
445,703,587,250,36,100,1,-1,-1,-1
445,702,301,211,25,70,1,-1,-1,-1
445,701,487,172,27,72,1,-1,-1,-1
446,703,583,250,34,96,1,-1,-1,-1
446,702,301,210,25,72,1,-1,-1,-1
446,701,486,172,28,72,1,-1,-1,-1
447,703,579,250,33,94,1,-1,-1,-1
447,702,302,209,26,74,1,-1,-1,-1
447,701,485,174,28,73,1,-1,-1,-1
448,703,575,250,33,93,1,-1,-1,-1
448,702,304,211,26,75,1,-1,-1,-1
448,701,484,176,28,74,1,-1,-1,-1
449,703,571,247,33,92,1,-1,-1,-1
449,702,305,211,27,76,1,-1,-1,-1
449,701,483,177,28,75,1,-1,-1,-1
450,703,567,244,32,90,1,-1,-1,-1
450,702,307,211,27,76,1,-1,-1,-1
450,701,484,178,28,76,1,-1,-1,-1
451,703,561,244,32,91,1,-1,-1,-1
451,702,310,210,27,76,1,-1,-1,-1
451,701,484,180,28,77,1,-1,-1,-1
452,703,557,244,33,92,1,-1,-1,-1
452,701,486,182,28,77,1,-1,-1,-1
453,701,487,183,28,77,1,-1,-1,-1
454,701,489,185,29,78,1,-1,-1,-1
455,701,490,188,29,78,1,-1,-1,-1
456,703,537,236,34,95,1,-1,-1,-1
456,701,491,190,29,78,1,-1,-1,-1
457,703,530,233,33,95,1,-1,-1,-1
457,701,494,192,29,79,1,-1,-1,-1
458,703,526,230,33,93,1,-1,-1,-1
458,701,495,195,30,81,1,-1,-1,-1
459,703,522,226,33,93,1,-1,-1,-1
459,701,496,197,30,82,1,-1,-1,-1
460,704,345,210,31,87,1,-1,-1,-1
460,701,502,203,33,87,1,-1,-1,-1
461,704,352,209,33,93,1,-1,-1,-1
465,704,372,212,37,98,1,-1,-1,-1
466,705,713,316,39,111,1,-1,-1,-1
466,704,380,214,35,96,1,-1,-1,-1
466,703,484,217,33,92,1,-1,-1,-1
466,701,526,212,31,87,1,-1,-1,-1
467,704,384,216,34,95,1,-1,-1,-1
467,701,528,213,30,86,1,-1,-1,-1
468,704,387,218,33,92,1,-1,-1,-1
468,701,530,212,31,89,1,-1,-1,-1
469,701,532,216,32,89,1,-1,-1,-1
470,705,676,301,42,117,1,-1,-1,-1
470,703,458,212,35,92,1,-1,-1,-1
470,701,535,218,32,88,1,-1,-1,-1
471,705,671,299,42,118,1,-1,-1,-1
471,703,452,211,34,90,1,-1,-1,-1
471,701,538,220,31,88,1,-1,-1,-1
472,705,668,299,41,115,1,-1,-1,-1
472,701,542,223,31,87,1,-1,-1,-1
473,705,658,296,38,108,1,-1,-1,-1
473,701,547,225,31,89,1,-1,-1,-1
474,705,651,294,37,105,1,-1,-1,-1
474,701,550,227,32,91,1,-1,-1,-1
475,705,643,290,39,109,1,-1,-1,-1
475,701,554,228,32,91,1,-1,-1,-1
476,705,637,287,40,113,1,-1,-1,-1
476,701,557,231,32,90,1,-1,-1,-1
477,705,632,285,40,113,1,-1,-1,-1
477,701,561,234,32,90,1,-1,-1,-1
478,705,623,280,41,115,1,-1,-1,-1
478,701,566,237,32,91,1,-1,-1,-1
479,705,617,277,41,116,1,-1,-1,-1
479,701,569,241,32,92,1,-1,-1,-1
480,705,614,276,42,118,1,-1,-1,-1
480,704,458,232,35,96,1,-1,-1,-1
480,701,572,243,33,93,1,-1,-1,-1
481,705,603,267,41,116,1,-1,-1,-1
481,704,462,234,37,97,1,-1,-1,-1
481,701,576,247,33,94,1,-1,-1,-1
482,705,596,261,41,117,1,-1,-1,-1
482,704,467,236,37,98,1,-1,-1,-1
482,701,583,253,35,98,1,-1,-1,-1
483,704,470,236,37,100,1,-1,-1,-1
483,701,587,256,36,102,1,-1,-1,-1
484,701,591,261,38,106,1,-1,-1,-1
485,701,591,261,39,110,1,-1,-1,-1
486,703,380,199,32,82,1,-1,-1,-1
486,701,589,261,40,113,1,-1,-1,-1
487,703,377,199,31,81,1,-1,-1,-1
487,701,585,260,41,116,1,-1,-1,-1
488,704,499,252,36,101,1,-1,-1,-1
488,703,370,198,31,82,1,-1,-1,-1
488,701,598,257,40,112,1,-1,-1,-1
489,704,504,253,36,102,1,-1,-1,-1
489,703,366,195,31,84,1,-1,-1,-1
489,701,603,256,40,110,1,-1,-1,-1
490,705,567,251,39,109,1,-1,-1,-1
490,704,510,253,36,102,1,-1,-1,-1
490,701,609,257,38,107,1,-1,-1,-1
491,705,566,250,38,107,1,-1,-1,-1
491,701,613,257,37,104,1,-1,-1,-1
492,705,567,249,37,104,1,-1,-1,-1
492,701,615,259,36,101,1,-1,-1,-1
493,705,565,250,36,102,1,-1,-1,-1
493,701,617,261,35,99,1,-1,-1,-1
494,705,563,252,36,102,1,-1,-1,-1
494,704,529,263,35,98,1,-1,-1,-1
494,701,615,263,35,99,1,-1,-1,-1
495,705,561,253,36,102,1,-1,-1,-1
495,704,536,263,36,102,1,-1,-1,-1
495,703,339,191,31,80,1,-1,-1,-1
495,701,613,264,35,100,1,-1,-1,-1
496,704,543,260,38,107,1,-1,-1,-1
496,703,334,190,31,81,1,-1,-1,-1
496,701,610,264,36,100,1,-1,-1,-1
497,704,549,262,40,114,1,-1,-1,-1
497,703,329,188,30,82,1,-1,-1,-1
497,701,608,265,37,100,1,-1,-1,-1
498,704,552,262,41,117,1,-1,-1,-1
498,701,606,267,36,102,1,-1,-1,-1
499,704,558,264,40,112,1,-1,-1,-1
499,701,606,271,35,99,1,-1,-1,-1
500,704,560,254,38,107,1,-1,-1,-1
500,701,606,275,33,95,1,-1,-1,-1
501,704,564,274,37,104,1,-1,-1,-1
501,701,607,278,32,91,1,-1,-1,-1
502,701,609,278,31,89,1,-1,-1,-1
503,701,606,280,31,89,1,-1,-1,-1
504,706,556,237,33,93,1,-1,-1,-1
504,701,604,287,33,93,1,-1,-1,-1
505,706,556,232,32,90,1,-1,-1,-1
505,701,603,289,36,101,1,-1,-1,-1
506,707,741,247,24,68,1,-1,-1,-1
506,706,553,231,31,89,1,-1,-1,-1
506,701,606,288,38,106,1,-1,-1,-1
507,707,733,242,26,75,1,-1,-1,-1
507,706,549,231,32,90,1,-1,-1,-1
507,701,610,290,38,107,1,-1,-1,-1
508,707,727,238,29,81,1,-1,-1,-1
508,706,546,229,32,91,1,-1,-1,-1
508,701,614,292,38,108,1,-1,-1,-1
509,708,667,448,82,136,1,-1,-1,-1
509,707,723,232,32,90,1,-1,-1,-1
509,706,543,228,33,93,1,-1,-1,-1
509,701,617,292,40,113,1,-1,-1,-1
510,708,658,442,79,134,1,-1,-1,-1
510,707,717,227,33,93,1,-1,-1,-1
510,706,538,225,33,93,1,-1,-1,-1
511,708,646,441,75,136,1,-1,-1,-1
511,707,714,223,34,97,1,-1,-1,-1
511,706,536,225,32,90,1,-1,-1,-1
512,708,638,441,71,134,1,-1,-1,-1
512,707,709,224,32,91,1,-1,-1,-1
512,706,533,224,32,90,1,-1,-1,-1
512,704,614,271,36,101,1,-1,-1,-1
513,709,659,300,47,126,1,-1,-1,-1
513,708,627,444,68,130,1,-1,-1,-1
513,707,704,222,34,95,1,-1,-1,-1
513,706,530,222,32,91,1,-1,-1,-1
513,704,614,269,36,101,1,-1,-1,-1
514,709,666,303,46,127,1,-1,-1,-1
514,708,606,442,75,132,1,-1,-1,-1
514,707,701,224,35,99,1,-1,-1,-1
514,706,527,221,32,91,1,-1,-1,-1
514,704,614,274,35,99,1,-1,-1,-1
515,709,678,307,44,124,1,-1,-1,-1
515,708,592,440,76,135,1,-1,-1,-1
515,707,694,220,36,99,1,-1,-1,-1
515,704,613,275,35,98,1,-1,-1,-1
516,709,688,310,46,126,1,-1,-1,-1
516,708,580,439,74,136,1,-1,-1,-1
516,707,690,217,37,100,1,-1,-1,-1
516,704,612,275,35,99,1,-1,-1,-1
517,709,705,313,44,123,1,-1,-1,-1
517,708,553,435,73,141,1,-1,-1,-1
517,707,681,216,37,101,1,-1,-1,-1
517,704,614,274,35,100,1,-1,-1,-1
518,709,712,314,45,122,1,-1,-1,-1
518,708,534,431,77,143,1,-1,-1,-1
518,707,676,215,38,103,1,-1,-1,-1
518,704,615,274,36,100,1,-1,-1,-1
519,709,716,317,47,123,1,-1,-1,-1
519,708,522,432,82,143,1,-1,-1,-1
519,707,673,215,38,102,1,-1,-1,-1
519,706,499,211,33,94,1,-1,-1,-1
519,704,616,274,36,99,1,-1,-1,-1
519,703,230,178,28,76,1,-1,-1,-1
520,709,725,326,45,119,1,-1,-1,-1
520,708,505,428,79,146,1,-1,-1,-1
520,706,493,209,32,91,1,-1,-1,-1
520,704,619,275,36,96,1,-1,-1,-1
520,703,227,176,28,75,1,-1,-1,-1
521,708,493,423,74,148,1,-1,-1,-1
521,706,489,207,32,90,1,-1,-1,-1
521,704,623,275,36,94,1,-1,-1,-1
521,703,224,175,28,73,1,-1,-1,-1
522,708,480,424,68,149,1,-1,-1,-1
522,706,486,206,32,91,1,-1,-1,-1
522,703,221,174,29,73,1,-1,-1,-1
523,708,460,423,73,148,1,-1,-1,-1
523,706,483,205,32,89,1,-1,-1,-1
523,703,218,173,29,73,1,-1,-1,-1
524,708,445,420,76,150,1,-1,-1,-1
524,707,643,203,36,101,1,-1,-1,-1
524,706,480,204,30,85,1,-1,-1,-1
524,703,213,172,29,73,1,-1,-1,-1
525,708,432,416,74,153,1,-1,-1,-1
525,707,638,200,35,99,1,-1,-1,-1
525,706,478,204,28,81,1,-1,-1,-1
525,703,208,170,28,72,1,-1,-1,-1
526,708,419,412,71,156,1,-1,-1,-1
526,707,634,202,35,98,1,-1,-1,-1
526,706,473,201,29,83,1,-1,-1,-1
526,703,205,171,29,72,1,-1,-1,-1
527,708,407,410,70,158,1,-1,-1,-1
527,707,631,200,34,96,1,-1,-1,-1
527,706,472,200,30,85,1,-1,-1,-1
528,708,387,410,75,157,1,-1,-1,-1
528,707,628,194,33,94,1,-1,-1,-1
528,706,467,197,31,88,1,-1,-1,-1
529,708,372,406,77,158,1,-1,-1,-1
529,707,625,192,32,91,1,-1,-1,-1
529,706,463,194,32,89,1,-1,-1,-1
530,708,361,401,77,160,1,-1,-1,-1
530,707,624,191,31,89,1,-1,-1,-1
530,706,460,194,31,88,1,-1,-1,-1
530,704,632,266,35,100,1,-1,-1,-1
531,708,343,398,73,161,1,-1,-1,-1
531,707,621,190,31,88,1,-1,-1,-1
531,706,457,193,31,87,1,-1,-1,-1
532,708,327,394,74,162,1,-1,-1,-1
532,707,620,189,31,89,1,-1,-1,-1
532,706,455,193,31,87,1,-1,-1,-1
533,708,316,391,75,161,1,-1,-1,-1
533,707,618,188,31,89,1,-1,-1,-1
533,706,453,191,31,88,1,-1,-1,-1
534,708,314,388,74,160,1,-1,-1,-1
534,707,617,187,31,88,1,-1,-1,-1
534,706,451,188,31,87,1,-1,-1,-1
535,708,311,384,73,161,1,-1,-1,-1
535,707,615,185,32,89,1,-1,-1,-1
535,706,449,187,31,86,1,-1,-1,-1
535,704,634,273,36,98,1,-1,-1,-1
536,708,290,380,72,159,1,-1,-1,-1
536,707,611,181,32,89,1,-1,-1,-1
536,704,635,275,36,99,1,-1,-1,-1
537,708,269,382,69,158,1,-1,-1,-1
537,707,610,179,32,88,1,-1,-1,-1
537,704,635,277,36,99,1,-1,-1,-1
538,708,256,384,70,155,1,-1,-1,-1
538,707,609,179,33,88,1,-1,-1,-1
538,704,635,279,36,100,1,-1,-1,-1
539,708,241,383,69,153,1,-1,-1,-1
539,707,608,176,33,87,1,-1,-1,-1
539,704,636,281,37,101,1,-1,-1,-1
540,710,283,377,60,147,1,-1,-1,-1
540,708,235,381,66,150,1,-1,-1,-1
540,707,607,175,33,86,1,-1,-1,-1
540,704,637,282,37,101,1,-1,-1,-1
541,710,269,378,58,142,1,-1,-1,-1
541,708,227,382,62,150,1,-1,-1,-1
541,707,605,174,33,86,1,-1,-1,-1
541,704,637,284,36,101,1,-1,-1,-1
542,710,271,378,55,139,1,-1,-1,-1
542,708,221,380,59,150,1,-1,-1,-1
542,707,603,174,34,85,1,-1,-1,-1
542,704,637,286,37,102,1,-1,-1,-1
543,710,268,377,56,140,1,-1,-1,-1
543,708,215,380,59,148,1,-1,-1,-1
543,707,601,173,34,83,1,-1,-1,-1
543,704,636,288,37,104,1,-1,-1,-1
544,710,264,374,57,142,1,-1,-1,-1
544,708,208,379,60,148,1,-1,-1,-1
544,707,600,171,33,82,1,-1,-1,-1
544,704,636,290,36,103,1,-1,-1,-1
545,710,257,373,58,145,1,-1,-1,-1
545,708,197,377,61,148,1,-1,-1,-1
545,707,598,170,32,81,1,-1,-1,-1
545,704,635,290,37,105,1,-1,-1,-1
546,710,251,370,58,146,1,-1,-1,-1
546,708,188,377,61,148,1,-1,-1,-1
546,707,596,169,31,81,1,-1,-1,-1
546,704,635,292,37,106,1,-1,-1,-1
547,710,247,366,58,147,1,-1,-1,-1
547,708,180,375,60,149,1,-1,-1,-1
547,707,596,168,30,80,1,-1,-1,-1
547,704,635,295,37,105,1,-1,-1,-1
548,710,243,364,57,145,1,-1,-1,-1
548,708,175,373,58,150,1,-1,-1,-1
548,707,596,168,30,80,1,-1,-1,-1
548,704,635,298,37,104,1,-1,-1,-1
549,710,241,365,58,145,1,-1,-1,-1
549,708,170,371,58,152,1,-1,-1,-1
549,707,597,166,29,79,1,-1,-1,-1
549,704,636,305,36,101,1,-1,-1,-1
550,710,236,369,57,144,1,-1,-1,-1
550,708,168,368,57,153,1,-1,-1,-1
550,707,597,165,29,79,1,-1,-1,-1
550,704,637,308,35,99,1,-1,-1,-1
551,710,232,372,58,142,1,-1,-1,-1
551,708,166,365,57,152,1,-1,-1,-1
551,707,596,165,29,79,1,-1,-1,-1
551,704,638,309,34,97,1,-1,-1,-1
552,711,120,165,29,64,1,-1,-1,-1
552,710,226,370,57,142,1,-1,-1,-1
552,708,164,363,56,152,1,-1,-1,-1
552,707,595,164,29,78,1,-1,-1,-1
552,704,638,311,34,95,1,-1,-1,-1
553,711,116,164,27,64,1,-1,-1,-1
553,710,220,368,56,143,1,-1,-1,-1
553,707,594,164,28,77,1,-1,-1,-1
553,704,639,312,33,93,1,-1,-1,-1
554,711,109,163,28,67,1,-1,-1,-1
554,710,212,373,55,144,1,-1,-1,-1
554,707,590,162,28,75,1,-1,-1,-1
554,704,640,312,33,92,1,-1,-1,-1
555,711,105,164,29,70,1,-1,-1,-1
555,710,209,375,53,146,1,-1,-1,-1
555,707,587,161,28,74,1,-1,-1,-1
555,704,640,313,32,91,1,-1,-1,-1
556,711,101,163,30,72,1,-1,-1,-1
556,710,208,377,52,147,1,-1,-1,-1
556,707,585,161,29,73,1,-1,-1,-1
556,704,640,313,32,91,1,-1,-1,-1
557,711,96,164,29,72,1,-1,-1,-1
557,710,204,380,55,147,1,-1,-1,-1
557,708,177,368,52,146,1,-1,-1,-1
557,707,584,161,28,72,1,-1,-1,-1
557,704,640,312,32,92,1,-1,-1,-1
558,710,191,371,57,150,1,-1,-1,-1
558,707,584,161,28,71,1,-1,-1,-1
558,704,639,311,33,93,1,-1,-1,-1
559,710,185,367,60,154,1,-1,-1,-1
559,707,583,161,29,70,1,-1,-1,-1
559,704,640,311,33,93,1,-1,-1,-1
560,710,181,366,60,159,1,-1,-1,-1
560,707,583,161,29,70,1,-1,-1,-1
560,704,640,311,33,94,1,-1,-1,-1
561,710,178,363,61,166,1,-1,-1,-1
561,707,583,161,29,70,1,-1,-1,-1
561,704,640,311,33,94,1,-1,-1,-1
562,710,175,365,60,169,1,-1,-1,-1
562,707,583,161,29,69,1,-1,-1,-1
562,704,640,311,33,94,1,-1,-1,-1
563,710,177,366,59,166,1,-1,-1,-1
563,707,584,162,28,70,1,-1,-1,-1
563,704,640,311,33,94,1,-1,-1,-1
564,710,178,367,59,165,1,-1,-1,-1
564,707,586,162,27,70,1,-1,-1,-1
564,704,640,311,33,94,1,-1,-1,-1
565,710,179,374,58,164,1,-1,-1,-1
565,707,585,161,27,70,1,-1,-1,-1
565,704,640,311,33,93,1,-1,-1,-1
566,710,180,373,60,168,1,-1,-1,-1
566,707,582,155,26,72,1,-1,-1,-1
566,704,640,311,33,93,1,-1,-1,-1
567,710,178,371,61,172,1,-1,-1,-1
567,707,581,158,25,70,1,-1,-1,-1
567,704,640,311,33,92,1,-1,-1,-1
568,711,48,171,26,69,1,-1,-1,-1
568,710,177,375,62,173,1,-1,-1,-1
568,707,578,158,25,70,1,-1,-1,-1
568,704,640,312,33,92,1,-1,-1,-1
569,711,40,172,26,68,1,-1,-1,-1
569,710,175,379,60,170,1,-1,-1,-1
569,707,576,159,25,70,1,-1,-1,-1
569,706,348,147,27,75,1,-1,-1,-1
569,704,639,311,33,92,1,-1,-1,-1
570,711,35,171,25,67,1,-1,-1,-1
570,710,175,379,60,170,1,-1,-1,-1
570,707,573,161,26,70,1,-1,-1,-1
570,706,344,145,27,75,1,-1,-1,-1
570,704,640,311,33,92,1,-1,-1,-1
571,711,28,171,23,66,1,-1,-1,-1
571,710,171,381,59,167,1,-1,-1,-1
571,707,571,161,25,70,1,-1,-1,-1
571,706,339,146,27,77,1,-1,-1,-1
571,704,639,312,32,91,1,-1,-1,-1
572,711,23,173,23,66,1,-1,-1,-1
572,710,169,388,60,168,1,-1,-1,-1
572,707,569,161,25,70,1,-1,-1,-1
572,706,335,143,28,79,1,-1,-1,-1
572,704,639,312,32,91,1,-1,-1,-1
573,710,164,391,61,171,1,-1,-1,-1
573,707,568,161,25,71,1,-1,-1,-1
573,706,331,141,28,80,1,-1,-1,-1
573,704,638,312,32,91,1,-1,-1,-1
574,712,737,255,25,72,1,-1,-1,-1
574,710,158,401,61,172,1,-1,-1,-1
574,707,569,164,25,71,1,-1,-1,-1
574,704,638,312,32,91,1,-1,-1,-1
575,713,193,341,47,134,1,-1,-1,-1
575,712,728,247,28,79,1,-1,-1,-1
575,710,155,404,61,173,1,-1,-1,-1
575,707,569,164,26,72,1,-1,-1,-1
575,704,637,311,33,92,1,-1,-1,-1
576,713,196,341,48,134,1,-1,-1,-1
576,712,720,242,29,83,1,-1,-1,-1
576,711,1,173,23,64,1,-1,-1,-1
576,710,154,408,62,170,1,-1,-1,-1
576,707,571,165,26,72,1,-1,-1,-1
576,704,638,311,33,93,1,-1,-1,-1
577,711,-1,175,21,61,1,-1,-1,-1
577,710,157,411,62,168,1,-1,-1,-1
577,707,573,166,26,73,1,-1,-1,-1
577,704,637,310,34,95,1,-1,-1,-1
578,711,-2,177,21,59,1,-1,-1,-1
578,710,160,413,61,166,1,-1,-1,-1
578,707,574,169,27,73,1,-1,-1,-1
578,704,636,309,34,96,1,-1,-1,-1
579,710,163,415,61,164,1,-1,-1,-1
579,707,576,170,27,73,1,-1,-1,-1
579,706,297,139,30,77,1,-1,-1,-1
579,704,636,309,35,98,1,-1,-1,-1
580,713,219,340,46,131,1,-1,-1,-1
580,712,691,224,38,106,1,-1,-1,-1
580,710,168,416,59,163,1,-1,-1,-1
580,707,578,172,27,73,1,-1,-1,-1
580,704,636,309,35,99,1,-1,-1,-1
581,713,229,337,48,131,1,-1,-1,-1
581,712,679,223,40,106,1,-1,-1,-1
581,710,176,420,64,160,1,-1,-1,-1
581,707,581,174,27,73,1,-1,-1,-1
581,704,635,310,35,98,1,-1,-1,-1
582,712,674,222,41,105,1,-1,-1,-1
582,710,181,422,66,158,1,-1,-1,-1
582,707,583,174,27,73,1,-1,-1,-1
582,704,635,310,35,98,1,-1,-1,-1
583,712,669,219,40,106,1,-1,-1,-1
583,710,191,422,66,156,1,-1,-1,-1
583,707,586,176,28,73,1,-1,-1,-1
583,704,635,310,35,98,1,-1,-1,-1
584,712,662,220,39,102,1,-1,-1,-1
584,710,203,421,63,156,1,-1,-1,-1
584,707,592,175,28,76,1,-1,-1,-1
584,704,635,309,35,98,1,-1,-1,-1
585,712,657,222,38,100,1,-1,-1,-1
585,710,213,420,62,156,1,-1,-1,-1
585,707,595,174,29,80,1,-1,-1,-1
585,704,635,309,35,99,1,-1,-1,-1
586,712,652,223,37,99,1,-1,-1,-1
586,710,220,419,64,158,1,-1,-1,-1
586,707,599,173,30,82,1,-1,-1,-1
586,704,635,309,34,97,1,-1,-1,-1
587,712,644,222,37,99,1,-1,-1,-1
587,710,228,420,64,156,1,-1,-1,-1
587,707,603,177,30,83,1,-1,-1,-1
587,704,634,309,34,97,1,-1,-1,-1
588,710,237,422,65,155,1,-1,-1,-1
588,707,609,184,31,82,1,-1,-1,-1
588,704,635,306,34,97,1,-1,-1,-1
589,713,308,323,54,129,1,-1,-1,-1
589,710,243,424,63,153,1,-1,-1,-1
589,707,615,194,32,88,1,-1,-1,-1
589,704,634,308,35,98,1,-1,-1,-1
590,713,327,319,50,129,1,-1,-1,-1
590,710,252,427,62,152,1,-1,-1,-1
590,707,619,199,33,94,1,-1,-1,-1
590,704,635,309,34,97,1,-1,-1,-1
591,713,340,316,47,127,1,-1,-1,-1
591,710,258,428,61,151,1,-1,-1,-1
591,707,621,201,34,97,1,-1,-1,-1
591,704,635,307,35,100,1,-1,-1,-1
592,713,350,315,46,127,1,-1,-1,-1
592,710,259,429,60,150,1,-1,-1,-1
592,707,622,202,35,98,1,-1,-1,-1
592,704,635,307,36,102,1,-1,-1,-1
593,713,363,315,50,124,1,-1,-1,-1
593,710,259,430,58,149,1,-1,-1,-1
593,707,632,199,33,94,1,-1,-1,-1
593,704,637,307,36,102,1,-1,-1,-1
594,714,217,141,26,68,1,-1,-1,-1
594,713,373,316,50,121,1,-1,-1,-1
594,710,259,431,56,148,1,-1,-1,-1
594,707,638,199,33,92,1,-1,-1,-1
594,704,637,307,36,102,1,-1,-1,-1
595,714,211,143,27,69,1,-1,-1,-1
595,713,385,315,48,119,1,-1,-1,-1
595,712,595,205,33,92,1,-1,-1,-1
595,710,259,431,55,148,1,-1,-1,-1
595,707,642,200,32,91,1,-1,-1,-1
595,704,637,308,36,102,1,-1,-1,-1
596,714,205,143,28,71,1,-1,-1,-1
596,712,589,203,33,93,1,-1,-1,-1
596,710,259,432,55,147,1,-1,-1,-1
596,707,645,201,33,92,1,-1,-1,-1
596,704,637,308,36,102,1,-1,-1,-1
597,712,586,202,33,94,1,-1,-1,-1
597,710,260,432,56,147,1,-1,-1,-1
597,707,646,201,32,92,1,-1,-1,-1
597,704,637,308,36,102,1,-1,-1,-1
598,712,578,199,34,95,1,-1,-1,-1
598,710,265,431,57,148,1,-1,-1,-1
598,707,652,201,33,93,1,-1,-1,-1
598,704,637,308,36,101,1,-1,-1,-1
599,713,427,307,48,117,1,-1,-1,-1
599,712,573,199,35,94,1,-1,-1,-1
599,710,269,431,59,148,1,-1,-1,-1
599,707,657,204,34,93,1,-1,-1,-1
599,704,636,308,36,101,1,-1,-1,-1
600,712,571,199,34,94,1,-1,-1,-1
600,710,271,429,61,147,1,-1,-1,-1
600,707,660,207,34,92,1,-1,-1,-1
600,704,636,308,36,101,1,-1,-1,-1
601,712,565,196,33,93,1,-1,-1,-1
601,710,278,428,61,145,1,-1,-1,-1
601,704,637,309,35,100,1,-1,-1,-1
602,712,559,195,34,91,1,-1,-1,-1
602,710,283,427,60,145,1,-1,-1,-1
602,704,638,309,35,98,1,-1,-1,-1
603,713,461,304,47,121,1,-1,-1,-1
603,712,555,194,33,90,1,-1,-1,-1
603,710,289,427,59,145,1,-1,-1,-1
603,704,638,310,35,98,1,-1,-1,-1
604,712,547,192,33,90,1,-1,-1,-1
604,710,297,427,64,147,1,-1,-1,-1
604,707,686,211,34,93,1,-1,-1,-1
604,704,637,308,35,100,1,-1,-1,-1
605,712,540,192,33,90,1,-1,-1,-1
605,710,303,426,69,149,1,-1,-1,-1
605,707,691,214,34,91,1,-1,-1,-1
605,704,636,308,36,101,1,-1,-1,-1
606,712,532,192,35,89,1,-1,-1,-1
606,710,307,425,69,149,1,-1,-1,-1
606,707,699,216,33,91,1,-1,-1,-1
606,704,637,308,35,100,1,-1,-1,-1
607,713,501,295,44,117,1,-1,-1,-1
607,712,526,191,35,90,1,-1,-1,-1
607,710,313,424,68,149,1,-1,-1,-1
607,707,704,218,35,90,1,-1,-1,-1
607,704,636,308,35,99,1,-1,-1,-1
608,712,520,190,35,91,1,-1,-1,-1
608,710,319,426,66,148,1,-1,-1,-1
608,707,707,221,35,89,1,-1,-1,-1
608,704,637,308,35,99,1,-1,-1,-1
609,710,328,426,64,150,1,-1,-1,-1
609,707,715,223,34,90,1,-1,-1,-1
609,704,638,308,35,98,1,-1,-1,-1
610,710,334,426,64,151,1,-1,-1,-1
610,707,721,226,33,90,1,-1,-1,-1
610,704,638,309,34,97,1,-1,-1,-1
611,713,536,291,46,108,1,-1,-1,-1
611,710,337,427,64,151,1,-1,-1,-1
611,707,724,229,32,90,1,-1,-1,-1
611,704,638,310,34,97,1,-1,-1,-1
612,713,543,289,45,109,1,-1,-1,-1
612,710,341,426,64,151,1,-1,-1,-1
612,707,727,233,31,88,1,-1,-1,-1
612,704,638,309,34,97,1,-1,-1,-1
613,713,552,285,42,109,1,-1,-1,-1
613,710,347,425,62,152,1,-1,-1,-1
613,707,735,242,28,80,1,-1,-1,-1
613,704,638,310,34,96,1,-1,-1,-1
614,713,558,283,40,110,1,-1,-1,-1
614,712,489,180,34,86,1,-1,-1,-1
614,710,357,421,59,152,1,-1,-1,-1
614,707,741,247,26,75,1,-1,-1,-1
614,704,638,311,34,95,1,-1,-1,-1
615,715,34,171,24,69,1,-1,-1,-1
615,713,562,281,39,111,1,-1,-1,-1
615,712,486,178,33,85,1,-1,-1,-1
615,710,362,421,56,152,1,-1,-1,-1
615,707,743,253,25,71,1,-1,-1,-1
615,704,638,310,34,97,1,-1,-1,-1
616,715,39,172,26,73,1,-1,-1,-1
616,713,569,277,39,109,1,-1,-1,-1
616,712,479,175,34,86,1,-1,-1,-1
616,710,365,421,54,152,1,-1,-1,-1
616,707,746,256,25,70,1,-1,-1,-1
617,715,42,172,27,72,1,-1,-1,-1
617,713,573,274,38,107,1,-1,-1,-1
617,712,475,172,32,86,1,-1,-1,-1
617,710,368,422,53,149,1,-1,-1,-1
617,707,749,262,23,66,1,-1,-1,-1
618,713,577,273,38,107,1,-1,-1,-1
618,712,468,171,32,85,1,-1,-1,-1
618,710,372,423,53,150,1,-1,-1,-1
619,713,580,272,37,105,1,-1,-1,-1
619,712,463,172,32,83,1,-1,-1,-1
619,710,374,422,54,151,1,-1,-1,-1
620,713,582,269,37,104,1,-1,-1,-1
620,712,458,172,33,81,1,-1,-1,-1
620,710,376,423,54,151,1,-1,-1,-1
621,713,583,265,37,105,1,-1,-1,-1
621,712,453,171,35,80,1,-1,-1,-1
621,710,376,422,55,152,1,-1,-1,-1
621,704,617,292,36,102,1,-1,-1,-1
622,713,583,258,37,105,1,-1,-1,-1
622,712,446,170,35,79,1,-1,-1,-1
622,710,373,418,55,153,1,-1,-1,-1
623,716,114,139,24,63,1,-1,-1,-1
623,713,586,254,37,105,1,-1,-1,-1
623,712,441,167,34,79,1,-1,-1,-1
623,710,372,418,54,151,1,-1,-1,-1
624,716,113,139,25,66,1,-1,-1,-1
624,713,590,256,37,104,1,-1,-1,-1
624,712,438,168,34,79,1,-1,-1,-1
624,710,368,415,54,151,1,-1,-1,-1
625,716,109,140,26,70,1,-1,-1,-1
625,713,591,259,36,103,1,-1,-1,-1
625,712,436,166,34,80,1,-1,-1,-1
625,710,364,413,55,154,1,-1,-1,-1
626,716,106,144,27,76,1,-1,-1,-1
626,713,595,255,36,102,1,-1,-1,-1
626,710,360,406,55,155,1,-1,-1,-1
627,716,105,147,28,79,1,-1,-1,-1
627,713,592,260,37,105,1,-1,-1,-1
627,710,358,403,55,155,1,-1,-1,-1
628,716,106,148,27,77,1,-1,-1,-1
628,713,600,250,37,103,1,-1,-1,-1
628,710,355,402,56,154,1,-1,-1,-1
629,716,109,147,28,79,1,-1,-1,-1
629,713,610,244,36,102,1,-1,-1,-1
629,710,354,400,57,153,1,-1,-1,-1
630,713,615,242,36,101,1,-1,-1,-1
630,710,352,396,57,150,1,-1,-1,-1
631,717,557,264,37,103,1,-1,-1,-1
631,713,619,235,36,102,1,-1,-1,-1
631,710,350,393,58,150,1,-1,-1,-1
632,717,552,261,36,101,1,-1,-1,-1
632,715,119,142,26,74,1,-1,-1,-1
632,713,624,230,36,101,1,-1,-1,-1
632,710,347,391,59,150,1,-1,-1,-1
633,717,545,256,36,103,1,-1,-1,-1
633,715,120,139,27,76,1,-1,-1,-1
633,713,626,224,36,102,1,-1,-1,-1
633,710,346,391,58,151,1,-1,-1,-1
634,717,541,253,37,103,1,-1,-1,-1
634,715,120,139,27,76,1,-1,-1,-1
634,713,629,223,37,102,1,-1,-1,-1
634,710,343,389,58,153,1,-1,-1,-1
635,717,537,250,36,102,1,-1,-1,-1
635,715,118,138,27,77,1,-1,-1,-1
635,713,633,223,36,99,1,-1,-1,-1
635,710,340,386,59,154,1,-1,-1,-1
636,717,533,248,36,100,1,-1,-1,-1
636,715,116,137,26,73,1,-1,-1,-1
636,713,636,222,36,96,1,-1,-1,-1
636,710,336,384,60,154,1,-1,-1,-1
637,717,524,247,38,97,1,-1,-1,-1
637,715,114,139,25,71,1,-1,-1,-1
637,713,639,219,37,95,1,-1,-1,-1
637,710,331,381,58,152,1,-1,-1,-1
638,717,519,245,40,95,1,-1,-1,-1
638,715,114,140,24,69,1,-1,-1,-1
638,713,644,217,36,93,1,-1,-1,-1
638,710,330,381,58,150,1,-1,-1,-1
639,717,515,244,38,94,1,-1,-1,-1
639,715,114,140,25,70,1,-1,-1,-1
639,713,647,217,35,92,1,-1,-1,-1
639,712,377,162,32,74,1,-1,-1,-1
639,710,329,381,58,149,1,-1,-1,-1
640,717,509,246,36,92,1,-1,-1,-1
640,715,114,141,25,70,1,-1,-1,-1
640,713,648,216,34,90,1,-1,-1,-1
640,710,329,381,58,148,1,-1,-1,-1
641,717,502,246,36,92,1,-1,-1,-1
641,715,115,140,24,69,1,-1,-1,-1
641,713,648,212,34,91,1,-1,-1,-1
641,710,330,381,57,147,1,-1,-1,-1
642,717,497,245,35,91,1,-1,-1,-1
642,715,118,140,24,68,1,-1,-1,-1
642,713,647,208,33,91,1,-1,-1,-1
642,710,330,380,57,147,1,-1,-1,-1
643,717,494,241,34,90,1,-1,-1,-1
643,715,119,140,24,69,1,-1,-1,-1
643,713,648,206,33,91,1,-1,-1,-1
643,710,331,380,56,147,1,-1,-1,-1
644,717,491,237,32,89,1,-1,-1,-1
644,715,123,141,24,69,1,-1,-1,-1
644,713,647,205,33,91,1,-1,-1,-1
644,710,332,380,56,148,1,-1,-1,-1
645,717,487,235,32,89,1,-1,-1,-1
645,715,126,141,24,69,1,-1,-1,-1
645,713,646,204,33,91,1,-1,-1,-1
645,710,333,380,56,148,1,-1,-1,-1
646,717,482,234,33,88,1,-1,-1,-1
646,715,128,142,25,69,1,-1,-1,-1
646,713,646,202,33,91,1,-1,-1,-1
646,710,335,378,55,147,1,-1,-1,-1
647,717,479,232,33,88,1,-1,-1,-1
647,715,130,142,25,70,1,-1,-1,-1
647,713,646,199,32,90,1,-1,-1,-1
647,710,336,377,55,147,1,-1,-1,-1
648,717,473,228,34,88,1,-1,-1,-1
648,715,134,142,25,69,1,-1,-1,-1
648,713,645,196,31,88,1,-1,-1,-1
648,710,336,376,55,147,1,-1,-1,-1
649,717,470,226,34,87,1,-1,-1,-1
649,713,643,194,31,87,1,-1,-1,-1
649,710,335,374,55,148,1,-1,-1,-1
650,717,468,225,34,87,1,-1,-1,-1
650,713,642,193,31,86,1,-1,-1,-1
650,710,333,372,54,149,1,-1,-1,-1
651,717,466,223,33,88,1,-1,-1,-1
651,713,640,193,30,85,1,-1,-1,-1
651,710,331,370,53,149,1,-1,-1,-1
652,718,227,152,24,67,1,-1,-1,-1
652,717,463,219,33,87,1,-1,-1,-1
652,713,636,191,30,85,1,-1,-1,-1
652,710,327,365,53,148,1,-1,-1,-1
653,718,232,152,24,68,1,-1,-1,-1
653,717,462,218,33,85,1,-1,-1,-1
653,713,634,189,29,83,1,-1,-1,-1
653,710,325,362,52,147,1,-1,-1,-1
654,718,236,150,25,70,1,-1,-1,-1
654,717,461,217,32,84,1,-1,-1,-1
654,713,632,189,29,83,1,-1,-1,-1
654,710,324,361,52,145,1,-1,-1,-1
655,717,461,216,31,82,1,-1,-1,-1
655,713,630,188,30,82,1,-1,-1,-1
655,710,323,362,51,145,1,-1,-1,-1
656,710,322,362,51,143,1,-1,-1,-1
660,719,695,298,46,117,1,-1,-1,-1
660,713,621,174,29,80,1,-1,-1,-1
661,719,682,295,44,118,1,-1,-1,-1
661,717,458,201,30,78,1,-1,-1,-1
661,713,617,173,29,79,1,-1,-1,-1
661,710,298,355,57,139,1,-1,-1,-1
662,719,670,294,42,117,1,-1,-1,-1
662,717,458,200,30,77,1,-1,-1,-1
662,713,613,172,29,79,1,-1,-1,-1
662,710,290,353,58,137,1,-1,-1,-1
663,719,661,289,42,117,1,-1,-1,-1
663,717,459,199,30,77,1,-1,-1,-1
663,713,610,172,30,78,1,-1,-1,-1
663,710,283,352,58,134,1,-1,-1,-1
664,719,645,286,43,115,1,-1,-1,-1
664,717,459,195,30,76,1,-1,-1,-1
664,713,605,171,30,78,1,-1,-1,-1
664,710,276,348,57,134,1,-1,-1,-1
665,719,633,283,41,112,1,-1,-1,-1
665,717,458,194,30,75,1,-1,-1,-1
665,713,601,171,31,79,1,-1,-1,-1
665,710,270,347,57,134,1,-1,-1,-1
666,719,616,280,42,111,1,-1,-1,-1
666,717,459,193,30,74,1,-1,-1,-1
666,713,597,167,30,79,1,-1,-1,-1
666,710,262,345,56,135,1,-1,-1,-1
667,719,606,277,41,108,1,-1,-1,-1
667,718,304,140,28,74,1,-1,-1,-1
667,717,459,193,30,74,1,-1,-1,-1
667,713,594,164,28,79,1,-1,-1,-1
667,710,256,342,54,134,1,-1,-1,-1
668,719,596,275,40,106,1,-1,-1,-1
668,718,309,139,28,73,1,-1,-1,-1
668,717,461,189,30,73,1,-1,-1,-1
668,713,591,165,26,75,1,-1,-1,-1
668,710,249,341,53,134,1,-1,-1,-1
669,719,584,273,40,106,1,-1,-1,-1
669,718,316,139,27,71,1,-1,-1,-1
669,717,463,188,30,72,1,-1,-1,-1
669,713,587,164,27,75,1,-1,-1,-1
670,719,571,269,40,106,1,-1,-1,-1
670,717,465,187,30,73,1,-1,-1,-1
670,713,581,161,26,74,1,-1,-1,-1
671,719,561,266,39,107,1,-1,-1,-1
671,713,575,162,26,73,1,-1,-1,-1
671,712,219,153,33,76,1,-1,-1,-1
672,719,553,266,38,106,1,-1,-1,-1
672,713,570,163,25,72,1,-1,-1,-1
672,712,221,152,32,77,1,-1,-1,-1
672,710,222,339,61,132,1,-1,-1,-1
673,719,542,262,39,108,1,-1,-1,-1
673,713,566,163,25,72,1,-1,-1,-1
673,712,221,148,31,79,1,-1,-1,-1
673,710,214,338,62,132,1,-1,-1,-1
674,719,527,257,39,107,1,-1,-1,-1
674,713,560,161,27,74,1,-1,-1,-1
674,712,220,150,31,78,1,-1,-1,-1
675,719,515,254,39,105,1,-1,-1,-1
675,712,219,153,31,76,1,-1,-1,-1
676,719,506,254,41,104,1,-1,-1,-1
676,718,351,145,25,71,1,-1,-1,-1
677,719,497,251,41,101,1,-1,-1,-1
677,718,356,144,25,71,1,-1,-1,-1
678,719,482,251,39,101,1,-1,-1,-1
678,718,364,143,26,72,1,-1,-1,-1
678,713,535,158,27,72,1,-1,-1,-1
678,710,178,336,55,125,1,-1,-1,-1
679,718,368,145,27,72,1,-1,-1,-1
679,713,531,157,28,73,1,-1,-1,-1
680,718,374,144,27,72,1,-1,-1,-1
680,717,481,167,28,77,1,-1,-1,-1
680,713,526,156,28,71,1,-1,-1,-1
681,717,488,161,28,78,1,-1,-1,-1
682,717,493,157,29,79,1,-1,-1,-1
683,717,493,156,31,80,1,-1,-1,-1
684,717,494,156,31,80,1,-1,-1,-1
685,717,494,155,30,78,1,-1,-1,-1
686,717,494,156,30,77,1,-1,-1,-1
687,717,494,158,29,74,1,-1,-1,-1
687,710,118,317,52,124,1,-1,-1,-1
688,710,116,315,51,124,1,-1,-1,-1
689,719,364,224,40,95,1,-1,-1,-1
689,710,114,311,50,123,1,-1,-1,-1
690,719,356,226,39,96,1,-1,-1,-1
690,710,114,308,49,121,1,-1,-1,-1
691,722,526,158,25,71,1,-1,-1,-1
691,719,347,225,39,93,1,-1,-1,-1
691,710,114,306,48,119,1,-1,-1,-1
692,725,154,163,27,73,1,-1,-1,-1
692,722,527,158,26,73,1,-1,-1,-1
692,719,341,222,38,93,1,-1,-1,-1
692,710,113,305,48,118,1,-1,-1,-1
693,722,528,157,26,71,1,-1,-1,-1
693,710,111,303,49,118,1,-1,-1,-1
694,722,530,157,25,70,1,-1,-1,-1
694,718,444,139,27,76,1,-1,-1,-1
694,710,110,301,49,116,1,-1,-1,-1
695,722,531,157,25,70,1,-1,-1,-1
695,718,445,139,26,74,1,-1,-1,-1
695,710,107,296,48,116,1,-1,-1,-1
696,727,723,224,33,92,1,-1,-1,-1
696,722,530,157,26,70,1,-1,-1,-1
696,718,447,139,25,71,1,-1,-1,-1
696,710,106,294,47,116,1,-1,-1,-1
697,727,717,222,34,92,1,-1,-1,-1
697,722,528,158,26,70,1,-1,-1,-1
697,718,452,138,24,69,1,-1,-1,-1
697,710,105,293,47,116,1,-1,-1,-1
698,727,709,220,33,90,1,-1,-1,-1
698,722,525,159,26,70,1,-1,-1,-1
698,719,295,215,38,88,1,-1,-1,-1
698,710,103,290,45,115,1,-1,-1,-1
699,727,702,217,36,90,1,-1,-1,-1
699,722,524,159,26,69,1,-1,-1,-1
699,719,286,218,38,90,1,-1,-1,-1
699,710,102,287,44,113,1,-1,-1,-1
700,727,694,218,39,88,1,-1,-1,-1
700,722,523,159,25,69,1,-1,-1,-1
700,710,101,284,43,110,1,-1,-1,-1
701,727,687,216,41,89,1,-1,-1,-1
701,722,522,161,24,68,1,-1,-1,-1
701,710,100,284,43,108,1,-1,-1,-1
702,727,677,216,40,89,1,-1,-1,-1
702,722,519,164,25,69,1,-1,-1,-1
702,710,97,284,42,108,1,-1,-1,-1
703,727,670,218,39,89,1,-1,-1,-1
703,722,518,166,25,70,1,-1,-1,-1
704,727,664,218,40,90,1,-1,-1,-1
705,727,655,217,40,90,1,-1,-1,-1
705,718,498,135,24,64,1,-1,-1,-1
706,727,647,215,38,89,1,-1,-1,-1
706,718,501,135,24,65,1,-1,-1,-1
707,727,641,211,36,90,1,-1,-1,-1
707,718,503,137,24,69,1,-1,-1,-1
707,710,79,273,46,106,1,-1,-1,-1
708,729,218,187,32,86,1,-1,-1,-1
708,727,635,214,36,89,1,-1,-1,-1
708,718,504,142,26,74,1,-1,-1,-1
709,729,217,183,33,89,1,-1,-1,-1
709,727,624,208,38,90,1,-1,-1,-1
709,718,506,141,26,74,1,-1,-1,-1
710,727,617,206,38,90,1,-1,-1,-1
711,727,613,205,37,91,1,-1,-1,-1
712,731,487,179,29,79,1,-1,-1,-1
712,730,224,176,31,83,1,-1,-1,-1
712,727,604,203,37,92,1,-1,-1,-1
713,731,484,181,29,78,1,-1,-1,-1
713,730,233,176,30,82,1,-1,-1,-1
713,727,598,202,37,92,1,-1,-1,-1
714,731,480,181,30,80,1,-1,-1,-1
714,730,239,177,29,80,1,-1,-1,-1
714,727,594,201,37,93,1,-1,-1,-1
714,717,529,128,22,62,1,-1,-1,-1
715,730,243,177,30,80,1,-1,-1,-1
715,727,591,201,37,93,1,-1,-1,-1
715,710,53,256,40,99,1,-1,-1,-1
716,730,248,179,29,80,1,-1,-1,-1
716,727,583,198,35,93,1,-1,-1,-1
716,710,54,254,39,99,1,-1,-1,-1
717,730,253,180,29,80,1,-1,-1,-1
717,727,578,197,33,92,1,-1,-1,-1
717,718,543,131,24,69,1,-1,-1,-1
717,710,54,252,38,99,1,-1,-1,-1
718,730,252,177,29,81,1,-1,-1,-1
718,727,573,197,34,91,1,-1,-1,-1
718,710,55,250,38,98,1,-1,-1,-1
719,731,484,188,28,80,1,-1,-1,-1
719,730,255,178,29,83,1,-1,-1,-1
719,727,567,197,35,90,1,-1,-1,-1
720,731,487,188,29,81,1,-1,-1,-1
720,730,258,180,30,84,1,-1,-1,-1
720,727,561,196,35,90,1,-1,-1,-1
721,731,489,190,28,80,1,-1,-1,-1
721,730,260,181,31,85,1,-1,-1,-1
721,727,557,196,35,89,1,-1,-1,-1
722,731,489,195,29,81,1,-1,-1,-1
722,727,552,198,34,89,1,-1,-1,-1
722,723,298,173,29,74,1,-1,-1,-1
722,718,564,125,23,64,1,-1,-1,-1
723,731,491,197,29,82,1,-1,-1,-1
723,727,550,198,33,89,1,-1,-1,-1
723,718,568,124,23,64,1,-1,-1,-1
724,731,491,199,30,84,1,-1,-1,-1
724,718,572,123,22,62,1,-1,-1,-1
724,710,66,245,36,89,1,-1,-1,-1
725,731,488,201,31,88,1,-1,-1,-1
725,718,575,120,22,63,1,-1,-1,-1
725,710,69,241,37,89,1,-1,-1,-1
726,734,528,191,32,90,1,-1,-1,-1
726,731,490,202,32,89,1,-1,-1,-1
726,718,576,119,24,63,1,-1,-1,-1
726,710,70,239,38,89,1,-1,-1,-1
727,731,492,201,32,92,1,-1,-1,-1
727,718,578,119,24,63,1,-1,-1,-1
727,710,72,236,38,91,1,-1,-1,-1
728,731,499,201,33,95,1,-1,-1,-1
728,718,581,116,24,63,1,-1,-1,-1
728,710,76,233,39,92,1,-1,-1,-1
729,731,503,200,34,97,1,-1,-1,-1
729,727,530,192,32,87,1,-1,-1,-1
729,718,584,115,24,62,1,-1,-1,-1
729,710,80,232,38,94,1,-1,-1,-1
730,731,504,199,36,100,1,-1,-1,-1
730,727,536,193,32,90,1,-1,-1,-1
730,718,587,117,24,62,1,-1,-1,-1
731,731,501,197,36,101,1,-1,-1,-1
731,727,535,194,32,91,1,-1,-1,-1
731,718,589,117,24,62,1,-1,-1,-1
732,727,533,198,33,92,1,-1,-1,-1
732,718,589,114,24,61,1,-1,-1,-1
733,727,531,201,33,95,1,-1,-1,-1
733,718,594,113,24,64,1,-1,-1,-1
734,735,565,191,32,78,1,-1,-1,-1
734,734,482,192,33,91,1,-1,-1,-1
734,727,531,201,35,97,1,-1,-1,-1
734,718,598,112,24,65,1,-1,-1,-1
734,710,100,231,35,87,1,-1,-1,-1
735,735,566,190,33,80,1,-1,-1,-1
735,727,535,202,38,100,1,-1,-1,-1
735,718,600,112,25,66,1,-1,-1,-1
735,710,104,228,36,86,1,-1,-1,-1
736,735,565,192,35,85,1,-1,-1,-1
736,733,43,168,29,70,1,-1,-1,-1
736,727,540,201,40,104,1,-1,-1,-1
736,718,602,111,26,68,1,-1,-1,-1
736,710,107,224,36,86,1,-1,-1,-1
737,733,37,168,28,68,1,-1,-1,-1
737,727,545,199,41,107,1,-1,-1,-1
737,718,604,112,26,68,1,-1,-1,-1
737,710,110,223,36,85,1,-1,-1,-1
738,734,458,188,34,81,1,-1,-1,-1
738,733,32,168,28,68,1,-1,-1,-1
738,718,605,113,26,68,1,-1,-1,-1
738,710,111,223,36,84,1,-1,-1,-1
739,734,448,189,36,80,1,-1,-1,-1
739,733,24,167,27,68,1,-1,-1,-1
739,718,610,109,25,68,1,-1,-1,-1
739,710,116,219,35,83,1,-1,-1,-1
740,735,563,197,39,111,1,-1,-1,-1
740,730,342,199,31,89,1,-1,-1,-1
740,718,614,109,24,67,1,-1,-1,-1
741,735,563,195,41,117,1,-1,-1,-1
741,730,345,201,30,86,1,-1,-1,-1
741,718,618,108,25,67,1,-1,-1,-1
742,735,563,199,40,114,1,-1,-1,-1
742,730,348,202,30,85,1,-1,-1,-1
742,723,268,197,29,81,1,-1,-1,-1
742,718,621,110,25,65,1,-1,-1,-1
743,730,352,203,31,89,1,-1,-1,-1
744,733,-2,164,27,63,1,-1,-1,-1
745,733,-4,165,26,64,1,-1,-1,-1
746,736,534,174,27,77,1,-1,-1,-1
747,737,617,219,38,101,1,-1,-1,-1
747,736,528,174,28,78,1,-1,-1,-1
747,730,376,205,33,92,1,-1,-1,-1
748,737,624,218,36,101,1,-1,-1,-1
748,718,650,111,24,60,1,-1,-1,-1
749,737,630,219,35,100,1,-1,-1,-1
749,718,655,112,23,58,1,-1,-1,-1
750,718,658,112,23,58,1,-1,-1,-1
751,730,384,195,35,100,1,-1,-1,-1
751,718,661,112,24,58,1,-1,-1,-1
752,736,503,173,29,74,1,-1,-1,-1
752,718,664,113,24,58,1,-1,-1,-1
753,737,647,216,38,101,1,-1,-1,-1
753,736,497,172,27,71,1,-1,-1,-1
753,718,670,112,23,58,1,-1,-1,-1
754,737,650,212,37,102,1,-1,-1,-1
754,736,493,173,27,70,1,-1,-1,-1
754,723,221,218,35,88,1,-1,-1,-1
754,718,673,111,22,58,1,-1,-1,-1
755,737,652,211,35,100,1,-1,-1,-1
755,736,486,172,27,70,1,-1,-1,-1
755,723,220,219,35,89,1,-1,-1,-1
755,718,676,112,21,58,1,-1,-1,-1
756,737,652,211,34,97,1,-1,-1,-1
756,736,481,173,27,70,1,-1,-1,-1
756,723,220,217,34,89,1,-1,-1,-1
756,718,678,113,21,58,1,-1,-1,-1
757,737,652,210,34,96,1,-1,-1,-1
757,736,478,173,27,69,1,-1,-1,-1
757,723,220,217,33,89,1,-1,-1,-1
757,718,679,114,21,59,1,-1,-1,-1
758,737,653,208,34,95,1,-1,-1,-1
758,723,222,217,33,92,1,-1,-1,-1
758,718,680,116,21,58,1,-1,-1,-1
759,737,652,205,34,97,1,-1,-1,-1
759,723,225,214,32,90,1,-1,-1,-1
759,718,682,117,21,59,1,-1,-1,-1
760,737,650,206,34,95,1,-1,-1,-1
760,723,228,215,33,92,1,-1,-1,-1
760,718,684,120,20,58,1,-1,-1,-1
761,737,650,205,33,94,1,-1,-1,-1
761,723,230,214,34,94,1,-1,-1,-1
761,718,685,123,21,58,1,-1,-1,-1
762,739,301,174,32,76,1,-1,-1,-1
762,737,648,205,33,94,1,-1,-1,-1
762,723,232,215,34,97,1,-1,-1,-1
762,718,686,123,21,58,1,-1,-1,-1
763,739,297,172,31,78,1,-1,-1,-1
763,737,648,206,32,92,1,-1,-1,-1
763,718,687,124,21,58,1,-1,-1,-1
764,745,742,55,16,43,1,-1,-1,-1
764,739,295,171,30,78,1,-1,-1,-1
764,737,646,205,31,89,1,-1,-1,-1
764,718,688,124,20,57,1,-1,-1,-1
765,745,743,55,16,42,1,-1,-1,-1
765,739,293,169,29,79,1,-1,-1,-1
765,737,644,203,31,89,1,-1,-1,-1
765,718,689,126,20,58,1,-1,-1,-1
766,737,637,199,33,92,1,-1,-1,-1
767,737,633,196,34,96,1,-1,-1,-1
768,744,689,131,23,65,1,-1,-1,-1
768,737,629,195,35,99,1,-1,-1,-1
769,746,496,232,32,89,1,-1,-1,-1
769,744,686,132,23,65,1,-1,-1,-1
769,737,626,194,35,100,1,-1,-1,-1
770,746,503,232,32,92,1,-1,-1,-1
770,744,684,132,23,66,1,-1,-1,-1
770,737,624,194,34,97,1,-1,-1,-1
771,746,508,233,32,91,1,-1,-1,-1
771,744,684,132,23,66,1,-1,-1,-1
771,737,619,196,33,94,1,-1,-1,-1
772,746,517,233,32,91,1,-1,-1,-1
772,744,683,133,24,68,1,-1,-1,-1
772,737,614,195,33,93,1,-1,-1,-1
773,746,524,234,34,95,1,-1,-1,-1
773,744,682,132,24,69,1,-1,-1,-1
773,739,264,170,31,81,1,-1,-1,-1
773,737,611,194,33,94,1,-1,-1,-1
774,746,529,235,34,96,1,-1,-1,-1
774,744,680,130,24,69,1,-1,-1,-1
774,741,311,250,38,96,1,-1,-1,-1
774,739,264,171,31,79,1,-1,-1,-1
774,737,609,194,34,95,1,-1,-1,-1
775,746,533,236,33,95,1,-1,-1,-1
775,744,679,133,25,71,1,-1,-1,-1
775,739,260,170,30,79,1,-1,-1,-1
775,737,608,193,33,94,1,-1,-1,-1
776,746,540,238,33,92,1,-1,-1,-1
776,744,676,135,25,72,1,-1,-1,-1
776,737,607,195,33,93,1,-1,-1,-1
777,746,545,240,33,92,1,-1,-1,-1
777,744,673,135,25,72,1,-1,-1,-1
777,737,606,196,33,92,1,-1,-1,-1
778,746,550,241,33,93,1,-1,-1,-1
778,744,668,134,25,71,1,-1,-1,-1
778,737,606,199,32,90,1,-1,-1,-1
779,746,558,244,33,93,1,-1,-1,-1
779,744,666,136,25,71,1,-1,-1,-1
779,741,339,257,40,101,1,-1,-1,-1
779,737,607,203,31,89,1,-1,-1,-1
780,746,564,249,32,91,1,-1,-1,-1
780,744,664,136,25,71,1,-1,-1,-1
780,741,343,260,41,102,1,-1,-1,-1
780,737,608,206,31,88,1,-1,-1,-1
781,746,569,251,33,92,1,-1,-1,-1
781,744,663,136,25,70,1,-1,-1,-1
781,741,347,260,41,104,1,-1,-1,-1
781,737,609,206,31,89,1,-1,-1,-1
782,746,573,251,33,94,1,-1,-1,-1
782,744,662,136,25,70,1,-1,-1,-1
782,739,235,169,25,70,1,-1,-1,-1
782,737,610,207,32,90,1,-1,-1,-1
783,746,578,251,34,96,1,-1,-1,-1
783,744,661,138,25,69,1,-1,-1,-1
783,739,232,169,25,71,1,-1,-1,-1
783,737,610,213,33,92,1,-1,-1,-1
784,746,581,254,34,97,1,-1,-1,-1
784,744,659,139,25,69,1,-1,-1,-1
784,739,230,167,26,72,1,-1,-1,-1
784,737,610,221,34,95,1,-1,-1,-1
785,748,336,172,29,78,1,-1,-1,-1
785,746,583,255,35,98,1,-1,-1,-1
785,744,657,139,26,69,1,-1,-1,-1
785,739,229,166,26,72,1,-1,-1,-1
785,737,610,223,34,97,1,-1,-1,-1
786,748,342,169,30,77,1,-1,-1,-1
786,746,586,258,35,100,1,-1,-1,-1
786,744,655,139,26,70,1,-1,-1,-1
786,741,379,262,40,105,1,-1,-1,-1
786,739,229,165,26,71,1,-1,-1,-1
786,737,612,222,35,99,1,-1,-1,-1
787,748,346,166,30,76,1,-1,-1,-1
787,746,588,261,36,101,1,-1,-1,-1
787,744,652,140,26,71,1,-1,-1,-1
787,741,387,264,39,107,1,-1,-1,-1
787,739,229,165,26,70,1,-1,-1,-1
787,737,611,233,36,101,1,-1,-1,-1
788,747,259,196,30,80,1,-1,-1,-1
788,746,592,260,36,102,1,-1,-1,-1
788,744,650,141,26,71,1,-1,-1,-1
788,739,228,164,27,69,1,-1,-1,-1
788,737,611,234,36,103,1,-1,-1,-1
789,746,597,259,37,106,1,-1,-1,-1
789,744,651,141,25,71,1,-1,-1,-1
789,739,226,165,28,71,1,-1,-1,-1
789,737,611,239,37,106,1,-1,-1,-1
790,746,601,257,40,112,1,-1,-1,-1
790,744,651,142,25,71,1,-1,-1,-1
790,739,227,166,28,73,1,-1,-1,-1
791,746,603,256,41,115,1,-1,-1,-1
791,744,652,143,25,70,1,-1,-1,-1
791,739,226,167,28,75,1,-1,-1,-1
792,746,606,256,42,114,1,-1,-1,-1
792,744,652,144,25,70,1,-1,-1,-1
792,739,225,166,29,76,1,-1,-1,-1
793,744,653,143,24,69,1,-1,-1,-1
793,739,223,167,29,78,1,-1,-1,-1
794,744,653,145,24,69,1,-1,-1,-1
794,739,220,168,30,81,1,-1,-1,-1
795,749,636,241,38,107,1,-1,-1,-1
795,748,392,167,26,65,1,-1,-1,-1
795,744,653,147,24,69,1,-1,-1,-1
795,739,219,167,30,83,1,-1,-1,-1
795,737,611,263,38,109,1,-1,-1,-1
