1,3,253,222,253,222,1,-1,-1,-1
1,2,642,240,642,240,1,-1,-1,-1
1,1,503,158,503,158,1,-1,-1,-1
2,3,258,216,255,219,1,-1,-1,-1
2,2,641,234,637,236,1,-1,-1,-1
2,1,504,153,499,155,1,-1,-1,-1
3,4,495,334,495,334,1,-1,-1,-1
3,3,261,220,258,221,1,-1,-1,-1
3,2,629,241,634,237,1,-1,-1,-1
3,1,497,161,502,158,1,-1,-1,-1
4,3,273,221,266,224,1,-1,-1,-1
4,2,616,245,629,239,1,-1,-1,-1
4,1,492,166,503,161,1,-1,-1,-1
5,3,287,212,273,222,1,-1,-1,-1
5,2,599,242,616,237,1,-1,-1,-1
5,1,487,163,498,160,1,-1,-1,-1
6,3,292,211,279,221,1,-1,-1,-1
6,2,589,242,606,236,1,-1,-1,-1
6,1,486,163,496,161,1,-1,-1,-1
7,3,295,209,283,220,1,-1,-1,-1
7,2,584,238,597,234,1,-1,-1,-1
7,1,478,160,489,159,1,-1,-1,-1
8,3,299,210,288,219,1,-1,-1,-1
8,2,580,236,590,233,1,-1,-1,-1
8,1,478,162,487,160,1,-1,-1,-1
9,3,307,210,294,219,1,-1,-1,-1
9,2,572,234,582,231,1,-1,-1,-1
9,1,473,161,482,159,1,-1,-1,-1
10,3,312,210,299,219,1,-1,-1,-1
10,2,567,231,575,229,1,-1,-1,-1
10,1,473,165,481,161,1,-1,-1,-1
11,3,320,204,305,216,1,-1,-1,-1
11,2,547,231,563,227,1,-1,-1,-1
11,1,462,168,476,162,1,-1,-1,-1
12,3,327,202,311,214,1,-1,-1,-1
12,2,536,236,553,228,1,-1,-1,-1
12,1,459,167,472,163,1,-1,-1,-1
13,3,330,198,316,211,1,-1,-1,-1
13,2,524,237,543,228,1,-1,-1,-1
13,1,452,168,467,163,1,-1,-1,-1
14,5,742,288,730,293,1,-1,-1,-1
14,3,335,194,321,208,1,-1,-1,-1
14,2,509,240,531,229,1,-1,-1,-1
14,1,447,174,463,166,1,-1,-1,-1
15,5,730,286,722,289,1,-1,-1,-1
15,3,343,193,327,206,1,-1,-1,-1
15,2,498,239,520,228,1,-1,-1,-1
15,1,440,173,458,167,1,-1,-1,-1
16,5,726,283,717,285,1,-1,-1,-1
16,3,349,192,333,204,1,-1,-1,-1
16,2,491,239,510,229,1,-1,-1,-1
16,1,438,171,453,167,1,-1,-1,-1
17,5,722,282,713,283,1,-1,-1,-1
17,3,351,192,337,203,1,-1,-1,-1
17,2,480,239,500,229,1,-1,-1,-1
17,1,431,172,448,167,1,-1,-1,-1
18,5,713,281,707,281,1,-1,-1,-1
18,3,361,192,344,201,1,-1,-1,-1
18,2,468,236,489,228,1,-1,-1,-1
18,1,425,174,442,169,1,-1,-1,-1
19,5,702,283,700,280,1,-1,-1,-1
19,3,363,191,349,200,1,-1,-1,-1
19,2,457,235,478,227,1,-1,-1,-1
20,5,700,280,696,278,1,-1,-1,-1
20,3,365,189,353,199,1,-1,-1,-1
20,2,451,235,469,226,1,-1,-1,-1
21,5,689,270,687,273,1,-1,-1,-1
21,3,370,188,357,197,1,-1,-1,-1
21,2,435,235,456,225,1,-1,-1,-1
22,6,727,262,714,268,1,-1,-1,-1
22,5,684,269,681,270,1,-1,-1,-1
22,3,371,186,361,195,1,-1,-1,-1
22,2,425,234,446,225,1,-1,-1,-1
23,6,718,262,709,266,1,-1,-1,-1
23,5,678,265,674,267,1,-1,-1,-1
23,3,374,184,364,194,1,-1,-1,-1
23,2,421,234,437,224,1,-1,-1,-1
24,6,710,250,698,258,1,-1,-1,-1
24,5,669,268,667,265,1,-1,-1,-1
24,3,378,186,368,193,1,-1,-1,-1
24,2,418,230,430,222,1,-1,-1,-1
25,6,693,254,689,255,1,-1,-1,-1
25,5,662,260,660,261,1,-1,-1,-1
25,3,385,180,373,190,1,-1,-1,-1
26,6,690,256,684,254,1,-1,-1,-1
26,5,658,264,654,260,1,-1,-1,-1
26,3,389,173,377,186,1,-1,-1,-1
27,6,682,256,678,253,1,-1,-1,-1
27,5,652,259,648,258,1,-1,-1,-1
27,3,386,173,379,184,1,-1,-1,-1
27,1,397,183,411,177,1,-1,-1,-1
28,6,681,262,677,255,1,-1,-1,-1
28,5,651,256,644,255,1,-1,-1,-1
28,3,382,172,379,182,1,-1,-1,-1
28,1,403,178,410,176,1,-1,-1,-1
29,6,674,256,671,253,1,-1,-1,-1
29,5,642,254,637,252,1,-1,-1,-1
29,3,382,173,380,181,1,-1,-1,-1
30,6,671,251,666,250,1,-1,-1,-1
30,5,638,254,632,251,1,-1,-1,-1
30,3,382,169,380,178,1,-1,-1,-1
31,6,669,252,663,249,1,-1,-1,-1
31,5,630,253,626,249,1,-1,-1,-1
31,3,382,172,381,178,1,-1,-1,-1
32,6,661,239,656,244,1,-1,-1,-1
32,5,625,250,621,247,1,-1,-1,-1
32,3,383,162,382,174,1,-1,-1,-1
33,6,646,247,648,244,1,-1,-1,-1
33,5,614,251,613,246,1,-1,-1,-1
33,1,376,179,394,175,1,-1,-1,-1
34,6,637,244,640,242,1,-1,-1,-1
34,5,611,247,607,244,1,-1,-1,-1
34,3,385,161,383,171,1,-1,-1,-1
35,5,608,242,602,241,1,-1,-1,-1
35,1,377,180,388,176,1,-1,-1,-1
36,5,606,237,598,238,1,-1,-1,-1
36,1,382,182,388,178,1,-1,-1,-1
37,6,604,241,614,236,1,-1,-1,-1
37,3,412,174,395,174,1,-1,-1,-1
37,1,379,180,385,177,1,-1,-1,-1
38,6,601,244,608,237,1,-1,-1,-1
38,3,418,178,403,177,1,-1,-1,-1
38,1,383,183,385,179,1,-1,-1,-1
39,6,602,236,603,234,1,-1,-1,-1
39,5,584,232,578,230,1,-1,-1,-1
39,3,420,176,407,177,1,-1,-1,-1
39,1,378,179,382,178,1,-1,-1,-1
40,6,603,229,598,230,1,-1,-1,-1
40,5,581,231,574,229,1,-1,-1,-1
40,3,420,179,411,178,1,-1,-1,-1
40,1,375,178,380,177,1,-1,-1,-1
41,6,597,230,593,229,1,-1,-1,-1
41,5,569,229,567,226,1,-1,-1,-1
41,3,430,175,417,177,1,-1,-1,-1
41,1,377,174,379,176,1,-1,-1,-1
42,6,595,222,588,224,1,-1,-1,-1
42,5,564,237,561,228,1,-1,-1,-1
42,3,436,171,422,176,1,-1,-1,-1
42,1,377,181,379,177,1,-1,-1,-1
43,5,567,230,558,226,1,-1,-1,-1
43,3,441,180,427,179,1,-1,-1,-1
43,1,382,177,380,176,1,-1,-1,-1
44,8,728,281,736,279,1,-1,-1,-1
44,5,554,231,551,225,1,-1,-1,-1
44,3,446,178,432,179,1,-1,-1,-1
44,1,380,176,379,176,1,-1,-1,-1
45,8,717,268,721,272,1,-1,-1,-1
45,6,578,226,572,220,1,-1,-1,-1
45,5,547,224,545,222,1,-1,-1,-1
45,3,444,179,435,179,1,-1,-1,-1
45,1,382,174,379,175,1,-1,-1,-1
46,8,713,260,711,266,1,-1,-1,-1
46,6,578,226,570,220,1,-1,-1,-1
46,5,542,225,539,220,1,-1,-1,-1
46,3,445,177,438,179,1,-1,-1,-1
46,1,378,176,378,175,1,-1,-1,-1
47,8,701,272,706,267,1,-1,-1,-1
47,6,572,224,566,219,1,-1,-1,-1
47,5,536,221,533,218,1,-1,-1,-1
47,3,437,172,437,177,1,-1,-1,-1
47,1,381,172,379,174,1,-1,-1,-1
48,8,691,270,698,266,1,-1,-1,-1
48,6,571,220,562,217,1,-1,-1,-1
48,5,524,222,525,217,1,-1,-1,-1
48,3,440,165,438,174,1,-1,-1,-1
48,1,376,175,377,174,1,-1,-1,-1
49,8,689,260,690,262,1,-1,-1,-1
49,6,566,218,558,215,1,-1,-1,-1
49,5,520,218,518,214,1,-1,-1,-1
49,3,433,169,437,174,1,-1,-1,-1
49,1,377,176,377,174,1,-1,-1,-1
50,8,687,259,685,259,1,-1,-1,-1
50,6,565,214,555,213,1,-1,-1,-1
50,5,520,218,514,213,1,-1,-1,-1
50,3,434,170,437,174,1,-1,-1,-1
50,1,375,178,375,175,1,-1,-1,-1
51,8,674,255,676,256,1,-1,-1,-1
51,6,554,216,549,212,1,-1,-1,-1
51,5,506,217,506,212,1,-1,-1,-1
51,3,424,171,433,174,1,-1,-1,-1
51,1,376,175,375,174,1,-1,-1,-1
52,8,667,254,668,254,1,-1,-1,-1
52,6,548,215,544,211,1,-1,-1,-1
52,5,503,211,500,208,1,-1,-1,-1
52,3,415,178,429,176,1,-1,-1,-1
52,1,375,179,375,175,1,-1,-1,-1
53,8,660,253,661,251,1,-1,-1,-1
53,6,545,211,540,209,1,-1,-1,-1
53,5,500,209,495,206,1,-1,-1,-1
53,3,410,171,425,174,1,-1,-1,-1
53,1,377,177,375,175,1,-1,-1,-1
54,8,658,248,656,248,1,-1,-1,-1
54,6,543,206,536,206,1,-1,-1,-1
54,5,499,204,491,203,1,-1,-1,-1
54,3,409,177,422,176,1,-1,-1,-1
54,1,376,183,375,177,1,-1,-1,-1
55,8,647,249,648,247,1,-1,-1,-1
55,6,531,208,529,205,1,-1,-1,-1
55,5,489,206,484,202,1,-1,-1,-1
55,1,380,176,376,176,1,-1,-1,-1
56,8,642,251,642,246,1,-1,-1,-1
56,6,529,197,524,200,1,-1,-1,-1
56,5,488,209,480,202,1,-1,-1,-1
56,1,379,178,376,176,1,-1,-1,-1
57,8,638,248,636,244,1,-1,-1,-1
57,6,525,202,520,199,1,-1,-1,-1
57,5,484,207,476,200,1,-1,-1,-1
57,1,381,174,377,175,1,-1,-1,-1
58,8,632,241,630,241,1,-1,-1,-1
58,6,522,198,515,197,1,-1,-1,-1
58,5,479,203,471,198,1,-1,-1,-1
58,1,380,177,377,176,1,-1,-1,-1
59,8,626,232,623,236,1,-1,-1,-1
59,6,520,202,512,197,1,-1,-1,-1
59,5,476,204,467,197,1,-1,-1,-1
59,3,500,207,460,191,1,-1,-1,-1
59,1,381,174,378,175,1,-1,-1,-1
60,8,626,230,619,233,1,-1,-1,-1
60,6,518,202,508,196,1,-1,-1,-1
60,5,476,201,464,196,1,-1,-1,-1
60,3,500,216,473,200,1,-1,-1,-1
60,1,378,174,377,174,1,-1,-1,-1
61,8,616,229,612,230,1,-1,-1,-1
61,6,505,202,502,195,1,-1,-1,-1
61,5,471,200,460,194,1,-1,-1,-1
61,1,375,173,376,174,1,-1,-1,-1
62,8,614,232,607,229,1,-1,-1,-1
62,6,501,202,497,195,1,-1,-1,-1
62,5,471,202,458,194,1,-1,-1,-1
62,1,371,173,374,174,1,-1,-1,-1
63,8,612,228,603,227,1,-1,-1,-1
63,6,494,201,491,194,1,-1,-1,-1
63,5,468,197,455,192,1,-1,-1,-1
63,1,383,174,377,174,1,-1,-1,-1
64,8,612,229,601,226,1,-1,-1,-1
64,6,496,196,488,192,1,-1,-1,-1
64,5,469,200,453,192,1,-1,-1,-1
64,1,382,182,378,176,1,-1,-1,-1
65,8,608,224,597,223,1,-1,-1,-1
65,6,489,197,484,192,1,-1,-1,-1
65,5,464,197,450,190,1,-1,-1,-1
65,1,385,176,379,175,1,-1,-1,-1
66,9,324,170,335,163,1,-1,-1,-1
66,8,605,218,593,219,1,-1,-1,-1
66,6,491,200,481,192,1,-1,-1,-1
66,5,462,197,448,190,1,-1,-1,-1
66,1,377,175,377,175,1,-1,-1,-1
67,9,315,173,329,164,1,-1,-1,-1
67,8,603,215,590,217,1,-1,-1,-1
67,6,488,197,478,191,1,-1,-1,-1
67,5,458,196,444,189,1,-1,-1,-1
67,1,381,177,378,175,1,-1,-1,-1
68,9,310,175,325,166,1,-1,-1,-1
68,8,604,212,588,214,1,-1,-1,-1
68,6,490,193,477,189,1,-1,-1,-1
68,5,454,196,441,188,1,-1,-1,-1
68,1,374,179,376,176,1,-1,-1,-1
69,9,297,171,315,164,1,-1,-1,-1
69,8,596,208,583,210,1,-1,-1,-1
69,6,487,195,474,189,1,-1,-1,-1
69,5,454,194,439,187,1,-1,-1,-1
69,1,376,176,376,176,1,-1,-1,-1
70,9,294,165,308,162,1,-1,-1,-1
70,8,595,211,581,209,1,-1,-1,-1
70,6,485,193,472,188,1,-1,-1,-1
70,5,451,197,437,188,1,-1,-1,-1
70,1,375,181,375,177,1,-1,-1,-1
71,9,285,175,301,164,1,-1,-1,-1
71,8,591,203,577,205,1,-1,-1,-1
71,6,483,191,470,186,1,-1,-1,-1
71,5,457,192,437,186,1,-1,-1,-1
71,1,375,179,375,177,1,-1,-1,-1
72,9,279,173,295,164,1,-1,-1,-1
72,8,593,206,576,204,1,-1,-1,-1
72,6,484,188,469,185,1,-1,-1,-1
72,5,453,193,436,186,1,-1,-1,-1
72,1,374,180,374,178,1,-1,-1,-1
73,9,275,175,289,165,1,-1,-1,-1
73,8,587,199,572,201,1,-1,-1,-1
73,6,483,188,468,184,1,-1,-1,-1
73,5,435,190,429,184,1,-1,-1,-1
73,1,375,177,374,177,1,-1,-1,-1
74,9,270,173,284,165,1,-1,-1,-1
74,8,586,204,570,200,1,-1,-1,-1
74,6,484,186,467,182,1,-1,-1,-1
74,5,424,185,422,182,1,-1,-1,-1
74,1,375,177,374,177,1,-1,-1,-1
75,9,265,176,278,166,1,-1,-1,-1
75,8,584,198,567,197,1,-1,-1,-1
75,6,483,187,466,182,1,-1,-1,-1
75,5,426,178,418,178,1,-1,-1,-1
75,1,377,179,375,177,1,-1,-1,-1
76,10,463,187,460,188,1,-1,-1,-1
76,9,259,172,272,165,1,-1,-1,-1
76,8,583,193,565,194,1,-1,-1,-1
76,6,485,179,466,179,1,-1,-1,-1
76,5,424,177,415,176,1,-1,-1,-1
76,1,374,175,374,176,1,-1,-1,-1
77,10,461,177,454,182,1,-1,-1,-1
77,9,254,176,267,166,1,-1,-1,-1
77,8,582,194,563,193,1,-1,-1,-1
77,6,483,174,465,176,1,-1,-1,-1
77,5,428,173,413,173,1,-1,-1,-1
77,1,378,176,375,176,1,-1,-1,-1
78,10,456,179,453,182,1,-1,-1,-1
78,9,252,175,263,166,1,-1,-1,-1
78,8,584,196,563,192,1,-1,-1,-1
78,6,484,171,465,173,1,-1,-1,-1
78,5,426,182,411,174,1,-1,-1,-1
78,1,375,178,374,177,1,-1,-1,-1
79,10,459,174,452,178,1,-1,-1,-1
79,9,254,176,260,167,1,-1,-1,-1
79,8,580,191,561,190,1,-1,-1,-1
79,6,481,174,463,172,1,-1,-1,-1
79,5,426,176,409,171,1,-1,-1,-1
79,1,380,175,375,176,1,-1,-1,-1
80,10,456,176,451,178,1,-1,-1,-1
80,9,255,171,258,166,1,-1,-1,-1
80,8,578,192,559,189,1,-1,-1,-1
80,6,481,173,463,170,1,-1,-1,-1
80,5,422,182,407,172,1,-1,-1,-1
80,1,375,173,375,175,1,-1,-1,-1
81,10,458,169,449,174,1,-1,-1,-1
81,9,256,175,257,167,1,-1,-1,-1
81,8,575,189,557,187,1,-1,-1,-1
81,6,481,173,462,170,1,-1,-1,-1
81,5,429,174,408,170,1,-1,-1,-1
81,1,379,171,375,173,1,-1,-1,-1
82,10,452,170,447,173,1,-1,-1,-1
82,9,257,172,256,167,1,-1,-1,-1
82,8,576,182,556,184,1,-1,-1,-1
82,6,481,166,462,167,1,-1,-1,-1
82,5,428,179,407,170,1,-1,-1,-1
82,1,375,171,374,173,1,-1,-1,-1
83,10,456,169,447,171,1,-1,-1,-1
83,9,260,177,257,169,1,-1,-1,-1
83,8,572,183,554,182,1,-1,-1,-1
83,6,484,171,462,167,1,-1,-1,-1
83,1,382,171,377,172,1,-1,-1,-1
84,11,266,51,275,48,1,-1,-1,-1
84,10,455,165,446,169,1,-1,-1,-1
84,9,265,175,259,169,1,-1,-1,-1
84,8,571,183,552,181,1,-1,-1,-1
84,6,487,167,464,165,1,-1,-1,-1
84,1,378,177,376,174,1,-1,-1,-1
85,11,265,45,268,46,1,-1,-1,-1
85,10,455,164,446,167,1,-1,-1,-1
85,9,267,178,260,170,1,-1,-1,-1
85,8,571,181,551,179,1,-1,-1,-1
85,6,487,169,464,165,1,-1,-1,-1
85,1,382,175,377,174,1,-1,-1,-1
86,12,497,336,498,335,1,-1,-1,-1
86,11,258,49,267,47,1,-1,-1,-1
86,10,456,162,446,165,1,-1,-1,-1
86,9,272,178,263,171,1,-1,-1,-1
86,8,572,178,550,177,1,-1,-1,-1
86,6,489,166,465,163,1,-1,-1,-1
86,1,377,179,376,175,1,-1,-1,-1
87,12,496,335,497,335,1,-1,-1,-1
87,11,251,52,265,49,1,-1,-1,-1
87,10,458,162,447,164,1,-1,-1,-1
87,9,275,184,266,174,1,-1,-1,-1
87,8,574,175,550,175,1,-1,-1,-1
87,6,491,167,467,163,1,-1,-1,-1
87,1,381,175,377,175,1,-1,-1,-1
88,12,499,337,498,336,1,-1,-1,-1
88,11,249,56,266,51,1,-1,-1,-1
88,10,459,159,447,162,1,-1,-1,-1
88,9,278,184,269,176,1,-1,-1,-1
88,8,575,170,550,172,1,-1,-1,-1
88,6,493,163,468,161,1,-1,-1,-1
88,1,376,176,376,175,1,-1,-1,-1
89,12,496,337,498,336,1,-1,-1,-1
89,10,462,157,449,161,1,-1,-1,-1
89,9,283,184,272,177,1,-1,-1,-1
89,8,576,169,550,170,1,-1,-1,-1
89,6,491,159,468,159,1,-1,-1,-1
89,1,380,176,377,175,1,-1,-1,-1
90,12,497,336,498,336,1,-1,-1,-1
90,10,464,155,450,159,1,-1,-1,-1
90,9,291,188,277,180,1,-1,-1,-1
90,8,577,167,551,167,1,-1,-1,-1
90,6,493,158,469,157,1,-1,-1,-1
90,1,380,176,378,175,1,-1,-1,-1
91,11,241,54,260,52,1,-1,-1,-1
91,10,462,157,450,158,1,-1,-1,-1
91,9,290,188,280,181,1,-1,-1,-1
91,8,579,168,551,167,1,-1,-1,-1
91,6,495,159,470,156,1,-1,-1,-1
91,1,382,175,378,175,1,-1,-1,-1
92,11,240,54,255,52,1,-1,-1,-1
92,10,467,156,452,157,1,-1,-1,-1
92,9,296,186,284,182,1,-1,-1,-1
92,8,580,165,552,165,1,-1,-1,-1
92,6,496,161,471,156,1,-1,-1,-1
92,1,381,175,378,174,1,-1,-1,-1
93,12,495,335,497,335,1,-1,-1,-1
93,11,236,56,251,53,1,-1,-1,-1
93,10,470,156,455,157,1,-1,-1,-1
93,9,303,190,289,184,1,-1,-1,-1
93,8,584,162,554,162,1,-1,-1,-1
93,6,496,156,472,155,1,-1,-1,-1
93,1,384,173,380,174,1,-1,-1,-1
94,12,495,341,497,338,1,-1,-1,-1
94,11,234,57,248,54,1,-1,-1,-1
94,10,474,153,457,155,1,-1,-1,-1
94,9,310,191,294,186,1,-1,-1,-1
94,8,587,157,556,159,1,-1,-1,-1
94,6,504,155,475,154,1,-1,-1,-1
94,1,385,177,380,175,1,-1,-1,-1
95,12,496,337,497,337,1,-1,-1,-1
95,11,231,58,245,55,1,-1,-1,-1
95,9,312,195,298,188,1,-1,-1,-1
95,8,587,160,557,159,1,-1,-1,-1
95,6,500,154,476,152,1,-1,-1,-1
95,1,387,172,382,174,1,-1,-1,-1
96,12,497,337,497,337,1,-1,-1,-1
96,11,231,58,243,55,1,-1,-1,-1
96,9,317,196,303,190,1,-1,-1,-1
96,8,589,159,558,157,1,-1,-1,-1
96,6,498,152,476,151,1,-1,-1,-1
96,1,386,175,382,174,1,-1,-1,-1
97,12,496,334,497,336,1,-1,-1,-1
97,11,227,57,240,56,1,-1,-1,-1
97,9,324,189,308,189,1,-1,-1,-1
97,8,590,159,560,156,1,-1,-1,-1
97,6,495,150,475,149,1,-1,-1,-1
97,1,385,172,382,173,1,-1,-1,-1
98,12,497,337,497,337,1,-1,-1,-1
98,11,227,61,238,57,1,-1,-1,-1
98,9,333,192,315,190,1,-1,-1,-1
98,8,596,162,563,157,1,-1,-1,-1
98,6,494,152,475,149,1,-1,-1,-1
98,1,382,174,382,173,1,-1,-1,-1
99,12,497,335,497,336,1,-1,-1,-1
99,11,224,59,235,57,1,-1,-1,-1
99,9,338,189,320,190,1,-1,-1,-1
99,8,594,156,564,155,1,-1,-1,-1
99,6,497,148,475,147,1,-1,-1,-1
99,1,384,173,382,173,1,-1,-1,-1
100,12,497,335,497,336,1,-1,-1,-1
100,11,220,58,232,57,1,-1,-1,-1
100,9,348,188,327,190,1,-1,-1,-1
100,8,596,156,566,154,1,-1,-1,-1
100,6,501,150,477,147,1,-1,-1,-1
100,1,382,175,381,174,1,-1,-1,-1
101,12,496,334,497,335,1,-1,-1,-1
101,11,215,57,228,57,1,-1,-1,-1
101,9,352,194,333,192,1,-1,-1,-1
101,8,598,145,567,149,1,-1,-1,-1
101,6,504,147,479,146,1,-1,-1,-1
101,1,376,183,380,176,1,-1,-1,-1
102,12,495,337,497,336,1,-1,-1,-1
102,11,215,59,226,58,1,-1,-1,-1
102,9,357,196,339,193,1,-1,-1,-1
102,8,601,149,569,149,1,-1,-1,-1
102,6,508,149,481,146,1,-1,-1,-1
102,1,377,184,379,178,1,-1,-1,-1
103,12,495,335,496,336,1,-1,-1,-1
103,11,208,58,221,57,1,-1,-1,-1
103,8,604,143,571,146,1,-1,-1,-1
103,6,527,146,489,144,1,-1,-1,-1
103,1,369,184,376,179,1,-1,-1,-1
104,13,209,58,223,55,1,-1,-1,-1
104,12,497,337,497,336,1,-1,-1,-1
104,11,207,58,219,57,1,-1,-1,-1
104,8,610,146,575,145,1,-1,-1,-1
104,6,538,146,496,144,1,-1,-1,-1
104,1,372,178,375,178,1,-1,-1,-1
105,13,208,54,218,54,1,-1,-1,-1
105,12,496,335,497,336,1,-1,-1,-1
105,11,199,59,214,58,1,-1,-1,-1
105,10,510,140,490,143,1,-1,-1,-1
105,9,381,193,354,194,1,-1,-1,-1
105,8,610,142,577,143,1,-1,-1,-1
105,6,540,143,501,142,1,-1,-1,-1
106,13,202,57,215,55,1,-1,-1,-1
106,12,497,335,497,336,1,-1,-1,-1
106,11,200,60,211,58,1,-1,-1,-1
106,10,517,140,495,142,1,-1,-1,-1
106,9,389,189,363,192,1,-1,-1,-1
106,8,616,143,580,142,1,-1,-1,-1
106,6,545,142,506,141,1,-1,-1,-1
107,12,495,335,496,335,1,-1,-1,-1
107,11,195,59,208,58,1,-1,-1,-1
107,10,516,139,498,141,1,-1,-1,-1
107,8,618,141,583,141,1,-1,-1,-1
107,6,543,140,509,140,1,-1,-1,-1
107,1,385,176,378,177,1,-1,-1,-1
108,12,497,337,497,336,1,-1,-1,-1
108,11,195,63,206,59,1,-1,-1,-1
108,10,521,138,502,140,1,-1,-1,-1
108,8,622,143,586,141,1,-1,-1,-1
108,6,547,139,513,139,1,-1,-1,-1
108,1,379,168,378,173,1,-1,-1,-1
109,13,190,58,206,55,1,-1,-1,-1
109,12,495,336,496,336,1,-1,-1,-1
109,10,534,138,509,140,1,-1,-1,-1
109,8,624,140,589,139,1,-1,-1,-1
109,6,570,143,523,139,1,-1,-1,-1
109,1,377,170,377,173,1,-1,-1,-1
110,12,497,337,497,337,1,-1,-1,-1
110,11,191,65,202,61,1,-1,-1,-1
110,10,538,139,514,140,1,-1,-1,-1
110,8,628,141,592,139,1,-1,-1,-1
110,6,580,144,532,140,1,-1,-1,-1
110,1,373,173,375,173,1,-1,-1,-1
111,13,187,59,201,56,1,-1,-1,-1
111,12,496,336,496,336,1,-1,-1,-1
111,10,542,137,519,139,1,-1,-1,-1
111,9,430,181,392,190,1,-1,-1,-1
111,8,628,138,594,137,1,-1,-1,-1
111,6,575,141,536,139,1,-1,-1,-1
111,1,373,174,375,174,1,-1,-1,-1
112,13,187,62,199,58,1,-1,-1,-1
112,12,499,337,497,337,1,-1,-1,-1
112,10,541,135,522,138,1,-1,-1,-1
112,9,435,184,405,189,1,-1,-1,-1
112,8,632,140,597,137,1,-1,-1,-1
112,6,570,140,538,138,1,-1,-1,-1
112,1,371,172,373,173,1,-1,-1,-1
113,13,187,60,196,58,1,-1,-1,-1
113,12,496,336,497,336,1,-1,-1,-1
113,10,545,134,526,137,1,-1,-1,-1
113,9,449,196,418,193,1,-1,-1,-1
113,8,633,138,600,136,1,-1,-1,-1
113,6,571,137,541,137,1,-1,-1,-1
113,1,370,178,372,174,1,-1,-1,-1
114,12,497,340,497,338,1,-1,-1,-1
114,11,178,67,194,62,1,-1,-1,-1
114,10,545,133,528,135,1,-1,-1,-1
114,9,460,204,430,198,1,-1,-1,-1
114,8,641,140,604,137,1,-1,-1,-1
114,6,574,134,544,135,1,-1,-1,-1
114,1,370,178,372,175,1,-1,-1,-1
115,13,181,59,191,58,1,-1,-1,-1
115,12,495,337,496,337,1,-1,-1,-1
115,11,172,63,187,62,1,-1,-1,-1
115,10,546,132,531,135,1,-1,-1,-1
115,9,468,204,440,200,1,-1,-1,-1
115,8,643,139,608,136,1,-1,-1,-1
115,6,574,135,546,135,1,-1,-1,-1
115,1,369,178,371,176,1,-1,-1,-1
116,13,175,60,187,58,1,-1,-1,-1
116,12,497,344,497,339,1,-1,-1,-1
116,11,174,66,185,63,1,-1,-1,-1
116,10,549,131,533,133,1,-1,-1,-1
116,9,474,203,448,201,1,-1,-1,-1
116,8,647,135,611,134,1,-1,-1,-1
116,6,577,137,549,135,1,-1,-1,-1
116,1,373,183,372,178,1,-1,-1,-1
117,12,496,339,497,339,1,-1,-1,-1
117,11,167,64,180,63,1,-1,-1,-1
117,10,548,130,535,133,1,-1,-1,-1
117,9,478,205,456,203,1,-1,-1,-1
117,8,647,135,614,134,1,-1,-1,-1
117,6,576,135,550,134,1,-1,-1,-1
117,1,372,181,371,178,1,-1,-1,-1
118,14,718,156,738,150,1,-1,-1,-1
118,12,497,336,497,338,1,-1,-1,-1
118,11,160,66,175,63,1,-1,-1,-1
118,10,555,129,539,132,1,-1,-1,-1
118,9,491,210,466,205,1,-1,-1,-1
118,8,651,135,617,133,1,-1,-1,-1
118,6,583,137,554,134,1,-1,-1,-1
118,1,374,185,372,180,1,-1,-1,-1
119,12,496,336,497,337,1,-1,-1,-1
119,10,558,131,542,132,1,-1,-1,-1
119,9,502,206,475,206,1,-1,-1,-1
119,8,653,133,620,132,1,-1,-1,-1
119,6,578,133,554,132,1,-1,-1,-1
119,1,374,185,372,181,1,-1,-1,-1
120,12,499,342,498,339,1,-1,-1,-1
120,10,558,129,544,131,1,-1,-1,-1
120,9,509,204,484,206,1,-1,-1,-1
120,8,656,132,623,131,1,-1,-1,-1
120,6,580,136,556,133,1,-1,-1,-1
120,1,375,188,373,182,1,-1,-1,-1
121,14,728,142,727,145,1,-1,-1,-1
121,10,576,128,552,130,1,-1,-1,-1
121,9,518,208,492,207,1,-1,-1,-1
121,8,664,132,627,131,1,-1,-1,-1
121,6,603,136,565,133,1,-1,-1,-1
121,1,376,181,374,181,1,-1,-1,-1
122,15,688,202,672,208,1,-1,-1,-1
122,14,733,137,724,142,1,-1,-1,-1
122,10,584,129,558,130,1,-1,-1,-1
122,9,527,210,502,209,1,-1,-1,-1
122,8,669,133,632,131,1,-1,-1,-1
122,6,606,135,570,133,1,-1,-1,-1
122,1,373,179,373,180,1,-1,-1,-1
123,15,677,203,665,205,1,-1,-1,-1
123,14,738,143,729,143,1,-1,-1,-1
123,11,147,74,165,66,1,-1,-1,-1
123,10,584,123,562,128,1,-1,-1,-1
123,9,536,215,511,211,1,-1,-1,-1
123,8,670,124,635,127,1,-1,-1,-1
123,1,378,177,374,179,1,-1,-1,-1
124,15,662,210,659,206,1,-1,-1,-1
124,14,744,139,731,141,1,-1,-1,-1
124,11,151,75,162,69,1,-1,-1,-1
124,10,580,122,564,126,1,-1,-1,-1
124,9,543,221,519,215,1,-1,-1,-1
124,8,675,122,639,125,1,-1,-1,-1
124,1,378,183,375,181,1,-1,-1,-1
125,15,646,211,650,206,1,-1,-1,-1
125,14,741,141,733,142,1,-1,-1,-1
125,11,144,74,157,69,1,-1,-1,-1
125,10,582,121,567,125,1,-1,-1,-1
125,9,550,218,527,216,1,-1,-1,-1
125,8,673,130,641,126,1,-1,-1,-1
125,6,615,132,574,130,1,-1,-1,-1
125,1,381,179,376,180,1,-1,-1,-1
126,15,642,209,644,205,1,-1,-1,-1
126,14,740,143,734,142,1,-1,-1,-1
126,11,146,75,155,71,1,-1,-1,-1
126,10,583,122,569,125,1,-1,-1,-1
126,9,558,220,536,218,1,-1,-1,-1
126,8,680,129,645,126,1,-1,-1,-1
126,6,610,130,579,130,1,-1,-1,-1
126,1,381,179,377,180,1,-1,-1,-1
127,15,633,211,637,205,1,-1,-1,-1
127,11,142,74,152,71,1,-1,-1,-1
127,10,584,119,571,123,1,-1,-1,-1
127,9,566,215,544,217,1,-1,-1,-1
127,8,685,124,649,125,1,-1,-1,-1
127,6,609,122,582,126,1,-1,-1,-1
127,1,383,175,378,178,1,-1,-1,-1
128,16,673,126,661,130,1,-1,-1,-1
128,15,620,207,627,203,1,-1,-1,-1
128,11,139,75,149,71,1,-1,-1,-1
128,10,587,118,573,122,1,-1,-1,-1
128,9,578,217,553,218,1,-1,-1,-1
128,8,683,122,651,123,1,-1,-1,-1
128,6,609,117,584,123,1,-1,-1,-1
128,1,381,180,379,179,1,-1,-1,-1
129,16,612,128,632,127,1,-1,-1,-1
129,15,613,207,619,202,1,-1,-1,-1
129,14,742,138,733,140,1,-1,-1,-1
129,11,139,77,147,73,1,-1,-1,-1
129,10,589,117,575,121,1,-1,-1,-1
129,9,585,217,562,218,1,-1,-1,-1
129,8,686,122,654,122,1,-1,-1,-1
129,6,607,115,585,120,1,-1,-1,-1
129,1,383,176,379,178,1,-1,-1,-1
130,16,602,124,614,123,1,-1,-1,-1
130,15,606,195,609,197,1,-1,-1,-1
130,14,740,142,735,141,1,-1,-1,-1
130,11,135,77,144,73,1,-1,-1,-1
130,10,591,116,578,120,1,-1,-1,-1
130,9,594,222,571,221,1,-1,-1,-1
130,8,686,127,656,123,1,-1,-1,-1
130,6,614,111,588,117,1,-1,-1,-1
130,1,381,180,379,179,1,-1,-1,-1
131,16,597,119,600,120,1,-1,-1,-1
131,11,133,81,142,75,1,-1,-1,-1
131,10,595,114,580,118,1,-1,-1,-1
131,9,602,219,579,220,1,-1,-1,-1
131,8,693,118,660,120,1,-1,-1,-1
131,1,382,180,380,179,1,-1,-1,-1
132,16,591,120,591,119,1,-1,-1,-1
132,11,127,78,138,75,1,-1,-1,-1
132,10,598,114,583,117,1,-1,-1,-1
132,9,608,216,587,220,1,-1,-1,-1
132,8,696,116,663,119,1,-1,-1,-1
132,1,379,180,379,179,1,-1,-1,-1
133,15,572,201,582,193,1,-1,-1,-1
133,11,129,81,137,76,1,-1,-1,-1
133,10,608,116,588,117,1,-1,-1,-1
133,9,615,218,594,221,1,-1,-1,-1
133,8,699,114,666,117,1,-1,-1,-1
133,1,382,181,380,180,1,-1,-1,-1
134,15,570,199,575,193,1,-1,-1,-1
134,11,123,83,134,77,1,-1,-1,-1
134,10,608,118,591,118,1,-1,-1,-1
134,9,624,228,603,224,1,-1,-1,-1
134,8,701,115,668,116,1,-1,-1,-1
134,1,382,183,380,181,1,-1,-1,-1
135,16,612,127,593,120,1,-1,-1,-1
135,15,565,197,568,192,1,-1,-1,-1
135,12,495,336,496,337,1,-1,-1,-1
135,11,123,82,131,78,1,-1,-1,-1
135,10,611,118,594,118,1,-1,-1,-1
135,9,633,226,611,225,1,-1,-1,-1
135,8,703,118,671,116,1,-1,-1,-1
135,1,382,183,380,181,1,-1,-1,-1
136,17,717,255,731,250,1,-1,-1,-1
136,16,621,122,600,120,1,-1,-1,-1
136,15,561,194,561,190,1,-1,-1,-1
136,12,495,345,496,341,1,-1,-1,-1
136,11,119,83,128,78,1,-1,-1,-1
136,10,608,119,596,118,1,-1,-1,-1
136,9,639,227,619,226,1,-1,-1,-1
136,8,706,120,674,117,1,-1,-1,-1
136,1,381,185,380,182,1,-1,-1,-1
137,17,714,251,724,248,1,-1,-1,-1
137,15,556,195,555,190,1,-1,-1,-1
137,12,495,338,496,339,1,-1,-1,-1
137,11,118,82,126,79,1,-1,-1,-1
137,10,613,113,599,116,1,-1,-1,-1
137,9,644,225,626,226,1,-1,-1,-1
137,8,708,118,677,116,1,-1,-1,-1
137,1,382,182,381,181,1,-1,-1,-1
138,17,699,253,714,248,1,-1,-1,-1
138,15,548,188,548,187,1,-1,-1,-1
138,12,497,341,496,340,1,-1,-1,-1
138,11,113,83,123,79,1,-1,-1,-1
138,10,616,111,602,115,1,-1,-1,-1
138,9,661,225,636,227,1,-1,-1,-1
138,8,710,117,679,115,1,-1,-1,-1
138,1,384,182,381,182,1,-1,-1,-1
139,17,682,232,693,238,1,-1,-1,-1
139,15,539,196,541,188,1,-1,-1,-1
139,11,112,82,121,79,1,-1,-1,-1
139,10,617,111,604,114,1,-1,-1,-1
139,9,670,223,646,227,1,-1,-1,-1
139,8,710,115,681,115,1,-1,-1,-1
139,1,385,181,382,181,1,-1,-1,-1
140,17,679,237,685,236,1,-1,-1,-1
140,15,530,194,534,187,1,-1,-1,-1
140,11,108,84,118,80,1,-1,-1,-1
140,10,617,112,605,114,1,-1,-1,-1
140,9,677,219,654,225,1,-1,-1,-1
140,8,711,112,683,113,1,-1,-1,-1
140,1,384,182,382,181,1,-1,-1,-1
141,16,644,115,606,116,1,-1,-1,-1
141,15,517,195,525,187,1,-1,-1,-1
141,12,496,335,496,338,1,-1,-1,-1
141,11,102,82,114,80,1,-1,-1,-1
141,10,619,109,607,112,1,-1,-1,-1
141,9,685,224,663,226,1,-1,-1,-1
141,8,712,114,684,113,1,-1,-1,-1
141,1,385,183,383,182,1,-1,-1,-1
142,18,412,182,420,178,1,-1,-1,-1
142,16,645,113,616,115,1,-1,-1,-1
142,15,510,193,517,186,1,-1,-1,-1
142,12,497,336,497,338,1,-1,-1,-1
142,11,100,84,111,81,1,-1,-1,-1
142,10,622,110,609,112,1,-1,-1,-1
142,9,689,228,670,228,1,-1,-1,-1
142,8,714,118,687,114,1,-1,-1,-1
142,1,386,188,384,183,1,-1,-1,-1
143,18,409,180,417,178,1,-1,-1,-1
143,17,654,234,660,230,1,-1,-1,-1
143,16,646,113,621,114,1,-1,-1,-1
143,15,508,191,510,185,1,-1,-1,-1
143,11,95,84,107,81,1,-1,-1,-1
143,10,620,112,610,112,1,-1,-1,-1
143,9,707,228,681,229,1,-1,-1,-1
143,8,713,114,688,113,1,-1,-1,-1
143,1,385,184,384,183,1,-1,-1,-1
144,18,414,173,415,175,1,-1,-1,-1
144,17,645,233,651,229,1,-1,-1,-1
144,16,648,111,625,113,1,-1,-1,-1
144,15,499,190,503,184,1,-1,-1,-1
144,11,91,86,103,82,1,-1,-1,-1
144,10,626,111,613,112,1,-1,-1,-1
144,9,719,225,691,228,1,-1,-1,-1
144,8,716,110,690,111,1,-1,-1,-1
144,1,384,185,384,183,1,-1,-1,-1
145,18,413,179,416,177,1,-1,-1,-1
145,17,636,232,642,228,1,-1,-1,-1
145,16,643,111,626,112,1,-1,-1,-1
145,15,487,183,493,181,1,-1,-1,-1
145,11,88,85,100,82,1,-1,-1,-1
145,10,627,111,615,111,1,-1,-1,-1
145,9,727,226,701,229,1,-1,-1,-1
145,8,716,114,691,112,1,-1,-1,-1
145,1,383,186,383,184,1,-1,-1,-1
146,18,414,182,417,179,1,-1,-1,-1
146,17,633,229,636,226,1,-1,-1,-1
146,16,643,111,627,112,1,-1,-1,-1
146,15,481,182,486,179,1,-1,-1,-1
146,11,87,85,97,82,1,-1,-1,-1
146,10,630,109,617,111,1,-1,-1,-1
146,9,734,229,710,230,1,-1,-1,-1
146,8,718,116,693,112,1,-1,-1,-1
146,1,384,187,384,185,1,-1,-1,-1
147,18,412,182,416,179,1,-1,-1,-1
147,17,620,229,626,225,1,-1,-1,-1
147,16,644,110,628,111,1,-1,-1,-1
147,15,469,179,476,177,1,-1,-1,-1
147,14,713,109,703,111,1,-1,-1,-1
147,12,496,333,496,336,1,-1,-1,-1
147,10,629,108,618,110,1,-1,-1,-1
147,9,748,231,721,231,1,-1,-1,-1
147,8,727,117,697,113,1,-1,-1,-1
147,1,383,187,383,185,1,-1,-1,-1
148,18,412,188,418,183,1,-1,-1,-1
148,17,614,230,619,224,1,-1,-1,-1
148,16,642,114,629,112,1,-1,-1,-1
148,15,463,179,468,175,1,-1,-1,-1
148,14,715,112,705,111,1,-1,-1,-1
148,12,497,338,497,337,1,-1,-1,-1
148,10,634,109,621,110,1,-1,-1,-1
148,9,753,236,729,234,1,-1,-1,-1
148,8,723,117,698,113,1,-1,-1,-1
148,1,386,189,384,186,1,-1,-1,-1
149,17,605,231,611,224,1,-1,-1,-1
149,16,646,110,631,111,1,-1,-1,-1
149,15,448,181,458,175,1,-1,-1,-1
149,12,496,335,496,336,1,-1,-1,-1
149,10,631,107,622,109,1,-1,-1,-1
149,1,386,188,384,186,1,-1,-1,-1
150,17,599,228,603,223,1,-1,-1,-1
150,16,640,111,629,111,1,-1,-1,-1
150,15,437,184,448,175,1,-1,-1,-1
150,12,495,341,496,338,1,-1,-1,-1
150,10,638,107,625,108,1,-1,-1,-1
150,1,389,192,386,188,1,-1,-1,-1
151,17,588,225,594,221,1,-1,-1,-1
151,16,650,109,633,110,1,-1,-1,-1
151,15,437,190,442,177,1,-1,-1,-1
151,14,698,109,693,109,1,-1,-1,-1
151,11,71,85,86,81,1,-1,-1,-1
151,1,390,192,387,189,1,-1,-1,-1
152,17,583,225,587,220,1,-1,-1,-1
152,15,438,193,438,178,1,-1,-1,-1
152,11,66,88,80,82,1,-1,-1,-1
152,10,652,98,631,105,1,-1,-1,-1
152,8,700,126,686,115,1,-1,-1,-1
152,1,394,199,389,192,1,-1,-1,-1
153,18,414,176,417,180,1,-1,-1,-1
153,17,569,226,578,219,1,-1,-1,-1
153,16,655,106,634,108,1,-1,-1,-1
153,15,440,192,435,179,1,-1,-1,-1
153,14,702,110,691,109,1,-1,-1,-1
153,11,59,90,74,83,1,-1,-1,-1
153,8,719,122,695,116,1,-1,-1,-1
154,18,415,175,416,178,1,-1,-1,-1
154,17,563,227,570,219,1,-1,-1,-1
154,16,652,108,636,108,1,-1,-1,-1
154,15,441,193,433,180,1,-1,-1,-1
154,14,703,114,693,111,1,-1,-1,-1
154,11,55,93,69,85,1,-1,-1,-1
154,8,721,119,698,116,1,-1,-1,-1
155,18,410,181,414,180,1,-1,-1,-1
155,17,556,222,562,217,1,-1,-1,-1
155,16,653,108,638,108,1,-1,-1,-1
155,15,442,194,432,181,1,-1,-1,-1
155,14,698,112,690,110,1,-1,-1,-1
155,11,52,91,65,85,1,-1,-1,-1
155,8,731,122,703,117,1,-1,-1,-1
156,18,407,184,413,181,1,-1,-1,-1
156,17,547,222,554,216,1,-1,-1,-1
156,16,652,109,639,108,1,-1,-1,-1
156,15,449,198,434,184,1,-1,-1,-1
156,14,694,113,689,111,1,-1,-1,-1
156,11,49,93,62,86,1,-1,-1,-1
156,8,737,108,709,113,1,-1,-1,-1
157,18,414,186,415,182,1,-1,-1,-1
157,17,536,221,545,215,1,-1,-1,-1
157,16,652,108,640,108,1,-1,-1,-1
157,15,452,198,435,185,1,-1,-1,-1
157,14,687,109,685,110,1,-1,-1,-1
157,11,48,91,59,86,1,-1,-1,-1
157,1,394,168,391,181,1,-1,-1,-1
158,18,417,184,416,183,1,-1,-1,-1
158,17,526,223,535,215,1,-1,-1,-1
158,16,653,108,641,108,1,-1,-1,-1
158,15,463,201,440,187,1,-1,-1,-1
158,14,683,125,684,114,1,-1,-1,-1
158,11,44,93,55,86,1,-1,-1,-1
158,1,381,158,387,173,1,-1,-1,-1
159,17,517,221,526,214,1,-1,-1,-1
159,16,656,107,642,107,1,-1,-1,-1
159,15,466,205,443,190,1,-1,-1,-1
159,11,39,90,51,85,1,-1,-1,-1
159,8,692,105,691,109,1,-1,-1,-1
159,1,371,169,381,174,1,-1,-1,-1
160,17,513,221,519,213,1,-1,-1,-1
160,16,659,107,645,107,1,-1,-1,-1
160,15,472,207,447,192,1,-1,-1,-1
160,14,680,118,679,113,1,-1,-1,-1
160,11,41,93,49,86,1,-1,-1,-1
160,1,364,175,377,175,1,-1,-1,-1
161,18,430,200,424,190,1,-1,-1,-1
161,17,487,206,505,207,1,-1,-1,-1
161,16,662,105,646,106,1,-1,-1,-1
161,15,471,199,449,191,1,-1,-1,-1
161,11,33,93,45,86,1,-1,-1,-1
161,8,683,102,682,106,1,-1,-1,-1
161,1,350,173,369,174,1,-1,-1,-1
162,18,431,203,428,194,1,-1,-1,-1
162,17,477,207,493,205,1,-1,-1,-1
162,16,662,100,648,104,1,-1,-1,-1
162,15,484,202,456,193,1,-1,-1,-1
162,11,30,96,41,86,1,-1,-1,-1
162,8,674,98,675,103,1,-1,-1,-1
162,1,344,176,363,175,1,-1,-1,-1
163,18,436,201,432,196,1,-1,-1,-1
163,17,452,197,476,200,1,-1,-1,-1
163,16,664,102,649,104,1,-1,-1,-1
163,15,492,200,461,193,1,-1,-1,-1
163,11,31,95,39,87,1,-1,-1,-1
163,8,677,99,673,102,1,-1,-1,-1
163,1,331,172,355,174,1,-1,-1,-1
164,18,437,207,435,200,1,-1,-1,-1
164,17,439,202,462,198,1,-1,-1,-1
164,16,664,107,651,105,1,-1,-1,-1
164,15,493,204,466,195,1,-1,-1,-1
164,11,28,100,37,88,1,-1,-1,-1
164,1,326,166,349,172,1,-1,-1,-1
165,17,439,202,453,196,1,-1,-1,-1
165,16,664,107,652,105,1,-1,-1,-1
165,15,492,203,469,195,1,-1,-1,-1
165,11,27,102,34,89,1,-1,-1,-1
165,8,682,99,668,100,1,-1,-1,-1
165,1,319,170,342,171,1,-1,-1,-1
166,18,447,213,442,205,1,-1,-1,-1
166,16,661,103,652,104,1,-1,-1,-1
166,15,501,201,474,195,1,-1,-1,-1
166,11,21,105,31,88,1,-1,-1,-1
166,1,312,168,335,170,1,-1,-1,-1
167,18,452,209,446,205,1,-1,-1,-1
167,15,504,204,478,196,1,-1,-1,-1
167,11,20,109,28,80,1,-1,-1,-1
167,8,686,100,667,99,1,-1,-1,-1
167,1,297,168,326,170,1,-1,-1,-1
168,18,454,215,450,209,1,-1,-1,-1
168,15,510,207,483,198,1,-1,-1,-1
168,11,13,115,24,69,1,-1,-1,-1
168,10,695,90,674,90,1,-1,-1,-1
168,1,294,169,319,170,1,-1,-1,-1
169,18,451,217,451,211,1,-1,-1,-1
169,16,692,102,661,103,1,-1,-1,-1
169,15,515,207,488,199,1,-1,-1,-1
169,14,647,115,649,113,1,-1,-1,-1
169,1,281,170,310,170,1,-1,-1,-1
170,18,448,210,451,211,1,-1,-1,-1
170,16,699,106,670,104,1,-1,-1,-1
170,15,519,204,493,199,1,-1,-1,-1
170,14,641,122,646,116,1,-1,-1,-1
170,1,275,167,302,168,1,-1,-1,-1
171,18,443,206,450,210,1,-1,-1,-1
171,16,644,112,656,106,1,-1,-1,-1
171,15,528,205,499,200,1,-1,-1,-1
171,14,640,116,643,114,1,-1,-1,-1
171,8,693,103,664,99,1,-1,-1,-1
171,1,271,166,295,168,1,-1,-1,-1
172,18,452,209,452,210,1,-1,-1,-1
172,15,540,210,507,202,1,-1,-1,-1
172,14,631,122,638,116,1,-1,-1,-1
172,10,688,94,675,91,1,-1,-1,-1
172,8,637,99,645,98,1,-1,-1,-1
172,1,261,167,288,167,1,-1,-1,-1
173,18,452,203,453,208,1,-1,-1,-1
173,16,647,111,652,107,1,-1,-1,-1
173,15,545,208,514,202,1,-1,-1,-1
173,14,619,118,631,116,1,-1,-1,-1
173,10,686,100,678,95,1,-1,-1,-1
173,1,252,169,279,168,1,-1,-1,-1
174,18,461,204,457,208,1,-1,-1,-1
174,15,549,210,520,203,1,-1,-1,-1
174,14,618,121,627,117,1,-1,-1,-1
174,10,678,102,677,97,1,-1,-1,-1
174,8,644,100,639,98,1,-1,-1,-1
174,1,247,170,272,168,1,-1,-1,-1
175,18,470,207,462,209,1,-1,-1,-1
175,15,555,208,526,204,1,-1,-1,-1
175,14,609,115,621,115,1,-1,-1,-1
175,10,683,104,679,98,1,-1,-1,-1
175,1,235,168,263,167,1,-1,-1,-1
176,18,478,210,467,210,1,-1,-1,-1
176,15,562,214,533,206,1,-1,-1,-1
176,14,610,123,618,117,1,-1,-1,-1
176,10,680,102,678,99,1,-1,-1,-1
176,1,230,169,256,167,1,-1,-1,-1
177,18,482,216,472,213,1,-1,-1,-1
177,17,391,214,392,202,1,-1,-1,-1
177,15,570,213,540,207,1,-1,-1,-1
177,14,606,129,615,120,1,-1,-1,-1
177,10,682,103,679,100,1,-1,-1,-1
177,1,223,165,249,166,1,-1,-1,-1
178,18,490,213,478,213,1,-1,-1,-1
178,17,385,212,386,202,1,-1,-1,-1
178,15,579,217,548,209,1,-1,-1,-1
178,14,599,128,610,121,1,-1,-1,-1
178,10,680,101,678,100,1,-1,-1,-1
178,1,213,164,240,165,1,-1,-1,-1
179,18,493,217,483,215,1,-1,-1,-1
179,17,380,210,381,201,1,-1,-1,-1
179,16,591,121,623,111,1,-1,-1,-1
179,15,579,219,553,211,1,-1,-1,-1
179,14,585,135,603,124,1,-1,-1,-1
179,10,686,100,680,99,1,-1,-1,-1
179,1,206,165,233,164,1,-1,-1,-1
180,18,495,216,487,215,1,-1,-1,-1
180,17,374,212,375,201,1,-1,-1,-1
180,16,589,126,615,116,1,-1,-1,-1
180,15,582,221,558,213,1,-1,-1,-1
180,14,584,135,598,126,1,-1,-1,-1
180,10,684,101,680,100,1,-1,-1,-1
180,1,201,165,226,164,1,-1,-1,-1
181,18,501,220,491,217,1,-1,-1,-1
181,17,358,216,366,202,1,-1,-1,-1
181,16,581,125,605,118,1,-1,-1,-1
181,15,593,220,565,214,1,-1,-1,-1
181,10,689,101,682,100,1,-1,-1,-1
181,1,192,166,218,164,1,-1,-1,-1
182,18,509,224,497,220,1,-1,-1,-1
182,17,351,218,359,203,1,-1,-1,-1
182,16,579,127,599,120,1,-1,-1,-1
182,15,605,217,573,214,1,-1,-1,-1
182,10,686,101,682,100,1,-1,-1,-1
182,1,188,166,211,164,1,-1,-1,-1
183,18,511,223,502,221,1,-1,-1,-1
183,17,344,210,351,201,1,-1,-1,-1
183,16,576,127,594,121,1,-1,-1,-1
183,15,608,218,580,215,1,-1,-1,-1
183,10,690,105,684,101,1,-1,-1,-1
184,18,519,227,508,223,1,-1,-1,-1
184,17,335,209,343,200,1,-1,-1,-1
184,15,617,219,587,216,1,-1,-1,-1
184,14,569,139,586,129,1,-1,-1,-1
184,10,686,102,683,101,1,-1,-1,-1
185,18,525,225,513,224,1,-1,-1,-1
185,17,323,213,334,200,1,-1,-1,-1
185,16,562,133,585,124,1,-1,-1,-1
185,15,622,224,594,218,1,-1,-1,-1
185,10,691,104,685,102,1,-1,-1,-1
186,18,531,228,519,226,1,-1,-1,-1
186,17,316,216,326,201,1,-1,-1,-1
186,16,561,133,580,126,1,-1,-1,-1
186,15,630,225,602,219,1,-1,-1,-1
186,10,688,100,685,101,1,-1,-1,-1
187,18,538,228,525,227,1,-1,-1,-1
187,17,306,211,318,199,1,-1,-1,-1
187,16,555,129,574,126,1,-1,-1,-1
187,15,639,225,610,220,1,-1,-1,-1
187,10,691,102,686,101,1,-1,-1,-1
188,18,546,231,532,229,1,-1,-1,-1
188,17,302,213,311,199,1,-1,-1,-1
188,16,552,132,569,127,1,-1,-1,-1
188,15,647,229,617,222,1,-1,-1,-1
188,10,688,104,686,102,1,-1,-1,-1
189,18,552,230,538,230,1,-1,-1,-1
189,17,289,205,301,196,1,-1,-1,-1
189,15,654,231,625,224,1,-1,-1,-1
189,14,539,142,563,132,1,-1,-1,-1
189,10,687,93,686,98,1,-1,-1,-1
190,18,555,230,543,230,1,-1,-1,-1
190,17,284,207,294,196,1,-1,-1,-1
190,15,662,236,633,227,1,-1,-1,-1
190,14,537,139,555,133,1,-1,-1,-1
190,10,685,92,685,97,1,-1,-1,-1
191,18,562,244,550,236,1,-1,-1,-1
191,17,275,201,285,193,1,-1,-1,-1
191,15,680,234,644,228,1,-1,-1,-1
191,14,535,140,549,135,1,-1,-1,-1
191,10,690,99,687,98,1,-1,-1,-1
191,1,136,165,156,159,1,-1,-1,-1
192,18,564,244,554,238,1,-1,-1,-1
192,17,267,205,277,193,1,-1,-1,-1
192,15,678,236,650,230,1,-1,-1,-1
192,14,533,138,545,135,1,-1,-1,-1
192,10,687,104,686,100,1,-1,-1,-1
192,1,131,166,150,160,1,-1,-1,-1
193,18,571,241,560,239,1,-1,-1,-1
193,17,261,200,269,190,1,-1,-1,-1
193,14,524,141,539,136,1,-1,-1,-1
193,10,688,92,687,97,1,-1,-1,-1
193,1,122,164,143,159,1,-1,-1,-1
194,20,672,228,667,230,1,-1,-1,-1
194,18,576,245,565,241,1,-1,-1,-1
194,17,259,202,264,190,1,-1,-1,-1
194,14,519,145,534,138,1,-1,-1,-1
194,10,686,87,686,94,1,-1,-1,-1
194,1,109,160,134,157,1,-1,-1,-1
195,20,675,234,674,233,1,-1,-1,-1
195,18,580,248,570,244,1,-1,-1,-1
195,17,256,199,258,188,1,-1,-1,-1
195,14,515,143,529,138,1,-1,-1,-1
195,10,689,87,686,93,1,-1,-1,-1
195,1,108,151,128,154,1,-1,-1,-1
196,20,684,234,680,235,1,-1,-1,-1
196,18,590,253,577,247,1,-1,-1,-1
196,17,245,193,250,185,1,-1,-1,-1
196,14,509,146,524,140,1,-1,-1,-1
196,10,685,89,685,92,1,-1,-1,-1
196,1,103,154,122,153,1,-1,-1,-1
197,20,682,243,686,239,1,-1,-1,-1
197,18,598,252,584,249,1,-1,-1,-1
197,17,238,198,243,184,1,-1,-1,-1
197,14,504,146,519,141,1,-1,-1,-1
197,10,687,98,686,94,1,-1,-1,-1
197,1,97,151,116,151,1,-1,-1,-1
198,20,687,250,693,244,1,-1,-1,-1
198,18,600,255,589,251,1,-1,-1,-1
198,17,235,199,238,184,1,-1,-1,-1
198,14,501,142,514,140,1,-1,-1,-1
198,10,684,102,685,96,1,-1,-1,-1
198,1,93,150,110,149,1,-1,-1,-1
199,20,696,251,700,247,1,-1,-1,-1
199,18,608,261,596,254,1,-1,-1,-1
199,17,225,197,230,182,1,-1,-1,-1
199,14,493,143,509,140,1,-1,-1,-1
199,10,691,104,687,98,1,-1,-1,-1
199,1,77,156,101,149,1,-1,-1,-1
200,20,701,256,706,251,1,-1,-1,-1
200,18,613,261,602,256,1,-1,-1,-1
200,17,223,196,225,181,1,-1,-1,-1
200,14,488,145,503,141,1,-1,-1,-1
200,10,694,110,690,101,1,-1,-1,-1
200,1,75,155,95,148,1,-1,-1,-1
