1,815,430,120,88,223,-1,-1,-1,-1
1,818,336,114,101,251,-1,-1,-1,-1
1,820,568,212,60,144,-1,-1,-1,-1
1,822,406,190,70,163,-1,-1,-1,-1
2,815,432,93,93,240,-1,-1,-1,-1
2,818,335,86,101,254,-1,-1,-1,-1
3,815,439,88,92,238,-1,-1,-1,-1
3,818,342,79,100,253,-1,-1,-1,-1
3,823,574,94,60,169,-1,-1,-1,-1
3,824,510,113,43,120,-1,-1,-1,-1
3,825,171,102,62,175,-1,-1,-1,-1
4,815,441,86,91,237,-1,-1,-1,-1
4,818,345,76,99,253,-1,-1,-1,-1
4,823,574,93,60,169,-1,-1,-1,-1
4,824,510,115,41,116,-1,-1,-1,-1
4,825,171,102,59,165,-1,-1,-1,-1
5,815,449,88,90,236,-1,-1,-1,-1
5,818,349,77,98,256,-1,-1,-1,-1
5,823,570,91,63,178,-1,-1,-1,-1
5,824,510,112,41,116,-1,-1,-1,-1
5,825,172,100,53,149,-1,-1,-1,-1
5,826,195,91,79,221,-1,-1,-1,-1
5,827,73,118,67,189,-1,-1,-1,-1
6,815,451,89,89,234,-1,-1,-1,-1
6,818,351,77,97,257,-1,-1,-1,-1
6,823,568,90,64,181,-1,-1,-1,-1
6,824,509,110,41,116,-1,-1,-1,-1
6,825,172,99,51,144,-1,-1,-1,-1
6,826,196,90,79,222,-1,-1,-1,-1
6,827,65,116,68,190,-1,-1,-1,-1
7,815,455,86,90,238,-1,-1,-1,-1
7,818,356,81,96,254,-1,-1,-1,-1
7,823,566,90,66,186,-1,-1,-1,-1
7,824,509,110,40,113,-1,-1,-1,-1
7,825,170,97,52,148,-1,-1,-1,-1
7,826,205,90,82,229,-1,-1,-1,-1
7,827,64,120,66,186,-1,-1,-1,-1
8,815,455,85,90,238,-1,-1,-1,-1
8,818,356,82,95,252,-1,-1,-1,-1
8,823,564,89,67,188,-1,-1,-1,-1
8,825,168,97,53,148,-1,-1,-1,-1
8,826,207,89,83,231,-1,-1,-1,-1
8,827,57,120,66,186,-1,-1,-1,-1
9,815,458,82,91,241,-1,-1,-1,-1
9,818,360,85,94,251,-1,-1,-1,-1
9,823,562,90,67,190,-1,-1,-1,-1
9,825,170,99,53,150,-1,-1,-1,-1
9,826,217,92,82,227,-1,-1,-1,-1
9,827,51,113,69,193,-1,-1,-1,-1
10,815,459,80,90,241,-1,-1,-1,-1
10,818,360,86,94,250,-1,-1,-1,-1
10,823,562,89,68,191,-1,-1,-1,-1
10,825,171,99,53,150,-1,-1,-1,-1
10,826,220,93,81,225,-1,-1,-1,-1
10,827,44,110,69,195,-1,-1,-1,-1
11,815,461,79,91,244,-1,-1,-1,-1
11,818,364,85,95,257,-1,-1,-1,-1
11,823,560,88,69,194,-1,-1,-1,-1
11,825,173,102,52,146,-1,-1,-1,-1
11,826,224,93,82,227,-1,-1,-1,-1
11,827,36,104,72,203,-1,-1,-1,-1
12,815,461,79,91,245,-1,-1,-1,-1
12,818,364,84,95,260,-1,-1,-1,-1
12,823,558,86,70,197,-1,-1,-1,-1
12,825,173,103,51,144,-1,-1,-1,-1
12,826,225,93,82,228,-1,-1,-1,-1
12,827,28,102,73,204,-1,-1,-1,-1
13,815,471,88,88,236,-1,-1,-1,-1
13,818,372,84,92,251,-1,-1,-1,-1
13,823,554,85,69,195,-1,-1,-1,-1
13,825,173,103,53,149,-1,-1,-1,-1
13,826,230,91,82,230,-1,-1,-1,-1
13,827,22,105,71,199,-1,-1,-1,-1
14,815,474,91,87,232,-1,-1,-1,-1
14,818,374,83,90,247,-1,-1,-1,-1
14,823,551,84,69,195,-1,-1,-1,-1
14,825,172,103,53,149,-1,-1,-1,-1
14,826,232,89,82,231,-1,-1,-1,-1
14,827,15,106,70,197,-1,-1,-1,-1
15,815,478,95,86,228,-1,-1,-1,-1
15,818,379,84,89,242,-1,-1,-1,-1
15,823,549,83,68,192,-1,-1,-1,-1
15,825,173,104,52,148,-1,-1,-1,-1
15,826,237,87,82,230,-1,-1,-1,-1
15,827,11,105,73,206,-1,-1,-1,-1
16,815,479,97,85,226,-1,-1,-1,-1
16,818,380,83,88,240,-1,-1,-1,-1
16,823,547,82,68,191,-1,-1,-1,-1
16,825,173,105,52,146,-1,-1,-1,-1
16,826,239,86,81,229,-1,-1,-1,-1
16,827,8,104,75,210,-1,-1,-1,-1
17,815,484,96,85,225,-1,-1,-1,-1
17,818,385,87,87,234,-1,-1,-1,-1
17,823,546,90,63,177,-1,-1,-1,-1
17,825,172,106,51,144,-1,-1,-1,-1
17,826,249,91,79,223,-1,-1,-1,-1
17,827,3,107,75,210,-1,-1,-1,-1
17,828,593,116,41,117,-1,-1,-1,-1
18,815,484,95,85,224,-1,-1,-1,-1
18,818,386,88,86,232,-1,-1,-1,-1
18,823,545,93,62,171,-1,-1,-1,-1
18,825,171,107,50,142,-1,-1,-1,-1
18,826,253,92,78,220,-1,-1,-1,-1
18,827,-4,107,75,210,-1,-1,-1,-1
18,828,591,117,41,117,-1,-1,-1,-1
19,815,489,89,86,227,-1,-1,-1,-1
19,818,394,86,87,232,-1,-1,-1,-1
19,823,543,91,59,165,-1,-1,-1,-1
19,825,171,108,51,142,-1,-1,-1,-1
19,826,255,88,79,223,-1,-1,-1,-1
19,827,-1,111,73,206,-1,-1,-1,-1
19,828,594,119,39,110,-1,-1,-1,-1
20,815,490,87,86,227,-1,-1,-1,-1
20,818,396,85,87,232,-1,-1,-1,-1
20,823,541,90,58,162,-1,-1,-1,-1
20,825,170,109,50,142,-1,-1,-1,-1
20,826,256,87,80,224,-1,-1,-1,-1
20,827,-5,112,73,204,-1,-1,-1,-1
20,828,595,120,38,107,-1,-1,-1,-1
21,815,496,88,85,223,-1,-1,-1,-1
21,818,399,87,88,231,-1,-1,-1,-1
21,823,540,91,57,159,-1,-1,-1,-1
21,825,171,110,49,139,-1,-1,-1,-1
21,826,262,91,79,223,-1,-1,-1,-1
21,827,-9,111,71,199,-1,-1,-1,-1
21,828,582,118,40,112,-1,-1,-1,-1
22,815,498,89,85,220,-1,-1,-1,-1
22,818,400,87,88,231,-1,-1,-1,-1
22,825,171,111,49,137,-1,-1,-1,-1
22,826,263,92,79,222,-1,-1,-1,-1
22,827,-9,113,69,195,-1,-1,-1,-1
22,828,577,116,40,114,-1,-1,-1,-1
23,815,504,89,84,218,-1,-1,-1,-1
23,818,402,86,88,233,-1,-1,-1,-1
23,825,171,111,49,137,-1,-1,-1,-1
23,826,268,95,78,220,-1,-1,-1,-1
23,827,-9,121,65,182,-1,-1,-1,-1
23,828,586,116,41,115,-1,-1,-1,-1
24,815,506,89,84,217,-1,-1,-1,-1
24,818,403,85,89,234,-1,-1,-1,-1
24,825,171,111,48,136,-1,-1,-1,-1
24,826,269,95,78,220,-1,-1,-1,-1
24,827,-8,125,62,174,-1,-1,-1,-1
24,828,589,115,41,115,-1,-1,-1,-1
25,815,506,88,83,213,-1,-1,-1,-1
25,818,411,90,86,225,-1,-1,-1,-1
25,825,171,111,48,136,-1,-1,-1,-1
25,826,274,95,75,211,-1,-1,-1,-1
25,827,-12,126,61,173,-1,-1,-1,-1
25,828,587,117,35,99,-1,-1,-1,-1
26,815,505,88,82,212,-1,-1,-1,-1
26,818,414,92,85,221,-1,-1,-1,-1
26,825,171,112,48,135,-1,-1,-1,-1
26,826,275,95,74,208,-1,-1,-1,-1
26,828,585,116,33,93,-1,-1,-1,-1
27,815,507,88,83,214,-1,-1,-1,-1
27,818,417,82,88,232,-1,-1,-1,-1
27,825,171,112,48,135,-1,-1,-1,-1
27,826,282,88,78,218,-1,-1,-1,-1
27,828,579,110,37,105,-1,-1,-1,-1
28,815,507,87,84,215,-1,-1,-1,-1
28,818,418,79,89,235,-1,-1,-1,-1
28,825,170,113,47,134,-1,-1,-1,-1
28,826,285,86,78,221,-1,-1,-1,-1
28,828,576,107,39,110,-1,-1,-1,-1
29,815,514,91,85,217,-1,-1,-1,-1
29,818,425,78,87,232,-1,-1,-1,-1
29,823,494,95,60,169,-1,-1,-1,-1
29,825,171,113,48,134,-1,-1,-1,-1
29,826,293,90,79,221,-1,-1,-1,-1
29,828,575,106,39,109,-1,-1,-1,-1
30,815,516,92,86,217,-1,-1,-1,-1
30,818,427,78,86,230,-1,-1,-1,-1
30,823,491,95,60,169,-1,-1,-1,-1
30,825,170,113,48,134,-1,-1,-1,-1
30,826,296,92,78,219,-1,-1,-1,-1
31,815,519,89,88,222,-1,-1,-1,-1
31,818,434,83,85,228,-1,-1,-1,-1
31,823,487,94,64,181,-1,-1,-1,-1
31,825,171,113,48,135,-1,-1,-1,-1
31,826,301,90,78,219,-1,-1,-1,-1
32,815,520,88,89,224,-1,-1,-1,-1
32,818,436,85,84,227,-1,-1,-1,-1
32,823,485,94,66,185,-1,-1,-1,-1
32,825,171,113,48,135,-1,-1,-1,-1
32,826,303,89,78,218,-1,-1,-1,-1
33,815,533,91,87,220,-1,-1,-1,-1
33,818,440,88,74,200,-1,-1,-1,-1
33,823,484,94,66,186,-1,-1,-1,-1
33,825,171,113,48,136,-1,-1,-1,-1
33,826,308,93,74,208,-1,-1,-1,-1
34,815,538,92,86,218,-1,-1,-1,-1
34,818,440,88,70,190,-1,-1,-1,-1
34,823,484,94,66,186,-1,-1,-1,-1
34,825,170,113,48,136,-1,-1,-1,-1
34,826,310,94,72,203,-1,-1,-1,-1
35,815,540,88,88,228,-1,-1,-1,-1
35,818,451,86,74,202,-1,-1,-1,-1
35,823,486,95,64,179,-1,-1,-1,-1
35,825,166,110,49,138,-1,-1,-1,-1
35,826,318,96,74,207,-1,-1,-1,-1
36,815,541,85,88,231,-1,-1,-1,-1
36,818,455,86,76,206,-1,-1,-1,-1
36,823,487,95,62,175,-1,-1,-1,-1
36,825,164,108,49,139,-1,-1,-1,-1
36,826,320,96,74,208,-1,-1,-1,-1
37,815,547,84,86,229,-1,-1,-1,-1
37,818,457,85,79,216,-1,-1,-1,-1
37,823,484,95,62,175,-1,-1,-1,-1
37,825,168,111,49,138,-1,-1,-1,-1
37,826,325,97,74,208,-1,-1,-1,-1
38,815,550,84,84,228,-1,-1,-1,-1
38,818,457,85,80,219,-1,-1,-1,-1
38,825,169,111,49,137,-1,-1,-1,-1
38,826,327,97,74,208,-1,-1,-1,-1
39,815,554,83,83,229,-1,-1,-1,-1
39,818,460,87,79,215,-1,-1,-1,-1
39,825,165,109,49,139,-1,-1,-1,-1
39,826,334,96,73,206,-1,-1,-1,-1
39,829,439,99,49,138,-1,-1,-1,-1
40,815,555,82,82,229,-1,-1,-1,-1
40,818,460,87,78,212,-1,-1,-1,-1
40,825,163,107,50,140,-1,-1,-1,-1
40,826,336,96,72,204,-1,-1,-1,-1
40,829,438,101,48,135,-1,-1,-1,-1
41,815,558,82,80,224,-1,-1,-1,-1
41,818,464,88,77,208,-1,-1,-1,-1
41,825,167,110,49,139,-1,-1,-1,-1
41,826,342,96,70,197,-1,-1,-1,-1
41,829,437,103,47,132,-1,-1,-1,-1
42,815,559,83,78,219,-1,-1,-1,-1
42,818,464,88,77,206,-1,-1,-1,-1
42,825,168,111,49,139,-1,-1,-1,-1
42,826,343,95,69,193,-1,-1,-1,-1
42,829,436,103,47,131,-1,-1,-1,-1
43,815,561,90,77,215,-1,-1,-1,-1
43,818,465,87,77,204,-1,-1,-1,-1
43,825,169,111,49,139,-1,-1,-1,-1
43,826,351,95,70,196,-1,-1,-1,-1
43,829,434,102,49,139,-1,-1,-1,-1
44,815,562,93,76,213,-1,-1,-1,-1
44,818,465,86,78,203,-1,-1,-1,-1
44,825,169,111,49,139,-1,-1,-1,-1
44,826,353,95,70,196,-1,-1,-1,-1
44,829,433,101,50,141,-1,-1,-1,-1
45,815,562,85,78,220,-1,-1,-1,-1
45,818,464,88,75,195,-1,-1,-1,-1
45,825,165,109,49,139,-1,-1,-1,-1
45,826,358,95,69,195,-1,-1,-1,-1
45,829,435,101,51,144,-1,-1,-1,-1
46,815,562,82,78,221,-1,-1,-1,-1
46,818,463,88,74,192,-1,-1,-1,-1
46,825,163,108,49,139,-1,-1,-1,-1
46,826,359,95,69,194,-1,-1,-1,-1
46,829,435,101,52,145,-1,-1,-1,-1
47,815,564,86,77,217,-1,-1,-1,-1
47,818,458,93,71,187,-1,-1,-1,-1
47,823,482,88,76,212,-1,-1,-1,-1
47,825,164,107,50,141,-1,-1,-1,-1
47,826,366,99,68,191,-1,-1,-1,-1
47,829,437,101,53,148,-1,-1,-1,-1
48,815,565,88,76,214,-1,-1,-1,-1
48,818,456,93,70,184,-1,-1,-1,-1
48,823,481,87,76,214,-1,-1,-1,-1
48,825,164,106,50,141,-1,-1,-1,-1
48,826,368,100,68,191,-1,-1,-1,-1
48,829,437,101,53,149,-1,-1,-1,-1
49,815,572,88,75,211,-1,-1,-1,-1
49,818,446,92,67,176,-1,-1,-1,-1
49,823,487,89,79,217,-1,-1,-1,-1
49,825,164,107,50,141,-1,-1,-1,-1
49,826,373,100,68,192,-1,-1,-1,-1
49,829,437,102,53,150,-1,-1,-1,-1
50,815,575,90,74,207,-1,-1,-1,-1
50,818,441,91,65,173,-1,-1,-1,-1
50,823,488,91,80,216,-1,-1,-1,-1
50,825,163,106,50,141,-1,-1,-1,-1
50,826,374,99,69,193,-1,-1,-1,-1
51,815,579,99,69,193,-1,-1,-1,-1
51,818,437,91,67,177,-1,-1,-1,-1
51,823,494,88,82,217,-1,-1,-1,-1
51,825,167,109,50,140,-1,-1,-1,-1
51,826,383,97,68,191,-1,-1,-1,-1
52,815,580,104,66,186,-1,-1,-1,-1
52,818,436,91,67,178,-1,-1,-1,-1
52,823,495,86,82,217,-1,-1,-1,-1
52,825,168,110,49,139,-1,-1,-1,-1
52,826,386,95,68,190,-1,-1,-1,-1
53,815,583,103,64,181,-1,-1,-1,-1
53,818,435,92,66,177,-1,-1,-1,-1
53,823,498,89,83,217,-1,-1,-1,-1
53,825,165,109,50,140,-1,-1,-1,-1
53,826,390,95,69,193,-1,-1,-1,-1
54,815,583,104,63,177,-1,-1,-1,-1
54,818,435,92,65,176,-1,-1,-1,-1
54,823,499,89,83,216,-1,-1,-1,-1
54,825,163,108,50,140,-1,-1,-1,-1
54,826,391,95,69,194,-1,-1,-1,-1
55,815,588,113,54,153,-1,-1,-1,-1
55,818,430,93,65,178,-1,-1,-1,-1
55,823,504,91,82,215,-1,-1,-1,-1
55,825,163,106,51,143,-1,-1,-1,-1
55,826,398,93,70,196,-1,-1,-1,-1
56,815,589,116,51,143,-1,-1,-1,-1
56,818,428,94,65,178,-1,-1,-1,-1
56,823,506,91,82,214,-1,-1,-1,-1
56,825,162,105,51,144,-1,-1,-1,-1
56,826,400,92,70,196,-1,-1,-1,-1
57,815,592,116,46,129,-1,-1,-1,-1
57,818,426,94,64,177,-1,-1,-1,-1
57,823,511,84,84,219,-1,-1,-1,-1
57,825,163,105,51,144,-1,-1,-1,-1
57,826,408,92,70,196,-1,-1,-1,-1
58,815,593,116,44,124,-1,-1,-1,-1
58,823,513,81,84,220,-1,-1,-1,-1
58,825,162,105,51,144,-1,-1,-1,-1
58,826,410,90,70,198,-1,-1,-1,-1
59,815,595,116,44,123,-1,-1,-1,-1
59,823,520,81,83,218,-1,-1,-1,-1
59,825,162,105,51,145,-1,-1,-1,-1
59,826,411,91,70,195,-1,-1,-1,-1
60,815,595,116,43,122,-1,-1,-1,-1
60,823,523,81,83,217,-1,-1,-1,-1
60,825,162,105,52,145,-1,-1,-1,-1
60,826,410,91,70,194,-1,-1,-1,-1
61,815,596,116,42,118,-1,-1,-1,-1
61,823,525,80,85,218,-1,-1,-1,-1
61,825,162,104,52,147,-1,-1,-1,-1
61,826,410,93,70,191,-1,-1,-1,-1
62,823,525,80,86,218,-1,-1,-1,-1
62,825,161,104,53,148,-1,-1,-1,-1
62,826,410,93,70,190,-1,-1,-1,-1
63,818,422,92,70,193,-1,-1,-1,-1
63,823,537,91,82,208,-1,-1,-1,-1
63,825,165,106,53,148,-1,-1,-1,-1
63,826,400,90,68,187,-1,-1,-1,-1
64,818,422,92,70,194,-1,-1,-1,-1
64,823,541,95,80,204,-1,-1,-1,-1
64,825,167,106,52,147,-1,-1,-1,-1
64,826,396,88,67,186,-1,-1,-1,-1
65,818,427,92,69,192,-1,-1,-1,-1
65,823,540,88,84,216,-1,-1,-1,-1
65,825,168,107,52,147,-1,-1,-1,-1
65,826,393,91,65,183,-1,-1,-1,-1
66,818,428,92,68,190,-1,-1,-1,-1
66,823,539,86,86,220,-1,-1,-1,-1
66,825,168,107,52,147,-1,-1,-1,-1
66,826,392,92,64,181,-1,-1,-1,-1
67,818,433,91,67,190,-1,-1,-1,-1
67,823,541,83,86,222,-1,-1,-1,-1
67,825,168,107,52,146,-1,-1,-1,-1
67,826,390,92,65,182,-1,-1,-1,-1
68,818,434,91,67,188,-1,-1,-1,-1
68,823,542,81,85,222,-1,-1,-1,-1
68,825,168,106,52,146,-1,-1,-1,-1
68,826,389,92,64,181,-1,-1,-1,-1
69,818,441,91,66,186,-1,-1,-1,-1
69,823,551,85,79,207,-1,-1,-1,-1
69,825,169,107,51,144,-1,-1,-1,-1
69,826,386,90,65,183,-1,-1,-1,-1
70,818,443,91,66,186,-1,-1,-1,-1
70,823,554,87,76,200,-1,-1,-1,-1
70,825,169,107,50,142,-1,-1,-1,-1
70,826,384,89,65,183,-1,-1,-1,-1
71,818,448,92,66,186,-1,-1,-1,-1
71,823,558,85,78,204,-1,-1,-1,-1
71,825,171,108,50,140,-1,-1,-1,-1
71,826,383,89,65,182,-1,-1,-1,-1
72,818,450,92,66,186,-1,-1,-1,-1
72,823,558,84,78,205,-1,-1,-1,-1
72,825,172,108,49,139,-1,-1,-1,-1
72,826,382,89,64,180,-1,-1,-1,-1
73,818,453,92,68,191,-1,-1,-1,-1
73,823,561,83,77,205,-1,-1,-1,-1
73,825,174,109,49,138,-1,-1,-1,-1
73,826,381,90,63,178,-1,-1,-1,-1
74,818,453,92,68,192,-1,-1,-1,-1
74,823,562,83,77,205,-1,-1,-1,-1
74,825,174,110,49,137,-1,-1,-1,-1
74,826,380,90,63,177,-1,-1,-1,-1
75,818,458,93,68,192,-1,-1,-1,-1
75,823,564,82,76,207,-1,-1,-1,-1
75,825,176,110,48,136,-1,-1,-1,-1
75,826,377,94,62,173,-1,-1,-1,-1
76,818,460,93,68,190,-1,-1,-1,-1
76,823,565,82,76,206,-1,-1,-1,-1
76,825,176,110,48,136,-1,-1,-1,-1
76,826,376,95,61,171,-1,-1,-1,-1
77,818,465,93,67,188,-1,-1,-1,-1
77,823,565,84,74,204,-1,-1,-1,-1
77,825,178,107,49,138,-1,-1,-1,-1
77,826,373,98,60,169,-1,-1,-1,-1
78,818,467,92,67,187,-1,-1,-1,-1
78,823,565,85,73,202,-1,-1,-1,-1
78,825,178,107,49,139,-1,-1,-1,-1
78,826,372,98,60,169,-1,-1,-1,-1
79,818,473,92,65,183,-1,-1,-1,-1
79,823,564,87,72,201,-1,-1,-1,-1
79,825,179,108,49,137,-1,-1,-1,-1
79,826,369,97,60,169,-1,-1,-1,-1
80,818,474,92,65,182,-1,-1,-1,-1
80,823,563,87,72,200,-1,-1,-1,-1
80,825,179,109,48,136,-1,-1,-1,-1
80,826,368,95,60,169,-1,-1,-1,-1
81,818,480,91,65,184,-1,-1,-1,-1
81,823,565,93,69,194,-1,-1,-1,-1
81,825,180,108,49,138,-1,-1,-1,-1
81,826,364,94,61,171,-1,-1,-1,-1
82,818,481,90,66,184,-1,-1,-1,-1
82,823,566,95,68,191,-1,-1,-1,-1
82,825,180,108,49,138,-1,-1,-1,-1
82,826,362,93,61,172,-1,-1,-1,-1
83,815,591,120,51,145,-1,-1,-1,-1
83,818,484,92,66,185,-1,-1,-1,-1
83,823,562,101,65,183,-1,-1,-1,-1
83,825,181,109,49,138,-1,-1,-1,-1
83,826,360,94,61,171,-1,-1,-1,-1
84,815,591,122,50,142,-1,-1,-1,-1
84,818,485,93,65,184,-1,-1,-1,-1
84,823,561,103,63,178,-1,-1,-1,-1
84,825,181,109,49,138,-1,-1,-1,-1
84,826,359,94,61,172,-1,-1,-1,-1
85,815,594,127,47,132,-1,-1,-1,-1
85,818,492,95,64,181,-1,-1,-1,-1
85,823,558,111,59,167,-1,-1,-1,-1
85,825,182,110,49,139,-1,-1,-1,-1
85,826,357,94,60,169,-1,-1,-1,-1
86,815,594,129,45,127,-1,-1,-1,-1
86,818,495,95,64,179,-1,-1,-1,-1
86,823,557,113,58,162,-1,-1,-1,-1
86,825,182,109,49,139,-1,-1,-1,-1
86,826,355,93,60,168,-1,-1,-1,-1
87,815,599,129,43,120,-1,-1,-1,-1
87,818,500,95,64,181,-1,-1,-1,-1
87,823,554,112,58,162,-1,-1,-1,-1
87,825,183,109,50,141,-1,-1,-1,-1
87,826,350,91,61,171,-1,-1,-1,-1
88,815,600,129,41,116,-1,-1,-1,-1
88,818,501,95,64,181,-1,-1,-1,-1
88,823,553,112,57,161,-1,-1,-1,-1
88,825,183,108,50,141,-1,-1,-1,-1
88,826,349,90,61,171,-1,-1,-1,-1
89,815,605,119,34,95,-1,-1,-1,-1
89,818,515,95,65,182,-1,-1,-1,-1
89,823,552,113,56,159,-1,-1,-1,-1
89,825,184,107,51,143,-1,-1,-1,-1
89,826,345,92,61,170,-1,-1,-1,-1
89,832,384,103,51,143,-1,-1,-1,-1
90,815,607,114,31,87,-1,-1,-1,-1
90,818,519,95,65,183,-1,-1,-1,-1
90,825,184,107,51,144,-1,-1,-1,-1
90,826,344,92,60,168,-1,-1,-1,-1
90,832,379,102,52,147,-1,-1,-1,-1
91,815,608,113,30,84,-1,-1,-1,-1
91,818,519,92,67,187,-1,-1,-1,-1
91,825,186,106,51,144,-1,-1,-1,-1
91,826,341,95,59,167,-1,-1,-1,-1
91,832,380,103,52,145,-1,-1,-1,-1
92,818,519,91,69,188,-1,-1,-1,-1
92,825,186,105,51,144,-1,-1,-1,-1
92,826,340,96,59,165,-1,-1,-1,-1
92,832,381,104,51,143,-1,-1,-1,-1
93,818,522,91,69,185,-1,-1,-1,-1
93,825,187,104,51,145,-1,-1,-1,-1
93,826,336,96,60,168,-1,-1,-1,-1
93,832,384,105,50,142,-1,-1,-1,-1
94,818,523,91,69,184,-1,-1,-1,-1
94,825,187,103,51,145,-1,-1,-1,-1
94,826,335,95,60,169,-1,-1,-1,-1
94,832,385,105,50,140,-1,-1,-1,-1
95,818,524,93,70,182,-1,-1,-1,-1
95,825,189,103,51,144,-1,-1,-1,-1
95,826,331,95,61,171,-1,-1,-1,-1
95,832,385,105,51,143,-1,-1,-1,-1
96,818,523,93,71,181,-1,-1,-1,-1
96,825,189,103,51,144,-1,-1,-1,-1
96,826,329,94,61,171,-1,-1,-1,-1
96,832,384,105,51,143,-1,-1,-1,-1
97,818,528,93,71,180,-1,-1,-1,-1
97,825,189,102,52,146,-1,-1,-1,-1
97,826,326,95,61,172,-1,-1,-1,-1
97,832,383,106,52,145,-1,-1,-1,-1
98,818,529,93,72,180,-1,-1,-1,-1
98,825,189,102,52,146,-1,-1,-1,-1
98,826,324,94,61,172,-1,-1,-1,-1
98,832,382,106,52,146,-1,-1,-1,-1
99,818,539,95,71,180,-1,-1,-1,-1
99,823,508,111,55,154,-1,-1,-1,-1
99,825,189,102,52,147,-1,-1,-1,-1
99,826,322,93,62,174,-1,-1,-1,-1
99,832,381,106,52,146,-1,-1,-1,-1
100,818,542,95,70,180,-1,-1,-1,-1
100,823,505,110,55,154,-1,-1,-1,-1
100,825,189,101,52,148,-1,-1,-1,-1
100,826,321,92,62,175,-1,-1,-1,-1
100,832,380,106,52,145,-1,-1,-1,-1
101,818,545,96,70,181,-1,-1,-1,-1
101,823,504,111,53,149,-1,-1,-1,-1
101,825,189,102,53,148,-1,-1,-1,-1
101,826,320,90,61,173,-1,-1,-1,-1
101,832,380,106,51,143,-1,-1,-1,-1
102,818,546,96,69,181,-1,-1,-1,-1
102,823,503,111,52,148,-1,-1,-1,-1
102,825,189,102,52,148,-1,-1,-1,-1
102,826,319,90,61,172,-1,-1,-1,-1
102,832,380,106,50,142,-1,-1,-1,-1
103,818,552,97,68,177,-1,-1,-1,-1
103,823,500,109,54,151,-1,-1,-1,-1
103,825,189,102,52,148,-1,-1,-1,-1
103,826,318,92,60,169,-1,-1,-1,-1
103,832,380,105,49,138,-1,-1,-1,-1
104,818,555,97,67,175,-1,-1,-1,-1
104,823,498,107,54,153,-1,-1,-1,-1
104,825,188,102,52,147,-1,-1,-1,-1
104,826,317,93,59,167,-1,-1,-1,-1
104,832,380,105,48,136,-1,-1,-1,-1
105,818,563,95,67,178,-1,-1,-1,-1
105,823,495,105,56,158,-1,-1,-1,-1
105,825,187,103,53,149,-1,-1,-1,-1
105,826,315,94,59,167,-1,-1,-1,-1
105,832,380,104,50,141,-1,-1,-1,-1
106,818,566,94,66,179,-1,-1,-1,-1
106,823,493,104,57,161,-1,-1,-1,-1
106,825,186,103,53,149,-1,-1,-1,-1
106,826,314,94,59,166,-1,-1,-1,-1
106,832,380,104,50,142,-1,-1,-1,-1
107,818,572,95,64,173,-1,-1,-1,-1
107,823,483,115,54,149,-1,-1,-1,-1
107,825,187,103,53,148,-1,-1,-1,-1
107,826,313,95,59,165,-1,-1,-1,-1
107,832,380,103,52,145,-1,-1,-1,-1
108,818,574,95,62,171,-1,-1,-1,-1
108,823,478,119,53,144,-1,-1,-1,-1
108,825,187,103,52,148,-1,-1,-1,-1
108,826,313,95,58,164,-1,-1,-1,-1
108,832,380,103,52,146,-1,-1,-1,-1
109,818,578,96,61,170,-1,-1,-1,-1
109,823,471,118,55,149,-1,-1,-1,-1
109,825,187,103,53,148,-1,-1,-1,-1
109,826,312,97,58,162,-1,-1,-1,-1
109,832,382,103,52,147,-1,-1,-1,-1
109,834,523,104,50,142,-1,-1,-1,-1
110,818,579,96,60,168,-1,-1,-1,-1
110,823,468,117,55,149,-1,-1,-1,-1
110,825,186,102,52,148,-1,-1,-1,-1
110,826,311,97,57,161,-1,-1,-1,-1
110,832,382,103,52,146,-1,-1,-1,-1
110,834,522,102,51,143,-1,-1,-1,-1
111,818,581,99,59,166,-1,-1,-1,-1
111,823,466,114,58,155,-1,-1,-1,-1
111,825,188,102,52,148,-1,-1,-1,-1
111,826,310,97,58,162,-1,-1,-1,-1
111,832,383,104,51,145,-1,-1,-1,-1
111,834,515,105,51,145,-1,-1,-1,-1
112,818,582,101,58,163,-1,-1,-1,-1
112,823,465,112,58,157,-1,-1,-1,-1
112,825,188,101,52,147,-1,-1,-1,-1
112,826,309,98,57,162,-1,-1,-1,-1
112,832,383,105,51,143,-1,-1,-1,-1
112,834,513,105,51,145,-1,-1,-1,-1
113,818,585,102,57,160,-1,-1,-1,-1
113,823,460,113,59,156,-1,-1,-1,-1
113,825,189,101,52,147,-1,-1,-1,-1
113,826,307,98,57,162,-1,-1,-1,-1
113,832,385,105,51,143,-1,-1,-1,-1
113,834,511,107,51,143,-1,-1,-1,-1
114,818,586,103,56,157,-1,-1,-1,-1
114,823,458,113,59,156,-1,-1,-1,-1
114,825,188,101,52,147,-1,-1,-1,-1
114,826,305,98,57,161,-1,-1,-1,-1
114,832,385,105,51,142,-1,-1,-1,-1
114,834,510,107,51,142,-1,-1,-1,-1
115,818,587,105,55,154,-1,-1,-1,-1
115,823,455,114,58,153,-1,-1,-1,-1
115,825,190,101,52,146,-1,-1,-1,-1
115,826,303,98,57,161,-1,-1,-1,-1
115,832,387,107,50,142,-1,-1,-1,-1
115,834,507,108,51,145,-1,-1,-1,-1
116,818,587,106,53,150,-1,-1,-1,-1
116,823,449,114,57,151,-1,-1,-1,-1
116,825,189,101,52,145,-1,-1,-1,-1
116,826,302,98,57,161,-1,-1,-1,-1
116,832,387,107,50,141,-1,-1,-1,-1
116,834,505,108,52,146,-1,-1,-1,-1
117,818,590,108,53,149,-1,-1,-1,-1
117,823,446,113,58,153,-1,-1,-1,-1
117,825,190,100,52,147,-1,-1,-1,-1
117,826,301,97,57,161,-1,-1,-1,-1
117,832,391,105,51,143,-1,-1,-1,-1
117,834,505,109,51,142,-1,-1,-1,-1
118,818,591,109,52,146,-1,-1,-1,-1
118,823,444,112,58,153,-1,-1,-1,-1
118,825,189,100,52,147,-1,-1,-1,-1
118,826,300,97,57,160,-1,-1,-1,-1
118,832,392,103,51,143,-1,-1,-1,-1
118,834,504,110,51,140,-1,-1,-1,-1
119,818,596,112,46,130,-1,-1,-1,-1
119,823,440,109,59,158,-1,-1,-1,-1
119,825,190,99,52,147,-1,-1,-1,-1
119,826,299,97,57,161,-1,-1,-1,-1
119,832,393,105,51,144,-1,-1,-1,-1
119,834,501,107,53,146,-1,-1,-1,-1
120,818,597,113,43,122,-1,-1,-1,-1
120,823,438,107,58,159,-1,-1,-1,-1
120,825,190,98,52,147,-1,-1,-1,-1
120,826,298,96,57,159,-1,-1,-1,-1
120,832,394,105,51,144,-1,-1,-1,-1
120,834,500,106,54,148,-1,-1,-1,-1
121,818,599,113,43,120,-1,-1,-1,-1
121,823,435,108,57,158,-1,-1,-1,-1
121,825,191,98,52,148,-1,-1,-1,-1
121,826,296,97,56,159,-1,-1,-1,-1
121,832,394,107,52,145,-1,-1,-1,-1
121,834,499,105,53,148,-1,-1,-1,-1
122,823,433,107,56,157,-1,-1,-1,-1
122,825,191,97,52,148,-1,-1,-1,-1
122,826,296,97,56,157,-1,-1,-1,-1
122,832,394,108,51,145,-1,-1,-1,-1
122,834,498,105,53,148,-1,-1,-1,-1
123,823,430,109,55,156,-1,-1,-1,-1
123,825,192,97,53,148,-1,-1,-1,-1
123,826,295,96,55,155,-1,-1,-1,-1
123,832,395,110,51,143,-1,-1,-1,-1
123,834,494,104,54,151,-1,-1,-1,-1
124,823,429,111,55,154,-1,-1,-1,-1
124,825,192,97,52,147,-1,-1,-1,-1
124,826,294,96,55,154,-1,-1,-1,-1
124,832,396,111,50,141,-1,-1,-1,-1
124,834,492,104,54,151,-1,-1,-1,-1
125,823,424,109,55,155,-1,-1,-1,-1
125,825,193,98,52,147,-1,-1,-1,-1
125,826,293,95,55,154,-1,-1,-1,-1
125,832,401,112,49,139,-1,-1,-1,-1
125,834,491,103,55,152,-1,-1,-1,-1
126,823,421,108,55,155,-1,-1,-1,-1
126,825,193,98,52,146,-1,-1,-1,-1
126,826,292,94,55,154,-1,-1,-1,-1
126,832,403,112,49,138,-1,-1,-1,-1
126,834,490,102,55,152,-1,-1,-1,-1
127,823,418,108,55,156,-1,-1,-1,-1
127,825,193,97,52,146,-1,-1,-1,-1
127,826,291,94,55,156,-1,-1,-1,-1
127,832,407,112,51,143,-1,-1,-1,-1
127,834,488,102,55,151,-1,-1,-1,-1
128,825,193,97,52,145,-1,-1,-1,-1
128,826,290,94,55,156,-1,-1,-1,-1
128,832,408,111,52,146,-1,-1,-1,-1
128,834,488,102,55,150,-1,-1,-1,-1
129,825,193,97,52,146,-1,-1,-1,-1
129,826,290,94,56,158,-1,-1,-1,-1
129,832,410,112,52,147,-1,-1,-1,-1
129,834,483,106,54,147,-1,-1,-1,-1
130,825,193,97,52,146,-1,-1,-1,-1
130,826,289,94,56,158,-1,-1,-1,-1
130,832,410,112,53,149,-1,-1,-1,-1
130,834,481,107,54,146,-1,-1,-1,-1
131,825,193,98,52,145,-1,-1,-1,-1
131,826,289,96,55,156,-1,-1,-1,-1
131,832,408,110,54,153,-1,-1,-1,-1
131,834,477,107,55,148,-1,-1,-1,-1
132,825,193,98,51,145,-1,-1,-1,-1
132,826,288,96,55,156,-1,-1,-1,-1
132,832,406,109,55,154,-1,-1,-1,-1
132,834,475,106,56,149,-1,-1,-1,-1
133,825,193,97,52,146,-1,-1,-1,-1
133,826,286,96,56,156,-1,-1,-1,-1
133,832,402,108,55,156,-1,-1,-1,-1
133,834,470,106,57,152,-1,-1,-1,-1
134,825,193,96,52,147,-1,-1,-1,-1
134,826,284,95,56,157,-1,-1,-1,-1
134,832,400,107,55,156,-1,-1,-1,-1
134,834,468,107,58,153,-1,-1,-1,-1
135,825,193,96,52,148,-1,-1,-1,-1
135,826,282,95,56,159,-1,-1,-1,-1
135,832,397,105,57,159,-1,-1,-1,-1
135,834,467,107,58,151,-1,-1,-1,-1
136,825,192,96,52,147,-1,-1,-1,-1
136,826,281,94,57,160,-1,-1,-1,-1
136,832,395,103,57,160,-1,-1,-1,-1
136,834,467,107,58,150,-1,-1,-1,-1
137,825,192,97,52,147,-1,-1,-1,-1
137,826,278,94,58,163,-1,-1,-1,-1
137,832,394,103,57,160,-1,-1,-1,-1
137,834,465,107,58,150,-1,-1,-1,-1
138,825,192,97,52,146,-1,-1,-1,-1
138,826,277,94,58,163,-1,-1,-1,-1
138,832,394,102,56,159,-1,-1,-1,-1
138,834,464,107,58,150,-1,-1,-1,-1
139,825,191,98,52,146,-1,-1,-1,-1
139,826,275,95,58,163,-1,-1,-1,-1
139,832,393,102,56,159,-1,-1,-1,-1
139,834,461,105,59,152,-1,-1,-1,-1
139,835,1,136,49,137,-1,-1,-1,-1
140,825,191,98,52,145,-1,-1,-1,-1
140,826,274,95,58,163,-1,-1,-1,-1
140,832,393,101,56,158,-1,-1,-1,-1
140,834,459,104,59,152,-1,-1,-1,-1
140,835,2,136,48,136,-1,-1,-1,-1
141,825,191,99,51,145,-1,-1,-1,-1
141,826,270,93,59,165,-1,-1,-1,-1
141,832,389,111,53,149,-1,-1,-1,-1
141,834,458,104,58,150,-1,-1,-1,-1
141,835,2,128,51,143,-1,-1,-1,-1
142,825,190,99,51,144,-1,-1,-1,-1
142,826,269,91,59,165,-1,-1,-1,-1
142,832,387,115,53,144,-1,-1,-1,-1
142,834,457,104,58,149,-1,-1,-1,-1
142,835,2,125,51,145,-1,-1,-1,-1
143,825,190,98,52,146,-1,-1,-1,-1
143,826,265,91,59,165,-1,-1,-1,-1
143,832,383,120,52,138,-1,-1,-1,-1
143,834,455,105,57,148,-1,-1,-1,-1
143,835,10,127,51,144,-1,-1,-1,-1
144,825,189,98,52,146,-1,-1,-1,-1
144,826,263,90,58,164,-1,-1,-1,-1
144,832,381,122,52,136,-1,-1,-1,-1
144,834,454,105,57,148,-1,-1,-1,-1
144,835,12,127,51,143,-1,-1,-1,-1
145,825,189,99,51,145,-1,-1,-1,-1
145,826,261,89,59,166,-1,-1,-1,-1
145,832,375,119,53,140,-1,-1,-1,-1
145,834,454,106,57,149,-1,-1,-1,-1
145,835,21,130,49,139,-1,-1,-1,-1
146,825,188,100,51,144,-1,-1,-1,-1
146,826,260,88,59,165,-1,-1,-1,-1
146,832,372,118,54,141,-1,-1,-1,-1
146,834,454,106,57,149,-1,-1,-1,-1
146,835,28,131,49,138,-1,-1,-1,-1
147,825,189,101,51,143,-1,-1,-1,-1
147,826,259,89,59,166,-1,-1,-1,-1
147,832,365,116,54,144,-1,-1,-1,-1
147,834,453,107,57,149,-1,-1,-1,-1
147,835,32,126,51,143,-1,-1,-1,-1
147,836,399,108,52,147,-1,-1,-1,-1
148,825,189,101,50,142,-1,-1,-1,-1
148,826,259,89,59,166,-1,-1,-1,-1
148,832,363,115,54,145,-1,-1,-1,-1
148,834,453,108,57,149,-1,-1,-1,-1
148,835,37,123,52,147,-1,-1,-1,-1
148,836,400,108,52,147,-1,-1,-1,-1
149,825,188,100,50,142,-1,-1,-1,-1
149,826,259,89,59,165,-1,-1,-1,-1
149,832,359,113,55,150,-1,-1,-1,-1
149,834,452,106,58,153,-1,-1,-1,-1
149,835,37,126,52,147,-1,-1,-1,-1
149,836,403,109,51,145,-1,-1,-1,-1
150,825,187,100,50,142,-1,-1,-1,-1
150,826,259,89,58,164,-1,-1,-1,-1
150,832,357,112,55,152,-1,-1,-1,-1
150,834,451,105,58,154,-1,-1,-1,-1
150,835,41,125,53,149,-1,-1,-1,-1
150,836,403,110,51,143,-1,-1,-1,-1
151,825,188,100,50,142,-1,-1,-1,-1
151,826,258,88,58,163,-1,-1,-1,-1
151,832,357,110,55,153,-1,-1,-1,-1
151,834,451,103,58,155,-1,-1,-1,-1
151,835,40,124,53,149,-1,-1,-1,-1
151,836,403,110,51,144,-1,-1,-1,-1
152,825,188,100,50,142,-1,-1,-1,-1
152,826,256,88,57,161,-1,-1,-1,-1
152,832,356,110,54,152,-1,-1,-1,-1
152,834,451,102,57,155,-1,-1,-1,-1
152,835,43,122,54,152,-1,-1,-1,-1
152,836,402,110,51,144,-1,-1,-1,-1
153,825,188,101,50,141,-1,-1,-1,-1
153,826,256,89,57,160,-1,-1,-1,-1
153,832,353,109,53,149,-1,-1,-1,-1
153,834,449,103,56,155,-1,-1,-1,-1
153,835,49,115,57,161,-1,-1,-1,-1
153,836,404,111,51,143,-1,-1,-1,-1
154,825,188,101,50,141,-1,-1,-1,-1
154,826,256,90,56,159,-1,-1,-1,-1
154,832,352,108,52,147,-1,-1,-1,-1
154,834,448,102,55,155,-1,-1,-1,-1
154,835,55,112,59,166,-1,-1,-1,-1
154,836,404,111,50,141,-1,-1,-1,-1
155,825,188,101,50,141,-1,-1,-1,-1
155,826,256,91,56,157,-1,-1,-1,-1
155,832,351,108,51,145,-1,-1,-1,-1
155,834,447,102,55,156,-1,-1,-1,-1
155,835,59,112,59,167,-1,-1,-1,-1
155,836,404,111,50,142,-1,-1,-1,-1
156,825,188,101,50,140,-1,-1,-1,-1
156,826,256,92,55,155,-1,-1,-1,-1
156,832,350,109,51,143,-1,-1,-1,-1
156,834,447,103,55,154,-1,-1,-1,-1
156,835,61,112,59,166,-1,-1,-1,-1
156,836,404,111,50,141,-1,-1,-1,-1
157,825,188,101,50,140,-1,-1,-1,-1
157,826,256,94,54,153,-1,-1,-1,-1
157,832,349,111,50,140,-1,-1,-1,-1
157,834,447,104,54,152,-1,-1,-1,-1
157,835,69,118,57,162,-1,-1,-1,-1
157,836,405,111,50,141,-1,-1,-1,-1
158,825,188,101,49,139,-1,-1,-1,-1
158,826,256,95,54,151,-1,-1,-1,-1
158,832,348,112,49,138,-1,-1,-1,-1
158,834,446,104,53,150,-1,-1,-1,-1
158,835,72,120,56,159,-1,-1,-1,-1
158,836,405,112,49,139,-1,-1,-1,-1
159,825,189,101,49,139,-1,-1,-1,-1
159,826,256,96,53,148,-1,-1,-1,-1
159,832,345,115,48,137,-1,-1,-1,-1
159,834,444,109,51,145,-1,-1,-1,-1
159,835,80,120,56,157,-1,-1,-1,-1
159,836,405,115,48,136,-1,-1,-1,-1
160,825,189,102,49,138,-1,-1,-1,-1
160,826,256,97,52,146,-1,-1,-1,-1
160,832,343,116,48,135,-1,-1,-1,-1
160,834,443,111,51,142,-1,-1,-1,-1
160,835,83,121,55,156,-1,-1,-1,-1
160,836,405,116,48,135,-1,-1,-1,-1
161,825,190,101,49,138,-1,-1,-1,-1
161,826,257,98,52,146,-1,-1,-1,-1
161,832,342,117,48,136,-1,-1,-1,-1
161,834,441,112,50,141,-1,-1,-1,-1
161,835,90,120,56,157,-1,-1,-1,-1
161,836,403,117,48,135,-1,-1,-1,-1
162,825,190,101,49,138,-1,-1,-1,-1
162,826,257,98,51,144,-1,-1,-1,-1
162,832,341,117,48,135,-1,-1,-1,-1
162,834,440,112,50,140,-1,-1,-1,-1
162,835,96,119,56,158,-1,-1,-1,-1
162,836,402,118,48,135,-1,-1,-1,-1
163,825,190,101,49,139,-1,-1,-1,-1
163,826,257,98,51,144,-1,-1,-1,-1
163,832,341,118,47,132,-1,-1,-1,-1
163,834,437,113,50,142,-1,-1,-1,-1
163,835,100,114,58,164,-1,-1,-1,-1
163,836,400,119,47,133,-1,-1,-1,-1
164,825,190,101,49,139,-1,-1,-1,-1
164,826,258,98,51,143,-1,-1,-1,-1
164,832,340,118,46,131,-1,-1,-1,-1
164,834,436,112,50,142,-1,-1,-1,-1
164,835,100,111,60,170,-1,-1,-1,-1
164,836,399,120,47,132,-1,-1,-1,-1
165,825,190,101,49,139,-1,-1,-1,-1
165,826,257,97,51,144,-1,-1,-1,-1
165,832,338,116,47,133,-1,-1,-1,-1
165,834,435,111,52,145,-1,-1,-1,-1
165,835,105,106,63,177,-1,-1,-1,-1
165,836,396,119,47,133,-1,-1,-1,-1
166,825,190,100,49,138,-1,-1,-1,-1
166,826,257,96,51,144,-1,-1,-1,-1
166,832,337,116,47,133,-1,-1,-1,-1
166,834,434,110,52,146,-1,-1,-1,-1
166,835,107,103,64,180,-1,-1,-1,-1
166,836,395,119,47,133,-1,-1,-1,-1
167,825,190,101,49,138,-1,-1,-1,-1
167,826,258,98,49,139,-1,-1,-1,-1
167,832,336,114,48,134,-1,-1,-1,-1
167,834,433,109,53,149,-1,-1,-1,-1
167,835,108,96,67,189,-1,-1,-1,-1
167,836,390,119,47,134,-1,-1,-1,-1
168,825,189,101,49,137,-1,-1,-1,-1
168,826,258,98,48,136,-1,-1,-1,-1
168,832,335,113,48,135,-1,-1,-1,-1
168,834,432,108,53,149,-1,-1,-1,-1
168,835,108,93,68,192,-1,-1,-1,-1
168,836,388,118,48,134,-1,-1,-1,-1
169,825,189,100,50,141,-1,-1,-1,-1
169,826,258,98,49,137,-1,-1,-1,-1
169,832,333,110,49,138,-1,-1,-1,-1
169,834,432,107,53,150,-1,-1,-1,-1
169,835,111,85,70,198,-1,-1,-1,-1
169,836,384,116,49,137,-1,-1,-1,-1
170,825,188,99,50,142,-1,-1,-1,-1
170,826,257,98,48,137,-1,-1,-1,-1
170,832,332,109,50,140,-1,-1,-1,-1
170,834,432,105,53,150,-1,-1,-1,-1
170,835,112,83,71,199,-1,-1,-1,-1
170,836,382,115,49,139,-1,-1,-1,-1
171,825,189,100,50,141,-1,-1,-1,-1
171,826,258,98,49,137,-1,-1,-1,-1
171,832,329,109,50,141,-1,-1,-1,-1
171,834,429,105,54,151,-1,-1,-1,-1
171,835,115,80,71,198,-1,-1,-1,-1
171,836,380,115,50,141,-1,-1,-1,-1
172,825,189,101,50,140,-1,-1,-1,-1
172,826,258,98,49,137,-1,-1,-1,-1
172,832,328,109,50,142,-1,-1,-1,-1
172,834,428,105,54,151,-1,-1,-1,-1
172,835,116,79,70,196,-1,-1,-1,-1
172,836,378,115,50,141,-1,-1,-1,-1
173,825,187,102,50,142,-1,-1,-1,-1
173,826,258,98,49,139,-1,-1,-1,-1
173,832,325,109,48,135,-1,-1,-1,-1
173,834,426,105,54,151,-1,-1,-1,-1
173,835,129,92,65,184,-1,-1,-1,-1
173,836,375,115,50,140,-1,-1,-1,-1
174,825,186,102,51,143,-1,-1,-1,-1
174,826,258,98,49,139,-1,-1,-1,-1
174,832,323,110,47,133,-1,-1,-1,-1
174,834,425,104,54,151,-1,-1,-1,-1
174,835,133,97,63,177,-1,-1,-1,-1
174,836,374,115,49,138,-1,-1,-1,-1
175,825,186,103,51,144,-1,-1,-1,-1
175,826,257,99,50,140,-1,-1,-1,-1
175,832,321,109,48,134,-1,-1,-1,-1
175,834,423,106,54,152,-1,-1,-1,-1
175,835,138,101,63,177,-1,-1,-1,-1
175,836,372,116,49,138,-1,-1,-1,-1
176,825,186,103,51,144,-1,-1,-1,-1
176,826,257,100,49,139,-1,-1,-1,-1
176,832,320,109,48,134,-1,-1,-1,-1
176,834,423,106,54,152,-1,-1,-1,-1
176,835,139,103,62,175,-1,-1,-1,-1
176,836,372,116,49,137,-1,-1,-1,-1
177,825,187,106,50,140,-1,-1,-1,-1
177,826,257,100,49,138,-1,-1,-1,-1
177,832,318,107,48,136,-1,-1,-1,-1
177,834,423,107,54,151,-1,-1,-1,-1
177,835,145,113,58,163,-1,-1,-1,-1
177,836,371,117,49,137,-1,-1,-1,-1
178,825,187,106,49,138,-1,-1,-1,-1
178,826,256,100,49,137,-1,-1,-1,-1
178,832,318,107,48,136,-1,-1,-1,-1
178,834,423,108,54,151,-1,-1,-1,-1
178,835,146,116,56,158,-1,-1,-1,-1
178,836,370,117,49,137,-1,-1,-1,-1
179,825,185,108,50,142,-1,-1,-1,-1
179,826,256,101,48,137,-1,-1,-1,-1
179,832,315,107,48,136,-1,-1,-1,-1
179,834,419,108,54,152,-1,-1,-1,-1
179,835,149,119,55,154,-1,-1,-1,-1
179,836,369,117,48,136,-1,-1,-1,-1
