1,3,253,222,33,92,1,-1,-1,-1
1,2,642,240,41,84,1,-1,-1,-1
1,1,503,158,26,73,1,-1,-1,-1
2,3,256,221,32,92,1,-1,-1,-1
2,2,635,240,41,83,1,-1,-1,-1
2,1,500,158,26,72,1,-1,-1,-1
3,4,495,334,18,44,1,-1,-1,-1
3,3,262,217,39,94,1,-1,-1,-1
3,2,629,242,36,80,1,-1,-1,-1
3,1,499,160,26,72,1,-1,-1,-1
4,3,273,217,41,93,1,-1,-1,-1
4,2,615,242,34,79,1,-1,-1,-1
4,1,496,160,26,72,1,-1,-1,-1
5,3,281,215,37,90,1,-1,-1,-1
5,2,604,239,38,82,1,-1,-1,-1
5,1,491,160,27,75,1,-1,-1,-1
6,3,286,214,34,89,1,-1,-1,-1
6,2,593,238,40,83,1,-1,-1,-1
6,1,487,160,28,76,1,-1,-1,-1
7,3,291,213,35,92,1,-1,-1,-1
7,2,587,237,37,83,1,-1,-1,-1
7,1,481,159,29,80,1,-1,-1,-1
8,3,295,212,36,93,1,-1,-1,-1
8,2,579,235,34,82,1,-1,-1,-1
8,1,477,158,30,81,1,-1,-1,-1
9,3,302,212,35,90,1,-1,-1,-1
9,2,573,236,31,82,1,-1,-1,-1
9,1,474,159,29,81,1,-1,-1,-1
10,3,306,209,34,89,1,-1,-1,-1
10,2,566,236,29,82,1,-1,-1,-1
10,1,471,161,28,79,1,-1,-1,-1
11,3,315,206,34,88,1,-1,-1,-1
11,2,552,235,30,85,1,-1,-1,-1
11,1,466,164,30,81,1,-1,-1,-1
12,3,322,205,35,88,1,-1,-1,-1
12,2,542,234,31,86,1,-1,-1,-1
12,1,461,165,31,81,1,-1,-1,-1
13,3,326,202,36,89,1,-1,-1,-1
13,2,531,234,31,87,1,-1,-1,-1
13,1,456,165,31,81,1,-1,-1,-1
14,3,334,198,37,90,1,-1,-1,-1
14,2,515,234,32,87,1,-1,-1,-1
14,1,449,165,30,80,1,-1,-1,-1
15,3,339,197,36,89,1,-1,-1,-1
15,2,505,235,32,86,1,-1,-1,-1
15,1,445,168,31,80,1,-1,-1,-1
16,6,723,287,34,96,1,-1,-1,-1
16,3,342,197,35,89,1,-1,-1,-1
16,2,497,233,32,86,1,-1,-1,-1
16,1,441,169,30,80,1,-1,-1,-1
17,6,720,282,36,102,1,-1,-1,-1
17,3,346,196,34,88,1,-1,-1,-1
17,2,488,234,33,85,1,-1,-1,-1
17,1,436,169,31,79,1,-1,-1,-1
18,6,713,277,37,104,1,-1,-1,-1
18,3,351,194,34,88,1,-1,-1,-1
18,2,472,235,34,84,1,-1,-1,-1
18,1,433,169,31,78,1,-1,-1,-1
19,6,703,277,38,107,1,-1,-1,-1
19,3,355,194,32,88,1,-1,-1,-1
19,2,463,233,34,85,1,-1,-1,-1
20,6,694,275,38,105,1,-1,-1,-1
20,5,724,283,31,88,1,-1,-1,-1
20,3,359,195,31,88,1,-1,-1,-1
20,2,455,232,34,85,1,-1,-1,-1
21,6,687,269,39,108,1,-1,-1,-1
21,5,725,276,32,90,1,-1,-1,-1
21,3,365,193,31,88,1,-1,-1,-1
21,2,443,232,36,86,1,-1,-1,-1
22,6,681,263,40,110,1,-1,-1,-1
22,5,723,274,32,90,1,-1,-1,-1
22,3,369,192,31,88,1,-1,-1,-1
22,2,434,231,38,87,1,-1,-1,-1
23,6,676,263,40,111,1,-1,-1,-1
23,5,717,271,33,94,1,-1,-1,-1
23,3,371,190,31,87,1,-1,-1,-1
23,2,426,230,35,86,1,-1,-1,-1
24,6,666,260,40,111,1,-1,-1,-1
24,5,707,266,34,96,1,-1,-1,-1
24,3,374,190,30,85,1,-1,-1,-1
24,2,420,230,34,85,1,-1,-1,-1
25,6,660,256,41,110,1,-1,-1,-1
25,5,694,259,36,100,1,-1,-1,-1
25,3,381,186,30,86,1,-1,-1,-1
25,2,406,206,36,96,1,-1,-1,-1
26,6,656,255,41,109,1,-1,-1,-1
26,5,687,256,37,103,1,-1,-1,-1
26,3,383,184,30,86,1,-1,-1,-1
26,2,401,195,37,104,1,-1,-1,-1
27,6,649,255,40,108,1,-1,-1,-1
27,5,681,254,37,105,1,-1,-1,-1
27,3,383,184,31,89,1,-1,-1,-1
27,2,398,192,37,105,1,-1,-1,-1
28,6,644,254,39,108,1,-1,-1,-1
28,5,677,253,38,107,1,-1,-1,-1
28,3,382,183,32,90,1,-1,-1,-1
28,2,397,191,37,104,1,-1,-1,-1
29,6,639,251,39,106,1,-1,-1,-1
29,5,672,252,38,106,1,-1,-1,-1
29,3,382,184,32,91,1,-1,-1,-1
30,6,632,248,39,105,1,-1,-1,-1
30,5,668,248,37,106,1,-1,-1,-1
30,2,378,181,36,101,1,-1,-1,-1
31,6,627,250,38,105,1,-1,-1,-1
31,5,665,250,35,99,1,-1,-1,-1
32,6,620,250,37,105,1,-1,-1,-1
32,5,658,252,33,93,1,-1,-1,-1
33,6,613,248,39,103,1,-1,-1,-1
33,5,648,247,37,101,1,-1,-1,-1
33,1,379,183,33,92,1,-1,-1,-1
34,6,608,245,41,102,1,-1,-1,-1
34,5,642,246,39,100,1,-1,-1,-1
34,1,379,183,32,92,1,-1,-1,-1
35,6,605,242,41,103,1,-1,-1,-1
35,1,379,183,31,89,1,-1,-1,-1
36,6,602,240,41,103,1,-1,-1,-1
36,1,379,183,31,87,1,-1,-1,-1
37,6,602,238,41,102,1,-1,-1,-1
37,1,379,181,30,86,1,-1,-1,-1
38,6,598,235,40,101,1,-1,-1,-1
38,1,379,181,30,84,1,-1,-1,-1
39,6,584,232,39,101,1,-1,-1,-1
39,5,605,232,38,101,1,-1,-1,-1
39,3,415,180,31,87,1,-1,-1,-1
39,1,378,179,30,85,1,-1,-1,-1
40,6,573,228,37,101,1,-1,-1,-1
40,5,596,231,36,100,1,-1,-1,-1
40,3,416,179,31,87,1,-1,-1,-1
40,1,377,177,30,85,1,-1,-1,-1
41,6,566,227,37,101,1,-1,-1,-1
41,5,593,230,36,100,1,-1,-1,-1
41,3,425,179,30,84,1,-1,-1,-1
41,1,377,177,29,82,1,-1,-1,-1
42,6,561,226,37,100,1,-1,-1,-1
42,5,589,227,36,100,1,-1,-1,-1
42,3,427,179,29,82,1,-1,-1,-1
42,1,378,177,28,80,1,-1,-1,-1
43,6,563,224,36,98,1,-1,-1,-1
43,3,435,184,28,79,1,-1,-1,-1
43,1,381,178,28,79,1,-1,-1,-1
44,8,729,290,26,73,1,-1,-1,-1
44,6,559,221,36,97,1,-1,-1,-1
44,3,437,186,27,77,1,-1,-1,-1
44,1,382,179,28,78,1,-1,-1,-1
45,8,720,280,32,91,1,-1,-1,-1
45,6,548,219,35,96,1,-1,-1,-1
45,5,574,222,35,97,1,-1,-1,-1
45,3,439,183,28,78,1,-1,-1,-1
45,1,382,177,28,78,1,-1,-1,-1
46,8,714,275,35,99,1,-1,-1,-1
46,6,540,219,35,95,1,-1,-1,-1
46,5,571,222,34,94,1,-1,-1,-1
46,3,439,179,28,79,1,-1,-1,-1
46,1,382,176,28,78,1,-1,-1,-1
47,8,705,274,38,108,1,-1,-1,-1
47,6,534,218,35,94,1,-1,-1,-1
47,5,569,221,34,94,1,-1,-1,-1
47,3,436,174,29,81,1,-1,-1,-1
47,1,382,176,28,80,1,-1,-1,-1
48,8,693,269,40,114,1,-1,-1,-1
48,6,525,215,35,94,1,-1,-1,-1
48,5,565,219,34,93,1,-1,-1,-1
48,3,434,172,29,82,1,-1,-1,-1
48,1,381,175,28,80,1,-1,-1,-1
49,8,688,265,38,107,1,-1,-1,-1
49,6,519,214,34,94,1,-1,-1,-1
49,5,562,216,34,93,1,-1,-1,-1
49,3,432,171,29,82,1,-1,-1,-1
49,1,379,178,28,80,1,-1,-1,-1
50,8,684,265,36,101,1,-1,-1,-1
50,6,515,214,34,94,1,-1,-1,-1
50,5,558,215,34,92,1,-1,-1,-1
50,3,431,171,29,80,1,-1,-1,-1
50,1,377,178,28,79,1,-1,-1,-1
51,8,674,261,38,106,1,-1,-1,-1
51,6,505,214,35,95,1,-1,-1,-1
51,5,551,214,33,91,1,-1,-1,-1
51,3,426,171,29,79,1,-1,-1,-1
51,1,376,178,28,79,1,-1,-1,-1
52,8,668,258,39,109,1,-1,-1,-1
52,6,499,214,36,95,1,-1,-1,-1
52,5,546,214,33,91,1,-1,-1,-1
52,3,423,171,29,78,1,-1,-1,-1
52,1,375,178,28,79,1,-1,-1,-1
53,8,661,254,39,111,1,-1,-1,-1
53,6,497,210,35,96,1,-1,-1,-1
53,5,542,211,32,91,1,-1,-1,-1
53,3,416,171,28,79,1,-1,-1,-1
53,1,376,179,28,78,1,-1,-1,-1
54,8,656,251,40,112,1,-1,-1,-1
54,6,494,209,34,96,1,-1,-1,-1
54,5,539,210,31,88,1,-1,-1,-1
54,3,413,171,27,77,1,-1,-1,-1
54,1,377,180,27,78,1,-1,-1,-1
55,8,646,248,40,113,1,-1,-1,-1
55,6,486,206,34,96,1,-1,-1,-1
55,5,530,210,32,90,1,-1,-1,-1
55,1,379,179,28,78,1,-1,-1,-1
56,8,640,247,40,112,1,-1,-1,-1
56,6,479,203,34,95,1,-1,-1,-1
56,5,525,210,32,90,1,-1,-1,-1
56,1,380,179,28,78,1,-1,-1,-1
57,8,636,246,39,111,1,-1,-1,-1
57,6,479,203,33,94,1,-1,-1,-1
57,5,522,207,32,90,1,-1,-1,-1
57,1,380,178,28,79,1,-1,-1,-1
58,8,630,243,39,109,1,-1,-1,-1
58,6,474,203,33,93,1,-1,-1,-1
58,5,518,206,31,89,1,-1,-1,-1
58,1,380,178,28,79,1,-1,-1,-1
59,8,624,238,38,106,1,-1,-1,-1
59,6,472,202,33,93,1,-1,-1,-1
59,5,516,204,30,86,1,-1,-1,-1
59,1,380,177,28,79,1,-1,-1,-1
60,8,619,236,37,104,1,-1,-1,-1
60,6,469,201,33,93,1,-1,-1,-1
60,5,512,204,29,83,1,-1,-1,-1
60,1,380,176,28,79,1,-1,-1,-1
61,8,613,232,37,104,1,-1,-1,-1
61,6,466,199,33,93,1,-1,-1,-1
61,5,503,202,29,83,1,-1,-1,-1
61,1,376,178,27,77,1,-1,-1,-1
62,8,608,228,36,103,1,-1,-1,-1
62,6,465,199,33,93,1,-1,-1,-1
62,5,497,201,29,82,1,-1,-1,-1
62,1,374,178,26,75,1,-1,-1,-1
63,8,607,229,36,100,1,-1,-1,-1
63,6,463,195,33,92,1,-1,-1,-1
63,5,493,199,29,83,1,-1,-1,-1
63,1,381,179,26,75,1,-1,-1,-1
64,8,604,230,35,98,1,-1,-1,-1
64,6,460,193,32,91,1,-1,-1,-1
64,5,489,199,29,82,1,-1,-1,-1
64,1,384,180,26,74,1,-1,-1,-1
65,8,602,229,34,95,1,-1,-1,-1
65,6,458,192,32,90,1,-1,-1,-1
65,5,486,197,29,83,1,-1,-1,-1
65,1,384,178,26,75,1,-1,-1,-1
66,10,333,165,27,76,1,-1,-1,-1
66,8,599,226,33,93,1,-1,-1,-1
66,6,455,189,32,89,1,-1,-1,-1
66,5,483,195,29,83,1,-1,-1,-1
66,1,384,177,27,75,1,-1,-1,-1
67,10,323,166,27,74,1,-1,-1,-1
67,8,598,223,32,91,1,-1,-1,-1
67,6,453,191,32,88,1,-1,-1,-1
67,5,483,193,29,83,1,-1,-1,-1
67,1,383,178,28,79,1,-1,-1,-1
68,10,315,167,28,71,1,-1,-1,-1
68,8,595,222,32,90,1,-1,-1,-1
68,6,449,191,32,87,1,-1,-1,-1
68,5,480,193,29,82,1,-1,-1,-1
68,1,382,177,29,82,1,-1,-1,-1
69,10,303,168,27,71,1,-1,-1,-1
69,8,590,218,32,89,1,-1,-1,-1
69,6,449,190,32,86,1,-1,-1,-1
69,5,480,193,29,81,1,-1,-1,-1
69,1,379,177,30,84,1,-1,-1,-1
70,10,297,168,26,71,1,-1,-1,-1
70,8,586,214,31,88,1,-1,-1,-1
70,6,448,189,31,85,1,-1,-1,-1
70,5,478,191,28,79,1,-1,-1,-1
70,1,378,176,30,85,1,-1,-1,-1
71,10,291,171,28,70,1,-1,-1,-1
71,8,585,209,32,89,1,-1,-1,-1
71,6,451,188,31,84,1,-1,-1,-1
71,5,478,190,28,78,1,-1,-1,-1
71,1,377,177,30,86,1,-1,-1,-1
72,10,285,172,29,70,1,-1,-1,-1
72,8,582,206,32,89,1,-1,-1,-1
72,6,452,187,31,84,1,-1,-1,-1
72,5,477,189,27,77,1,-1,-1,-1
72,1,376,177,30,86,1,-1,-1,-1
73,10,279,172,27,66,1,-1,-1,-1
73,8,580,205,31,89,1,-1,-1,-1
73,6,455,185,30,83,1,-1,-1,-1
73,5,477,189,27,76,1,-1,-1,-1
73,1,375,176,30,86,1,-1,-1,-1
74,10,276,171,26,64,1,-1,-1,-1
74,8,579,204,31,88,1,-1,-1,-1
74,6,456,184,29,83,1,-1,-1,-1
74,5,476,189,26,74,1,-1,-1,-1
74,1,375,176,30,85,1,-1,-1,-1
75,10,271,173,26,64,1,-1,-1,-1
75,8,577,204,30,86,1,-1,-1,-1
75,6,459,184,28,80,1,-1,-1,-1
75,5,477,189,26,73,1,-1,-1,-1
75,1,376,178,30,84,1,-1,-1,-1
76,11,424,176,28,80,1,-1,-1,-1
76,10,265,173,27,64,1,-1,-1,-1
76,8,574,201,30,85,1,-1,-1,-1
76,6,459,182,27,78,1,-1,-1,-1
76,5,477,188,25,72,1,-1,-1,-1
76,1,376,179,29,82,1,-1,-1,-1
77,11,425,175,28,78,1,-1,-1,-1
77,10,260,175,28,66,1,-1,-1,-1
77,8,574,201,30,84,1,-1,-1,-1
77,6,456,180,26,75,1,-1,-1,-1
77,5,476,181,25,72,1,-1,-1,-1
77,1,377,179,29,81,1,-1,-1,-1
78,11,425,175,27,77,1,-1,-1,-1
78,10,258,175,29,68,1,-1,-1,-1
78,8,574,201,29,83,1,-1,-1,-1
78,6,455,179,25,71,1,-1,-1,-1
78,5,476,178,25,71,1,-1,-1,-1
78,1,378,179,28,79,1,-1,-1,-1
79,11,423,175,28,79,1,-1,-1,-1
79,10,257,176,29,70,1,-1,-1,-1
79,8,573,197,29,82,1,-1,-1,-1
79,6,456,177,26,73,1,-1,-1,-1
79,5,475,179,25,72,1,-1,-1,-1
79,1,379,177,28,80,1,-1,-1,-1
80,11,422,175,28,80,1,-1,-1,-1
80,10,257,175,28,71,1,-1,-1,-1
80,8,571,194,28,81,1,-1,-1,-1
80,6,457,174,26,73,1,-1,-1,-1
80,5,474,177,26,73,1,-1,-1,-1
80,1,380,176,28,80,1,-1,-1,-1
81,11,424,173,29,81,1,-1,-1,-1
81,10,257,175,28,72,1,-1,-1,-1
81,8,569,193,29,82,1,-1,-1,-1
81,6,456,172,26,75,1,-1,-1,-1
81,5,475,176,26,73,1,-1,-1,-1
81,1,380,176,29,82,1,-1,-1,-1
82,11,425,172,29,81,1,-1,-1,-1
82,10,256,175,28,72,1,-1,-1,-1
82,8,568,192,29,82,1,-1,-1,-1
82,6,455,171,27,76,1,-1,-1,-1
82,5,474,175,25,72,1,-1,-1,-1
82,1,379,175,30,84,1,-1,-1,-1
83,10,259,176,28,73,1,-1,-1,-1
83,8,566,188,29,83,1,-1,-1,-1
83,6,454,172,26,75,1,-1,-1,-1
83,5,476,175,25,70,1,-1,-1,-1
83,1,382,176,29,83,1,-1,-1,-1
84,13,268,43,14,37,1,-1,-1,-1
84,10,262,176,28,73,1,-1,-1,-1
84,8,565,186,30,84,1,-1,-1,-1
84,6,453,170,26,74,1,-1,-1,-1
84,5,479,173,24,68,1,-1,-1,-1
84,1,382,176,29,82,1,-1,-1,-1
85,13,266,43,14,38,1,-1,-1,-1
85,10,265,176,28,72,1,-1,-1,-1
85,8,564,184,29,83,1,-1,-1,-1
85,6,453,169,26,75,1,-1,-1,-1
85,5,480,172,24,69,1,-1,-1,-1
85,1,382,178,29,81,1,-1,-1,-1
86,13,263,43,14,38,1,-1,-1,-1
86,12,496,335,16,43,1,-1,-1,-1
86,10,267,176,28,72,1,-1,-1,-1
86,8,563,183,29,82,1,-1,-1,-1
86,6,453,168,26,75,1,-1,-1,-1
86,5,481,170,25,70,1,-1,-1,-1
86,1,381,178,28,80,1,-1,-1,-1
87,13,257,49,15,38,1,-1,-1,-1
87,12,496,335,17,43,1,-1,-1,-1
87,10,272,181,29,72,1,-1,-1,-1
87,8,565,182,29,81,1,-1,-1,-1
87,6,454,166,26,74,1,-1,-1,-1
87,5,483,170,25,70,1,-1,-1,-1
87,1,382,177,28,80,1,-1,-1,-1
88,13,254,51,16,37,1,-1,-1,-1
88,12,495,335,17,43,1,-1,-1,-1
88,10,275,182,29,71,1,-1,-1,-1
88,8,566,180,28,79,1,-1,-1,-1
88,6,456,165,26,73,1,-1,-1,-1
88,5,483,169,24,69,1,-1,-1,-1
88,1,381,176,28,80,1,-1,-1,-1
89,12,496,336,17,43,1,-1,-1,-1
89,10,279,183,29,73,1,-1,-1,-1
89,8,567,175,29,81,1,-1,-1,-1
89,6,458,162,26,75,1,-1,-1,-1
89,5,483,164,25,71,1,-1,-1,-1
89,1,380,178,28,80,1,-1,-1,-1
90,12,496,336,16,43,1,-1,-1,-1
90,10,282,183,28,74,1,-1,-1,-1
90,8,567,173,29,82,1,-1,-1,-1
90,6,460,161,27,76,1,-1,-1,-1
90,5,483,162,25,72,1,-1,-1,-1
90,1,380,178,28,80,1,-1,-1,-1
91,13,247,53,17,39,1,-1,-1,-1
91,10,285,185,29,75,1,-1,-1,-1
91,8,569,173,29,82,1,-1,-1,-1
91,6,459,160,27,76,1,-1,-1,-1
91,5,486,160,26,73,1,-1,-1,-1
91,1,381,178,28,80,1,-1,-1,-1
92,13,245,53,17,39,1,-1,-1,-1
92,10,288,185,29,76,1,-1,-1,-1
92,8,570,172,29,82,1,-1,-1,-1
92,6,460,160,27,76,1,-1,-1,-1
92,5,488,159,26,74,1,-1,-1,-1
92,1,381,177,28,80,1,-1,-1,-1
93,13,240,53,16,36,1,-1,-1,-1
93,12,495,335,17,44,1,-1,-1,-1
93,10,296,188,29,76,1,-1,-1,-1
93,8,573,167,29,82,1,-1,-1,-1
93,6,464,158,26,74,1,-1,-1,-1
93,5,488,156,26,75,1,-1,-1,-1
93,1,383,178,28,80,1,-1,-1,-1
94,13,237,54,15,34,1,-1,-1,-1
94,12,495,334,17,45,1,-1,-1,-1
94,10,301,189,29,76,1,-1,-1,-1
94,8,574,165,28,80,1,-1,-1,-1
94,6,466,156,26,73,1,-1,-1,-1
94,5,490,155,26,75,1,-1,-1,-1
94,1,383,178,28,80,1,-1,-1,-1
95,13,235,56,16,33,1,-1,-1,-1
95,12,496,334,17,44,1,-1,-1,-1
95,10,306,192,30,77,1,-1,-1,-1
95,8,576,164,29,81,1,-1,-1,-1
95,5,489,153,26,73,1,-1,-1,-1
95,1,386,176,29,81,1,-1,-1,-1
96,13,233,57,16,33,1,-1,-1,-1
96,12,496,334,17,44,1,-1,-1,-1
96,10,312,194,30,77,1,-1,-1,-1
96,8,576,164,29,81,1,-1,-1,-1
96,5,491,152,25,71,1,-1,-1,-1
96,1,386,174,29,82,1,-1,-1,-1
97,13,231,57,16,33,1,-1,-1,-1
97,12,496,334,17,44,1,-1,-1,-1
97,10,319,191,30,80,1,-1,-1,-1
97,8,579,160,28,80,1,-1,-1,-1
97,5,489,149,26,73,1,-1,-1,-1
97,1,385,174,30,84,1,-1,-1,-1
98,13,228,57,16,33,1,-1,-1,-1
98,12,496,333,17,43,1,-1,-1,-1
98,10,323,189,30,82,1,-1,-1,-1
98,8,580,159,28,78,1,-1,-1,-1
98,5,490,146,27,73,1,-1,-1,-1
98,1,384,174,30,86,1,-1,-1,-1
99,13,227,58,16,34,1,-1,-1,-1
99,12,496,334,17,43,1,-1,-1,-1
99,10,330,189,30,84,1,-1,-1,-1
99,8,583,155,28,80,1,-1,-1,-1
99,5,491,146,28,73,1,-1,-1,-1
99,1,384,176,30,86,1,-1,-1,-1
100,13,223,57,17,34,1,-1,-1,-1
100,12,496,334,17,43,1,-1,-1,-1
100,10,338,190,29,82,1,-1,-1,-1
100,8,585,152,28,81,1,-1,-1,-1
100,5,495,145,28,73,1,-1,-1,-1
100,1,383,176,30,85,1,-1,-1,-1
101,13,219,57,17,35,1,-1,-1,-1
101,12,496,334,17,44,1,-1,-1,-1
101,10,345,194,29,83,1,-1,-1,-1
101,8,587,147,29,82,1,-1,-1,-1
101,5,497,145,28,73,1,-1,-1,-1
101,1,378,182,31,87,1,-1,-1,-1
102,13,216,56,16,35,1,-1,-1,-1
102,12,496,334,17,43,1,-1,-1,-1
102,10,351,196,29,83,1,-1,-1,-1
102,8,590,143,29,82,1,-1,-1,-1
102,5,499,143,28,73,1,-1,-1,-1
102,1,376,183,31,88,1,-1,-1,-1
103,13,212,58,17,36,1,-1,-1,-1
103,12,495,335,17,44,1,-1,-1,-1
103,8,593,145,29,81,1,-1,-1,-1
103,5,499,141,27,73,1,-1,-1,-1
103,1,371,184,32,90,1,-1,-1,-1
104,14,213,53,16,38,1,-1,-1,-1
104,13,207,57,18,37,1,-1,-1,-1
104,12,495,334,17,45,1,-1,-1,-1
104,8,595,146,28,80,1,-1,-1,-1
104,5,501,140,26,73,1,-1,-1,-1
104,1,375,183,32,91,1,-1,-1,-1
105,14,210,53,17,39,1,-1,-1,-1
105,13,203,58,18,38,1,-1,-1,-1
105,12,496,334,17,45,1,-1,-1,-1
105,8,598,144,28,80,1,-1,-1,-1
105,5,502,139,26,72,1,-1,-1,-1
105,1,374,188,33,91,1,-1,-1,-1
106,15,531,141,23,65,1,-1,-1,-1
106,14,206,53,17,39,1,-1,-1,-1
106,13,198,58,18,38,1,-1,-1,-1
106,12,496,334,17,45,1,-1,-1,-1
106,8,600,141,28,80,1,-1,-1,-1
106,5,507,137,26,70,1,-1,-1,-1
106,1,382,190,33,91,1,-1,-1,-1
107,15,531,139,24,68,1,-1,-1,-1
107,13,197,59,18,38,1,-1,-1,-1
107,12,495,335,17,45,1,-1,-1,-1
107,8,605,141,28,80,1,-1,-1,-1
107,5,510,138,26,70,1,-1,-1,-1
107,1,384,182,33,93,1,-1,-1,-1
108,15,533,139,25,70,1,-1,-1,-1
108,14,197,57,17,39,1,-1,-1,-1
108,12,495,335,17,45,1,-1,-1,-1
108,8,609,141,28,80,1,-1,-1,-1
108,5,511,138,27,69,1,-1,-1,-1
108,1,384,178,33,94,1,-1,-1,-1
109,15,531,138,25,70,1,-1,-1,-1
109,14,194,58,17,40,1,-1,-1,-1
109,12,495,335,17,45,1,-1,-1,-1
109,8,611,139,28,79,1,-1,-1,-1
109,1,379,174,34,94,1,-1,-1,-1
110,15,532,137,25,69,1,-1,-1,-1
110,14,192,57,17,39,1,-1,-1,-1
110,12,494,335,17,45,1,-1,-1,-1
110,8,614,139,27,78,1,-1,-1,-1
110,1,377,172,34,94,1,-1,-1,-1
111,15,534,137,25,69,1,-1,-1,-1
111,14,192,58,17,40,1,-1,-1,-1
111,12,495,335,17,45,1,-1,-1,-1
111,8,615,137,27,76,1,-1,-1,-1
111,1,374,171,33,90,1,-1,-1,-1
112,16,560,144,21,60,1,-1,-1,-1
112,15,535,136,24,69,1,-1,-1,-1
112,14,190,59,17,40,1,-1,-1,-1
112,12,494,335,17,45,1,-1,-1,-1
112,8,617,137,26,74,1,-1,-1,-1
112,1,373,171,31,87,1,-1,-1,-1
113,16,560,141,22,62,1,-1,-1,-1
113,15,538,135,25,70,1,-1,-1,-1
113,14,190,59,17,40,1,-1,-1,-1
113,12,495,335,17,45,1,-1,-1,-1
113,8,621,136,26,74,1,-1,-1,-1
113,1,370,174,31,85,1,-1,-1,-1
114,16,563,140,22,62,1,-1,-1,-1
114,15,542,134,25,70,1,-1,-1,-1
114,14,187,59,17,40,1,-1,-1,-1
114,12,495,334,17,44,1,-1,-1,-1
114,8,624,134,26,73,1,-1,-1,-1
114,1,369,176,30,84,1,-1,-1,-1
115,16,564,138,23,64,1,-1,-1,-1
115,15,541,133,25,71,1,-1,-1,-1
115,14,184,59,17,41,1,-1,-1,-1
115,12,495,335,17,45,1,-1,-1,-1
115,8,629,137,25,71,1,-1,-1,-1
115,1,369,176,29,82,1,-1,-1,-1
116,18,465,203,27,77,1,-1,-1,-1
116,16,565,135,23,65,1,-1,-1,-1
116,15,542,132,26,71,1,-1,-1,-1
116,14,182,58,17,42,1,-1,-1,-1
116,12,495,335,17,45,1,-1,-1,-1
116,8,632,139,24,69,1,-1,-1,-1
116,1,368,177,28,80,1,-1,-1,-1
117,18,471,204,30,80,1,-1,-1,-1
117,16,566,135,23,64,1,-1,-1,-1
117,15,542,131,25,71,1,-1,-1,-1
117,13,170,62,18,40,1,-1,-1,-1
117,12,495,335,17,44,1,-1,-1,-1
117,8,635,139,24,69,1,-1,-1,-1
117,1,370,178,28,80,1,-1,-1,-1
118,19,731,171,34,96,1,-1,-1,-1
118,18,482,204,31,81,1,-1,-1,-1
118,16,569,133,22,63,1,-1,-1,-1
118,15,545,129,25,70,1,-1,-1,-1
118,13,165,63,18,40,1,-1,-1,-1
118,12,495,335,17,44,1,-1,-1,-1
118,8,639,136,24,69,1,-1,-1,-1
118,1,370,179,28,78,1,-1,-1,-1
119,18,492,207,29,82,1,-1,-1,-1
119,16,568,132,23,66,1,-1,-1,-1
119,15,551,132,25,71,1,-1,-1,-1
119,12,495,336,17,44,1,-1,-1,-1
119,8,642,134,24,69,1,-1,-1,-1
119,1,371,183,27,77,1,-1,-1,-1
120,18,499,211,27,78,1,-1,-1,-1
120,16,568,131,24,67,1,-1,-1,-1
120,15,554,132,25,71,1,-1,-1,-1
120,12,496,336,17,44,1,-1,-1,-1
120,8,643,133,24,69,1,-1,-1,-1
120,1,372,184,27,76,1,-1,-1,-1
121,19,729,166,35,99,1,-1,-1,-1
121,18,509,211,28,80,1,-1,-1,-1
121,16,572,130,23,66,1,-1,-1,-1
121,8,651,132,24,68,1,-1,-1,-1
121,1,375,183,27,78,1,-1,-1,-1
122,20,686,208,37,88,1,-1,-1,-1
122,19,728,165,35,98,1,-1,-1,-1
122,18,516,211,29,81,1,-1,-1,-1
122,16,575,130,23,65,1,-1,-1,-1
122,8,655,131,24,68,1,-1,-1,-1
122,1,375,182,28,79,1,-1,-1,-1
123,20,674,207,36,90,1,-1,-1,-1
123,19,733,155,31,88,1,-1,-1,-1
123,18,528,212,31,84,1,-1,-1,-1
123,16,576,124,24,68,1,-1,-1,-1
123,13,153,71,17,39,1,-1,-1,-1
123,8,658,127,24,67,1,-1,-1,-1
123,1,378,180,29,82,1,-1,-1,-1
124,20,665,204,36,91,1,-1,-1,-1
124,19,735,153,28,81,1,-1,-1,-1
124,18,535,213,33,83,1,-1,-1,-1
124,16,578,121,25,69,1,-1,-1,-1
124,13,151,71,16,39,1,-1,-1,-1
124,8,660,125,24,67,1,-1,-1,-1
124,1,379,179,30,84,1,-1,-1,-1
125,20,649,209,36,91,1,-1,-1,-1
125,19,735,145,26,73,1,-1,-1,-1
125,18,543,215,32,83,1,-1,-1,-1
125,16,578,121,25,69,1,-1,-1,-1
125,13,147,72,17,39,1,-1,-1,-1
125,8,662,129,24,69,1,-1,-1,-1
125,1,380,178,30,84,1,-1,-1,-1
126,21,602,131,25,70,1,-1,-1,-1
126,20,639,209,36,90,1,-1,-1,-1
126,19,736,144,23,66,1,-1,-1,-1
126,18,549,216,32,84,1,-1,-1,-1
126,16,578,121,26,69,1,-1,-1,-1
126,13,144,72,17,38,1,-1,-1,-1
126,8,664,130,24,69,1,-1,-1,-1
126,1,380,178,30,84,1,-1,-1,-1
127,21,600,122,26,74,1,-1,-1,-1
127,20,633,210,37,93,1,-1,-1,-1
127,18,557,216,32,86,1,-1,-1,-1
127,16,579,120,26,69,1,-1,-1,-1
127,13,144,73,18,39,1,-1,-1,-1
127,8,664,133,26,70,1,-1,-1,-1
127,1,382,177,30,85,1,-1,-1,-1
128,22,677,121,23,64,1,-1,-1,-1
128,21,600,120,27,74,1,-1,-1,-1
128,20,622,205,38,94,1,-1,-1,-1
128,18,568,217,31,88,1,-1,-1,-1
128,16,582,119,27,69,1,-1,-1,-1
128,13,141,74,18,40,1,-1,-1,-1
128,8,665,133,26,69,1,-1,-1,-1
128,1,382,176,30,86,1,-1,-1,-1
129,22,676,122,23,67,1,-1,-1,-1
129,21,599,116,27,75,1,-1,-1,-1
129,20,614,205,36,93,1,-1,-1,-1
129,19,740,142,19,54,1,-1,-1,-1
129,18,577,217,31,89,1,-1,-1,-1
129,16,584,117,27,70,1,-1,-1,-1
129,13,141,75,18,39,1,-1,-1,-1
129,1,382,178,29,83,1,-1,-1,-1
130,22,677,122,24,67,1,-1,-1,-1
130,21,599,114,27,75,1,-1,-1,-1
130,20,607,205,35,92,1,-1,-1,-1
130,19,740,143,18,52,1,-1,-1,-1
130,18,583,217,31,88,1,-1,-1,-1
130,16,586,117,28,70,1,-1,-1,-1
130,13,139,76,17,38,1,-1,-1,-1
130,1,381,179,29,81,1,-1,-1,-1
131,22,682,120,24,67,1,-1,-1,-1
131,21,600,114,27,73,1,-1,-1,-1
131,20,596,212,37,92,1,-1,-1,-1
131,16,589,114,27,68,1,-1,-1,-1
131,13,136,79,17,38,1,-1,-1,-1
131,1,381,182,28,80,1,-1,-1,-1
132,22,685,118,23,66,1,-1,-1,-1
132,21,602,114,26,71,1,-1,-1,-1
132,18,603,217,35,90,1,-1,-1,-1
132,16,591,113,27,67,1,-1,-1,-1
132,13,134,80,17,38,1,-1,-1,-1
132,1,381,183,28,80,1,-1,-1,-1
133,22,686,119,22,64,1,-1,-1,-1
133,21,604,114,26,69,1,-1,-1,-1
133,20,575,203,36,90,1,-1,-1,-1
133,18,609,218,35,89,1,-1,-1,-1
133,13,133,80,17,38,1,-1,-1,-1
133,1,381,185,28,78,1,-1,-1,-1
134,22,688,120,22,61,1,-1,-1,-1
134,21,605,114,26,67,1,-1,-1,-1
134,20,567,200,35,90,1,-1,-1,-1
134,18,615,218,35,88,1,-1,-1,-1
134,13,130,80,17,38,1,-1,-1,-1
134,1,381,185,27,77,1,-1,-1,-1
135,22,692,122,22,62,1,-1,-1,-1
135,21,605,115,26,66,1,-1,-1,-1
135,20,563,197,34,89,1,-1,-1,-1
135,18,626,222,36,88,1,-1,-1,-1
135,13,126,79,17,37,1,-1,-1,-1
135,12,494,334,17,46,1,-1,-1,-1
135,1,381,186,27,77,1,-1,-1,-1
136,23,614,125,25,68,1,-1,-1,-1
136,22,694,122,22,61,1,-1,-1,-1
136,21,606,116,26,66,1,-1,-1,-1
136,20,560,193,33,89,1,-1,-1,-1
136,18,633,223,36,87,1,-1,-1,-1
136,13,123,79,16,36,1,-1,-1,-1
136,12,494,334,17,46,1,-1,-1,-1
136,1,381,186,27,77,1,-1,-1,-1
137,22,697,123,22,63,1,-1,-1,-1
137,21,608,113,26,66,1,-1,-1,-1
137,20,555,193,32,88,1,-1,-1,-1
137,18,638,224,36,87,1,-1,-1,-1
137,13,121,80,16,36,1,-1,-1,-1
137,12,495,335,17,46,1,-1,-1,-1
137,1,382,185,28,78,1,-1,-1,-1
138,25,706,245,38,94,1,-1,-1,-1
138,22,699,123,23,65,1,-1,-1,-1
138,21,611,111,25,67,1,-1,-1,-1
138,20,545,193,31,87,1,-1,-1,-1
138,18,648,223,36,87,1,-1,-1,-1
138,13,116,81,15,36,1,-1,-1,-1
138,12,495,335,17,46,1,-1,-1,-1
138,1,384,184,28,78,1,-1,-1,-1
139,25,686,231,41,103,1,-1,-1,-1
139,22,700,118,24,67,1,-1,-1,-1
139,21,611,111,25,66,1,-1,-1,-1
139,20,539,193,31,83,1,-1,-1,-1
139,18,660,224,36,89,1,-1,-1,-1
139,13,115,81,15,36,1,-1,-1,-1
139,1,384,184,28,78,1,-1,-1,-1
140,25,675,225,42,106,1,-1,-1,-1
140,22,702,115,24,69,1,-1,-1,-1
140,21,613,110,25,65,1,-1,-1,-1
140,20,533,192,31,80,1,-1,-1,-1
140,18,669,223,37,89,1,-1,-1,-1
140,13,113,81,15,36,1,-1,-1,-1
140,1,384,184,28,78,1,-1,-1,-1
141,22,703,114,25,71,1,-1,-1,-1
141,21,615,109,25,65,1,-1,-1,-1
141,20,521,193,32,79,1,-1,-1,-1
141,18,678,229,38,95,1,-1,-1,-1
141,13,107,81,15,36,1,-1,-1,-1
141,12,496,335,18,46,1,-1,-1,-1
141,1,385,184,28,79,1,-1,-1,-1
142,27,416,177,29,82,1,-1,-1,-1
142,22,703,113,25,71,1,-1,-1,-1
142,21,616,107,25,64,1,-1,-1,-1
142,20,512,193,33,79,1,-1,-1,-1
142,18,678,229,38,99,1,-1,-1,-1
142,13,102,81,15,36,1,-1,-1,-1
142,12,496,334,18,46,1,-1,-1,-1
142,1,385,183,28,80,1,-1,-1,-1
143,27,412,180,30,86,1,-1,-1,-1
143,25,654,229,41,105,1,-1,-1,-1
143,22,704,112,25,71,1,-1,-1,-1
143,21,616,110,24,63,1,-1,-1,-1
143,20,508,189,32,78,1,-1,-1,-1
143,18,696,227,37,97,1,-1,-1,-1
143,13,98,82,15,36,1,-1,-1,-1
143,1,384,185,28,79,1,-1,-1,-1
144,28,640,112,21,60,1,-1,-1,-1
144,27,410,181,31,87,1,-1,-1,-1
144,25,642,228,40,103,1,-1,-1,-1
144,22,705,111,25,71,1,-1,-1,-1
144,21,618,111,24,62,1,-1,-1,-1
144,20,499,184,31,77,1,-1,-1,-1
144,18,711,229,37,95,1,-1,-1,-1
144,13,93,84,15,36,1,-1,-1,-1
144,1,384,185,28,79,1,-1,-1,-1
145,28,638,111,22,61,1,-1,-1,-1
145,27,412,183,31,87,1,-1,-1,-1
145,25,636,229,39,103,1,-1,-1,-1
145,22,707,113,25,70,1,-1,-1,-1
145,21,622,110,25,61,1,-1,-1,-1
145,20,490,182,32,78,1,-1,-1,-1
145,18,717,225,36,92,1,-1,-1,-1
145,13,91,85,15,38,1,-1,-1,-1
145,1,383,188,27,77,1,-1,-1,-1
146,28,638,111,23,61,1,-1,-1,-1
146,27,413,184,31,86,1,-1,-1,-1
146,25,632,230,38,103,1,-1,-1,-1
146,22,707,113,24,69,1,-1,-1,-1
146,21,624,110,26,61,1,-1,-1,-1
146,20,482,180,32,79,1,-1,-1,-1
146,18,724,224,35,90,1,-1,-1,-1
146,13,89,84,15,39,1,-1,-1,-1
146,1,382,190,27,76,1,-1,-1,-1
147,28,639,110,23,61,1,-1,-1,-1
147,27,412,184,30,84,1,-1,-1,-1
147,25,621,227,37,100,1,-1,-1,-1
147,22,708,110,24,67,1,-1,-1,-1
147,21,624,109,25,60,1,-1,-1,-1
147,20,470,179,31,80,1,-1,-1,-1
147,18,736,227,32,87,1,-1,-1,-1
147,12,496,334,18,46,1,-1,-1,-1
147,1,382,191,26,74,1,-1,-1,-1
148,29,720,121,17,49,1,-1,-1,-1
148,28,640,109,23,61,1,-1,-1,-1
148,27,412,183,29,82,1,-1,-1,-1
148,25,613,226,36,98,1,-1,-1,-1
148,22,708,109,23,65,1,-1,-1,-1
148,21,625,108,25,60,1,-1,-1,-1
148,20,462,178,30,80,1,-1,-1,-1
148,18,744,228,31,85,1,-1,-1,-1
148,12,495,333,17,45,1,-1,-1,-1
148,1,382,191,26,73,1,-1,-1,-1
149,28,642,109,23,61,1,-1,-1,-1
149,25,605,227,34,95,1,-1,-1,-1
149,21,625,107,24,60,1,-1,-1,-1
149,20,451,180,32,82,1,-1,-1,-1
149,12,495,334,17,46,1,-1,-1,-1
149,1,385,192,27,76,1,-1,-1,-1
150,28,644,107,23,60,1,-1,-1,-1
150,25,594,228,33,93,1,-1,-1,-1
150,21,625,107,23,60,1,-1,-1,-1
150,20,439,177,33,82,1,-1,-1,-1
150,12,495,334,17,46,1,-1,-1,-1
150,1,387,192,28,78,1,-1,-1,-1
151,28,647,107,22,59,1,-1,-1,-1
151,25,588,224,33,92,1,-1,-1,-1
151,20,437,185,31,82,1,-1,-1,-1
151,13,77,84,17,41,1,-1,-1,-1
151,1,389,193,28,81,1,-1,-1,-1
152,28,650,107,21,57,1,-1,-1,-1
152,25,581,220,32,92,1,-1,-1,-1
152,20,438,187,29,82,1,-1,-1,-1
152,13,74,83,17,41,1,-1,-1,-1
152,1,389,193,29,82,1,-1,-1,-1
153,28,650,107,22,58,1,-1,-1,-1
153,27,415,184,30,84,1,-1,-1,-1
153,25,571,221,32,90,1,-1,-1,-1
153,22,717,118,21,59,1,-1,-1,-1
153,20,439,191,29,82,1,-1,-1,-1
154,30,698,110,23,65,1,-1,-1,-1
154,28,651,106,22,59,1,-1,-1,-1
154,27,414,184,30,84,1,-1,-1,-1
154,25,563,222,32,88,1,-1,-1,-1
154,22,717,119,20,57,1,-1,-1,-1
154,20,439,192,28,80,1,-1,-1,-1
155,30,695,110,22,63,1,-1,-1,-1
155,28,650,107,22,58,1,-1,-1,-1
155,27,412,186,31,89,1,-1,-1,-1
155,25,557,219,31,87,1,-1,-1,-1
155,22,723,123,19,54,1,-1,-1,-1
155,20,439,193,29,83,1,-1,-1,-1
156,31,53,89,16,39,1,-1,-1,-1
156,30,688,110,22,62,1,-1,-1,-1
156,28,651,107,22,58,1,-1,-1,-1
156,27,411,186,32,91,1,-1,-1,-1
156,25,547,217,30,85,1,-1,-1,-1
156,22,724,125,18,52,1,-1,-1,-1
156,20,441,193,30,84,1,-1,-1,-1
157,31,52,88,16,39,1,-1,-1,-1
157,30,684,108,21,61,1,-1,-1,-1
157,28,649,107,21,56,1,-1,-1,-1
157,27,414,189,32,91,1,-1,-1,-1
157,25,539,217,31,85,1,-1,-1,-1
157,20,446,195,30,84,1,-1,-1,-1
157,1,393,176,31,89,1,-1,-1,-1
158,31,49,87,16,39,1,-1,-1,-1
158,30,679,108,21,60,1,-1,-1,-1
158,28,650,105,21,55,1,-1,-1,-1
158,27,415,191,32,90,1,-1,-1,-1
158,25,527,217,32,84,1,-1,-1,-1
158,20,451,196,30,84,1,-1,-1,-1
158,1,393,173,32,91,1,-1,-1,-1
159,31,43,88,16,40,1,-1,-1,-1
159,30,681,108,22,63,1,-1,-1,-1
159,28,652,106,21,56,1,-1,-1,-1
159,25,520,218,32,84,1,-1,-1,-1
159,20,457,199,31,87,1,-1,-1,-1
160,31,40,88,16,40,1,-1,-1,-1
160,30,680,107,22,64,1,-1,-1,-1
160,28,653,106,21,56,1,-1,-1,-1
160,25,513,218,32,85,1,-1,-1,-1
160,20,461,200,31,87,1,-1,-1,-1
161,31,36,91,17,43,1,-1,-1,-1
161,30,680,105,23,65,1,-1,-1,-1
161,28,657,106,22,59,1,-1,-1,-1
161,27,428,200,33,93,1,-1,-1,-1
161,20,463,198,31,87,1,-1,-1,-1
162,32,344,173,29,72,1,-1,-1,-1
162,31,33,91,17,44,1,-1,-1,-1
162,30,679,103,23,65,1,-1,-1,-1
162,28,659,106,22,60,1,-1,-1,-1
162,27,429,201,33,94,1,-1,-1,-1
162,20,465,198,30,86,1,-1,-1,-1
163,32,335,171,30,74,1,-1,-1,-1
163,31,33,92,17,43,1,-1,-1,-1
163,30,678,102,24,68,1,-1,-1,-1
163,28,660,106,24,64,1,-1,-1,-1
163,27,434,202,33,94,1,-1,-1,-1
163,20,456,201,30,84,1,-1,-1,-1
164,33,481,203,31,89,1,-1,-1,-1
164,32,330,170,31,75,1,-1,-1,-1
164,31,32,93,16,42,1,-1,-1,-1
164,30,677,101,25,69,1,-1,-1,-1
164,28,658,105,25,67,1,-1,-1,-1
164,27,438,201,33,94,1,-1,-1,-1
164,20,455,203,29,83,1,-1,-1,-1
165,33,483,205,31,89,1,-1,-1,-1
165,32,324,171,31,74,1,-1,-1,-1
165,31,30,96,16,42,1,-1,-1,-1
165,30,678,99,25,69,1,-1,-1,-1
165,28,660,107,26,69,1,-1,-1,-1
165,20,450,207,30,84,1,-1,-1,-1
166,33,492,205,31,89,1,-1,-1,-1
166,32,314,171,31,74,1,-1,-1,-1
166,31,28,97,17,42,1,-1,-1,-1
166,30,679,99,24,68,1,-1,-1,-1
166,28,660,107,26,71,1,-1,-1,-1
166,20,450,208,30,85,1,-1,-1,-1
167,33,496,206,31,87,1,-1,-1,-1
167,32,304,169,32,75,1,-1,-1,-1
167,31,24,98,18,42,1,-1,-1,-1
167,30,680,98,24,66,1,-1,-1,-1
167,28,656,109,26,71,1,-1,-1,-1
168,33,499,207,30,85,1,-1,-1,-1
168,32,296,168,34,75,1,-1,-1,-1
168,31,21,99,18,41,1,-1,-1,-1
168,30,681,98,24,65,1,-1,-1,-1
168,28,653,109,26,71,1,-1,-1,-1
168,27,447,208,33,94,1,-1,-1,-1
169,33,507,204,33,93,1,-1,-1,-1
169,32,288,169,35,74,1,-1,-1,-1
169,31,22,101,17,39,1,-1,-1,-1
169,30,684,98,23,62,1,-1,-1,-1
169,28,649,111,25,70,1,-1,-1,-1
169,27,450,210,36,99,1,-1,-1,-1
170,33,513,203,35,95,1,-1,-1,-1
170,32,280,169,36,74,1,-1,-1,-1
170,31,23,102,17,38,1,-1,-1,-1
170,30,684,99,22,59,1,-1,-1,-1
170,28,647,112,24,68,1,-1,-1,-1
170,27,450,212,38,97,1,-1,-1,-1
171,33,520,203,34,93,1,-1,-1,-1
171,32,276,167,35,74,1,-1,-1,-1
171,30,684,100,22,58,1,-1,-1,-1
171,28,643,113,23,66,1,-1,-1,-1
171,20,445,205,34,95,1,-1,-1,-1
172,33,528,203,33,92,1,-1,-1,-1
172,32,267,166,33,73,1,-1,-1,-1
172,30,685,100,21,57,1,-1,-1,-1
172,28,637,115,22,64,1,-1,-1,-1
172,20,446,205,35,96,1,-1,-1,-1
173,33,534,206,32,91,1,-1,-1,-1
173,32,260,168,34,72,1,-1,-1,-1
173,30,684,100,22,58,1,-1,-1,-1
173,20,450,204,36,96,1,-1,-1,-1
174,34,617,116,25,71,1,-1,-1,-1
174,33,538,207,31,87,1,-1,-1,-1
174,32,254,168,35,72,1,-1,-1,-1
174,30,683,100,23,58,1,-1,-1,-1
174,20,451,202,36,96,1,-1,-1,-1
175,34,612,116,25,72,1,-1,-1,-1
175,33,545,207,31,88,1,-1,-1,-1
175,32,244,167,35,72,1,-1,-1,-1
175,30,683,102,23,57,1,-1,-1,-1
175,27,467,208,34,96,1,-1,-1,-1
176,34,608,116,26,72,1,-1,-1,-1
176,33,549,206,31,88,1,-1,-1,-1
176,32,236,166,35,72,1,-1,-1,-1
176,30,683,102,23,57,1,-1,-1,-1
176,27,471,209,33,92,1,-1,-1,-1
177,34,608,125,25,71,1,-1,-1,-1
177,33,558,211,30,85,1,-1,-1,-1
177,32,230,164,34,71,1,-1,-1,-1
177,30,682,102,23,57,1,-1,-1,-1
177,27,477,216,32,90,1,-1,-1,-1
178,35,380,204,33,94,1,-1,-1,-1
178,34,602,128,25,71,1,-1,-1,-1
178,33,567,215,29,82,1,-1,-1,-1
178,32,221,161,33,70,1,-1,-1,-1
178,30,682,102,23,57,1,-1,-1,-1
178,27,485,220,31,88,1,-1,-1,-1
179,35,378,204,31,89,1,-1,-1,-1
179,34,598,125,24,69,1,-1,-1,-1
179,33,572,215,32,88,1,-1,-1,-1
179,32,214,163,34,70,1,-1,-1,-1
179,30,684,100,22,57,1,-1,-1,-1
179,27,489,220,31,88,1,-1,-1,-1
180,35,374,205,30,86,1,-1,-1,-1
180,34,595,124,24,68,1,-1,-1,-1
180,33,576,216,34,87,1,-1,-1,-1
180,32,208,164,34,70,1,-1,-1,-1
180,30,685,99,22,57,1,-1,-1,-1
180,27,492,219,31,88,1,-1,-1,-1
181,35,361,207,33,89,1,-1,-1,-1
181,34,589,125,24,69,1,-1,-1,-1
181,33,586,217,34,87,1,-1,-1,-1
181,32,200,163,32,68,1,-1,-1,-1
181,30,687,99,22,56,1,-1,-1,-1
181,27,498,221,32,89,1,-1,-1,-1
182,35,352,209,34,89,1,-1,-1,-1
182,34,584,125,24,69,1,-1,-1,-1
182,33,591,217,35,88,1,-1,-1,-1
182,32,193,163,31,66,1,-1,-1,-1
182,30,687,99,21,55,1,-1,-1,-1
182,27,502,221,32,90,1,-1,-1,-1
183,35,345,206,33,90,1,-1,-1,-1
183,34,582,126,24,68,1,-1,-1,-1
183,33,597,219,35,89,1,-1,-1,-1
183,30,688,102,20,53,1,-1,-1,-1
183,27,507,222,32,91,1,-1,-1,-1
184,35,334,205,31,89,1,-1,-1,-1
184,34,575,128,23,66,1,-1,-1,-1
184,33,606,221,35,90,1,-1,-1,-1
184,30,688,102,19,51,1,-1,-1,-1
184,27,513,224,32,92,1,-1,-1,-1
185,35,327,207,34,89,1,-1,-1,-1
185,34,570,132,25,71,1,-1,-1,-1
185,33,613,223,35,90,1,-1,-1,-1
185,30,689,103,19,51,1,-1,-1,-1
185,27,521,224,33,93,1,-1,-1,-1
186,35,319,208,35,88,1,-1,-1,-1
186,34,566,132,26,75,1,-1,-1,-1
186,33,617,223,35,89,1,-1,-1,-1
186,30,689,102,18,50,1,-1,-1,-1
186,27,525,224,33,93,1,-1,-1,-1
187,35,309,205,34,86,1,-1,-1,-1
187,34,560,131,26,73,1,-1,-1,-1
187,33,629,224,36,91,1,-1,-1,-1
187,30,690,102,18,49,1,-1,-1,-1
187,27,533,227,34,94,1,-1,-1,-1
188,35,301,204,32,85,1,-1,-1,-1
188,34,556,131,25,71,1,-1,-1,-1
188,33,635,226,37,92,1,-1,-1,-1
188,30,690,102,18,49,1,-1,-1,-1
188,27,538,230,34,95,1,-1,-1,-1
189,35,291,201,32,86,1,-1,-1,-1
189,34,550,136,27,77,1,-1,-1,-1
189,33,644,228,37,92,1,-1,-1,-1
189,30,689,96,19,53,1,-1,-1,-1
189,27,546,231,34,95,1,-1,-1,-1
190,35,286,200,32,87,1,-1,-1,-1
190,34,545,137,28,80,1,-1,-1,-1
190,33,649,228,37,91,1,-1,-1,-1
190,30,688,93,20,55,1,-1,-1,-1
190,27,550,233,34,95,1,-1,-1,-1
191,35,279,197,34,88,1,-1,-1,-1
191,34,540,137,27,78,1,-1,-1,-1
191,33,655,230,36,93,1,-1,-1,-1
191,32,142,163,27,60,1,-1,-1,-1
191,30,690,98,19,54,1,-1,-1,-1
191,27,558,242,34,96,1,-1,-1,-1
192,35,273,195,35,89,1,-1,-1,-1
192,34,536,138,27,76,1,-1,-1,-1
192,33,659,230,35,95,1,-1,-1,-1
192,32,141,163,26,58,1,-1,-1,-1
192,30,690,100,19,53,1,-1,-1,-1
192,27,562,247,34,95,1,-1,-1,-1
193,35,264,193,34,86,1,-1,-1,-1
193,34,529,139,27,76,1,-1,-1,-1
193,33,664,232,37,97,1,-1,-1,-1
193,32,131,162,28,57,1,-1,-1,-1
193,30,689,94,20,56,1,-1,-1,-1
193,27,567,245,33,93,1,-1,-1,-1
194,35,259,192,33,85,1,-1,-1,-1
194,34,522,139,28,75,1,-1,-1,-1
194,33,668,231,37,98,1,-1,-1,-1
194,32,124,161,29,57,1,-1,-1,-1
194,30,689,91,20,57,1,-1,-1,-1
194,27,571,247,32,92,1,-1,-1,-1
195,35,256,193,33,84,1,-1,-1,-1
195,34,519,140,27,75,1,-1,-1,-1
195,33,674,235,37,99,1,-1,-1,-1
195,32,117,155,28,58,1,-1,-1,-1
195,30,689,91,21,58,1,-1,-1,-1
195,27,576,250,32,91,1,-1,-1,-1
196,35,248,191,33,84,1,-1,-1,-1
196,34,512,139,26,74,1,-1,-1,-1
196,33,683,237,37,99,1,-1,-1,-1
196,32,108,151,27,59,1,-1,-1,-1
196,30,689,90,21,59,1,-1,-1,-1
196,27,583,254,32,90,1,-1,-1,-1
197,35,240,192,33,82,1,-1,-1,-1
197,34,509,143,27,74,1,-1,-1,-1
197,33,685,241,38,97,1,-1,-1,-1
197,32,102,150,26,59,1,-1,-1,-1
197,30,688,95,21,57,1,-1,-1,-1
197,27,593,257,32,91,1,-1,-1,-1
198,35,235,192,32,80,1,-1,-1,-1
198,34,505,143,27,74,1,-1,-1,-1
198,33,687,242,38,95,1,-1,-1,-1
198,32,97,148,25,59,1,-1,-1,-1
198,30,687,97,20,55,1,-1,-1,-1
198,27,598,260,32,91,1,-1,-1,-1
199,35,227,191,32,79,1,-1,-1,-1
199,34,498,143,27,74,1,-1,-1,-1
199,33,696,248,38,97,1,-1,-1,-1
199,32,86,154,27,61,1,-1,-1,-1
199,30,690,100,20,54,1,-1,-1,-1
199,27,605,263,34,95,1,-1,-1,-1
200,35,221,190,31,79,1,-1,-1,-1
200,34,493,142,27,73,1,-1,-1,-1
200,33,702,253,37,98,1,-1,-1,-1
200,32,79,156,29,62,1,-1,-1,-1
200,30,691,100,19,53,1,-1,-1,-1
200,27,610,264,35,99,1,-1,-1,-1
