1,2,1256,499,48,135,1,-1,-1,-1
1,1,1708,412,143,324,1,-1,-1,-1
2,4,48,167,1207,316,1,-1,-1,-1
2,3,143,324,1565,87,1,-1,-1,-1
3,5,73,510,75,210,1,-1,-1,-1
3,2,1261,496,49,138,1,-1,-1,-1
3,1,1702,409,137,323,1,-1,-1,-1
145,300,14,298,196,550,1,-1,-1,-1
146,300,12,251,197,497,1,-1,-1,-1
147,300,23,288,209,553,1,-1,-1,-1
148,300,22,248,206,493,1,-1,-1,-1
149,300,41,292,216,539,1,-1,-1,-1
150,300,38,252,207,475,1,-1,-1,-1
187,340,263,76,361,878,1,-1,-1,-1
190,424,30,229,191,536,1,-1,-1,-1
191,424,11,247,158,444,1,-1,-1,-1
192,424,13,219,129,316,1,-1,-1,-1
193,340,55,136,383,868,1,-1,-1,-1
194,340,37,103,397,871,1,-1,-1,-1
195,340,14,131,416,899,1,-1,-1,-1
196,340,3,115,429,876,1,-1,-1,-1
197,340,-8,109,429,904,1,-1,-1,-1
198,340,-12,86,429,901,1,-1,-1,-1
199,340,100,138,378,872,1,-1,-1,-1
209,19,147,7,571,1055,1,-1,-1,-1
210,19,113,8,560,1059,1,-1,-1,-1
211,19,80,16,585,1072,1,-1,-1,-1
212,19,54,15,588,1077,1,-1,-1,-1
213,19,7,0,574,1076,1,-1,-1,-1
214,19,-9,-5,560,1076,1,-1,-1,-1
223,340,182,248,247,692,1,-1,-1,-1
447,1120,14,287,202,537,1,-1,-1,-1
448,1120,11,241,205,490,1,-1,-1,-1
449,1120,15,278,212,535,1,-1,-1,-1
450,1120,12,237,212,487,1,-1,-1,-1
451,1120,27,276,224,539,1,-1,-1,-1
452,1120,26,236,221,502,1,-1,-1,-1
453,1120,42,286,218,513,1,-1,-1,-1
461,848,30,151,343,893,1,-1,-1,-1
462,848,18,126,348,869,1,-1,-1,-1
463,848,11,141,356,885,1,-1,-1,-1
464,848,6,119,359,854,1,-1,-1,-1
