3,1,500,160,26,72,1,-1,-1,-1
3,2,629,242,40,83,1,-1,-1,-1
3,3,265,220,31,87,1,-1,-1,-1
4,1,495,159,27,75,1,-1,-1,-1
4,2,615,239,41,84,1,-1,-1,-1
4,3,275,217,32,88,1,-1,-1,-1
5,1,491,160,27,76,1,-1,-1,-1
5,2,605,238,40,83,1,-1,-1,-1
5,3,281,213,33,92,1,-1,-1,-1
6,1,487,160,28,78,1,-1,-1,-1
6,2,598,243,39,79,1,-1,-1,-1
6,3,287,211,33,93,1,-1,-1,-1
7,1,481,159,29,81,1,-1,-1,-1
7,2,586,237,41,86,1,-1,-1,-1
7,3,292,212,34,94,1,-1,-1,-1
8,1,478,158,30,82,1,-1,-1,-1
8,2,575,233,43,92,1,-1,-1,-1
8,3,297,213,33,91,1,-1,-1,-1
9,1,474,159,29,82,1,-1,-1,-1
9,2,568,232,42,91,1,-1,-1,-1
9,3,303,213,32,89,1,-1,-1,-1
10,1,472,160,28,80,1,-1,-1,-1
10,2,561,233,41,90,1,-1,-1,-1
10,3,308,213,30,82,1,-1,-1,-1
11,1,467,165,29,80,1,-1,-1,-1
11,2,546,231,41,93,1,-1,-1,-1
11,3,317,208,32,86,1,-1,-1,-1
12,1,462,164,29,81,1,-1,-1,-1
12,2,535,231,41,94,1,-1,-1,-1
12,3,323,205,33,88,1,-1,-1,-1
13,1,457,166,29,79,1,-1,-1,-1
13,2,527,233,38,89,1,-1,-1,-1
13,3,327,202,34,90,1,-1,-1,-1
13,5,748,313,20,56,1,-1,-1,-1
14,1,451,168,29,78,1,-1,-1,-1
14,2,514,236,38,87,1,-1,-1,-1
14,3,334,198,34,91,1,-1,-1,-1
14,5,741,312,20,57,1,-1,-1,-1
15,1,446,170,29,79,1,-1,-1,-1
15,2,503,235,37,87,1,-1,-1,-1
15,3,339,197,34,90,1,-1,-1,-1
15,5,735,310,21,59,1,-1,-1,-1
16,1,443,170,29,80,1,-1,-1,-1
16,2,495,234,36,86,1,-1,-1,-1
16,3,344,196,33,89,1,-1,-1,-1
16,5,730,306,21,61,1,-1,-1,-1
17,1,438,171,28,77,1,-1,-1,-1
17,2,487,235,35,84,1,-1,-1,-1
17,3,346,196,33,89,1,-1,-1,-1
17,5,727,302,22,63,1,-1,-1,-1
18,1,435,172,26,71,1,-1,-1,-1
18,2,472,233,36,85,1,-1,-1,-1
18,3,351,194,33,89,1,-1,-1,-1
18,5,726,297,23,65,1,-1,-1,-1
19,1,431,173,26,70,1,-1,-1,-1
19,2,462,232,36,86,1,-1,-1,-1
19,3,355,194,33,89,1,-1,-1,-1
19,5,730,296,23,66,1,-1,-1,-1
20,2,454,231,36,87,1,-1,-1,-1
20,3,359,194,32,88,1,-1,-1,-1
20,5,734,295,24,68,1,-1,-1,-1
21,2,443,231,37,87,1,-1,-1,-1
21,3,365,192,33,89,1,-1,-1,-1
21,5,731,286,25,72,1,-1,-1,-1
21,6,687,271,41,105,1,-1,-1,-1
22,2,433,232,35,84,1,-1,-1,-1
22,3,366,191,33,91,1,-1,-1,-1
22,5,726,281,27,76,1,-1,-1,-1
22,6,681,266,43,109,1,-1,-1,-1
23,2,426,231,35,84,1,-1,-1,-1
23,3,369,188,33,92,1,-1,-1,-1
23,5,720,279,27,78,1,-1,-1,-1
23,6,675,264,42,108,1,-1,-1,-1
24,2,419,232,33,80,1,-1,-1,-1
24,3,376,180,34,94,1,-1,-1,-1
24,5,718,276,28,78,1,-1,-1,-1
24,6,666,264,42,106,1,-1,-1,-1
25,2,410,232,32,79,1,-1,-1,-1
25,3,381,180,33,94,1,-1,-1,-1
25,6,660,260,41,105,1,-1,-1,-1
26,3,381,178,34,96,1,-1,-1,-1
26,6,654,258,41,105,1,-1,-1,-1
26,7,682,258,42,101,1,-1,-1,-1
27,3,381,177,36,101,1,-1,-1,-1
27,6,649,257,40,105,1,-1,-1,-1
27,7,679,257,42,102,1,-1,-1,-1
28,3,381,179,36,102,1,-1,-1,-1
28,6,642,256,40,103,1,-1,-1,-1
28,7,676,257,42,102,1,-1,-1,-1
29,3,380,178,37,103,1,-1,-1,-1
29,6,638,254,39,102,1,-1,-1,-1
29,7,671,254,42,103,1,-1,-1,-1
30,3,379,178,37,104,1,-1,-1,-1
30,6,636,252,38,100,1,-1,-1,-1
30,7,667,252,41,101,1,-1,-1,-1
31,3,380,178,36,100,1,-1,-1,-1
31,6,628,252,39,102,1,-1,-1,-1
31,7,664,252,39,97,1,-1,-1,-1
32,3,381,180,35,98,1,-1,-1,-1
32,6,620,251,38,100,1,-1,-1,-1
32,7,658,254,37,94,1,-1,-1,-1
33,3,381,180,34,97,1,-1,-1,-1
33,6,614,251,38,98,1,-1,-1,-1
33,7,648,251,38,95,1,-1,-1,-1
34,3,382,181,33,92,1,-1,-1,-1
34,6,610,248,38,97,1,-1,-1,-1
34,7,640,248,39,96,1,-1,-1,-1
35,3,382,181,32,90,1,-1,-1,-1
35,6,606,243,39,101,1,-1,-1,-1
35,7,634,247,38,95,1,-1,-1,-1
36,3,382,182,31,88,1,-1,-1,-1
36,6,604,241,39,100,1,-1,-1,-1
37,3,381,182,30,84,1,-1,-1,-1
37,6,604,239,38,98,1,-1,-1,-1
38,3,381,182,29,81,1,-1,-1,-1
38,6,591,236,37,95,1,-1,-1,-1
38,7,605,237,37,94,1,-1,-1,-1
39,3,380,180,28,80,1,-1,-1,-1
39,6,581,233,38,98,1,-1,-1,-1
39,7,602,234,38,96,1,-1,-1,-1
39,11,415,182,30,84,1,-1,-1,-1
40,3,380,177,28,80,1,-1,-1,-1
40,6,571,230,37,97,1,-1,-1,-1
40,7,598,233,37,96,1,-1,-1,-1
40,11,421,180,29,82,1,-1,-1,-1
41,3,380,177,28,80,1,-1,-1,-1
41,6,565,228,37,98,1,-1,-1,-1
41,7,594,231,38,98,1,-1,-1,-1
41,11,427,180,28,81,1,-1,-1,-1
42,3,382,178,28,78,1,-1,-1,-1
42,6,565,228,37,97,1,-1,-1,-1
42,7,591,228,38,98,1,-1,-1,-1
42,11,428,181,27,77,1,-1,-1,-1
42,12,748,308,17,47,1,-1,-1,-1
43,3,383,179,28,78,1,-1,-1,-1
43,6,565,226,36,94,1,-1,-1,-1
43,7,585,226,38,98,1,-1,-1,-1
43,11,436,187,26,74,1,-1,-1,-1
43,12,744,308,17,50,1,-1,-1,-1
44,3,383,179,27,77,1,-1,-1,-1
44,6,568,225,35,91,1,-1,-1,-1
44,11,439,187,25,72,1,-1,-1,-1
44,12,734,305,19,53,1,-1,-1,-1
45,3,383,178,27,76,1,-1,-1,-1
45,6,572,225,34,90,1,-1,-1,-1
45,11,441,185,25,72,1,-1,-1,-1
45,12,727,298,21,59,1,-1,-1,-1
46,3,383,177,27,77,1,-1,-1,-1
46,6,573,225,34,90,1,-1,-1,-1
46,11,438,179,27,76,1,-1,-1,-1
46,12,721,293,22,62,1,-1,-1,-1
46,14,541,223,32,91,1,-1,-1,-1
47,3,383,176,28,81,1,-1,-1,-1
47,6,570,223,34,91,1,-1,-1,-1
47,11,436,176,27,77,1,-1,-1,-1
47,12,713,296,22,63,1,-1,-1,-1
47,14,537,221,32,90,1,-1,-1,-1
48,3,380,177,28,80,1,-1,-1,-1
48,6,566,218,34,91,1,-1,-1,-1
48,11,439,179,26,74,1,-1,-1,-1
48,12,704,287,24,68,1,-1,-1,-1
48,14,526,218,33,93,1,-1,-1,-1
49,3,379,178,28,79,1,-1,-1,-1
49,6,563,217,34,90,1,-1,-1,-1
49,11,434,176,26,73,1,-1,-1,-1
49,12,696,282,24,69,1,-1,-1,-1
49,14,520,217,32,92,1,-1,-1,-1
50,3,377,178,28,80,1,-1,-1,-1
50,6,561,217,34,90,1,-1,-1,-1
50,11,431,175,26,73,1,-1,-1,-1
50,12,690,279,25,70,1,-1,-1,-1
50,14,515,218,32,91,1,-1,-1,-1
51,3,376,177,28,81,1,-1,-1,-1
51,6,558,215,33,89,1,-1,-1,-1
51,7,549,216,34,89,1,-1,-1,-1
51,11,426,174,26,73,1,-1,-1,-1
51,12,680,276,26,75,1,-1,-1,-1
51,14,506,216,33,94,1,-1,-1,-1
52,3,376,178,29,81,1,-1,-1,-1
52,7,545,211,35,92,1,-1,-1,-1
52,11,421,172,27,75,1,-1,-1,-1
52,12,674,272,27,77,1,-1,-1,-1
52,14,502,212,34,96,1,-1,-1,-1
53,3,377,179,28,80,1,-1,-1,-1
53,7,541,209,34,92,1,-1,-1,-1
53,11,415,171,27,78,1,-1,-1,-1
53,12,667,269,28,78,1,-1,-1,-1
53,14,498,210,34,96,1,-1,-1,-1
54,3,376,179,28,80,1,-1,-1,-1
54,7,536,211,33,90,1,-1,-1,-1
54,11,413,171,27,77,1,-1,-1,-1
54,12,660,266,28,80,1,-1,-1,-1
54,14,492,209,34,95,1,-1,-1,-1
55,3,379,178,28,80,1,-1,-1,-1
55,7,529,209,34,93,1,-1,-1,-1
55,12,652,263,29,82,1,-1,-1,-1
55,14,486,207,33,94,1,-1,-1,-1
56,3,380,178,29,81,1,-1,-1,-1
56,7,525,206,34,95,1,-1,-1,-1
56,12,645,260,30,85,1,-1,-1,-1
56,14,483,206,33,94,1,-1,-1,-1
57,3,380,178,29,81,1,-1,-1,-1
57,7,522,204,34,95,1,-1,-1,-1
57,12,641,258,31,87,1,-1,-1,-1
57,14,481,205,33,92,1,-1,-1,-1
58,3,381,176,29,81,1,-1,-1,-1
58,7,520,206,32,89,1,-1,-1,-1
58,12,633,251,32,91,1,-1,-1,-1
58,14,476,205,32,91,1,-1,-1,-1
59,3,381,177,28,79,1,-1,-1,-1
59,6,494,204,31,85,1,-1,-1,-1
59,7,516,204,31,87,1,-1,-1,-1
59,12,627,245,32,91,1,-1,-1,-1
59,14,473,203,32,91,1,-1,-1,-1
60,3,379,178,27,77,1,-1,-1,-1
60,6,488,202,31,85,1,-1,-1,-1
60,7,506,203,30,84,1,-1,-1,-1
60,12,623,243,32,90,1,-1,-1,-1
60,14,470,202,32,91,1,-1,-1,-1
61,3,375,178,27,77,1,-1,-1,-1
61,7,500,202,30,84,1,-1,-1,-1
61,12,616,240,31,89,1,-1,-1,-1
61,14,467,200,33,92,1,-1,-1,-1
62,3,377,177,27,78,1,-1,-1,-1
62,7,494,200,29,83,1,-1,-1,-1
62,12,613,238,31,87,1,-1,-1,-1
62,14,466,197,32,91,1,-1,-1,-1
63,3,382,178,27,77,1,-1,-1,-1
63,7,491,199,29,82,1,-1,-1,-1
63,12,610,236,31,88,1,-1,-1,-1
63,14,464,195,32,90,1,-1,-1,-1
64,3,384,179,27,76,1,-1,-1,-1
64,7,490,199,28,80,1,-1,-1,-1
64,12,607,235,31,89,1,-1,-1,-1
64,14,462,194,31,87,1,-1,-1,-1
65,3,384,178,27,75,1,-1,-1,-1
65,7,487,197,29,81,1,-1,-1,-1
65,12,604,232,31,89,1,-1,-1,-1
65,14,459,193,30,86,1,-1,-1,-1
65,15,338,164,28,79,1,-1,-1,-1
66,3,384,178,27,76,1,-1,-1,-1
66,7,486,196,29,81,1,-1,-1,-1
66,12,601,228,31,89,1,-1,-1,-1
66,14,457,194,30,85,1,-1,-1,-1
66,15,332,167,27,77,1,-1,-1,-1
67,3,384,179,27,77,1,-1,-1,-1
67,7,484,194,28,80,1,-1,-1,-1
67,12,599,225,31,87,1,-1,-1,-1
67,14,454,193,30,85,1,-1,-1,-1
67,15,324,169,25,70,1,-1,-1,-1
68,3,384,178,28,78,1,-1,-1,-1
68,7,484,194,28,80,1,-1,-1,-1
68,12,597,224,30,86,1,-1,-1,-1
68,14,452,192,31,85,1,-1,-1,-1
68,15,319,170,24,69,1,-1,-1,-1
69,3,380,178,29,81,1,-1,-1,-1
69,7,482,194,28,79,1,-1,-1,-1
69,12,591,218,31,88,1,-1,-1,-1
69,14,451,191,30,83,1,-1,-1,-1
69,15,304,168,25,71,1,-1,-1,-1
70,3,379,178,29,82,1,-1,-1,-1
70,7,480,192,28,80,1,-1,-1,-1
70,12,589,213,32,90,1,-1,-1,-1
70,14,453,190,30,83,1,-1,-1,-1
70,15,299,169,25,70,1,-1,-1,-1
71,3,378,179,29,82,1,-1,-1,-1
71,7,478,190,28,79,1,-1,-1,-1
71,12,586,210,31,88,1,-1,-1,-1
71,14,453,189,30,83,1,-1,-1,-1
71,15,293,173,25,68,1,-1,-1,-1
72,3,375,179,29,82,1,-1,-1,-1
72,7,477,190,27,77,1,-1,-1,-1
72,12,584,208,31,88,1,-1,-1,-1
72,14,451,188,30,83,1,-1,-1,-1
72,15,287,173,25,68,1,-1,-1,-1
73,3,376,178,29,83,1,-1,-1,-1
73,7,477,189,27,77,1,-1,-1,-1
73,12,581,206,31,88,1,-1,-1,-1
73,14,455,186,30,82,1,-1,-1,-1
73,15,281,173,23,64,1,-1,-1,-1
74,3,376,177,30,84,1,-1,-1,-1
74,7,476,188,27,77,1,-1,-1,-1
74,12,579,206,30,86,1,-1,-1,-1
74,14,456,185,29,81,1,-1,-1,-1
74,15,276,174,23,62,1,-1,-1,-1
75,3,377,179,29,81,1,-1,-1,-1
75,7,476,188,27,76,1,-1,-1,-1
75,12,577,205,30,85,1,-1,-1,-1
75,14,459,184,28,80,1,-1,-1,-1
75,15,271,174,24,64,1,-1,-1,-1
75,16,425,176,30,85,1,-1,-1,-1
76,3,377,178,29,82,1,-1,-1,-1
76,7,475,180,28,79,1,-1,-1,-1
76,12,576,203,30,84,1,-1,-1,-1
76,14,456,179,29,81,1,-1,-1,-1
76,15,264,172,26,69,1,-1,-1,-1
76,16,426,173,30,86,1,-1,-1,-1
77,3,378,179,28,80,1,-1,-1,-1
77,7,475,177,27,77,1,-1,-1,-1
77,12,575,202,29,82,1,-1,-1,-1
77,14,455,177,27,78,1,-1,-1,-1
77,15,260,173,28,71,1,-1,-1,-1
77,16,425,172,30,85,1,-1,-1,-1
78,3,378,180,27,78,1,-1,-1,-1
78,7,475,179,26,75,1,-1,-1,-1
78,12,574,202,29,82,1,-1,-1,-1
78,14,454,178,27,76,1,-1,-1,-1
78,15,258,174,28,72,1,-1,-1,-1
78,16,425,173,29,82,1,-1,-1,-1
79,3,379,177,29,81,1,-1,-1,-1
79,7,475,178,27,76,1,-1,-1,-1
79,12,573,198,28,79,1,-1,-1,-1
79,14,456,176,27,77,1,-1,-1,-1
79,15,257,174,29,74,1,-1,-1,-1
79,16,422,173,30,84,1,-1,-1,-1
80,3,379,175,30,84,1,-1,-1,-1
80,7,475,177,26,75,1,-1,-1,-1
80,12,572,196,27,78,1,-1,-1,-1
80,14,456,172,27,78,1,-1,-1,-1
80,15,257,174,28,74,1,-1,-1,-1
80,16,423,172,30,86,1,-1,-1,-1
81,3,379,174,31,87,1,-1,-1,-1
81,7,475,176,26,73,1,-1,-1,-1
81,12,570,195,28,78,1,-1,-1,-1
81,14,455,170,28,79,1,-1,-1,-1
81,15,257,174,29,74,1,-1,-1,-1
81,16,424,171,30,86,1,-1,-1,-1
82,3,380,174,31,86,1,-1,-1,-1
82,7,476,176,25,70,1,-1,-1,-1
82,12,568,194,28,79,1,-1,-1,-1
82,14,455,170,27,77,1,-1,-1,-1
82,15,258,174,29,75,1,-1,-1,-1
82,16,424,172,29,83,1,-1,-1,-1
82,19,496,335,17,45,1,-1,-1,-1
83,3,381,175,30,86,1,-1,-1,-1
83,7,477,175,25,70,1,-1,-1,-1
83,12,567,191,27,78,1,-1,-1,-1
83,14,454,170,27,78,1,-1,-1,-1
83,15,260,176,29,75,1,-1,-1,-1
83,16,423,171,29,83,1,-1,-1,-1
83,19,496,335,17,45,1,-1,-1,-1
83,20,270,44,15,38,1,-1,-1,-1
84,3,381,175,30,85,1,-1,-1,-1
84,7,479,173,25,70,1,-1,-1,-1
84,12,564,189,28,78,1,-1,-1,-1
84,14,454,170,28,79,1,-1,-1,-1
84,15,262,177,28,74,1,-1,-1,-1
84,19,495,335,17,45,1,-1,-1,-1
84,20,268,44,15,40,1,-1,-1,-1
85,3,381,177,30,84,1,-1,-1,-1
85,7,480,172,25,70,1,-1,-1,-1
85,12,564,186,28,78,1,-1,-1,-1
85,14,453,168,27,77,1,-1,-1,-1
85,15,265,177,28,72,1,-1,-1,-1
85,19,496,335,17,43,1,-1,-1,-1
85,20,266,44,15,39,1,-1,-1,-1
86,3,381,177,29,82,1,-1,-1,-1
86,7,482,170,25,70,1,-1,-1,-1
86,12,565,184,29,81,1,-1,-1,-1
86,14,453,165,27,77,1,-1,-1,-1
86,15,270,180,28,72,1,-1,-1,-1
86,19,495,335,17,45,1,-1,-1,-1
86,20,265,43,15,39,1,-1,-1,-1
87,3,382,177,28,80,1,-1,-1,-1
87,7,483,170,25,70,1,-1,-1,-1
87,12,566,182,29,82,1,-1,-1,-1
87,14,454,165,27,76,1,-1,-1,-1
87,15,273,182,28,71,1,-1,-1,-1
87,19,495,335,17,44,1,-1,-1,-1
88,3,382,178,28,79,1,-1,-1,-1
88,7,483,168,25,71,1,-1,-1,-1
88,12,566,180,29,81,1,-1,-1,-1
88,14,456,164,27,76,1,-1,-1,-1
88,15,276,183,29,72,1,-1,-1,-1
88,19,496,335,17,44,1,-1,-1,-1
88,21,254,50,16,38,1,-1,-1,-1
89,3,381,178,28,80,1,-1,-1,-1
89,7,483,163,26,73,1,-1,-1,-1
89,12,568,176,28,80,1,-1,-1,-1
89,14,458,161,27,77,1,-1,-1,-1
89,15,279,182,30,77,1,-1,-1,-1
89,19,496,336,17,44,1,-1,-1,-1
89,21,253,50,17,39,1,-1,-1,-1
90,3,381,179,28,79,1,-1,-1,-1
90,7,486,161,25,72,1,-1,-1,-1
90,12,569,174,28,79,1,-1,-1,-1
90,14,459,160,27,76,1,-1,-1,-1
90,15,283,184,29,75,1,-1,-1,-1
90,19,496,335,17,44,1,-1,-1,-1
90,21,249,51,17,40,1,-1,-1,-1
91,3,382,178,28,80,1,-1,-1,-1
91,7,488,161,25,71,1,-1,-1,-1
91,12,570,174,28,81,1,-1,-1,-1
91,14,458,160,27,76,1,-1,-1,-1
91,15,286,185,30,77,1,-1,-1,-1
91,19,496,335,17,44,1,-1,-1,-1
91,21,248,52,17,40,1,-1,-1,-1
92,3,383,178,29,81,1,-1,-1,-1
92,7,487,159,26,72,1,-1,-1,-1
92,12,572,172,28,80,1,-1,-1,-1
92,14,459,160,27,76,1,-1,-1,-1
92,15,288,185,31,79,1,-1,-1,-1
92,19,496,335,17,45,1,-1,-1,-1
92,21,246,53,17,40,1,-1,-1,-1
93,3,383,177,29,82,1,-1,-1,-1
93,7,488,157,26,73,1,-1,-1,-1
93,12,575,168,28,80,1,-1,-1,-1
93,14,464,159,25,72,1,-1,-1,-1
93,15,297,188,30,78,1,-1,-1,-1
93,19,495,335,17,45,1,-1,-1,-1
94,3,384,176,29,82,1,-1,-1,-1
94,7,488,155,26,73,1,-1,-1,-1
94,12,577,166,28,79,1,-1,-1,-1
94,14,465,158,25,71,1,-1,-1,-1
94,15,302,191,30,77,1,-1,-1,-1
94,19,495,335,17,45,1,-1,-1,-1
95,3,386,175,29,83,1,-1,-1,-1
95,7,489,154,24,69,1,-1,-1,-1
95,12,577,165,28,79,1,-1,-1,-1
95,15,307,193,30,77,1,-1,-1,-1
95,19,496,335,17,44,1,-1,-1,-1
95,22,235,57,16,33,1,-1,-1,-1
96,3,387,175,30,85,1,-1,-1,-1
96,7,493,155,24,69,1,-1,-1,-1
96,12,578,164,28,79,1,-1,-1,-1
96,14,480,154,25,72,1,-1,-1,-1
96,15,312,194,30,77,1,-1,-1,-1
96,19,496,335,17,45,1,-1,-1,-1
96,22,234,57,16,32,1,-1,-1,-1
97,3,385,174,31,86,1,-1,-1,-1
97,7,490,151,25,71,1,-1,-1,-1
97,12,581,162,26,75,1,-1,-1,-1
97,14,482,152,25,71,1,-1,-1,-1
97,15,318,189,33,85,1,-1,-1,-1
97,19,496,334,17,44,1,-1,-1,-1
97,22,231,56,17,34,1,-1,-1,-1
98,3,384,175,31,87,1,-1,-1,-1
98,7,493,149,25,71,1,-1,-1,-1
98,12,582,157,27,76,1,-1,-1,-1
98,15,323,189,33,87,1,-1,-1,-1
98,19,496,334,17,44,1,-1,-1,-1
98,22,229,57,17,34,1,-1,-1,-1
99,3,384,176,31,87,1,-1,-1,-1
99,7,493,147,26,72,1,-1,-1,-1
99,12,584,156,27,76,1,-1,-1,-1
99,15,329,188,33,87,1,-1,-1,-1
99,19,497,334,17,43,1,-1,-1,-1
99,22,227,57,17,35,1,-1,-1,-1
100,3,380,181,29,82,1,-1,-1,-1
100,7,497,146,26,72,1,-1,-1,-1
100,12,587,152,28,78,1,-1,-1,-1
100,15,338,190,33,88,1,-1,-1,-1
100,19,496,334,17,45,1,-1,-1,-1
100,20,223,55,14,36,1,-1,-1,-1
100,21,227,49,16,37,1,-1,-1,-1
100,22,226,57,18,36,1,-1,-1,-1
101,3,378,185,29,83,1,-1,-1,-1
101,7,498,145,27,73,1,-1,-1,-1
101,12,588,148,28,80,1,-1,-1,-1
101,15,344,194,32,88,1,-1,-1,-1
101,19,496,334,17,45,1,-1,-1,-1
101,20,219,56,15,36,1,-1,-1,-1
101,21,224,48,15,36,1,-1,-1,-1
102,3,373,186,30,86,1,-1,-1,-1
102,7,499,143,27,76,1,-1,-1,-1
102,12,589,145,29,82,1,-1,-1,-1
102,15,353,195,32,86,1,-1,-1,-1
102,19,495,334,18,46,1,-1,-1,-1
102,20,216,57,15,37,1,-1,-1,-1
102,21,221,49,15,36,1,-1,-1,-1
103,3,372,187,30,86,1,-1,-1,-1
103,7,500,141,27,75,1,-1,-1,-1
103,12,592,145,29,82,1,-1,-1,-1
103,15,364,187,34,91,1,-1,-1,-1
103,19,495,334,18,46,1,-1,-1,-1
103,20,212,57,16,38,1,-1,-1,-1
103,21,218,51,16,37,1,-1,-1,-1
104,7,501,141,25,69,1,-1,-1,-1
104,12,595,145,29,82,1,-1,-1,-1
104,15,371,186,34,91,1,-1,-1,-1
104,19,496,335,17,45,1,-1,-1,-1
104,20,207,56,17,39,1,-1,-1,-1
104,21,214,51,16,39,1,-1,-1,-1
104,23,525,148,22,63,1,-1,-1,-1
105,7,503,140,24,68,1,-1,-1,-1
105,12,598,144,28,80,1,-1,-1,-1
105,15,375,190,33,91,1,-1,-1,-1
105,19,496,334,17,45,1,-1,-1,-1
105,20,203,58,17,39,1,-1,-1,-1
105,21,211,52,16,39,1,-1,-1,-1
105,23,527,146,22,62,1,-1,-1,-1
106,7,507,140,25,70,1,-1,-1,-1
106,12,603,144,27,77,1,-1,-1,-1
106,15,382,181,35,97,1,-1,-1,-1
106,19,496,335,17,45,1,-1,-1,-1
106,20,199,58,16,38,1,-1,-1,-1
106,21,210,51,16,39,1,-1,-1,-1
106,23,528,144,22,62,1,-1,-1,-1
107,7,510,139,25,69,1,-1,-1,-1
107,12,607,144,27,77,1,-1,-1,-1
107,15,385,177,35,98,1,-1,-1,-1
107,19,495,335,17,45,1,-1,-1,-1
107,20,198,59,17,38,1,-1,-1,-1
107,21,207,51,16,39,1,-1,-1,-1
107,23,531,143,22,63,1,-1,-1,-1
108,7,514,138,25,68,1,-1,-1,-1
108,12,610,143,27,76,1,-1,-1,-1
108,15,385,176,35,98,1,-1,-1,-1
108,19,496,335,17,45,1,-1,-1,-1
108,20,198,60,16,37,1,-1,-1,-1
108,23,532,142,22,63,1,-1,-1,-1
109,7,516,137,25,67,1,-1,-1,-1
109,12,613,142,26,73,1,-1,-1,-1
109,15,381,173,34,95,1,-1,-1,-1
109,19,495,336,17,45,1,-1,-1,-1
109,20,195,58,17,39,1,-1,-1,-1
109,23,532,142,22,63,1,-1,-1,-1
110,12,615,140,26,73,1,-1,-1,-1
110,15,377,172,32,89,1,-1,-1,-1
110,19,495,335,17,46,1,-1,-1,-1
110,20,193,59,16,38,1,-1,-1,-1
110,23,533,142,22,63,1,-1,-1,-1
111,12,616,140,25,70,1,-1,-1,-1
111,15,376,174,30,83,1,-1,-1,-1
111,19,495,335,17,46,1,-1,-1,-1
111,20,192,59,17,39,1,-1,-1,-1
111,23,535,140,23,65,1,-1,-1,-1
111,24,559,143,23,64,1,-1,-1,-1
112,12,619,140,24,69,1,-1,-1,-1
112,15,375,176,29,81,1,-1,-1,-1
112,19,495,336,17,45,1,-1,-1,-1
112,20,192,58,17,39,1,-1,-1,-1
112,23,538,138,23,65,1,-1,-1,-1
112,24,559,141,23,65,1,-1,-1,-1
113,12,622,139,24,69,1,-1,-1,-1
113,15,372,178,29,79,1,-1,-1,-1
113,19,495,335,17,44,1,-1,-1,-1
113,20,191,59,17,40,1,-1,-1,-1
113,23,539,136,24,67,1,-1,-1,-1
113,24,560,139,23,66,1,-1,-1,-1
114,12,626,137,24,69,1,-1,-1,-1
114,15,370,177,29,81,1,-1,-1,-1
114,19,495,335,17,45,1,-1,-1,-1
114,20,187,58,17,40,1,-1,-1,-1
114,21,181,61,16,38,1,-1,-1,-1
114,23,540,136,24,67,1,-1,-1,-1
114,24,561,139,23,64,1,-1,-1,-1
115,12,630,139,24,69,1,-1,-1,-1
115,15,370,177,28,80,1,-1,-1,-1
115,19,495,335,17,45,1,-1,-1,-1
115,20,184,58,18,42,1,-1,-1,-1
115,21,176,61,17,40,1,-1,-1,-1
115,23,541,134,24,68,1,-1,-1,-1
115,24,563,138,22,64,1,-1,-1,-1
115,26,458,203,29,78,1,-1,-1,-1
116,12,631,139,26,73,1,-1,-1,-1
116,15,370,180,28,79,1,-1,-1,-1
116,19,495,336,17,45,1,-1,-1,-1
116,20,182,59,18,42,1,-1,-1,-1
116,21,172,62,17,40,1,-1,-1,-1
116,23,541,133,25,71,1,-1,-1,-1
116,24,564,137,23,65,1,-1,-1,-1
116,26,465,204,30,80,1,-1,-1,-1
117,12,634,138,26,73,1,-1,-1,-1
117,15,371,180,28,79,1,-1,-1,-1
117,19,495,336,17,43,1,-1,-1,-1
117,20,179,59,18,42,1,-1,-1,-1
117,21,170,63,17,40,1,-1,-1,-1
117,23,542,132,24,69,1,-1,-1,-1
117,24,566,136,22,63,1,-1,-1,-1
117,26,471,205,30,80,1,-1,-1,-1
117,27,730,166,37,105,1,-1,-1,-1
118,7,551,132,26,70,1,-1,-1,-1
118,12,638,136,24,69,1,-1,-1,-1
118,14,485,204,30,84,1,-1,-1,-1
118,15,373,180,29,81,1,-1,-1,-1
118,19,495,336,17,44,1,-1,-1,-1
118,21,166,64,17,40,1,-1,-1,-1
118,22,164,63,20,42,1,-1,-1,-1
118,23,544,131,24,69,1,-1,-1,-1
118,24,567,134,22,63,1,-1,-1,-1
118,26,476,206,30,80,1,-1,-1,-1
118,27,729,166,38,109,1,-1,-1,-1
119,7,562,131,26,70,1,-1,-1,-1
119,12,642,135,24,68,1,-1,-1,-1
119,14,490,208,29,82,1,-1,-1,-1
119,15,373,183,28,80,1,-1,-1,-1
119,19,496,337,17,44,1,-1,-1,-1
119,22,161,64,21,42,1,-1,-1,-1
119,24,568,133,22,63,1,-1,-1,-1
120,7,567,131,25,68,1,-1,-1,-1
120,12,646,134,24,68,1,-1,-1,-1
120,14,494,210,29,82,1,-1,-1,-1
120,15,372,182,28,81,1,-1,-1,-1
120,19,496,337,17,44,1,-1,-1,-1
120,28,706,220,37,80,1,-1,-1,-1
121,7,573,129,25,68,1,-1,-1,-1
121,12,653,133,23,66,1,-1,-1,-1
121,14,505,211,29,82,1,-1,-1,-1
121,15,374,180,29,83,1,-1,-1,-1
121,28,691,208,43,94,1,-1,-1,-1
122,7,576,126,25,70,1,-1,-1,-1
122,12,656,132,24,67,1,-1,-1,-1
122,14,514,213,29,82,1,-1,-1,-1
122,15,376,179,30,85,1,-1,-1,-1
122,20,164,72,16,38,1,-1,-1,-1
122,24,596,135,21,59,1,-1,-1,-1
122,28,680,203,44,97,1,-1,-1,-1
123,7,578,123,25,69,1,-1,-1,-1
123,12,658,126,25,70,1,-1,-1,-1
123,14,526,215,29,81,1,-1,-1,-1
123,15,378,178,30,86,1,-1,-1,-1
123,20,155,72,16,38,1,-1,-1,-1
123,24,599,135,21,58,1,-1,-1,-1
123,28,670,204,44,97,1,-1,-1,-1
123,30,738,160,24,69,1,-1,-1,-1
124,7,578,122,25,68,1,-1,-1,-1
124,12,663,129,24,68,1,-1,-1,-1
124,14,534,216,29,80,1,-1,-1,-1
124,15,380,178,30,86,1,-1,-1,-1
124,20,151,73,16,38,1,-1,-1,-1
124,24,601,134,22,62,1,-1,-1,-1
124,28,659,211,40,89,1,-1,-1,-1
124,30,740,159,21,59,1,-1,-1,-1
125,7,579,122,25,68,1,-1,-1,-1
125,12,670,132,23,66,1,-1,-1,-1
125,14,541,217,30,82,1,-1,-1,-1
125,15,381,178,30,85,1,-1,-1,-1
125,20,147,73,17,38,1,-1,-1,-1
125,24,602,133,23,66,1,-1,-1,-1
125,28,646,211,41,91,1,-1,-1,-1
126,3,381,176,30,84,1,-1,-1,-1
126,7,578,120,25,68,1,-1,-1,-1
126,12,673,134,24,67,1,-1,-1,-1
126,14,551,216,30,85,1,-1,-1,-1
126,15,382,178,30,85,1,-1,-1,-1
126,20,144,73,18,40,1,-1,-1,-1
126,24,605,133,23,66,1,-1,-1,-1
126,28,639,214,39,86,1,-1,-1,-1
127,3,382,176,30,85,1,-1,-1,-1
127,7,580,120,26,68,1,-1,-1,-1
127,12,668,135,24,68,1,-1,-1,-1
127,14,556,215,32,90,1,-1,-1,-1
127,20,143,73,18,41,1,-1,-1,-1
127,27,678,133,17,49,1,-1,-1,-1
127,28,632,211,41,93,1,-1,-1,-1
128,3,382,178,30,84,1,-1,-1,-1
128,7,583,117,26,69,1,-1,-1,-1
128,12,670,135,24,68,1,-1,-1,-1
128,14,566,219,31,87,1,-1,-1,-1
128,20,140,74,18,42,1,-1,-1,-1
128,27,676,131,19,53,1,-1,-1,-1
128,28,623,210,42,94,1,-1,-1,-1
129,3,382,178,30,84,1,-1,-1,-1
129,7,594,116,27,71,1,-1,-1,-1
129,14,575,218,32,89,1,-1,-1,-1
129,20,142,76,17,37,1,-1,-1,-1
129,23,602,129,28,80,1,-1,-1,-1
129,27,676,130,18,52,1,-1,-1,-1
129,34,588,117,26,70,1,-1,-1,-1
130,3,381,181,29,82,1,-1,-1,-1
130,7,597,117,26,69,1,-1,-1,-1
130,14,594,213,33,93,1,-1,-1,-1
130,20,139,78,17,38,1,-1,-1,-1
130,23,606,130,26,75,1,-1,-1,-1
130,27,677,130,19,53,1,-1,-1,-1
130,34,587,116,24,65,1,-1,-1,-1
131,3,381,182,29,81,1,-1,-1,-1
131,7,594,116,25,66,1,-1,-1,-1
131,14,599,216,33,91,1,-1,-1,-1
131,20,136,80,17,39,1,-1,-1,-1
131,23,610,129,26,75,1,-1,-1,-1
131,27,682,125,20,57,1,-1,-1,-1
131,34,597,118,24,65,1,-1,-1,-1
132,3,381,189,27,75,1,-1,-1,-1
132,7,601,118,25,65,1,-1,-1,-1
132,14,602,217,34,91,1,-1,-1,-1
132,20,134,80,17,39,1,-1,-1,-1
132,27,685,123,21,59,1,-1,-1,-1
132,34,599,118,24,64,1,-1,-1,-1
133,3,381,186,27,77,1,-1,-1,-1
133,7,605,117,24,63,1,-1,-1,-1
133,14,609,219,33,87,1,-1,-1,-1
133,19,495,335,18,46,1,-1,-1,-1
133,20,133,80,17,39,1,-1,-1,-1
133,26,575,201,34,90,1,-1,-1,-1
133,27,687,122,20,58,1,-1,-1,-1
134,3,381,187,27,76,1,-1,-1,-1
134,7,608,116,24,63,1,-1,-1,-1
134,14,616,220,33,87,1,-1,-1,-1
134,19,495,334,18,46,1,-1,-1,-1
134,20,130,81,16,36,1,-1,-1,-1
134,26,575,199,33,89,1,-1,-1,-1
134,27,690,123,20,57,1,-1,-1,-1
134,28,616,222,38,87,1,-1,-1,-1
135,3,381,186,28,78,1,-1,-1,-1
135,7,611,115,24,62,1,-1,-1,-1
135,19,495,334,18,46,1,-1,-1,-1
135,20,127,80,15,35,1,-1,-1,-1
135,26,571,196,34,90,1,-1,-1,-1
135,27,693,125,20,56,1,-1,-1,-1
135,28,622,224,38,86,1,-1,-1,-1
135,34,606,118,24,63,1,-1,-1,-1
135,39,739,272,20,57,1,-1,-1,-1
136,3,383,186,27,77,1,-1,-1,-1
136,19,495,334,18,46,1,-1,-1,-1
136,20,124,80,15,35,1,-1,-1,-1
136,26,566,193,34,91,1,-1,-1,-1
136,27,695,123,22,61,1,-1,-1,-1
136,28,626,223,38,85,1,-1,-1,-1
136,34,608,115,24,65,1,-1,-1,-1
136,39,733,270,22,61,1,-1,-1,-1
137,3,382,185,28,79,1,-1,-1,-1
137,19,495,335,18,47,1,-1,-1,-1
137,20,121,80,16,36,1,-1,-1,-1
137,21,114,80,19,44,1,-1,-1,-1
137,26,561,194,32,88,1,-1,-1,-1
137,27,697,124,22,63,1,-1,-1,-1
137,28,631,224,37,85,1,-1,-1,-1
137,34,609,112,25,66,1,-1,-1,-1
137,39,727,266,23,65,1,-1,-1,-1
138,3,383,183,28,80,1,-1,-1,-1
138,19,495,335,18,47,1,-1,-1,-1
138,20,118,81,16,36,1,-1,-1,-1
138,21,115,81,16,38,1,-1,-1,-1
138,26,555,195,31,82,1,-1,-1,-1
138,27,699,121,22,62,1,-1,-1,-1
138,28,630,224,37,85,1,-1,-1,-1
138,34,611,112,25,66,1,-1,-1,-1
138,39,722,266,24,67,1,-1,-1,-1
139,3,384,183,28,80,1,-1,-1,-1
139,21,115,81,16,37,1,-1,-1,-1
139,26,546,196,30,77,1,-1,-1,-1
139,27,701,120,21,61,1,-1,-1,-1
139,34,612,112,24,64,1,-1,-1,-1
140,3,385,183,28,79,1,-1,-1,-1
140,21,114,82,15,36,1,-1,-1,-1
140,26,538,193,30,78,1,-1,-1,-1
140,27,702,119,21,60,1,-1,-1,-1
140,34,614,110,25,65,1,-1,-1,-1
140,41,678,227,37,106,1,-1,-1,-1
140,43,418,173,29,83,1,-1,-1,-1
141,3,385,185,27,77,1,-1,-1,-1
141,21,107,81,15,36,1,-1,-1,-1
141,26,525,193,31,79,1,-1,-1,-1
141,27,704,118,22,62,1,-1,-1,-1
141,34,615,109,24,63,1,-1,-1,-1
141,41,678,228,36,103,1,-1,-1,-1
141,43,417,177,28,80,1,-1,-1,-1
142,3,385,185,27,77,1,-1,-1,-1
142,14,681,225,38,101,1,-1,-1,-1
142,21,102,81,15,36,1,-1,-1,-1
142,26,517,191,32,81,1,-1,-1,-1
142,27,705,117,22,63,1,-1,-1,-1
142,34,616,109,24,62,1,-1,-1,-1
142,41,670,230,36,101,1,-1,-1,-1
142,43,412,178,30,85,1,-1,-1,-1
143,3,385,185,28,79,1,-1,-1,-1
143,14,698,227,36,95,1,-1,-1,-1
143,21,98,82,15,36,1,-1,-1,-1
143,26,512,189,31,78,1,-1,-1,-1
143,27,705,116,23,64,1,-1,-1,-1
143,34,616,111,23,61,1,-1,-1,-1
143,41,661,234,35,98,1,-1,-1,-1
143,43,411,180,31,89,1,-1,-1,-1
143,45,638,114,22,61,1,-1,-1,-1
144,3,383,188,27,78,1,-1,-1,-1
144,14,710,229,34,86,1,-1,-1,-1
144,21,92,84,16,38,1,-1,-1,-1
144,26,501,181,32,82,1,-1,-1,-1
144,27,706,116,24,68,1,-1,-1,-1
144,34,619,110,24,61,1,-1,-1,-1
144,41,649,234,34,97,1,-1,-1,-1
144,43,412,182,32,90,1,-1,-1,-1
144,45,638,112,23,63,1,-1,-1,-1
145,3,383,189,27,78,1,-1,-1,-1
145,7,636,112,23,60,1,-1,-1,-1
145,14,718,228,33,84,1,-1,-1,-1
145,21,90,84,17,41,1,-1,-1,-1
145,26,492,180,32,82,1,-1,-1,-1
145,27,708,117,23,65,1,-1,-1,-1
145,34,623,110,24,60,1,-1,-1,-1
145,41,640,233,35,99,1,-1,-1,-1
145,43,413,182,32,90,1,-1,-1,-1
145,45,638,112,23,64,1,-1,-1,-1
146,3,382,190,27,77,1,-1,-1,-1
146,7,639,111,24,61,1,-1,-1,-1
146,14,726,230,32,81,1,-1,-1,-1
146,21,89,85,17,42,1,-1,-1,-1
146,26,487,178,32,82,1,-1,-1,-1
146,27,711,116,21,61,1,-1,-1,-1
146,34,623,110,24,59,1,-1,-1,-1
146,41,632,231,35,98,1,-1,-1,-1
146,43,412,182,32,89,1,-1,-1,-1
147,3,382,191,27,76,1,-1,-1,-1
147,7,640,110,24,60,1,-1,-1,-1
147,12,740,232,27,77,1,-1,-1,-1
147,14,735,231,31,80,1,-1,-1,-1
147,21,86,85,17,42,1,-1,-1,-1
147,26,470,177,33,85,1,-1,-1,-1
147,27,717,117,20,57,1,-1,-1,-1
147,28,618,228,40,94,1,-1,-1,-1
147,34,624,109,24,59,1,-1,-1,-1
147,41,624,232,34,97,1,-1,-1,-1
147,43,412,183,30,86,1,-1,-1,-1
148,3,383,191,27,78,1,-1,-1,-1
148,7,640,110,23,59,1,-1,-1,-1
148,12,741,234,28,78,1,-1,-1,-1
148,26,461,183,30,76,1,-1,-1,-1
148,27,719,117,20,56,1,-1,-1,-1
148,28,613,228,39,94,1,-1,-1,-1
148,34,626,109,24,60,1,-1,-1,-1
148,43,412,183,30,86,1,-1,-1,-1
149,3,385,191,28,80,1,-1,-1,-1
149,7,642,109,23,60,1,-1,-1,-1
149,12,745,238,28,79,1,-1,-1,-1
149,26,451,181,33,82,1,-1,-1,-1
149,28,606,229,37,93,1,-1,-1,-1
149,34,625,108,24,60,1,-1,-1,-1
149,49,496,334,18,46,1,-1,-1,-1
150,3,388,191,29,83,1,-1,-1,-1
150,7,644,109,22,58,1,-1,-1,-1
150,15,442,181,32,89,1,-1,-1,-1
150,26,445,180,33,82,1,-1,-1,-1
150,27,723,118,17,49,1,-1,-1,-1
150,28,597,226,38,95,1,-1,-1,-1
150,34,627,107,23,58,1,-1,-1,-1
150,49,495,334,18,46,1,-1,-1,-1
151,3,390,193,29,82,1,-1,-1,-1
151,7,648,109,22,56,1,-1,-1,-1
151,15,442,188,29,83,1,-1,-1,-1
151,21,76,84,18,42,1,-1,-1,-1
151,27,725,117,17,48,1,-1,-1,-1
151,28,594,226,38,95,1,-1,-1,-1
151,34,629,107,23,57,1,-1,-1,-1
151,41,590,224,32,90,1,-1,-1,-1
152,3,390,192,30,86,1,-1,-1,-1
152,7,649,108,22,56,1,-1,-1,-1
152,15,434,189,30,85,1,-1,-1,-1
152,19,495,333,18,48,1,-1,-1,-1
152,20,62,90,18,40,1,-1,-1,-1
152,21,73,84,18,42,1,-1,-1,-1
152,26,438,186,33,85,1,-1,-1,-1
152,41,583,225,31,88,1,-1,-1,-1
152,50,698,110,21,58,1,-1,-1,-1
153,3,391,192,30,86,1,-1,-1,-1
153,7,649,107,23,60,1,-1,-1,-1
153,15,435,190,30,85,1,-1,-1,-1
153,19,495,333,18,48,1,-1,-1,-1
153,20,60,89,18,41,1,-1,-1,-1
153,26,437,187,35,91,1,-1,-1,-1
153,41,573,225,30,85,1,-1,-1,-1
153,50,699,110,23,63,1,-1,-1,-1
154,7,648,106,23,61,1,-1,-1,-1
154,20,59,89,18,40,1,-1,-1,-1
154,26,436,187,36,95,1,-1,-1,-1
154,41,565,222,31,87,1,-1,-1,-1
154,50,699,110,24,65,1,-1,-1,-1
154,51,719,122,19,54,1,-1,-1,-1
155,7,649,107,22,58,1,-1,-1,-1
155,20,56,89,17,39,1,-1,-1,-1
155,26,437,189,35,93,1,-1,-1,-1
155,41,558,220,30,85,1,-1,-1,-1
155,50,695,110,23,63,1,-1,-1,-1
155,51,724,124,19,53,1,-1,-1,-1
155,53,412,189,30,84,1,-1,-1,-1
156,7,649,107,21,56,1,-1,-1,-1
156,20,52,88,17,40,1,-1,-1,-1
156,26,442,193,33,90,1,-1,-1,-1
156,41,548,218,30,85,1,-1,-1,-1
156,50,689,108,22,60,1,-1,-1,-1
156,51,725,125,19,53,1,-1,-1,-1
156,53,410,191,30,85,1,-1,-1,-1
157,7,648,108,21,54,1,-1,-1,-1
157,20,51,88,17,39,1,-1,-1,-1
157,26,445,193,33,91,1,-1,-1,-1
157,41,540,218,30,84,1,-1,-1,-1
157,50,685,108,21,59,1,-1,-1,-1
157,53,398,181,30,84,1,-1,-1,-1
158,7,650,107,21,54,1,-1,-1,-1
158,20,44,88,18,41,1,-1,-1,-1
158,23,653,106,21,60,1,-1,-1,-1
158,26,452,199,32,87,1,-1,-1,-1
158,41,529,218,30,84,1,-1,-1,-1
158,50,683,104,25,68,1,-1,-1,-1
158,53,394,180,29,83,1,-1,-1,-1
159,20,41,87,18,42,1,-1,-1,-1
159,23,653,106,21,58,1,-1,-1,-1
159,26,458,201,32,87,1,-1,-1,-1
159,41,521,218,31,86,1,-1,-1,-1
159,50,682,105,25,68,1,-1,-1,-1
160,20,39,89,17,41,1,-1,-1,-1
160,23,655,106,22,59,1,-1,-1,-1
160,26,462,200,33,89,1,-1,-1,-1
160,41,514,218,31,87,1,-1,-1,-1
160,50,682,107,24,67,1,-1,-1,-1
160,56,361,171,32,76,1,-1,-1,-1
161,15,430,200,33,94,1,-1,-1,-1
161,19,494,336,18,46,1,-1,-1,-1
161,20,35,90,19,45,1,-1,-1,-1
161,23,657,105,23,62,1,-1,-1,-1
161,26,462,196,34,93,1,-1,-1,-1
161,39,491,214,26,74,1,-1,-1,-1
161,41,506,217,31,86,1,-1,-1,-1
161,50,680,104,24,66,1,-1,-1,-1
161,56,351,172,31,75,1,-1,-1,-1
162,15,434,202,33,92,1,-1,-1,-1
162,19,494,336,18,46,1,-1,-1,-1
162,20,33,91,19,45,1,-1,-1,-1
162,23,659,103,25,67,1,-1,-1,-1
162,26,462,196,35,94,1,-1,-1,-1
162,39,486,210,28,80,1,-1,-1,-1
162,50,679,103,24,67,1,-1,-1,-1
162,56,342,172,31,73,1,-1,-1,-1
163,3,435,202,33,93,1,-1,-1,-1
163,15,434,203,33,93,1,-1,-1,-1
163,20,33,92,18,43,1,-1,-1,-1
163,23,660,103,26,70,1,-1,-1,-1
163,39,483,207,29,82,1,-1,-1,-1
163,50,678,102,25,69,1,-1,-1,-1
163,56,335,171,31,74,1,-1,-1,-1
164,3,438,203,33,93,1,-1,-1,-1
164,20,33,96,16,40,1,-1,-1,-1
164,23,660,104,27,73,1,-1,-1,-1
164,39,483,208,29,83,1,-1,-1,-1
164,50,678,100,25,68,1,-1,-1,-1
164,56,329,170,31,75,1,-1,-1,-1
165,20,31,97,17,41,1,-1,-1,-1
165,23,660,106,28,74,1,-1,-1,-1
165,39,483,208,29,83,1,-1,-1,-1
165,50,678,99,25,68,1,-1,-1,-1
165,56,324,171,31,74,1,-1,-1,-1
165,58,449,210,29,81,1,-1,-1,-1
166,20,27,98,16,39,1,-1,-1,-1
166,23,658,107,27,73,1,-1,-1,-1
166,39,489,210,29,81,1,-1,-1,-1
166,50,679,99,24,65,1,-1,-1,-1
166,56,318,172,30,70,1,-1,-1,-1
166,58,453,214,29,81,1,-1,-1,-1
167,20,25,99,17,39,1,-1,-1,-1
167,23,655,109,27,72,1,-1,-1,-1
167,39,494,210,28,79,1,-1,-1,-1
167,50,681,100,23,62,1,-1,-1,-1
167,56,306,170,31,71,1,-1,-1,-1
167,58,454,215,29,82,1,-1,-1,-1
168,20,24,101,16,38,1,-1,-1,-1
168,23,652,110,27,74,1,-1,-1,-1
168,39,499,209,28,81,1,-1,-1,-1
168,50,682,100,22,61,1,-1,-1,-1
168,56,296,170,32,73,1,-1,-1,-1
168,58,453,216,29,82,1,-1,-1,-1
169,20,24,103,16,36,1,-1,-1,-1
169,23,649,112,25,69,1,-1,-1,-1
169,39,508,209,29,83,1,-1,-1,-1
169,50,685,101,21,56,1,-1,-1,-1
169,56,289,170,32,72,1,-1,-1,-1
169,58,455,220,28,80,1,-1,-1,-1
170,20,25,105,16,36,1,-1,-1,-1
170,23,646,113,24,67,1,-1,-1,-1
170,39,516,209,28,80,1,-1,-1,-1
170,50,685,102,21,56,1,-1,-1,-1
170,56,284,169,32,73,1,-1,-1,-1
170,58,450,214,30,85,1,-1,-1,-1
171,20,23,107,15,35,1,-1,-1,-1
171,23,642,113,24,66,1,-1,-1,-1
171,39,521,208,29,82,1,-1,-1,-1
171,50,685,102,21,56,1,-1,-1,-1
171,56,278,168,32,73,1,-1,-1,-1
171,58,448,212,30,84,1,-1,-1,-1
172,23,644,113,22,63,1,-1,-1,-1
172,28,619,117,26,68,1,-1,-1,-1
172,39,529,208,29,83,1,-1,-1,-1
172,50,685,101,21,57,1,-1,-1,-1
172,56,269,169,31,70,1,-1,-1,-1
172,58,452,209,30,85,1,-1,-1,-1
172,60,628,130,22,61,1,-1,-1,-1
173,23,648,110,22,62,1,-1,-1,-1
173,28,619,115,27,70,1,-1,-1,-1
173,39,534,209,30,85,1,-1,-1,-1
173,50,684,101,22,58,1,-1,-1,-1
173,56,262,169,31,70,1,-1,-1,-1
173,58,454,207,31,88,1,-1,-1,-1
173,60,628,136,21,60,1,-1,-1,-1
174,23,655,108,22,62,1,-1,-1,-1
174,28,617,113,28,74,1,-1,-1,-1
174,39,540,209,30,84,1,-1,-1,-1
174,50,682,100,22,59,1,-1,-1,-1
174,56,256,171,31,68,1,-1,-1,-1
174,58,459,206,31,88,1,-1,-1,-1
175,23,655,107,22,62,1,-1,-1,-1
175,28,612,111,29,78,1,-1,-1,-1
175,39,546,209,29,83,1,-1,-1,-1
175,50,683,102,22,57,1,-1,-1,-1
175,56,245,168,32,69,1,-1,-1,-1
175,58,467,210,30,85,1,-1,-1,-1
176,3,471,217,30,86,1,-1,-1,-1
176,28,611,107,29,79,1,-1,-1,-1
176,39,553,212,29,83,1,-1,-1,-1
176,50,683,102,22,57,1,-1,-1,-1
176,56,240,168,31,68,1,-1,-1,-1
176,58,469,211,30,85,1,-1,-1,-1
176,60,611,122,24,68,1,-1,-1,-1
177,3,477,219,31,88,1,-1,-1,-1
177,39,559,213,29,83,1,-1,-1,-1
177,41,390,205,34,96,1,-1,-1,-1
177,50,682,103,22,57,1,-1,-1,-1
177,56,232,165,31,68,1,-1,-1,-1
177,60,609,128,24,67,1,-1,-1,-1
178,3,483,219,31,88,1,-1,-1,-1
178,39,567,216,29,82,1,-1,-1,-1
178,41,382,207,32,90,1,-1,-1,-1
178,50,683,96,23,60,1,-1,-1,-1
178,56,223,164,32,69,1,-1,-1,-1
178,60,602,123,24,69,1,-1,-1,-1
179,3,489,220,31,87,1,-1,-1,-1
179,39,573,217,29,83,1,-1,-1,-1
179,41,379,207,31,87,1,-1,-1,-1
179,50,685,98,22,58,1,-1,-1,-1
179,56,216,165,32,69,1,-1,-1,-1
179,60,598,122,25,70,1,-1,-1,-1
180,3,493,219,31,88,1,-1,-1,-1
180,28,598,126,26,72,1,-1,-1,-1
180,39,577,219,30,85,1,-1,-1,-1
180,41,371,208,31,86,1,-1,-1,-1
180,50,685,98,22,58,1,-1,-1,-1
180,56,212,167,30,65,1,-1,-1,-1
180,60,591,124,24,69,1,-1,-1,-1
181,3,498,221,32,90,1,-1,-1,-1
181,28,596,126,26,72,1,-1,-1,-1
181,39,587,218,31,88,1,-1,-1,-1
181,41,361,211,32,86,1,-1,-1,-1
181,50,687,100,21,55,1,-1,-1,-1
181,56,202,166,30,64,1,-1,-1,-1
181,60,587,125,24,69,1,-1,-1,-1
182,3,503,221,32,90,1,-1,-1,-1
182,39,594,218,33,90,1,-1,-1,-1
182,41,352,206,33,90,1,-1,-1,-1
182,50,689,102,20,53,1,-1,-1,-1
182,51,722,116,15,43,1,-1,-1,-1
182,56,194,165,29,63,1,-1,-1,-1
182,60,584,126,24,68,1,-1,-1,-1
183,3,508,222,33,92,1,-1,-1,-1
183,39,599,218,34,92,1,-1,-1,-1
183,41,345,204,33,92,1,-1,-1,-1
183,50,689,104,19,50,1,-1,-1,-1
183,51,723,117,15,43,1,-1,-1,-1
183,60,582,127,23,66,1,-1,-1,-1
184,3,512,223,33,93,1,-1,-1,-1
184,39,608,222,33,88,1,-1,-1,-1
184,41,335,207,33,88,1,-1,-1,-1
184,50,689,103,19,49,1,-1,-1,-1
184,51,723,117,15,42,1,-1,-1,-1
184,56,176,162,33,70,1,-1,-1,-1
184,58,520,225,31,88,1,-1,-1,-1
184,60,577,128,24,68,1,-1,-1,-1
185,39,614,224,33,88,1,-1,-1,-1
185,41,328,209,33,86,1,-1,-1,-1
185,50,690,103,18,49,1,-1,-1,-1
185,56,168,161,33,70,1,-1,-1,-1
185,58,524,226,31,89,1,-1,-1,-1
185,60,571,132,25,72,1,-1,-1,-1
186,39,621,224,34,90,1,-1,-1,-1
186,41,320,206,32,83,1,-1,-1,-1
186,50,688,103,18,49,1,-1,-1,-1
186,58,528,227,32,90,1,-1,-1,-1
186,60,567,131,26,73,1,-1,-1,-1
187,39,631,223,35,93,1,-1,-1,-1
187,41,310,205,32,83,1,-1,-1,-1
187,50,689,103,18,49,1,-1,-1,-1
187,58,535,229,33,92,1,-1,-1,-1
187,60,560,130,26,74,1,-1,-1,-1
188,39,638,225,36,92,1,-1,-1,-1
188,41,303,205,32,83,1,-1,-1,-1
188,50,688,95,20,55,1,-1,-1,-1
188,56,154,160,31,68,1,-1,-1,-1
188,58,540,230,33,93,1,-1,-1,-1
188,60,555,132,25,72,1,-1,-1,-1
189,28,549,138,29,79,1,-1,-1,-1
189,39,646,228,35,91,1,-1,-1,-1
189,41,291,201,34,88,1,-1,-1,-1
189,50,687,92,22,59,1,-1,-1,-1
189,56,148,162,29,64,1,-1,-1,-1
189,58,547,231,33,94,1,-1,-1,-1
189,60,551,133,26,73,1,-1,-1,-1
190,28,543,138,29,77,1,-1,-1,-1
190,39,651,230,36,94,1,-1,-1,-1
190,41,284,200,33,86,1,-1,-1,-1
190,50,688,90,22,61,1,-1,-1,-1
190,56,141,162,29,64,1,-1,-1,-1
190,58,550,233,35,99,1,-1,-1,-1
191,28,539,139,27,74,1,-1,-1,-1
191,39,655,229,37,98,1,-1,-1,-1
191,41,278,197,34,88,1,-1,-1,-1
191,50,690,97,20,55,1,-1,-1,-1
191,51,725,117,15,43,1,-1,-1,-1
191,58,558,243,34,95,1,-1,-1,-1
192,28,535,137,28,77,1,-1,-1,-1
192,39,659,230,38,99,1,-1,-1,-1
192,41,273,195,35,88,1,-1,-1,-1
192,50,690,100,19,53,1,-1,-1,-1
192,51,725,117,15,43,1,-1,-1,-1
192,58,563,246,33,95,1,-1,-1,-1
193,28,531,138,28,77,1,-1,-1,-1
193,39,664,230,39,101,1,-1,-1,-1
193,41,265,194,33,83,1,-1,-1,-1
193,50,689,93,21,58,1,-1,-1,-1
193,58,566,243,34,97,1,-1,-1,-1
193,60,530,141,25,70,1,-1,-1,-1
193,65,134,163,25,56,1,-1,-1,-1
194,39,671,229,39,102,1,-1,-1,-1
194,41,261,194,32,83,1,-1,-1,-1
194,50,689,92,21,59,1,-1,-1,-1
194,58,571,247,34,95,1,-1,-1,-1
194,60,525,140,25,71,1,-1,-1,-1
194,65,129,162,26,56,1,-1,-1,-1
195,39,675,233,38,101,1,-1,-1,-1
195,41,257,194,33,83,1,-1,-1,-1
195,50,689,90,22,61,1,-1,-1,-1
195,58,576,250,33,93,1,-1,-1,-1
195,60,520,142,25,70,1,-1,-1,-1
195,65,117,152,28,62,1,-1,-1,-1
196,3,585,250,35,100,1,-1,-1,-1
196,39,680,241,37,95,1,-1,-1,-1
196,41,248,194,32,83,1,-1,-1,-1
196,50,688,90,22,61,1,-1,-1,-1
196,56,107,159,28,60,1,-1,-1,-1
196,58,580,252,33,93,1,-1,-1,-1
196,60,514,143,25,71,1,-1,-1,-1
196,65,110,149,29,65,1,-1,-1,-1
197,3,592,252,36,102,1,-1,-1,-1
197,39,685,244,36,91,1,-1,-1,-1
197,41,241,195,31,79,1,-1,-1,-1
197,50,688,96,20,55,1,-1,-1,-1
197,56,101,153,27,60,1,-1,-1,-1
197,60,510,145,25,71,1,-1,-1,-1
198,3,597,255,36,102,1,-1,-1,-1
198,39,690,247,36,91,1,-1,-1,-1
198,41,234,194,31,78,1,-1,-1,-1
198,50,689,100,19,52,1,-1,-1,-1
198,56,100,158,26,57,1,-1,-1,-1
198,60,506,144,26,74,1,-1,-1,-1
199,3,603,257,36,102,1,-1,-1,-1
199,28,497,142,26,73,1,-1,-1,-1
199,39,697,249,39,99,1,-1,-1,-1
199,41,226,192,31,78,1,-1,-1,-1
199,50,691,101,19,52,1,-1,-1,-1
199,56,87,157,29,63,1,-1,-1,-1
199,58,605,262,35,99,1,-1,-1,-1
199,60,502,145,26,74,1,-1,-1,-1
200,28,492,142,27,76,1,-1,-1,-1
200,39,701,251,40,101,1,-1,-1,-1
200,41,224,191,30,75,1,-1,-1,-1
200,50,691,103,19,52,1,-1,-1,-1
200,56,79,157,30,64,1,-1,-1,-1
200,58,610,265,35,99,1,-1,-1,-1
200,66,720,110,16,45,1,-1,-1,-1
