1,52,1831,428,76,213,1,-1,-1,-1
1,64,1307,420,93,261,1,-1,-1,-1
1,67,1610,410,106,257,1,-1,-1,-1
1,68,746,316,196,549,1,-1,-1,-1
3,70,279,535,70,159,1,-1,-1,-1
3,71,1370,394,77,216,1,-1,-1,-1
3,72,575,423,61,172,1,-1,-1,-1
3,73,1487,426,59,166,1,-1,-1,-1
4,70,279,535,70,159,1,-1,-1,-1
4,71,1370,415,72,202,1,-1,-1,-1
4,72,578,419,60,168,1,-1,-1,-1
4,73,1457,432,58,163,1,-1,-1,-1
5,71,1370,422,70,198,1,-1,-1,-1
5,72,579,418,59,167,1,-1,-1,-1
5,73,1447,433,58,162,1,-1,-1,-1
6,71,1370,423,70,197,1,-1,-1,-1
6,72,579,418,59,167,1,-1,-1,-1
6,73,1444,433,58,162,1,-1,-1,-1
6,74,655,401,73,200,1,-1,-1,-1
6,75,1488,439,55,154,1,-1,-1,-1
7,71,1359,425,73,206,1,-1,-1,-1
7,72,558,420,62,174,1,-1,-1,-1
7,73,1430,433,62,174,1,-1,-1,-1
7,74,647,415,70,193,1,-1,-1,-1
7,75,1488,439,55,154,1,-1,-1,-1
8,71,1355,425,75,210,1,-1,-1,-1
8,72,551,421,63,177,1,-1,-1,-1
8,73,1425,432,64,180,1,-1,-1,-1
8,74,645,419,70,191,1,-1,-1,-1
9,71,1353,424,76,214,1,-1,-1,-1
9,72,548,421,64,179,1,-1,-1,-1
9,73,1423,430,65,184,1,-1,-1,-1
9,74,644,421,70,190,1,-1,-1,-1
9,76,275,378,79,222,1,-1,-1,-1
10,71,1364,425,78,220,1,-1,-1,-1
10,72,552,424,62,176,1,-1,-1,-1
10,73,1407,429,73,205,1,-1,-1,-1
10,74,639,418,71,194,1,-1,-1,-1
10,76,275,378,79,222,1,-1,-1,-1
11,71,1369,426,79,222,1,-1,-1,-1
11,72,554,425,62,174,1,-1,-1,-1
11,73,1402,428,75,212,1,-1,-1,-1
11,74,638,418,72,195,1,-1,-1,-1
12,71,1371,426,79,222,1,-1,-1,-1
12,72,555,426,62,173,1,-1,-1,-1
12,73,1400,428,76,214,1,-1,-1,-1
12,74,637,417,71,196,1,-1,-1,-1
12,77,776,423,28,71,1,-1,-1,-1
12,78,1135,422,40,83,1,-1,-1,-1
13,71,1375,422,82,229,1,-1,-1,-1
13,72,561,423,63,177,1,-1,-1,-1
13,73,1392,429,78,218,1,-1,-1,-1
13,74,634,417,71,196,1,-1,-1,-1
13,77,776,423,28,71,1,-1,-1,-1
13,78,1144,422,41,87,1,-1,-1,-1
14,71,1377,420,83,233,1,-1,-1,-1
14,72,564,422,63,178,1,-1,-1,-1
14,74,633,418,71,196,1,-1,-1,-1
14,78,1147,422,42,88,1,-1,-1,-1
15,71,1378,419,83,235,1,-1,-1,-1
15,72,565,422,63,178,1,-1,-1,-1
15,74,633,418,71,196,1,-1,-1,-1
15,78,1148,422,42,88,1,-1,-1,-1
16,71,1376,418,82,231,1,-1,-1,-1
16,72,578,418,68,191,1,-1,-1,-1
16,74,636,422,60,166,1,-1,-1,-1
16,78,1150,422,42,89,1,-1,-1,-1
17,71,1375,417,82,230,1,-1,-1,-1
17,72,583,416,70,197,1,-1,-1,-1
17,74,637,424,56,154,1,-1,-1,-1
18,71,1375,417,82,230,1,-1,-1,-1
18,72,584,415,71,200,1,-1,-1,-1
18,74,637,424,54,150,1,-1,-1,-1
19,71,1367,418,85,239,1,-1,-1,-1
19,72,577,419,73,203,1,-1,-1,-1
19,74,637,426,53,145,1,-1,-1,-1
20,71,1365,418,86,242,1,-1,-1,-1
20,72,573,420,75,204,1,-1,-1,-1
21,71,1364,418,87,243,1,-1,-1,-1
21,72,572,421,76,204,1,-1,-1,-1
22,71,1350,419,88,246,1,-1,-1,-1
22,72,558,429,81,213,1,-1,-1,-1
23,71,1345,419,88,248,1,-1,-1,-1
23,72,552,432,84,216,1,-1,-1,-1
24,71,1343,419,89,249,1,-1,-1,-1
24,72,549,433,86,218,1,-1,-1,-1
25,71,1317,414,96,269,1,-1,-1,-1
25,72,548,434,87,220,1,-1,-1,-1
26,71,1308,412,99,278,1,-1,-1,-1
27,71,1304,410,101,283,1,-1,-1,-1
27,79,263,432,89,214,1,-1,-1,-1
28,71,1261,413,96,270,1,-1,-1,-1
28,79,263,432,89,214,1,-1,-1,-1
29,71,1245,415,94,264,1,-1,-1,-1
30,71,1239,416,93,260,1,-1,-1,-1
30,72,439,435,90,232,1,-1,-1,-1
31,71,1231,428,92,258,1,-1,-1,-1
31,72,429,435,91,234,1,-1,-1,-1
31,73,1176,441,79,221,1,-1,-1,-1
32,71,1229,433,91,256,1,-1,-1,-1
32,72,364,429,99,258,1,-1,-1,-1
32,73,1173,441,78,219,1,-1,-1,-1
33,70,300,438,91,219,1,-1,-1,-1
33,71,1229,435,90,254,1,-1,-1,-1
33,72,350,427,100,264,1,-1,-1,-1
33,73,1171,442,78,219,1,-1,-1,-1
34,70,301,434,92,221,1,-1,-1,-1
34,71,1225,458,87,244,1,-1,-1,-1
34,72,297,429,100,269,1,-1,-1,-1
34,73,1154,450,71,200,1,-1,-1,-1
35,71,1224,466,86,241,1,-1,-1,-1
35,72,277,429,100,270,1,-1,-1,-1
35,73,1148,452,69,195,1,-1,-1,-1
36,71,1224,468,86,241,1,-1,-1,-1
36,72,270,430,100,271,1,-1,-1,-1
36,73,1146,452,69,194,1,-1,-1,-1
36,83,113,455,83,184,1,-1,-1,-1
37,71,1214,442,97,274,1,-1,-1,-1
37,72,266,449,96,256,1,-1,-1,-1
37,73,1124,454,72,202,1,-1,-1,-1
37,83,85,456,88,195,1,-1,-1,-1
38,71,1210,434,101,283,1,-1,-1,-1
38,72,265,457,95,250,1,-1,-1,-1
38,73,1116,455,73,205,1,-1,-1,-1
38,83,76,456,89,199,1,-1,-1,-1
39,71,1209,431,102,286,1,-1,-1,-1
39,72,264,459,95,248,1,-1,-1,-1
39,73,1113,455,73,206,1,-1,-1,-1
39,83,73,456,90,200,1,-1,-1,-1
40,71,1214,426,104,292,1,-1,-1,-1
40,72,222,455,101,259,1,-1,-1,-1
40,73,1104,457,73,205,1,-1,-1,-1
40,83,65,456,91,203,1,-1,-1,-1
41,71,1217,424,105,294,1,-1,-1,-1
41,72,206,453,105,264,1,-1,-1,-1
42,71,1218,423,105,295,1,-1,-1,-1
42,72,200,452,107,265,1,-1,-1,-1
43,71,1217,420,110,310,1,-1,-1,-1
43,72,179,437,116,284,1,-1,-1,-1
43,73,1076,430,67,189,1,-1,-1,-1
44,71,1217,419,113,316,1,-1,-1,-1
44,72,171,432,120,291,1,-1,-1,-1
44,73,1073,427,67,187,1,-1,-1,-1
45,71,1217,419,113,318,1,-1,-1,-1
45,72,168,429,123,294,1,-1,-1,-1
45,73,1072,426,66,186,1,-1,-1,-1
45,84,273,439,64,181,1,-1,-1,-1
46,71,1219,421,112,313,1,-1,-1,-1
46,72,152,431,118,281,1,-1,-1,-1
46,73,1065,424,67,189,1,-1,-1,-1
46,84,273,439,64,181,1,-1,-1,-1
47,71,1221,422,111,311,1,-1,-1,-1
47,72,146,432,116,276,1,-1,-1,-1
47,73,1062,424,68,191,1,-1,-1,-1
48,71,1221,423,111,311,1,-1,-1,-1
48,72,144,432,115,274,1,-1,-1,-1
48,73,1062,423,69,193,1,-1,-1,-1
48,85,862,427,47,104,1,-1,-1,-1
49,71,1224,419,113,318,1,-1,-1,-1
49,72,104,440,123,293,1,-1,-1,-1
49,73,1048,425,65,184,1,-1,-1,-1
49,85,859,429,50,112,1,-1,-1,-1
50,71,1225,419,114,319,1,-1,-1,-1
50,72,89,442,127,299,1,-1,-1,-1
50,73,1043,425,64,181,1,-1,-1,-1
50,85,859,430,51,115,1,-1,-1,-1
51,71,1226,419,113,318,1,-1,-1,-1
51,72,83,444,129,302,1,-1,-1,-1
51,73,1042,425,64,181,1,-1,-1,-1
51,85,858,430,52,116,1,-1,-1,-1
52,71,1230,418,117,327,1,-1,-1,-1
52,72,49,433,131,309,1,-1,-1,-1
52,73,1024,421,65,183,1,-1,-1,-1
52,84,179,429,74,208,1,-1,-1,-1
52,85,846,428,54,121,1,-1,-1,-1
53,71,1232,418,118,330,1,-1,-1,-1
53,72,37,429,130,311,1,-1,-1,-1
53,73,1018,419,66,185,1,-1,-1,-1
53,84,174,429,75,210,1,-1,-1,-1
53,85,842,427,54,123,1,-1,-1,-1
54,71,1232,418,118,331,1,-1,-1,-1
54,72,33,427,130,312,1,-1,-1,-1
54,73,1016,418,66,186,1,-1,-1,-1
54,84,172,429,76,210,1,-1,-1,-1
54,85,840,427,54,124,1,-1,-1,-1
55,71,1235,411,118,331,1,-1,-1,-1
55,72,-5,403,146,359,1,-1,-1,-1
55,73,1007,423,63,178,1,-1,-1,-1
55,84,162,430,72,203,1,-1,-1,-1
55,85,839,427,49,113,1,-1,-1,-1
56,71,1236,408,118,332,1,-1,-1,-1
56,72,-19,393,149,377,1,-1,-1,-1
56,73,1004,424,62,175,1,-1,-1,-1
56,84,159,432,70,198,1,-1,-1,-1
56,85,838,427,48,109,1,-1,-1,-1
57,71,1237,407,118,332,1,-1,-1,-1
57,72,-23,390,148,384,1,-1,-1,-1
57,73,1003,425,62,175,1,-1,-1,-1
57,84,158,433,69,195,1,-1,-1,-1
57,85,838,427,47,108,1,-1,-1,-1
57,86,135,446,63,177,1,-1,-1,-1
58,71,1237,404,124,349,1,-1,-1,-1
58,72,-39,386,151,392,1,-1,-1,-1
58,73,986,421,61,171,1,-1,-1,-1
58,84,116,429,70,197,1,-1,-1,-1
58,85,836,428,47,107,1,-1,-1,-1
58,86,135,446,63,177,1,-1,-1,-1
59,71,1236,403,127,355,1,-1,-1,-1
59,73,979,419,60,170,1,-1,-1,-1
59,84,100,427,71,199,1,-1,-1,-1
60,71,1236,403,127,358,1,-1,-1,-1
60,73,977,418,61,171,1,-1,-1,-1
60,84,95,426,71,200,1,-1,-1,-1
61,71,1247,399,138,387,1,-1,-1,-1
61,73,966,422,62,171,1,-1,-1,-1
61,84,91,427,73,204,1,-1,-1,-1
62,71,1251,396,142,399,1,-1,-1,-1
62,73,962,424,64,172,1,-1,-1,-1
62,84,90,427,74,205,1,-1,-1,-1
63,71,1252,395,144,405,1,-1,-1,-1
63,73,961,425,65,172,1,-1,-1,-1
63,84,90,427,75,205,1,-1,-1,-1
64,71,1266,382,151,425,1,-1,-1,-1
64,73,959,425,67,175,1,-1,-1,-1
64,84,87,421,77,212,1,-1,-1,-1
65,71,1271,378,153,430,1,-1,-1,-1
65,73,959,425,68,177,1,-1,-1,-1
65,84,87,418,77,214,1,-1,-1,-1
66,71,1273,377,153,431,1,-1,-1,-1
66,73,959,425,68,177,1,-1,-1,-1
66,84,87,417,77,215,1,-1,-1,-1
67,71,1293,380,156,437,1,-1,-1,-1
67,73,949,423,67,173,1,-1,-1,-1
67,84,83,416,78,219,1,-1,-1,-1
68,71,1300,382,156,438,1,-1,-1,-1
68,73,946,422,67,172,1,-1,-1,-1
68,84,82,416,78,220,1,-1,-1,-1
69,71,1303,383,156,438,1,-1,-1,-1
69,73,944,422,68,171,1,-1,-1,-1
69,84,82,416,78,219,1,-1,-1,-1
70,71,1323,382,161,452,1,-1,-1,-1
70,73,935,418,67,168,1,-1,-1,-1
70,84,80,420,72,202,1,-1,-1,-1
71,71,1330,381,164,460,1,-1,-1,-1
71,73,932,416,68,167,1,-1,-1,-1
71,84,80,422,69,195,1,-1,-1,-1
72,71,1332,378,166,466,1,-1,-1,-1
72,73,931,415,68,167,1,-1,-1,-1
72,84,80,423,68,192,1,-1,-1,-1
73,71,1354,370,172,481,1,-1,-1,-1
73,73,921,416,69,168,1,-1,-1,-1
73,84,80,424,64,181,1,-1,-1,-1
74,71,1362,366,174,488,1,-1,-1,-1
74,73,918,416,69,168,1,-1,-1,-1
74,84,80,424,63,178,1,-1,-1,-1
75,71,1365,364,175,491,1,-1,-1,-1
75,73,917,416,69,168,1,-1,-1,-1
75,84,80,424,63,177,1,-1,-1,-1
75,87,875,420,64,147,1,-1,-1,-1
76,71,1386,354,188,527,1,-1,-1,-1
76,73,913,416,69,168,1,-1,-1,-1
76,84,75,424,61,172,1,-1,-1,-1
76,87,875,418,70,162,1,-1,-1,-1
77,71,1394,350,192,540,1,-1,-1,-1
77,84,73,424,61,171,1,-1,-1,-1
77,87,875,418,71,166,1,-1,-1,-1
78,71,1396,348,194,545,1,-1,-1,-1
78,84,73,424,61,170,1,-1,-1,-1
78,87,875,418,72,168,1,-1,-1,-1
78,88,13,425,76,200,1,-1,-1,-1
79,71,1416,368,185,519,1,-1,-1,-1
79,84,75,417,66,184,1,-1,-1,-1
79,87,869,418,70,166,1,-1,-1,-1
79,88,13,425,76,200,1,-1,-1,-1
80,71,1423,376,181,507,1,-1,-1,-1
80,84,76,414,68,189,1,-1,-1,-1
80,87,867,418,69,165,1,-1,-1,-1
81,71,1426,380,179,501,1,-1,-1,-1
81,84,77,413,69,191,1,-1,-1,-1
81,87,866,418,69,165,1,-1,-1,-1
82,71,1473,363,180,505,1,-1,-1,-1
82,84,77,386,80,219,1,-1,-1,-1
82,87,863,417,66,158,1,-1,-1,-1
83,71,1490,358,180,506,1,-1,-1,-1
83,84,77,376,84,229,1,-1,-1,-1
83,87,861,417,65,156,1,-1,-1,-1
84,71,1497,356,180,506,1,-1,-1,-1
84,84,77,372,86,233,1,-1,-1,-1
84,87,861,417,65,155,1,-1,-1,-1
85,71,1517,364,209,585,1,-1,-1,-1
85,84,77,401,71,192,1,-1,-1,-1
85,87,858,413,68,164,1,-1,-1,-1
86,71,1525,368,218,611,1,-1,-1,-1
86,84,76,414,64,175,1,-1,-1,-1
86,87,857,411,69,168,1,-1,-1,-1
87,71,1528,371,221,619,1,-1,-1,-1
87,84,76,418,62,169,1,-1,-1,-1
87,87,857,410,69,169,1,-1,-1,-1
88,71,1554,361,228,641,1,-1,-1,-1
88,84,76,418,61,167,1,-1,-1,-1
88,87,849,408,69,167,1,-1,-1,-1
89,71,1564,357,232,649,1,-1,-1,-1
89,87,846,407,69,167,1,-1,-1,-1
90,71,1568,355,233,653,1,-1,-1,-1
90,87,845,407,69,167,1,-1,-1,-1
90,89,282,390,65,156,1,-1,-1,-1
91,71,1614,340,249,697,1,-1,-1,-1
91,87,843,406,69,167,1,-1,-1,-1
91,89,282,390,65,156,1,-1,-1,-1
92,71,1632,333,255,716,1,-1,-1,-1
93,71,1638,330,259,725,1,-1,-1,-1
94,71,1666,323,258,723,1,-1,-1,-1
94,87,833,401,71,170,1,-1,-1,-1
95,71,1678,324,255,715,1,-1,-1,-1
95,87,832,401,72,171,1,-1,-1,-1
96,71,1683,328,252,706,1,-1,-1,-1
96,87,831,401,72,171,1,-1,-1,-1
97,71,1697,324,256,717,1,-1,-1,-1
97,87,832,393,72,169,1,-1,-1,-1
98,87,833,390,73,169,1,-1,-1,-1
99,87,833,389,73,168,1,-1,-1,-1
100,87,831,384,77,179,1,-1,-1,-1
101,87,830,383,78,183,1,-1,-1,-1
102,87,830,382,77,184,1,-1,-1,-1
102,90,1782,434,136,382,1,-1,-1,-1
102,91,735,382,48,128,1,-1,-1,-1
103,87,826,377,78,189,1,-1,-1,-1
103,90,1776,421,142,398,1,-1,-1,-1
103,91,752,377,52,140,1,-1,-1,-1
104,87,825,375,78,191,1,-1,-1,-1
104,90,1773,416,144,404,1,-1,-1,-1
104,91,757,376,54,144,1,-1,-1,-1
105,87,825,375,77,192,1,-1,-1,-1
105,90,1772,414,145,407,1,-1,-1,-1
105,91,758,375,54,146,1,-1,-1,-1
106,87,823,373,78,193,1,-1,-1,-1
106,90,1770,411,147,411,1,-1,-1,-1
106,91,756,380,53,142,1,-1,-1,-1
107,91,755,382,52,141,1,-1,-1,-1
108,91,755,383,52,141,1,-1,-1,-1
108,92,685,377,55,126,1,-1,-1,-1
109,87,814,378,70,176,1,-1,-1,-1
109,90,1738,425,144,404,1,-1,-1,-1
109,91,761,384,51,139,1,-1,-1,-1
109,92,685,377,55,126,1,-1,-1,-1
110,87,813,379,69,173,1,-1,-1,-1
110,90,1733,420,148,415,1,-1,-1,-1
110,91,763,385,51,139,1,-1,-1,-1
111,87,812,380,68,172,1,-1,-1,-1
111,90,1730,415,152,427,1,-1,-1,-1
111,91,764,385,50,138,1,-1,-1,-1
111,93,535,384,39,78,1,-1,-1,-1
111,94,299,380,21,61,1,-1,-1,-1
112,87,805,375,69,177,1,-1,-1,-1
112,90,1724,419,153,430,1,-1,-1,-1
112,91,768,382,51,141,1,-1,-1,-1
112,93,549,380,42,83,1,-1,-1,-1
112,94,299,380,21,61,1,-1,-1,-1
113,87,802,373,69,179,1,-1,-1,-1
113,90,1721,417,156,437,1,-1,-1,-1
113,91,769,381,52,143,1,-1,-1,-1
113,93,553,379,43,85,1,-1,-1,-1
114,87,802,372,69,180,1,-1,-1,-1
114,90,1719,414,158,444,1,-1,-1,-1
114,91,769,380,52,143,1,-1,-1,-1
114,93,554,379,43,86,1,-1,-1,-1
115,87,799,371,69,180,1,-1,-1,-1
115,90,1709,384,172,484,1,-1,-1,-1
115,91,764,380,57,157,1,-1,-1,-1
115,92,679,376,60,137,1,-1,-1,-1
115,93,556,375,51,101,1,-1,-1,-1
116,90,1705,371,179,501,1,-1,-1,-1
116,91,762,380,58,162,1,-1,-1,-1
116,92,678,376,60,138,1,-1,-1,-1
116,93,557,374,53,106,1,-1,-1,-1
117,90,1703,365,182,510,1,-1,-1,-1
117,91,762,380,59,164,1,-1,-1,-1
117,92,679,376,60,138,1,-1,-1,-1
117,93,557,374,53,108,1,-1,-1,-1
117,95,71,379,43,121,1,-1,-1,-1
117,96,321,378,26,73,1,-1,-1,-1
118,90,1700,362,187,523,1,-1,-1,-1
118,91,763,380,59,167,1,-1,-1,-1
118,92,678,375,60,139,1,-1,-1,-1
118,93,560,373,55,112,1,-1,-1,-1
118,95,71,379,43,121,1,-1,-1,-1
118,96,321,378,26,73,1,-1,-1,-1
119,90,1699,362,188,528,1,-1,-1,-1
120,90,1699,362,189,530,1,-1,-1,-1
121,87,856,383,63,167,1,-1,-1,-1
121,90,1696,359,191,535,1,-1,-1,-1
122,87,860,383,62,166,1,-1,-1,-1
123,87,862,384,61,165,1,-1,-1,-1
123,97,570,374,38,100,1,-1,-1,-1
124,87,871,379,61,169,1,-1,-1,-1
124,90,1748,381,172,482,1,-1,-1,-1
124,92,759,373,54,130,1,-1,-1,-1
124,97,570,374,38,100,1,-1,-1,-1
125,87,874,377,61,171,1,-1,-1,-1
125,90,1755,384,169,474,1,-1,-1,-1
125,92,765,373,53,129,1,-1,-1,-1
126,87,875,377,61,171,1,-1,-1,-1
126,90,1758,385,168,471,1,-1,-1,-1
126,92,767,373,52,129,1,-1,-1,-1
127,87,908,370,60,170,1,-1,-1,-1
127,90,1760,372,173,485,1,-1,-1,-1
127,91,857,374,55,154,1,-1,-1,-1
127,92,768,372,48,119,1,-1,-1,-1
128,87,920,368,60,169,1,-1,-1,-1
128,90,1761,370,173,485,1,-1,-1,-1
128,91,862,374,53,151,1,-1,-1,-1
128,92,768,371,46,116,1,-1,-1,-1
129,87,925,367,60,168,1,-1,-1,-1
129,90,1763,371,171,480,1,-1,-1,-1
129,91,864,375,53,149,1,-1,-1,-1
129,92,768,371,45,115,1,-1,-1,-1
130,87,939,370,60,168,1,-1,-1,-1
130,90,1765,369,172,482,1,-1,-1,-1
130,91,863,373,51,143,1,-1,-1,-1
130,92,772,371,45,113,1,-1,-1,-1
131,87,945,371,60,168,1,-1,-1,-1
131,91,863,373,50,140,1,-1,-1,-1
132,87,946,372,60,168,1,-1,-1,-1
132,91,863,373,49,139,1,-1,-1,-1
132,98,13,411,60,169,1,-1,-1,-1
133,87,957,372,58,163,1,-1,-1,-1
133,91,866,372,49,138,1,-1,-1,-1
133,98,62,407,54,152,1,-1,-1,-1
134,87,961,373,57,161,1,-1,-1,-1
134,98,77,406,52,147,1,-1,-1,-1
135,87,962,373,57,161,1,-1,-1,-1
135,98,80,405,52,148,1,-1,-1,-1
136,87,963,364,58,163,1,-1,-1,-1
136,98,77,398,56,157,1,-1,-1,-1
137,87,963,360,58,163,1,-1,-1,-1
137,98,75,394,58,163,1,-1,-1,-1
138,87,963,360,58,162,1,-1,-1,-1
138,98,73,392,59,167,1,-1,-1,-1
139,87,968,358,58,162,1,-1,-1,-1
139,98,76,388,61,171,1,-1,-1,-1
140,98,77,386,62,173,1,-1,-1,-1
141,98,76,384,62,176,1,-1,-1,-1
141,99,544,337,25,70,1,-1,-1,-1
142,87,1025,339,62,175,1,-1,-1,-1
142,98,74,382,64,180,1,-1,-1,-1
142,99,554,338,23,63,1,-1,-1,-1
143,87,1032,337,63,177,1,-1,-1,-1
143,98,73,381,65,183,1,-1,-1,-1
143,99,557,339,22,61,1,-1,-1,-1
144,87,1034,336,63,177,1,-1,-1,-1
144,97,741,328,43,113,1,-1,-1,-1
144,98,72,380,66,185,1,-1,-1,-1
144,99,558,339,22,61,1,-1,-1,-1
144,100,757,328,47,127,1,-1,-1,-1
145,87,1041,334,64,181,1,-1,-1,-1
145,97,749,326,44,114,1,-1,-1,-1
145,98,76,378,68,191,1,-1,-1,-1
145,99,561,340,21,59,1,-1,-1,-1
145,100,757,328,47,127,1,-1,-1,-1
146,87,1044,333,65,182,1,-1,-1,-1
146,98,77,377,69,194,1,-1,-1,-1
147,87,1044,333,65,182,1,-1,-1,-1
147,98,77,376,70,196,1,-1,-1,-1
148,87,1051,331,65,183,1,-1,-1,-1
148,97,771,322,50,129,1,-1,-1,-1
148,98,76,374,70,196,1,-1,-1,-1
149,97,773,322,51,130,1,-1,-1,-1
149,98,76,373,70,197,1,-1,-1,-1
150,97,774,322,52,131,1,-1,-1,-1
150,98,75,372,71,199,1,-1,-1,-1
151,87,1096,330,65,183,1,-1,-1,-1
151,97,780,320,52,133,1,-1,-1,-1
151,98,76,371,72,203,1,-1,-1,-1
152,87,1102,329,65,184,1,-1,-1,-1
152,98,76,371,73,204,1,-1,-1,-1
153,87,1103,329,66,185,1,-1,-1,-1
153,98,76,370,73,205,1,-1,-1,-1
154,87,1111,324,66,185,1,-1,-1,-1
154,98,79,367,74,208,1,-1,-1,-1
155,87,1113,323,66,185,1,-1,-1,-1
155,98,80,365,75,210,1,-1,-1,-1
156,87,1114,322,66,186,1,-1,-1,-1
156,98,80,364,75,212,1,-1,-1,-1
156,102,851,320,48,135,1,-1,-1,-1
156,103,357,334,52,145,1,-1,-1,-1
157,87,1116,321,65,183,1,-1,-1,-1
157,92,931,315,62,164,1,-1,-1,-1
157,98,80,363,76,213,1,-1,-1,-1
157,102,871,318,45,126,1,-1,-1,-1
157,103,357,334,52,145,1,-1,-1,-1
158,87,1117,321,65,182,1,-1,-1,-1
158,92,935,314,61,165,1,-1,-1,-1
158,98,79,362,76,214,1,-1,-1,-1
158,102,877,318,44,124,1,-1,-1,-1
159,87,1117,321,64,181,1,-1,-1,-1
159,92,936,314,59,165,1,-1,-1,-1
159,98,79,362,77,216,1,-1,-1,-1
159,102,878,317,44,123,1,-1,-1,-1
160,87,1119,320,64,181,1,-1,-1,-1
160,92,944,316,60,169,1,-1,-1,-1
160,98,73,364,77,217,1,-1,-1,-1
160,102,870,315,46,130,1,-1,-1,-1
161,87,1120,320,64,180,1,-1,-1,-1
161,92,947,317,60,170,1,-1,-1,-1
161,98,71,364,77,217,1,-1,-1,-1
161,102,868,314,47,132,1,-1,-1,-1
162,87,1120,321,64,179,1,-1,-1,-1
162,92,948,318,60,170,1,-1,-1,-1
162,98,70,364,77,218,1,-1,-1,-1
162,102,866,313,47,133,1,-1,-1,-1
162,104,559,333,38,106,1,-1,-1,-1
162,105,8,357,80,225,1,-1,-1,-1
163,87,1109,320,67,189,1,-1,-1,-1
163,92,956,319,63,176,1,-1,-1,-1
163,98,37,356,82,228,1,-1,-1,-1
163,102,868,313,47,133,1,-1,-1,-1
163,104,559,333,38,106,1,-1,-1,-1
163,105,8,357,80,225,1,-1,-1,-1
164,87,1105,319,69,193,1,-1,-1,-1
164,92,959,319,64,179,1,-1,-1,-1
164,98,24,353,85,231,1,-1,-1,-1
165,87,1103,319,69,195,1,-1,-1,-1
165,92,960,319,64,180,1,-1,-1,-1
165,98,19,352,87,232,1,-1,-1,-1
165,106,1073,321,67,187,1,-1,-1,-1
166,87,1090,322,67,189,1,-1,-1,-1
166,92,956,326,60,166,1,-1,-1,-1
166,98,6,360,84,232,1,-1,-1,-1
166,100,773,324,49,132,1,-1,-1,-1
166,102,844,322,48,135,1,-1,-1,-1
166,106,1073,321,67,187,1,-1,-1,-1
167,87,1084,323,67,187,1,-1,-1,-1
167,92,953,328,59,161,1,-1,-1,-1
167,98,2,363,82,232,1,-1,-1,-1
167,100,773,324,49,132,1,-1,-1,-1
167,102,841,322,48,135,1,-1,-1,-1
168,87,1082,323,66,186,1,-1,-1,-1
168,92,952,329,59,159,1,-1,-1,-1
168,98,2,366,81,227,1,-1,-1,-1
168,100,773,324,49,132,1,-1,-1,-1
168,102,840,323,48,136,1,-1,-1,-1
168,107,1695,337,204,572,1,-1,-1,-1
169,87,1075,324,69,193,1,-1,-1,-1
169,92,950,332,64,172,1,-1,-1,-1
169,98,-2,366,81,228,1,-1,-1,-1
169,100,765,323,49,132,1,-1,-1,-1
169,102,835,324,51,144,1,-1,-1,-1
169,103,297,332,53,150,1,-1,-1,-1
169,107,1664,306,217,607,1,-1,-1,-1
170,87,1073,324,69,195,1,-1,-1,-1
170,92,948,333,65,177,1,-1,-1,-1
170,100,762,323,49,132,1,-1,-1,-1
170,102,833,325,52,147,1,-1,-1,-1
170,103,295,332,53,149,1,-1,-1,-1
170,107,1654,296,220,617,1,-1,-1,-1
171,87,1072,324,70,196,1,-1,-1,-1
171,92,948,333,66,179,1,-1,-1,-1
171,100,761,323,49,132,1,-1,-1,-1
171,102,832,325,53,149,1,-1,-1,-1
171,103,295,333,52,148,1,-1,-1,-1
171,107,1651,294,221,619,1,-1,-1,-1
171,108,568,323,55,152,1,-1,-1,-1
172,87,1053,325,69,194,1,-1,-1,-1
172,92,950,333,67,180,1,-1,-1,-1
172,100,752,320,50,134,1,-1,-1,-1
172,102,830,326,53,150,1,-1,-1,-1
172,103,291,333,53,148,1,-1,-1,-1
172,107,1609,284,215,604,1,-1,-1,-1
172,108,568,323,55,152,1,-1,-1,-1
173,87,1045,325,69,194,1,-1,-1,-1
173,100,749,319,50,135,1,-1,-1,-1
173,107,1595,282,213,596,1,-1,-1,-1
174,87,1043,325,69,194,1,-1,-1,-1
174,100,748,319,50,136,1,-1,-1,-1
174,107,1590,282,211,591,1,-1,-1,-1
175,87,1037,320,71,201,1,-1,-1,-1
175,100,746,318,50,136,1,-1,-1,-1
175,107,1575,294,207,581,1,-1,-1,-1
176,87,1034,318,72,204,1,-1,-1,-1
176,107,1570,299,206,577,1,-1,-1,-1
177,87,1034,317,73,205,1,-1,-1,-1
177,107,1569,302,205,575,1,-1,-1,-1
177,109,1778,383,153,428,1,-1,-1,-1
178,87,1036,320,74,208,1,-1,-1,-1
178,92,870,334,59,161,1,-1,-1,-1
178,107,1546,316,207,581,1,-1,-1,-1
178,108,558,340,56,156,1,-1,-1,-1
178,109,1745,384,154,432,1,-1,-1,-1
179,87,1037,321,74,208,1,-1,-1,-1
179,92,864,334,59,159,1,-1,-1,-1
179,107,1539,322,207,580,1,-1,-1,-1
179,108,557,341,56,156,1,-1,-1,-1
179,109,1733,383,155,436,1,-1,-1,-1
180,87,1037,321,74,208,1,-1,-1,-1
180,92,862,335,58,159,1,-1,-1,-1
180,107,1537,326,206,578,1,-1,-1,-1
180,108,557,341,56,156,1,-1,-1,-1
180,109,1730,381,157,440,1,-1,-1,-1
180,110,747,330,41,114,1,-1,-1,-1
181,87,1042,316,73,205,1,-1,-1,-1
181,92,864,327,59,160,1,-1,-1,-1
181,107,1522,318,203,569,1,-1,-1,-1
181,108,556,343,56,157,1,-1,-1,-1
181,109,1717,371,156,438,1,-1,-1,-1
181,110,748,320,45,126,1,-1,-1,-1
182,87,1044,314,72,203,1,-1,-1,-1
182,92,866,325,59,161,1,-1,-1,-1
182,107,1517,315,201,564,1,-1,-1,-1
182,109,1712,365,157,442,1,-1,-1,-1
182,110,749,317,47,130,1,-1,-1,-1
183,87,1045,313,72,202,1,-1,-1,-1
183,92,866,324,59,161,1,-1,-1,-1
183,107,1516,315,200,560,1,-1,-1,-1
183,109,1710,361,159,447,1,-1,-1,-1
183,110,749,316,47,131,1,-1,-1,-1
184,87,1045,308,72,202,1,-1,-1,-1
184,92,867,318,57,158,1,-1,-1,-1
184,107,1503,306,198,555,1,-1,-1,-1
184,109,1706,353,163,457,1,-1,-1,-1
184,110,744,309,49,135,1,-1,-1,-1
185,87,1046,306,72,202,1,-1,-1,-1
185,92,868,316,57,157,1,-1,-1,-1
185,107,1499,303,197,551,1,-1,-1,-1
185,109,1705,348,166,464,1,-1,-1,-1
185,110,743,307,49,136,1,-1,-1,-1
186,87,1046,305,72,202,1,-1,-1,-1
186,92,868,315,56,157,1,-1,-1,-1
186,107,1498,303,196,549,1,-1,-1,-1
186,109,1704,344,168,471,1,-1,-1,-1
186,110,742,306,49,136,1,-1,-1,-1
186,111,669,313,35,93,1,-1,-1,-1
186,112,257,318,43,121,1,-1,-1,-1
187,87,1047,305,73,205,1,-1,-1,-1
187,92,867,315,59,163,1,-1,-1,-1
187,107,1489,300,195,546,1,-1,-1,-1
187,109,1695,345,167,469,1,-1,-1,-1
187,110,742,303,50,139,1,-1,-1,-1
187,111,674,314,36,95,1,-1,-1,-1
187,112,256,316,43,122,1,-1,-1,-1
188,87,1047,305,73,205,1,-1,-1,-1
188,92,867,315,59,165,1,-1,-1,-1
188,107,1486,300,194,544,1,-1,-1,-1
188,109,1691,343,169,473,1,-1,-1,-1
188,111,675,314,37,96,1,-1,-1,-1
188,112,255,315,43,122,1,-1,-1,-1
189,87,1047,305,73,205,1,-1,-1,-1
189,92,867,315,59,166,1,-1,-1,-1
189,107,1485,300,194,543,1,-1,-1,-1
189,109,1689,340,171,480,1,-1,-1,-1
189,111,675,314,37,96,1,-1,-1,-1
189,112,255,315,43,122,1,-1,-1,-1
189,113,85,316,38,109,1,-1,-1,-1
190,87,1050,307,74,207,1,-1,-1,-1
190,92,868,317,58,164,1,-1,-1,-1
190,107,1463,307,199,557,1,-1,-1,-1
190,109,1688,349,175,491,1,-1,-1,-1
190,111,679,319,34,89,1,-1,-1,-1
190,112,254,314,43,123,1,-1,-1,-1
190,113,85,316,38,109,1,-1,-1,-1
191,87,1052,307,74,207,1,-1,-1,-1
191,92,869,318,58,162,1,-1,-1,-1
191,107,1455,310,200,561,1,-1,-1,-1
191,109,1687,350,178,500,1,-1,-1,-1
191,111,681,321,33,86,1,-1,-1,-1
192,87,1052,308,73,206,1,-1,-1,-1
192,92,870,319,57,161,1,-1,-1,-1
192,107,1452,312,200,561,1,-1,-1,-1
192,109,1686,348,181,508,1,-1,-1,-1
192,111,681,321,32,85,1,-1,-1,-1
193,87,1055,314,75,211,1,-1,-1,-1
193,92,865,320,59,166,1,-1,-1,-1
193,107,1444,312,201,563,1,-1,-1,-1
193,109,1678,357,187,524,1,-1,-1,-1
193,111,682,322,32,84,1,-1,-1,-1
193,112,256,315,40,114,1,-1,-1,-1
194,87,1056,317,76,213,1,-1,-1,-1
194,92,863,321,59,167,1,-1,-1,-1
194,109,1674,357,191,535,1,-1,-1,-1
194,112,256,315,40,113,1,-1,-1,-1
195,87,1056,317,76,214,1,-1,-1,-1
195,92,862,321,59,167,1,-1,-1,-1
195,109,1672,355,194,543,1,-1,-1,-1
195,112,256,316,40,112,1,-1,-1,-1
196,87,1063,318,78,221,1,-1,-1,-1
196,92,858,323,58,164,1,-1,-1,-1
196,107,1405,344,200,561,1,-1,-1,-1
196,108,529,318,51,143,1,-1,-1,-1
196,109,1654,340,201,564,1,-1,-1,-1
196,111,678,319,37,98,1,-1,-1,-1
196,112,256,315,40,112,1,-1,-1,-1
197,87,1065,318,79,223,1,-1,-1,-1
197,92,857,324,58,163,1,-1,-1,-1
197,107,1401,347,200,562,1,-1,-1,-1
197,108,529,317,51,142,1,-1,-1,-1
197,109,1646,331,206,577,1,-1,-1,-1
197,111,678,318,37,99,1,-1,-1,-1
198,87,1066,318,80,224,1,-1,-1,-1
198,92,856,325,58,162,1,-1,-1,-1
198,107,1399,348,201,563,1,-1,-1,-1
198,108,529,317,51,142,1,-1,-1,-1
198,109,1643,325,209,587,1,-1,-1,-1
198,111,678,318,37,100,1,-1,-1,-1
199,87,1071,317,81,228,1,-1,-1,-1
199,92,856,327,58,163,1,-1,-1,-1
199,107,1392,344,202,566,1,-1,-1,-1
199,108,527,316,51,142,1,-1,-1,-1
199,109,1643,322,208,583,1,-1,-1,-1
199,111,678,318,38,101,1,-1,-1,-1
200,87,1072,316,82,230,1,-1,-1,-1
200,92,856,328,58,164,1,-1,-1,-1
200,107,1389,343,202,565,1,-1,-1,-1
200,109,1643,320,208,585,1,-1,-1,-1
201,87,1073,316,82,231,1,-1,-1,-1
201,92,856,328,59,164,1,-1,-1,-1
201,107,1389,343,201,564,1,-1,-1,-1
201,109,1642,317,210,588,1,-1,-1,-1
202,87,1085,321,82,229,1,-1,-1,-1
202,92,855,328,59,164,1,-1,-1,-1
202,107,1383,377,195,546,1,-1,-1,-1
202,109,1609,333,217,609,1,-1,-1,-1
203,87,1089,322,82,231,1,-1,-1,-1
203,107,1381,390,193,541,1,-1,-1,-1
203,109,1597,338,220,618,1,-1,-1,-1
204,87,1091,322,83,232,1,-1,-1,-1
204,107,1381,394,192,540,1,-1,-1,-1
204,109,1593,340,222,622,1,-1,-1,-1
205,87,1113,322,89,251,1,-1,-1,-1
205,107,1395,378,193,541,1,-1,-1,-1
205,108,547,328,74,192,1,-1,-1,-1
205,109,1617,336,231,648,1,-1,-1,-1
206,87,1121,323,91,256,1,-1,-1,-1
206,107,1400,371,193,542,1,-1,-1,-1
206,108,547,329,79,195,1,-1,-1,-1
206,109,1627,335,234,657,1,-1,-1,-1
207,87,1124,323,92,258,1,-1,-1,-1
207,107,1402,368,194,544,1,-1,-1,-1
207,108,546,329,83,196,1,-1,-1,-1
207,109,1630,334,236,661,1,-1,-1,-1
207,114,290,323,70,134,1,-1,-1,-1
208,87,1150,330,93,260,1,-1,-1,-1
208,107,1396,375,209,587,1,-1,-1,-1
208,108,554,335,78,187,1,-1,-1,-1
208,109,1647,350,228,640,1,-1,-1,-1
208,114,290,323,70,134,1,-1,-1,-1
209,87,1160,333,93,260,1,-1,-1,-1
209,92,953,358,62,172,1,-1,-1,-1
209,107,1394,379,214,599,1,-1,-1,-1
209,108,557,337,76,183,1,-1,-1,-1
209,109,1653,356,225,631,1,-1,-1,-1
210,87,1164,335,92,259,1,-1,-1,-1
210,92,958,359,63,172,1,-1,-1,-1
210,107,1394,382,214,601,1,-1,-1,-1
210,108,558,337,75,181,1,-1,-1,-1
210,109,1656,359,223,627,1,-1,-1,-1
210,115,839,317,66,178,1,-1,-1,-1
211,87,1170,336,93,262,1,-1,-1,-1
211,92,949,357,59,162,1,-1,-1,-1
211,107,1413,378,194,543,1,-1,-1,-1
211,108,572,335,72,176,1,-1,-1,-1
211,109,1663,349,222,623,1,-1,-1,-1
211,115,846,323,61,165,1,-1,-1,-1
212,92,945,356,58,158,1,-1,-1,-1
212,107,1420,376,186,521,1,-1,-1,-1
212,108,578,335,70,174,1,-1,-1,-1
212,109,1666,345,222,622,1,-1,-1,-1
212,115,849,325,59,161,1,-1,-1,-1
213,92,944,355,57,156,1,-1,-1,-1
213,107,1422,374,183,515,1,-1,-1,-1
213,108,580,334,69,173,1,-1,-1,-1
213,109,1667,343,221,621,1,-1,-1,-1
213,115,849,326,59,160,1,-1,-1,-1
214,87,1208,325,99,278,1,-1,-1,-1
214,92,947,357,56,155,1,-1,-1,-1
214,107,1415,355,186,523,1,-1,-1,-1
214,108,583,335,69,174,1,-1,-1,-1
214,109,1669,336,224,627,1,-1,-1,-1
214,115,851,327,57,156,1,-1,-1,-1
215,87,1212,324,100,280,1,-1,-1,-1
215,107,1412,348,188,527,1,-1,-1,-1
215,109,1669,334,224,629,1,-1,-1,-1
216,87,1214,324,100,280,1,-1,-1,-1
216,107,1411,345,189,529,1,-1,-1,-1
216,109,1669,334,224,629,1,-1,-1,-1
217,87,1233,324,102,285,1,-1,-1,-1
217,107,1409,361,208,582,1,-1,-1,-1
217,109,1664,340,231,647,1,-1,-1,-1
218,87,1240,325,102,286,1,-1,-1,-1
218,92,1026,362,55,152,1,-1,-1,-1
218,107,1409,367,214,599,1,-1,-1,-1
218,109,1662,343,233,653,1,-1,-1,-1
219,87,1242,326,102,285,1,-1,-1,-1
219,92,1033,363,55,152,1,-1,-1,-1
219,107,1409,371,216,604,1,-1,-1,-1
219,109,1661,344,234,655,1,-1,-1,-1
220,87,1258,327,102,287,1,-1,-1,-1
220,92,1037,362,55,153,1,-1,-1,-1
220,107,1405,390,217,609,1,-1,-1,-1
220,109,1661,358,231,649,1,-1,-1,-1
221,87,1264,328,102,287,1,-1,-1,-1
221,92,1039,362,55,153,1,-1,-1,-1
221,107,1403,397,217,610,1,-1,-1,-1
221,109,1661,364,230,646,1,-1,-1,-1
222,87,1267,329,102,286,1,-1,-1,-1
222,92,1039,362,54,153,1,-1,-1,-1
222,107,1403,401,217,608,1,-1,-1,-1
222,109,1661,366,230,644,1,-1,-1,-1
222,118,946,355,54,152,1,-1,-1,-1
222,119,859,353,45,123,1,-1,-1,-1
222,120,922,344,58,156,1,-1,-1,-1
223,87,1273,333,101,283,1,-1,-1,-1
223,92,1047,359,53,151,1,-1,-1,-1
223,107,1388,396,219,613,1,-1,-1,-1
223,109,1652,373,227,638,1,-1,-1,-1
223,118,946,355,54,152,1,-1,-1,-1
223,119,859,353,45,123,1,-1,-1,-1
223,120,922,344,58,156,1,-1,-1,-1
224,87,1276,335,100,282,1,-1,-1,-1
224,92,1049,358,53,149,1,-1,-1,-1
224,107,1383,394,219,614,1,-1,-1,-1
224,109,1649,375,227,638,1,-1,-1,-1
225,87,1276,336,100,280,1,-1,-1,-1
225,92,1050,358,53,149,1,-1,-1,-1
225,107,1381,393,219,614,1,-1,-1,-1
225,109,1647,374,228,640,1,-1,-1,-1
226,87,1294,345,105,294,1,-1,-1,-1
226,92,1056,358,53,148,1,-1,-1,-1
226,107,1375,384,215,603,1,-1,-1,-1
226,108,627,332,72,185,1,-1,-1,-1
226,109,1644,351,231,649,1,-1,-1,-1
227,87,1300,348,107,301,1,-1,-1,-1
227,107,1374,383,212,595,1,-1,-1,-1
227,108,629,332,71,185,1,-1,-1,-1
227,109,1644,343,232,651,1,-1,-1,-1
228,87,1302,348,108,304,1,-1,-1,-1
228,107,1374,383,210,590,1,-1,-1,-1
228,108,630,332,70,185,1,-1,-1,-1
228,109,1644,341,232,650,1,-1,-1,-1
228,121,433,348,60,169,1,-1,-1,-1
229,87,1310,344,109,306,1,-1,-1,-1
229,107,1375,385,211,592,1,-1,-1,-1
229,108,633,332,71,186,1,-1,-1,-1
229,109,1639,336,238,668,1,-1,-1,-1
229,120,938,328,65,176,1,-1,-1,-1
229,121,433,348,60,169,1,-1,-1,-1
230,87,1313,342,110,308,1,-1,-1,-1
230,107,1376,387,211,591,1,-1,-1,-1
230,109,1637,335,240,673,1,-1,-1,-1
230,120,939,327,65,177,1,-1,-1,-1
231,87,1314,340,111,310,1,-1,-1,-1
231,107,1376,388,210,589,1,-1,-1,-1
231,109,1637,335,241,674,1,-1,-1,-1
231,120,939,326,65,178,1,-1,-1,-1
232,87,1327,341,117,329,1,-1,-1,-1
232,107,1370,384,214,600,1,-1,-1,-1
232,109,1633,346,242,679,1,-1,-1,-1
232,120,943,323,63,173,1,-1,-1,-1
232,121,444,348,64,179,1,-1,-1,-1
233,87,1332,341,120,336,1,-1,-1,-1
233,107,1368,383,215,603,1,-1,-1,-1
233,109,1632,350,243,680,1,-1,-1,-1
233,120,945,322,63,170,1,-1,-1,-1
233,121,445,347,65,182,1,-1,-1,-1
234,87,1333,341,121,340,1,-1,-1,-1
234,107,1367,384,215,603,1,-1,-1,-1
234,109,1632,351,243,681,1,-1,-1,-1
234,120,945,322,62,170,1,-1,-1,-1
234,121,445,346,66,184,1,-1,-1,-1
235,87,1339,342,122,344,1,-1,-1,-1
235,107,1369,383,217,608,1,-1,-1,-1
235,109,1636,343,241,677,1,-1,-1,-1
235,120,947,320,63,170,1,-1,-1,-1
235,121,447,346,66,186,1,-1,-1,-1
236,107,1370,384,217,608,1,-1,-1,-1
236,109,1639,340,240,674,1,-1,-1,-1
237,107,1370,384,217,608,1,-1,-1,-1
237,109,1640,340,240,672,1,-1,-1,-1
238,92,1032,327,64,179,1,-1,-1,-1
238,107,1372,381,210,589,1,-1,-1,-1
238,108,661,312,81,215,1,-1,-1,-1
238,109,1644,332,237,665,1,-1,-1,-1
239,92,1030,326,65,180,1,-1,-1,-1
239,107,1373,381,207,580,1,-1,-1,-1
239,108,662,311,81,217,1,-1,-1,-1
239,109,1646,329,235,660,1,-1,-1,-1
240,92,1030,326,65,180,1,-1,-1,-1
240,107,1374,381,205,575,1,-1,-1,-1
240,108,663,310,81,217,1,-1,-1,-1
240,109,1647,329,234,657,1,-1,-1,-1
240,122,-2,325,67,188,1,-1,-1,-1
241,92,1025,321,67,184,1,-1,-1,-1
241,107,1382,366,205,576,1,-1,-1,-1
241,108,669,315,71,190,1,-1,-1,-1
241,109,1651,322,235,658,1,-1,-1,-1
241,122,6,326,64,179,1,-1,-1,-1
242,92,1023,319,67,185,1,-1,-1,-1
242,107,1385,360,206,577,1,-1,-1,-1
242,108,670,318,68,179,1,-1,-1,-1
242,109,1652,319,235,659,1,-1,-1,-1
242,122,9,326,64,177,1,-1,-1,-1
243,92,1023,319,68,186,1,-1,-1,-1
243,107,1386,357,206,578,1,-1,-1,-1
243,108,671,318,67,175,1,-1,-1,-1
243,109,1652,318,235,660,1,-1,-1,-1
243,122,9,326,64,176,1,-1,-1,-1
244,92,1028,314,67,184,1,-1,-1,-1
244,107,1383,353,209,586,1,-1,-1,-1
244,108,672,310,74,192,1,-1,-1,-1
244,109,1643,321,241,675,1,-1,-1,-1
244,122,15,323,68,183,1,-1,-1,-1
245,92,1030,312,68,183,1,-1,-1,-1
245,107,1381,350,211,591,1,-1,-1,-1
245,108,672,307,76,199,1,-1,-1,-1
245,109,1640,320,244,684,1,-1,-1,-1
245,122,17,322,70,186,1,-1,-1,-1
246,92,1031,312,68,182,1,-1,-1,-1
246,107,1381,349,212,595,1,-1,-1,-1
246,108,672,306,78,201,1,-1,-1,-1
246,109,1638,319,246,690,1,-1,-1,-1
246,122,17,322,71,187,1,-1,-1,-1
246,123,529,296,51,144,1,-1,-1,-1
247,92,1036,310,68,184,1,-1,-1,-1
247,107,1386,345,220,617,1,-1,-1,-1
247,108,670,300,82,214,1,-1,-1,-1
247,109,1641,316,249,697,1,-1,-1,-1
247,122,17,318,72,187,1,-1,-1,-1
247,123,526,299,49,137,1,-1,-1,-1
248,92,1038,310,68,185,1,-1,-1,-1
248,107,1388,344,223,624,1,-1,-1,-1
248,108,669,298,84,219,1,-1,-1,-1
248,109,1643,316,249,699,1,-1,-1,-1
248,122,17,317,72,187,1,-1,-1,-1
248,123,526,300,48,135,1,-1,-1,-1
249,92,1039,310,68,185,1,-1,-1,-1
249,107,1389,344,223,626,1,-1,-1,-1
249,108,669,297,84,221,1,-1,-1,-1
249,109,1644,317,249,698,1,-1,-1,-1
249,122,17,316,72,187,1,-1,-1,-1
249,123,525,301,47,134,1,-1,-1,-1
249,124,940,315,51,145,1,-1,-1,-1
249,125,288,316,42,105,1,-1,-1,-1
250,92,1038,312,60,166,1,-1,-1,-1
250,107,1388,349,223,624,1,-1,-1,-1
250,108,670,296,85,224,1,-1,-1,-1
250,109,1645,320,247,692,1,-1,-1,-1
250,122,19,315,72,187,1,-1,-1,-1
250,123,521,291,41,116,1,-1,-1,-1
250,124,945,315,47,132,1,-1,-1,-1
250,125,288,316,42,105,1,-1,-1,-1
251,92,1038,313,57,159,1,-1,-1,-1
251,107,1388,351,222,623,1,-1,-1,-1
251,109,1645,320,246,690,1,-1,-1,-1
251,123,519,288,39,110,1,-1,-1,-1
251,124,947,315,45,128,1,-1,-1,-1
252,92,1038,314,56,156,1,-1,-1,-1
252,107,1387,352,222,623,1,-1,-1,-1
252,109,1645,320,246,690,1,-1,-1,-1
252,123,519,287,38,108,1,-1,-1,-1
252,124,948,315,45,127,1,-1,-1,-1
253,92,1049,311,56,158,1,-1,-1,-1
253,107,1378,347,217,608,1,-1,-1,-1
253,108,676,294,79,209,1,-1,-1,-1
253,109,1639,302,250,701,1,-1,-1,-1
253,123,520,289,41,115,1,-1,-1,-1
253,124,949,313,47,134,1,-1,-1,-1
254,92,1053,310,56,158,1,-1,-1,-1
254,107,1375,346,215,602,1,-1,-1,-1
254,108,677,294,78,206,1,-1,-1,-1
254,109,1637,296,251,703,1,-1,-1,-1
254,123,521,290,41,117,1,-1,-1,-1
254,124,949,313,48,136,1,-1,-1,-1
255,92,1054,310,56,158,1,-1,-1,-1
255,107,1374,346,214,599,1,-1,-1,-1
255,108,677,294,77,206,1,-1,-1,-1
255,109,1636,295,250,702,1,-1,-1,-1
255,123,521,290,42,117,1,-1,-1,-1
255,124,949,312,49,137,1,-1,-1,-1
256,87,1579,295,171,479,1,-1,-1,-1
256,92,1056,309,56,157,1,-1,-1,-1
256,107,1382,338,218,611,1,-1,-1,-1
256,108,678,296,74,197,1,-1,-1,-1
256,109,1647,287,253,709,1,-1,-1,-1
256,123,524,293,42,119,1,-1,-1,-1
256,124,951,307,51,144,1,-1,-1,-1
257,87,1583,293,172,484,1,-1,-1,-1
257,107,1384,334,220,617,1,-1,-1,-1
257,108,678,297,72,194,1,-1,-1,-1
257,109,1652,285,253,709,1,-1,-1,-1
257,123,525,294,43,120,1,-1,-1,-1
257,124,952,304,52,147,1,-1,-1,-1
258,87,1584,292,173,486,1,-1,-1,-1
258,107,1385,333,221,619,1,-1,-1,-1
258,108,678,298,72,192,1,-1,-1,-1
258,109,1654,286,252,706,1,-1,-1,-1
258,123,526,295,43,120,1,-1,-1,-1
258,124,953,304,52,148,1,-1,-1,-1
259,87,1594,290,175,492,1,-1,-1,-1
259,107,1393,332,223,626,1,-1,-1,-1
259,108,679,297,72,191,1,-1,-1,-1
259,109,1657,290,254,711,1,-1,-1,-1
259,123,534,291,44,125,1,-1,-1,-1
259,124,954,302,53,149,1,-1,-1,-1
260,107,1396,333,224,628,1,-1,-1,-1
260,109,1659,294,253,709,1,-1,-1,-1
260,123,537,289,45,128,1,-1,-1,-1
261,92,1138,309,59,166,1,-1,-1,-1
261,107,1397,333,224,628,1,-1,-1,-1
261,109,1661,298,251,703,1,-1,-1,-1
261,123,539,289,46,129,1,-1,-1,-1
261,127,63,319,64,157,1,-1,-1,-1
262,92,1146,308,59,166,1,-1,-1,-1
262,107,1399,332,225,630,1,-1,-1,-1
262,109,1666,297,249,698,1,-1,-1,-1
262,122,30,313,72,177,1,-1,-1,-1
262,123,540,288,46,129,1,-1,-1,-1
262,127,67,315,62,150,1,-1,-1,-1
263,109,1669,299,247,691,1,-1,-1,-1
263,122,29,313,75,176,1,-1,-1,-1
263,127,68,314,61,148,1,-1,-1,-1
264,109,1671,302,244,684,1,-1,-1,-1
264,122,28,313,77,176,1,-1,-1,-1
264,127,69,314,62,148,1,-1,-1,-1
265,107,1439,331,215,602,1,-1,-1,-1
265,109,1680,298,233,655,1,-1,-1,-1
265,122,29,312,77,176,1,-1,-1,-1
265,123,558,272,49,139,1,-1,-1,-1
265,127,69,303,62,151,1,-1,-1,-1
266,107,1444,331,214,599,1,-1,-1,-1
266,109,1683,298,228,641,1,-1,-1,-1
266,123,560,269,50,142,1,-1,-1,-1
266,127,69,299,62,152,1,-1,-1,-1
267,107,1445,331,213,598,1,-1,-1,-1
267,109,1685,299,226,633,1,-1,-1,-1
267,123,561,268,51,144,1,-1,-1,-1
267,127,69,298,61,152,1,-1,-1,-1
268,107,1459,316,215,603,1,-1,-1,-1
268,108,735,282,71,191,1,-1,-1,-1
268,109,1688,293,216,607,1,-1,-1,-1
268,123,563,266,51,145,1,-1,-1,-1
268,127,70,295,61,152,1,-1,-1,-1
269,107,1464,310,216,606,1,-1,-1,-1
269,108,737,282,71,191,1,-1,-1,-1
269,109,1690,292,212,595,1,-1,-1,-1
270,107,1465,307,217,608,1,-1,-1,-1
270,108,738,281,72,191,1,-1,-1,-1
270,109,1691,293,210,588,1,-1,-1,-1
270,128,694,279,62,170,1,-1,-1,-1
271,107,1467,301,217,608,1,-1,-1,-1
271,108,741,280,71,191,1,-1,-1,-1
271,109,1688,298,208,584,1,-1,-1,-1
271,124,962,277,61,171,1,-1,-1,-1
271,127,64,303,65,160,1,-1,-1,-1
271,128,694,279,62,170,1,-1,-1,-1
272,107,1467,298,217,608,1,-1,-1,-1
272,109,1687,300,208,582,1,-1,-1,-1
272,124,962,277,60,170,1,-1,-1,-1
272,127,63,304,65,161,1,-1,-1,-1
273,107,1467,297,217,609,1,-1,-1,-1
273,109,1687,301,207,581,1,-1,-1,-1
273,124,962,277,60,169,1,-1,-1,-1
273,127,63,305,65,162,1,-1,-1,-1
274,107,1472,306,220,617,1,-1,-1,-1
274,109,1690,305,208,582,1,-1,-1,-1
274,122,28,305,83,182,1,-1,-1,-1
274,124,963,275,60,170,1,-1,-1,-1
274,127,63,304,65,162,1,-1,-1,-1
275,107,1473,309,222,621,1,-1,-1,-1
275,109,1691,306,208,582,1,-1,-1,-1
275,122,26,305,86,183,1,-1,-1,-1
276,107,1473,310,223,624,1,-1,-1,-1
276,109,1691,307,208,582,1,-1,-1,-1
276,122,26,305,87,183,1,-1,-1,-1
277,92,1145,306,57,155,1,-1,-1,-1
277,107,1467,312,223,626,1,-1,-1,-1
277,108,680,279,79,209,1,-1,-1,-1
277,109,1692,310,208,583,1,-1,-1,-1
277,122,16,308,84,178,1,-1,-1,-1
277,124,952,272,65,184,1,-1,-1,-1
278,92,1143,306,58,154,1,-1,-1,-1
278,107,1465,313,223,626,1,-1,-1,-1
278,108,675,279,79,211,1,-1,-1,-1
278,109,1693,312,208,583,1,-1,-1,-1
278,122,13,309,82,177,1,-1,-1,-1
278,124,951,272,66,186,1,-1,-1,-1
279,92,1143,306,58,154,1,-1,-1,-1
279,107,1464,314,223,625,1,-1,-1,-1
279,108,674,279,80,211,1,-1,-1,-1
279,109,1693,313,207,581,1,-1,-1,-1
279,122,12,309,81,176,1,-1,-1,-1
279,124,950,271,66,187,1,-1,-1,-1
280,92,1144,301,59,156,1,-1,-1,-1
280,107,1448,302,220,617,1,-1,-1,-1
280,108,664,274,81,218,1,-1,-1,-1
280,109,1685,302,210,589,1,-1,-1,-1
280,122,11,309,81,176,1,-1,-1,-1
280,123,468,273,65,184,1,-1,-1,-1
280,124,950,270,67,189,1,-1,-1,-1
281,92,1145,299,60,157,1,-1,-1,-1
281,107,1442,298,219,614,1,-1,-1,-1
281,108,661,272,81,220,1,-1,-1,-1
281,109,1682,297,211,593,1,-1,-1,-1
281,123,465,273,66,185,1,-1,-1,-1
282,92,1145,299,60,157,1,-1,-1,-1
282,107,1439,296,219,614,1,-1,-1,-1
282,108,660,272,81,221,1,-1,-1,-1
282,109,1680,296,212,595,1,-1,-1,-1
282,123,463,274,66,185,1,-1,-1,-1
282,129,115,272,33,93,1,-1,-1,-1
282,130,759,266,54,147,1,-1,-1,-1
283,92,1146,298,60,157,1,-1,-1,-1
283,107,1431,274,222,621,1,-1,-1,-1
283,108,620,275,80,217,1,-1,-1,-1
283,109,1670,276,222,623,1,-1,-1,-1
283,123,459,274,67,188,1,-1,-1,-1
283,129,115,272,33,93,1,-1,-1,-1
283,130,759,266,54,147,1,-1,-1,-1
284,107,1429,266,222,623,1,-1,-1,-1
284,108,605,277,80,215,1,-1,-1,-1
284,109,1666,268,226,635,1,-1,-1,-1
285,107,1428,264,222,623,1,-1,-1,-1
285,108,600,277,81,214,1,-1,-1,-1
285,109,1665,266,228,639,1,-1,-1,-1
285,131,634,285,78,217,1,-1,-1,-1
286,107,1423,265,224,629,1,-1,-1,-1
286,108,592,277,81,215,1,-1,-1,-1
286,109,1665,273,228,639,1,-1,-1,-1
286,128,591,280,60,154,1,-1,-1,-1
286,131,634,285,78,217,1,-1,-1,-1
287,107,1421,265,225,632,1,-1,-1,-1
287,109,1665,275,228,640,1,-1,-1,-1
287,128,587,280,64,154,1,-1,-1,-1
288,107,1420,265,226,633,1,-1,-1,-1
288,109,1665,275,229,642,1,-1,-1,-1
288,128,585,280,66,154,1,-1,-1,-1
288,132,1059,277,70,170,1,-1,-1,-1
289,107,1425,273,224,628,1,-1,-1,-1
289,109,1666,271,225,632,1,-1,-1,-1
289,128,558,276,93,215,1,-1,-1,-1
289,132,1057,273,69,168,1,-1,-1,-1
290,107,1427,276,224,627,1,-1,-1,-1
290,109,1667,269,225,630,1,-1,-1,-1
290,124,862,268,67,187,1,-1,-1,-1
290,128,549,275,102,235,1,-1,-1,-1
290,132,1056,271,69,167,1,-1,-1,-1
291,107,1427,277,223,627,1,-1,-1,-1
291,109,1667,267,225,630,1,-1,-1,-1
291,124,857,269,68,186,1,-1,-1,-1
291,128,545,274,105,245,1,-1,-1,-1
291,132,1056,271,69,167,1,-1,-1,-1
292,92,1133,263,65,170,1,-1,-1,-1
292,107,1443,265,224,629,1,-1,-1,-1
292,109,1675,259,225,630,1,-1,-1,-1
292,124,858,262,65,179,1,-1,-1,-1
292,128,542,271,96,228,1,-1,-1,-1
292,132,1060,263,69,169,1,-1,-1,-1
293,92,1132,261,65,171,1,-1,-1,-1
293,107,1450,262,224,627,1,-1,-1,-1
293,109,1678,257,224,628,1,-1,-1,-1
293,124,858,259,64,176,1,-1,-1,-1
293,128,541,269,91,221,1,-1,-1,-1
293,132,1062,260,69,170,1,-1,-1,-1
294,92,1132,261,64,171,1,-1,-1,-1
294,107,1452,261,223,625,1,-1,-1,-1
294,109,1680,256,224,627,1,-1,-1,-1
294,124,859,258,64,175,1,-1,-1,-1
294,128,542,269,88,218,1,-1,-1,-1
294,132,1063,259,69,170,1,-1,-1,-1
295,92,1139,255,61,161,1,-1,-1,-1
295,107,1461,246,224,628,1,-1,-1,-1
295,109,1689,238,224,629,1,-1,-1,-1
295,124,856,258,61,167,1,-1,-1,-1
295,128,535,255,99,245,1,-1,-1,-1
295,132,1063,257,69,170,1,-1,-1,-1
296,92,1142,253,59,157,1,-1,-1,-1
296,107,1464,240,224,628,1,-1,-1,-1
296,109,1693,232,223,626,1,-1,-1,-1
296,124,856,258,61,164,1,-1,-1,-1
296,128,533,250,102,255,1,-1,-1,-1
297,92,1143,252,58,156,1,-1,-1,-1
297,107,1466,239,224,627,1,-1,-1,-1
297,109,1695,232,222,623,1,-1,-1,-1
297,124,855,258,60,163,1,-1,-1,-1
297,128,532,249,102,259,1,-1,-1,-1
297,134,776,260,62,161,1,-1,-1,-1
298,92,1143,247,59,157,1,-1,-1,-1
298,107,1487,235,225,631,1,-1,-1,-1
298,109,1696,234,218,612,1,-1,-1,-1
298,124,857,257,62,166,1,-1,-1,-1
298,128,527,246,105,266,1,-1,-1,-1
298,134,776,260,62,161,1,-1,-1,-1
299,92,1143,245,60,158,1,-1,-1,-1
299,107,1494,233,226,634,1,-1,-1,-1
299,109,1697,236,216,605,1,-1,-1,-1
299,124,857,257,63,167,1,-1,-1,-1
300,92,1143,245,60,158,1,-1,-1,-1
300,107,1497,231,227,636,1,-1,-1,-1
300,109,1698,238,214,600,1,-1,-1,-1
300,124,857,257,64,168,1,-1,-1,-1
301,92,1147,248,60,157,1,-1,-1,-1
301,107,1509,240,226,632,1,-1,-1,-1
301,109,1701,252,207,580,1,-1,-1,-1
301,124,853,228,75,198,1,-1,-1,-1
301,128,475,230,99,254,1,-1,-1,-1
302,92,1148,249,60,157,1,-1,-1,-1
302,107,1513,243,226,633,1,-1,-1,-1
302,109,1703,259,204,571,1,-1,-1,-1
302,124,852,218,79,209,1,-1,-1,-1
302,128,469,228,97,251,1,-1,-1,-1
303,92,1148,249,60,156,1,-1,-1,-1
303,107,1514,243,226,634,1,-1,-1,-1
303,109,1704,262,202,567,1,-1,-1,-1
303,124,851,214,81,213,1,-1,-1,-1
303,128,467,227,96,250,1,-1,-1,-1
304,92,1152,252,59,153,1,-1,-1,-1
304,107,1507,249,229,642,1,-1,-1,-1
304,109,1706,268,202,567,1,-1,-1,-1
304,124,855,236,68,178,1,-1,-1,-1
304,128,460,225,97,254,1,-1,-1,-1
305,92,1154,253,58,152,1,-1,-1,-1
305,107,1505,250,230,645,1,-1,-1,-1
305,109,1707,271,201,565,1,-1,-1,-1
305,124,856,246,63,163,1,-1,-1,-1
306,92,1154,254,58,151,1,-1,-1,-1
306,107,1503,251,231,647,1,-1,-1,-1
306,109,1708,273,201,563,1,-1,-1,-1
306,124,857,249,61,158,1,-1,-1,-1
306,135,94,256,39,100,1,-1,-1,-1
306,136,754,257,56,134,1,-1,-1,-1
307,92,1145,253,58,153,1,-1,-1,-1
307,107,1481,255,227,635,1,-1,-1,-1
307,109,1703,274,203,569,1,-1,-1,-1
307,124,856,249,60,156,1,-1,-1,-1
307,135,92,257,42,106,1,-1,-1,-1
307,136,754,257,56,134,1,-1,-1,-1
308,92,1141,252,59,153,1,-1,-1,-1
308,107,1473,257,224,629,1,-1,-1,-1
308,109,1701,275,203,570,1,-1,-1,-1
308,135,92,258,43,108,1,-1,-1,-1
309,92,1140,252,59,153,1,-1,-1,-1
309,107,1470,259,223,625,1,-1,-1,-1
309,109,1701,277,203,569,1,-1,-1,-1
309,123,261,244,91,256,1,-1,-1,-1
309,135,92,258,43,109,1,-1,-1,-1
310,92,1135,254,61,159,1,-1,-1,-1
310,107,1465,257,222,622,1,-1,-1,-1
310,109,1702,281,202,568,1,-1,-1,-1
310,123,253,242,92,259,1,-1,-1,-1
310,124,848,252,58,151,1,-1,-1,-1
310,132,1038,257,64,163,1,-1,-1,-1
310,135,82,258,47,120,1,-1,-1,-1
311,92,1133,255,62,162,1,-1,-1,-1
311,107,1464,256,221,619,1,-1,-1,-1
311,109,1702,284,202,567,1,-1,-1,-1
311,124,847,253,57,150,1,-1,-1,-1
311,132,1038,257,63,163,1,-1,-1,-1
311,135,78,258,49,123,1,-1,-1,-1
312,92,1133,255,62,163,1,-1,-1,-1
312,107,1464,257,220,616,1,-1,-1,-1
312,109,1703,285,202,565,1,-1,-1,-1
312,124,847,253,57,150,1,-1,-1,-1
312,132,1038,257,62,163,1,-1,-1,-1
312,135,77,257,49,125,1,-1,-1,-1
312,138,685,254,40,100,1,-1,-1,-1
312,139,756,257,54,152,1,-1,-1,-1
313,92,1134,258,62,161,1,-1,-1,-1
313,107,1479,264,221,621,1,-1,-1,-1
313,109,1711,294,196,549,1,-1,-1,-1
313,124,846,253,56,149,1,-1,-1,-1
313,132,1037,257,62,162,1,-1,-1,-1
313,135,75,258,50,128,1,-1,-1,-1
313,138,685,254,40,100,1,-1,-1,-1
313,139,756,257,54,152,1,-1,-1,-1
314,92,1134,259,62,160,1,-1,-1,-1
314,107,1486,267,222,622,1,-1,-1,-1
314,109,1714,298,193,542,1,-1,-1,-1
315,92,1134,259,62,160,1,-1,-1,-1
315,107,1488,269,221,621,1,-1,-1,-1
315,109,1715,299,192,539,1,-1,-1,-1
316,92,1138,262,62,160,1,-1,-1,-1
316,107,1500,277,224,627,1,-1,-1,-1
316,109,1716,301,192,537,1,-1,-1,-1
317,92,1140,263,62,160,1,-1,-1,-1
317,107,1505,280,224,628,1,-1,-1,-1
318,92,1140,264,62,160,1,-1,-1,-1
318,107,1506,283,224,627,1,-1,-1,-1
318,140,666,258,48,114,1,-1,-1,-1
318,141,453,251,59,131,1,-1,-1,-1
319,92,1145,260,64,166,1,-1,-1,-1
319,107,1532,285,223,625,1,-1,-1,-1
319,132,1048,256,59,154,1,-1,-1,-1
319,135,74,275,48,121,1,-1,-1,-1
319,140,665,253,44,105,1,-1,-1,-1
319,141,453,251,59,131,1,-1,-1,-1
320,92,1146,258,65,169,1,-1,-1,-1
320,107,1542,287,222,622,1,-1,-1,-1
320,132,1049,256,58,153,1,-1,-1,-1
320,135,75,276,47,120,1,-1,-1,-1
320,140,665,252,43,102,1,-1,-1,-1
321,92,1147,258,65,169,1,-1,-1,-1
321,107,1545,288,221,619,1,-1,-1,-1
321,132,1049,256,58,153,1,-1,-1,-1
321,135,75,277,47,120,1,-1,-1,-1
321,140,665,252,43,101,1,-1,-1,-1
321,142,857,257,53,130,1,-1,-1,-1
322,92,1156,258,61,159,1,-1,-1,-1
322,107,1569,270,221,619,1,-1,-1,-1
322,132,1049,256,58,152,1,-1,-1,-1
322,135,78,273,47,121,1,-1,-1,-1
322,140,665,250,42,98,1,-1,-1,-1
322,142,857,257,53,130,1,-1,-1,-1
323,92,1159,259,60,155,1,-1,-1,-1
323,107,1577,263,221,620,1,-1,-1,-1
323,135,79,272,47,122,1,-1,-1,-1
324,92,1160,259,60,153,1,-1,-1,-1
324,107,1580,260,221,621,1,-1,-1,-1
324,135,80,271,47,122,1,-1,-1,-1
325,92,1162,253,62,158,1,-1,-1,-1
325,107,1588,250,223,624,1,-1,-1,-1
325,135,80,266,53,139,1,-1,-1,-1
326,92,1162,251,62,160,1,-1,-1,-1
326,107,1591,247,222,624,1,-1,-1,-1
326,135,80,264,55,146,1,-1,-1,-1
327,92,1163,250,63,160,1,-1,-1,-1
327,107,1592,247,222,622,1,-1,-1,-1
327,135,80,263,55,148,1,-1,-1,-1
328,92,1159,254,63,163,1,-1,-1,-1
328,107,1630,260,224,628,1,-1,-1,-1
328,135,92,269,55,147,1,-1,-1,-1
329,92,1157,255,63,164,1,-1,-1,-1
329,107,1643,263,226,634,1,-1,-1,-1
329,135,96,271,54,146,1,-1,-1,-1
330,92,1157,256,63,164,1,-1,-1,-1
330,107,1647,263,228,640,1,-1,-1,-1
330,135,98,272,54,146,1,-1,-1,-1
330,143,755,261,83,225,1,-1,-1,-1
330,144,929,261,43,118,1,-1,-1,-1
331,92,1144,261,63,165,1,-1,-1,-1
331,107,1656,273,228,640,1,-1,-1,-1
331,123,168,260,91,252,1,-1,-1,-1
331,132,1069,256,56,149,1,-1,-1,-1
331,135,103,275,54,146,1,-1,-1,-1
331,143,761,275,77,210,1,-1,-1,-1
331,144,930,263,45,126,1,-1,-1,-1
332,92,1140,263,63,166,1,-1,-1,-1
332,107,1658,276,229,642,1,-1,-1,-1
332,123,166,260,93,251,1,-1,-1,-1
332,132,1070,256,56,149,1,-1,-1,-1
332,135,105,276,54,146,1,-1,-1,-1
332,143,762,279,76,205,1,-1,-1,-1
332,144,930,264,46,129,1,-1,-1,-1
333,92,1138,264,63,166,1,-1,-1,-1
333,107,1658,276,230,645,1,-1,-1,-1
333,123,165,261,94,251,1,-1,-1,-1
333,132,1071,256,56,149,1,-1,-1,-1
333,135,105,276,54,146,1,-1,-1,-1
333,143,763,281,75,204,1,-1,-1,-1
333,144,930,264,47,129,1,-1,-1,-1
334,92,1137,264,63,166,1,-1,-1,-1
334,107,1662,281,231,646,1,-1,-1,-1
334,123,162,261,94,250,1,-1,-1,-1
334,132,1072,256,55,149,1,-1,-1,-1
334,135,107,272,64,174,1,-1,-1,-1
334,143,764,284,74,200,1,-1,-1,-1
334,144,935,261,50,138,1,-1,-1,-1
335,107,1663,282,231,649,1,-1,-1,-1
335,135,108,271,68,184,1,-1,-1,-1
335,144,937,261,51,141,1,-1,-1,-1
336,107,1663,281,232,651,1,-1,-1,-1
336,135,108,270,69,188,1,-1,-1,-1
336,144,938,260,51,142,1,-1,-1,-1
336,145,1210,256,62,171,1,-1,-1,-1
337,107,1669,276,234,657,1,-1,-1,-1
337,132,1062,250,58,158,1,-1,-1,-1
337,135,88,263,77,213,1,-1,-1,-1
337,143,740,257,97,261,1,-1,-1,-1
337,144,939,260,52,145,1,-1,-1,-1
337,145,1209,254,62,171,1,-1,-1,-1
338,107,1671,275,234,657,1,-1,-1,-1
338,132,1061,249,58,159,1,-1,-1,-1
338,135,81,261,79,223,1,-1,-1,-1
338,143,737,255,99,266,1,-1,-1,-1
338,145,1208,253,62,172,1,-1,-1,-1
339,107,1671,275,234,657,1,-1,-1,-1
339,132,1061,249,58,160,1,-1,-1,-1
339,135,78,261,80,224,1,-1,-1,-1
339,143,736,254,101,268,1,-1,-1,-1
339,145,1208,253,62,172,1,-1,-1,-1
340,107,1674,274,235,658,1,-1,-1,-1
340,132,1060,248,58,160,1,-1,-1,-1
340,135,74,255,88,248,1,-1,-1,-1
340,143,734,252,103,274,1,-1,-1,-1
340,145,1211,262,62,171,1,-1,-1,-1
341,107,1675,275,234,656,1,-1,-1,-1
341,135,72,253,91,257,1,-1,-1,-1
341,145,1212,265,62,171,1,-1,-1,-1
342,107,1676,277,233,653,1,-1,-1,-1
342,135,72,252,92,260,1,-1,-1,-1
342,145,1212,267,62,171,1,-1,-1,-1
342,146,365,253,63,151,1,-1,-1,-1
343,107,1680,295,239,670,1,-1,-1,-1
343,135,39,262,96,267,1,-1,-1,-1
343,145,1212,268,62,171,1,-1,-1,-1
343,146,365,253,63,151,1,-1,-1,-1
344,107,1682,305,239,670,1,-1,-1,-1
344,135,25,267,99,267,1,-1,-1,-1
345,107,1684,312,237,664,1,-1,-1,-1
345,135,19,269,102,267,1,-1,-1,-1
346,107,1689,327,234,655,1,-1,-1,-1
346,135,14,269,104,273,1,-1,-1,-1
347,107,1692,336,230,646,1,-1,-1,-1
348,107,1694,341,227,637,1,-1,-1,-1
349,107,1696,344,228,640,1,-1,-1,-1
349,132,1055,265,66,185,1,-1,-1,-1
349,135,-15,273,103,279,1,-1,-1,-1
349,143,682,303,91,239,1,-1,-1,-1
350,132,1055,267,65,184,1,-1,-1,-1
350,135,-17,274,100,279,1,-1,-1,-1
350,143,679,306,90,236,1,-1,-1,-1
351,132,1055,268,65,182,1,-1,-1,-1
351,135,-17,277,97,274,1,-1,-1,-1
351,143,678,307,90,235,1,-1,-1,-1
352,132,1055,269,65,184,1,-1,-1,-1
352,135,-6,297,71,198,1,-1,-1,-1
352,143,657,320,102,267,1,-1,-1,-1
353,135,-1,306,59,166,1,-1,-1,-1
353,143,649,325,105,278,1,-1,-1,-1
353,145,1227,297,53,143,1,-1,-1,-1
354,135,0,308,56,157,1,-1,-1,-1
354,143,647,327,106,283,1,-1,-1,-1
354,145,1227,298,53,142,1,-1,-1,-1
354,147,664,263,68,183,1,-1,-1,-1
355,107,1701,348,218,610,1,-1,-1,-1
355,135,-1,311,53,149,1,-1,-1,-1
355,143,640,307,109,294,1,-1,-1,-1
355,145,1225,299,57,150,1,-1,-1,-1
355,147,664,263,68,183,1,-1,-1,-1
356,107,1702,350,215,603,1,-1,-1,-1
356,143,639,300,109,299,1,-1,-1,-1
356,145,1224,300,58,153,1,-1,-1,-1
357,107,1703,352,213,598,1,-1,-1,-1
357,143,638,297,109,300,1,-1,-1,-1
357,145,1223,300,59,154,1,-1,-1,-1
357,149,316,268,68,154,1,-1,-1,-1
358,107,1704,353,213,598,1,-1,-1,-1
358,143,633,297,111,305,1,-1,-1,-1
358,145,1226,306,57,151,1,-1,-1,-1
358,149,316,268,68,154,1,-1,-1,-1
359,145,1227,309,57,149,1,-1,-1,-1
360,145,1227,310,57,149,1,-1,-1,-1
361,107,1701,371,209,586,1,-1,-1,-1
361,145,1228,312,56,148,1,-1,-1,-1
361,146,322,274,80,188,1,-1,-1,-1
362,107,1701,375,207,580,1,-1,-1,-1
362,146,320,274,82,189,1,-1,-1,-1
363,107,1702,377,205,576,1,-1,-1,-1
363,146,319,274,83,189,1,-1,-1,-1
364,107,1702,379,205,575,1,-1,-1,-1
364,143,564,289,111,308,1,-1,-1,-1
364,146,317,275,84,191,1,-1,-1,-1
365,143,560,288,110,308,1,-1,-1,-1
366,143,559,289,109,306,1,-1,-1,-1
366,150,483,320,41,106,1,-1,-1,-1
367,143,544,281,102,280,1,-1,-1,-1
367,150,483,320,41,106,1,-1,-1,-1
368,143,538,278,100,270,1,-1,-1,-1
369,143,536,277,100,266,1,-1,-1,-1
370,143,504,293,100,269,1,-1,-1,-1
371,143,493,298,99,270,1,-1,-1,-1
372,143,490,300,97,271,1,-1,-1,-1
372,151,535,271,121,340,1,-1,-1,-1
373,143,480,302,97,270,1,-1,-1,-1
373,151,526,266,131,369,1,-1,-1,-1
374,151,523,265,135,378,1,-1,-1,-1
375,151,522,264,136,382,1,-1,-1,-1
375,152,361,272,133,361,1,-1,-1,-1
376,151,518,260,140,394,1,-1,-1,-1
376,152,357,264,144,391,1,-1,-1,-1
377,151,517,259,141,396,1,-1,-1,-1
377,152,356,261,146,401,1,-1,-1,-1
378,151,517,260,141,395,1,-1,-1,-1
378,152,356,260,146,404,1,-1,-1,-1
378,153,684,312,29,76,1,-1,-1,-1
379,132,1153,299,61,170,1,-1,-1,-1
379,151,502,252,136,382,1,-1,-1,-1
379,152,365,254,148,410,1,-1,-1,-1
379,153,684,312,29,76,1,-1,-1,-1
380,132,1154,299,61,170,1,-1,-1,-1
380,151,496,249,135,378,1,-1,-1,-1
380,152,368,252,148,412,1,-1,-1,-1
381,132,1154,299,62,170,1,-1,-1,-1
381,151,494,247,134,376,1,-1,-1,-1
381,152,370,251,147,412,1,-1,-1,-1
382,132,1158,300,61,169,1,-1,-1,-1
382,151,452,242,138,387,1,-1,-1,-1
382,152,371,249,149,418,1,-1,-1,-1
383,151,437,240,140,393,1,-1,-1,-1
384,151,431,238,141,397,1,-1,-1,-1
384,154,6,305,48,121,1,-1,-1,-1
385,151,423,241,141,395,1,-1,-1,-1
385,154,6,305,48,121,1,-1,-1,-1
386,151,420,242,141,395,1,-1,-1,-1
387,151,419,243,140,394,1,-1,-1,-1
387,155,337,292,193,542,1,-1,-1,-1
387,156,582,314,39,105,1,-1,-1,-1
388,151,375,245,157,442,1,-1,-1,-1
388,155,337,292,193,542,1,-1,-1,-1
388,156,582,314,39,105,1,-1,-1,-1
389,151,358,245,164,461,1,-1,-1,-1
390,151,352,245,167,469,1,-1,-1,-1
391,151,328,239,170,478,1,-1,-1,-1
392,151,319,236,172,483,1,-1,-1,-1
393,151,316,234,173,486,1,-1,-1,-1
394,151,274,223,184,516,1,-1,-1,-1
395,151,258,221,190,525,1,-1,-1,-1
396,151,251,220,193,528,1,-1,-1,-1
397,151,239,231,193,526,1,-1,-1,-1
398,143,200,211,148,401,1,-1,-1,-1
398,151,235,235,193,524,1,-1,-1,-1
399,143,194,209,151,404,1,-1,-1,-1
399,151,233,237,194,524,1,-1,-1,-1
400,132,1141,281,72,197,1,-1,-1,-1
400,143,171,200,152,406,1,-1,-1,-1
400,151,222,237,196,529,1,-1,-1,-1
400,152,355,243,129,362,1,-1,-1,-1
401,132,1140,280,73,198,1,-1,-1,-1
401,143,163,197,153,407,1,-1,-1,-1
401,152,355,246,127,355,1,-1,-1,-1
402,132,1140,280,73,198,1,-1,-1,-1
402,143,159,196,153,407,1,-1,-1,-1
402,152,355,247,125,351,1,-1,-1,-1
403,132,1151,279,72,193,1,-1,-1,-1
403,143,149,192,155,411,1,-1,-1,-1
403,151,67,183,224,608,1,-1,-1,-1
403,152,353,244,122,343,1,-1,-1,-1
404,132,1156,278,71,191,1,-1,-1,-1
404,151,48,176,226,617,1,-1,-1,-1
404,152,353,243,121,341,1,-1,-1,-1
405,132,1157,278,71,190,1,-1,-1,-1
405,151,42,174,227,621,1,-1,-1,-1
405,152,352,243,121,340,1,-1,-1,-1
405,158,862,257,73,188,1,-1,-1,-1
406,132,1157,272,71,192,1,-1,-1,-1
406,151,2,173,226,635,1,-1,-1,-1
406,152,348,241,115,322,1,-1,-1,-1
406,158,862,256,69,177,1,-1,-1,-1
407,132,1157,270,71,192,1,-1,-1,-1
407,151,-10,179,223,626,1,-1,-1,-1
407,152,347,241,112,315,1,-1,-1,-1
407,158,862,256,67,174,1,-1,-1,-1
408,132,1158,269,71,192,1,-1,-1,-1
408,151,-13,185,220,616,1,-1,-1,-1
408,152,346,240,112,313,1,-1,-1,-1
408,158,862,256,67,173,1,-1,-1,-1
408,159,743,253,39,89,1,-1,-1,-1
409,132,1162,265,73,200,1,-1,-1,-1
409,151,-33,182,223,625,1,-1,-1,-1
409,152,346,242,110,309,1,-1,-1,-1
409,158,862,255,66,170,1,-1,-1,-1
409,159,744,252,43,101,1,-1,-1,-1
410,132,1163,264,74,203,1,-1,-1,-1
410,152,345,242,110,309,1,-1,-1,-1
410,159,744,251,45,104,1,-1,-1,-1
411,132,1164,264,75,204,1,-1,-1,-1
411,152,345,241,111,311,1,-1,-1,-1
411,159,744,251,45,106,1,-1,-1,-1
412,132,1165,262,75,205,1,-1,-1,-1
412,152,334,251,99,275,1,-1,-1,-1
412,158,861,260,87,227,1,-1,-1,-1
412,159,744,251,47,109,1,-1,-1,-1
413,152,329,256,95,260,1,-1,-1,-1
413,158,861,261,88,233,1,-1,-1,-1
414,152,327,257,95,256,1,-1,-1,-1
414,158,861,261,88,235,1,-1,-1,-1
415,152,317,273,103,277,1,-1,-1,-1
415,158,861,261,90,241,1,-1,-1,-1
416,152,314,278,106,284,1,-1,-1,-1
417,152,312,280,108,287,1,-1,-1,-1
418,152,309,272,115,301,1,-1,-1,-1
419,152,308,268,118,306,1,-1,-1,-1
420,152,307,267,120,309,1,-1,-1,-1
421,152,299,270,125,317,1,-1,-1,-1
422,152,296,272,126,321,1,-1,-1,-1
423,152,294,272,128,322,1,-1,-1,-1
423,160,508,315,72,202,1,-1,-1,-1
424,152,318,263,137,343,1,-1,-1,-1
424,160,505,316,71,200,1,-1,-1,-1
425,152,327,260,140,350,1,-1,-1,-1
425,160,503,316,71,201,1,-1,-1,-1
426,152,330,258,142,353,1,-1,-1,-1
426,160,503,315,72,203,1,-1,-1,-1
427,152,330,254,151,378,1,-1,-1,-1
427,160,505,313,75,211,1,-1,-1,-1
428,152,331,252,155,387,1,-1,-1,-1
428,160,505,312,76,214,1,-1,-1,-1
429,152,331,251,155,390,1,-1,-1,-1
429,160,506,312,76,214,1,-1,-1,-1
429,161,491,284,68,186,1,-1,-1,-1
430,132,1211,270,88,244,1,-1,-1,-1
430,152,331,252,160,405,1,-1,-1,-1
430,160,520,318,59,165,1,-1,-1,-1
430,161,491,284,68,186,1,-1,-1,-1
431,132,1212,272,86,243,1,-1,-1,-1
431,152,331,253,162,410,1,-1,-1,-1
431,160,526,321,52,145,1,-1,-1,-1
432,132,1213,273,86,241,1,-1,-1,-1
432,152,331,253,162,412,1,-1,-1,-1
432,160,528,321,50,141,1,-1,-1,-1
432,162,299,322,60,169,1,-1,-1,-1
433,132,1217,275,84,237,1,-1,-1,-1
433,152,336,245,159,409,1,-1,-1,-1
433,160,523,314,57,162,1,-1,-1,-1
433,162,299,322,60,169,1,-1,-1,-1
434,132,1219,276,83,234,1,-1,-1,-1
434,152,338,241,157,407,1,-1,-1,-1
434,160,521,311,60,168,1,-1,-1,-1
435,132,1219,277,82,231,1,-1,-1,-1
435,152,340,240,156,406,1,-1,-1,-1
435,160,521,311,60,170,1,-1,-1,-1
435,163,197,311,62,161,1,-1,-1,-1
435,164,131,314,56,157,1,-1,-1,-1
436,132,1221,278,83,233,1,-1,-1,-1
436,152,343,247,150,390,1,-1,-1,-1
436,160,511,312,55,155,1,-1,-1,-1
436,163,197,311,62,161,1,-1,-1,-1
436,164,108,287,65,182,1,-1,-1,-1
437,152,345,250,149,384,1,-1,-1,-1
437,160,507,313,53,150,1,-1,-1,-1
437,164,100,278,67,189,1,-1,-1,-1
438,152,345,251,148,382,1,-1,-1,-1
438,160,506,313,53,148,1,-1,-1,-1
438,164,98,275,68,192,1,-1,-1,-1
439,152,345,251,158,402,1,-1,-1,-1
439,160,505,313,52,145,1,-1,-1,-1
439,164,77,303,62,175,1,-1,-1,-1
440,152,344,251,163,410,1,-1,-1,-1
440,164,69,314,60,169,1,-1,-1,-1
441,152,343,252,166,413,1,-1,-1,-1
441,164,67,318,60,166,1,-1,-1,-1
442,152,346,250,167,417,1,-1,-1,-1
442,164,37,317,64,173,1,-1,-1,-1
443,152,348,250,167,419,1,-1,-1,-1
443,164,26,317,67,176,1,-1,-1,-1
444,152,349,250,167,419,1,-1,-1,-1
444,164,22,317,68,177,1,-1,-1,-1
445,132,1172,292,73,205,1,-1,-1,-1
445,152,351,251,165,418,1,-1,-1,-1
445,164,12,317,69,178,1,-1,-1,-1
446,132,1169,292,73,204,1,-1,-1,-1
446,152,353,252,164,418,1,-1,-1,-1
447,132,1168,292,73,205,1,-1,-1,-1
447,152,353,252,162,418,1,-1,-1,-1
448,132,1163,288,76,214,1,-1,-1,-1
448,152,350,255,160,414,1,-1,-1,-1
449,132,1161,286,78,219,1,-1,-1,-1
449,152,349,256,158,412,1,-1,-1,-1
450,132,1160,286,80,219,1,-1,-1,-1
450,152,349,256,156,412,1,-1,-1,-1
450,165,103,323,48,134,1,-1,-1,-1
451,132,1161,279,85,235,1,-1,-1,-1
451,152,342,250,164,433,1,-1,-1,-1
451,165,94,328,46,131,1,-1,-1,-1
452,132,1162,277,86,240,1,-1,-1,-1
452,152,340,247,167,441,1,-1,-1,-1
452,165,91,330,46,130,1,-1,-1,-1
453,132,1162,276,86,242,1,-1,-1,-1
453,152,339,246,168,444,1,-1,-1,-1
453,165,90,330,46,130,1,-1,-1,-1
454,132,1161,278,88,246,1,-1,-1,-1
454,152,342,253,171,446,1,-1,-1,-1
454,165,76,332,51,144,1,-1,-1,-1
455,132,1160,279,90,247,1,-1,-1,-1
455,152,343,255,173,446,1,-1,-1,-1
455,165,72,332,53,150,1,-1,-1,-1
456,132,1159,279,90,248,1,-1,-1,-1
456,152,343,256,174,446,1,-1,-1,-1
456,165,70,332,54,153,1,-1,-1,-1
457,132,1156,291,80,221,1,-1,-1,-1
457,152,350,260,175,450,1,-1,-1,-1
457,165,66,333,55,155,1,-1,-1,-1
458,132,1155,295,76,210,1,-1,-1,-1
458,152,353,262,176,451,1,-1,-1,-1
459,132,1155,297,74,207,1,-1,-1,-1
459,152,354,262,175,451,1,-1,-1,-1
459,166,769,297,69,192,1,-1,-1,-1
460,132,1150,302,70,197,1,-1,-1,-1
460,152,351,253,177,457,1,-1,-1,-1
460,166,769,297,69,192,1,-1,-1,-1
461,132,1148,304,69,193,1,-1,-1,-1
461,152,350,249,177,459,1,-1,-1,-1
462,132,1148,305,68,192,1,-1,-1,-1
462,152,349,248,177,459,1,-1,-1,-1
462,167,1214,284,91,255,1,-1,-1,-1
463,132,1137,306,64,179,1,-1,-1,-1
463,152,353,243,173,451,1,-1,-1,-1
463,167,1215,283,93,261,1,-1,-1,-1
464,132,1134,307,62,174,1,-1,-1,-1
464,152,354,241,171,447,1,-1,-1,-1
464,167,1215,283,93,263,1,-1,-1,-1
465,132,1133,308,61,171,1,-1,-1,-1
465,152,355,240,170,446,1,-1,-1,-1
465,167,1215,283,94,263,1,-1,-1,-1
466,132,1130,309,59,167,1,-1,-1,-1
466,152,348,239,173,455,1,-1,-1,-1
466,166,767,306,57,160,1,-1,-1,-1
466,167,1216,282,92,260,1,-1,-1,-1
467,152,346,239,174,459,1,-1,-1,-1
467,166,767,306,56,158,1,-1,-1,-1
467,167,1216,282,92,259,1,-1,-1,-1
468,152,345,238,174,460,1,-1,-1,-1
468,166,767,307,56,157,1,-1,-1,-1
468,167,1216,281,92,259,1,-1,-1,-1
469,132,1149,312,64,180,1,-1,-1,-1
469,152,329,245,176,467,1,-1,-1,-1
469,166,770,306,45,126,1,-1,-1,-1
469,167,1220,291,90,253,1,-1,-1,-1
470,132,1150,312,64,181,1,-1,-1,-1
470,152,323,247,176,470,1,-1,-1,-1
470,166,771,306,40,114,1,-1,-1,-1
470,167,1222,294,89,251,1,-1,-1,-1
471,132,1151,313,65,182,1,-1,-1,-1
471,152,321,248,176,471,1,-1,-1,-1
471,166,772,306,39,110,1,-1,-1,-1
471,167,1222,295,89,251,1,-1,-1,-1
471,168,4,325,60,168,1,-1,-1,-1
472,132,1147,314,65,184,1,-1,-1,-1
472,152,312,247,175,474,1,-1,-1,-1
472,166,760,293,43,122,1,-1,-1,-1
472,167,1221,294,91,255,1,-1,-1,-1
472,168,4,325,60,168,1,-1,-1,-1
473,132,1145,314,66,184,1,-1,-1,-1
473,152,309,247,174,475,1,-1,-1,-1
473,166,756,289,45,126,1,-1,-1,-1
473,167,1220,293,92,258,1,-1,-1,-1
474,132,1145,314,66,185,1,-1,-1,-1
474,152,309,246,173,475,1,-1,-1,-1
474,166,754,287,45,127,1,-1,-1,-1
474,167,1220,292,92,260,1,-1,-1,-1
475,132,1144,315,66,185,1,-1,-1,-1
475,152,281,254,175,481,1,-1,-1,-1
475,166,752,285,44,125,1,-1,-1,-1
475,167,1219,288,95,267,1,-1,-1,-1
476,152,270,256,176,484,1,-1,-1,-1
476,167,1219,287,96,270,1,-1,-1,-1
477,152,266,257,176,484,1,-1,-1,-1
477,167,1219,286,97,271,1,-1,-1,-1
478,152,256,258,178,486,1,-1,-1,-1
478,167,1219,286,99,279,1,-1,-1,-1
479,152,252,258,179,487,1,-1,-1,-1
479,166,747,294,57,160,1,-1,-1,-1
479,167,1219,286,100,281,1,-1,-1,-1
480,152,251,258,180,487,1,-1,-1,-1
480,166,747,295,58,163,1,-1,-1,-1
480,167,1219,286,101,282,1,-1,-1,-1
481,152,243,258,186,494,1,-1,-1,-1
481,166,745,294,59,165,1,-1,-1,-1
481,167,1220,288,102,285,1,-1,-1,-1
482,152,239,258,190,497,1,-1,-1,-1
482,167,1220,288,103,287,1,-1,-1,-1
483,152,237,258,193,497,1,-1,-1,-1
483,167,1220,289,103,287,1,-1,-1,-1
484,152,234,270,196,497,1,-1,-1,-1
484,167,1229,288,104,288,1,-1,-1,-1
485,152,233,275,200,497,1,-1,-1,-1
485,167,1232,287,105,288,1,-1,-1,-1
486,152,231,277,202,497,1,-1,-1,-1
486,167,1233,287,105,288,1,-1,-1,-1
487,152,189,284,258,640,1,-1,-1,-1
487,167,1234,283,107,293,1,-1,-1,-1
488,152,175,287,275,690,1,-1,-1,-1
488,167,1235,282,108,295,1,-1,-1,-1
489,152,170,288,281,711,1,-1,-1,-1
489,167,1235,281,108,296,1,-1,-1,-1
490,152,204,290,228,579,1,-1,-1,-1
490,167,1246,281,108,294,1,-1,-1,-1
491,152,220,290,203,520,1,-1,-1,-1
491,167,1250,281,108,293,1,-1,-1,-1
492,152,226,290,194,500,1,-1,-1,-1
492,167,1251,281,108,293,1,-1,-1,-1
493,132,1155,316,54,153,1,-1,-1,-1
493,152,205,280,212,544,1,-1,-1,-1
493,167,1256,278,112,303,1,-1,-1,-1
494,132,1155,315,55,155,1,-1,-1,-1
494,152,197,277,218,559,1,-1,-1,-1
494,167,1258,277,113,307,1,-1,-1,-1
495,132,1155,314,55,156,1,-1,-1,-1
495,152,194,276,221,565,1,-1,-1,-1
495,167,1259,277,114,309,1,-1,-1,-1
496,132,1157,311,58,163,1,-1,-1,-1
496,152,188,278,222,568,1,-1,-1,-1
496,167,1265,276,113,308,1,-1,-1,-1
497,132,1158,310,59,165,1,-1,-1,-1
497,152,185,279,223,569,1,-1,-1,-1
497,167,1268,276,113,307,1,-1,-1,-1
498,132,1159,310,59,166,1,-1,-1,-1
498,152,184,280,223,569,1,-1,-1,-1
498,167,1269,276,113,307,1,-1,-1,-1
498,170,938,314,57,157,1,-1,-1,-1
498,171,362,337,69,195,1,-1,-1,-1
498,172,280,316,146,411,1,-1,-1,-1
499,132,1162,316,58,163,1,-1,-1,-1
499,152,164,282,226,580,1,-1,-1,-1
499,167,1273,280,111,301,1,-1,-1,-1
499,170,941,316,54,150,1,-1,-1,-1
499,171,362,337,69,195,1,-1,-1,-1
499,172,280,316,146,411,1,-1,-1,-1
500,132,1163,318,57,162,1,-1,-1,-1
500,152,157,283,227,584,1,-1,-1,-1
500,167,1275,282,110,299,1,-1,-1,-1
500,170,942,317,54,148,1,-1,-1,-1
501,132,1164,319,57,161,1,-1,-1,-1
501,152,154,284,227,586,1,-1,-1,-1
501,167,1275,282,110,298,1,-1,-1,-1
501,170,943,317,54,148,1,-1,-1,-1
501,173,657,314,48,130,1,-1,-1,-1
501,174,838,307,60,167,1,-1,-1,-1
502,132,1163,319,56,157,1,-1,-1,-1
502,152,132,272,231,602,1,-1,-1,-1
502,167,1283,277,114,307,1,-1,-1,-1
502,170,943,317,53,146,1,-1,-1,-1
502,171,341,347,73,205,1,-1,-1,-1
502,173,657,314,48,130,1,-1,-1,-1
502,174,838,307,60,167,1,-1,-1,-1
503,132,1163,319,55,155,1,-1,-1,-1
503,152,125,267,231,608,1,-1,-1,-1
503,167,1285,275,116,310,1,-1,-1,-1
503,171,339,347,74,207,1,-1,-1,-1
504,132,1163,319,55,154,1,-1,-1,-1
504,152,123,266,230,610,1,-1,-1,-1
504,167,1286,274,117,311,1,-1,-1,-1
504,171,338,346,74,209,1,-1,-1,-1
505,132,1163,320,54,153,1,-1,-1,-1
505,152,112,262,228,605,1,-1,-1,-1
505,167,1288,270,118,313,1,-1,-1,-1
505,170,948,310,53,145,1,-1,-1,-1
505,171,333,340,69,193,1,-1,-1,-1
505,173,660,312,48,132,1,-1,-1,-1
505,174,843,302,61,170,1,-1,-1,-1
506,152,109,261,227,604,1,-1,-1,-1
506,167,1288,269,119,314,1,-1,-1,-1
506,170,949,309,53,145,1,-1,-1,-1
506,171,330,337,67,189,1,-1,-1,-1
506,173,661,311,48,132,1,-1,-1,-1
506,174,844,302,61,171,1,-1,-1,-1
507,152,107,260,227,603,1,-1,-1,-1
507,167,1288,268,119,315,1,-1,-1,-1
507,170,949,309,53,145,1,-1,-1,-1
507,171,330,336,67,189,1,-1,-1,-1
507,173,661,311,48,132,1,-1,-1,-1
507,174,844,302,61,171,1,-1,-1,-1
508,152,88,260,238,625,1,-1,-1,-1
508,167,1293,268,121,318,1,-1,-1,-1
508,170,950,309,52,144,1,-1,-1,-1
508,171,327,329,61,172,1,-1,-1,-1
508,173,662,311,48,132,1,-1,-1,-1
508,174,845,301,61,171,1,-1,-1,-1
509,152,80,260,244,633,1,-1,-1,-1
509,167,1295,268,122,319,1,-1,-1,-1
509,171,326,325,60,168,1,-1,-1,-1
510,152,77,260,247,636,1,-1,-1,-1
510,167,1295,268,123,319,1,-1,-1,-1
510,171,325,322,60,169,1,-1,-1,-1
511,152,55,245,252,648,1,-1,-1,-1
511,167,1308,267,124,324,1,-1,-1,-1
511,171,319,319,59,167,1,-1,-1,-1
512,152,46,239,254,652,1,-1,-1,-1
512,167,1313,267,125,325,1,-1,-1,-1
512,171,316,317,60,169,1,-1,-1,-1
513,152,43,237,256,654,1,-1,-1,-1
513,167,1315,267,125,326,1,-1,-1,-1
513,171,315,315,61,171,1,-1,-1,-1
514,152,25,225,261,670,1,-1,-1,-1
514,167,1324,255,129,339,1,-1,-1,-1
514,171,313,315,59,167,1,-1,-1,-1
514,174,840,251,76,211,1,-1,-1,-1
515,152,19,220,262,677,1,-1,-1,-1
515,167,1328,251,129,344,1,-1,-1,-1
515,174,840,247,76,214,1,-1,-1,-1
516,152,17,219,262,679,1,-1,-1,-1
516,167,1330,250,129,346,1,-1,-1,-1
516,174,840,246,76,214,1,-1,-1,-1
516,175,748,268,48,135,1,-1,-1,-1
517,152,3,219,260,682,1,-1,-1,-1
517,167,1338,240,130,349,1,-1,-1,-1
517,170,951,274,62,171,1,-1,-1,-1
517,174,840,242,78,218,1,-1,-1,-1
517,175,748,268,48,135,1,-1,-1,-1
518,152,0,220,257,684,1,-1,-1,-1
518,167,1342,236,129,350,1,-1,-1,-1
518,170,951,273,63,173,1,-1,-1,-1
519,152,0,220,254,684,1,-1,-1,-1
519,167,1343,235,129,351,1,-1,-1,-1
519,170,951,272,63,173,1,-1,-1,-1
520,152,-10,202,262,723,1,-1,-1,-1
520,167,1344,233,132,361,1,-1,-1,-1
520,170,948,272,64,176,1,-1,-1,-1
520,174,846,261,73,204,1,-1,-1,-1
521,152,-12,199,261,732,1,-1,-1,-1
521,167,1344,233,132,365,1,-1,-1,-1
521,170,947,272,64,176,1,-1,-1,-1
521,174,847,265,71,201,1,-1,-1,-1
522,152,-11,204,258,723,1,-1,-1,-1
522,167,1345,233,132,366,1,-1,-1,-1
522,170,946,272,64,177,1,-1,-1,-1
522,174,847,266,71,199,1,-1,-1,-1
522,176,1168,272,57,161,1,-1,-1,-1
523,152,-18,200,261,731,1,-1,-1,-1
523,167,1344,237,132,366,1,-1,-1,-1
523,170,946,270,64,178,1,-1,-1,-1
523,174,847,265,71,200,1,-1,-1,-1
523,175,746,262,48,136,1,-1,-1,-1
523,176,1168,272,57,161,1,-1,-1,-1
524,167,1344,238,132,366,1,-1,-1,-1
524,175,746,261,48,136,1,-1,-1,-1
525,167,1344,239,132,365,1,-1,-1,-1
525,175,746,261,48,136,1,-1,-1,-1
526,167,1343,238,131,367,1,-1,-1,-1
526,175,745,261,48,136,1,-1,-1,-1
527,167,1342,238,131,367,1,-1,-1,-1
528,167,1342,239,130,366,1,-1,-1,-1
529,167,1345,235,133,372,1,-1,-1,-1
529,176,1136,280,55,156,1,-1,-1,-1
530,167,1346,233,133,374,1,-1,-1,-1
530,176,1134,280,55,156,1,-1,-1,-1
531,167,1346,233,133,374,1,-1,-1,-1
531,176,1134,281,55,156,1,-1,-1,-1
532,167,1344,232,134,375,1,-1,-1,-1
532,176,1131,281,55,155,1,-1,-1,-1
533,167,1343,231,134,375,1,-1,-1,-1
534,167,1343,231,134,375,1,-1,-1,-1
535,167,1342,230,135,380,1,-1,-1,-1
536,167,1342,230,136,381,1,-1,-1,-1
537,167,1342,230,135,380,1,-1,-1,-1
537,177,191,270,74,209,1,-1,-1,-1
538,167,1344,228,135,380,1,-1,-1,-1
538,176,1125,270,53,149,1,-1,-1,-1
538,177,191,270,74,209,1,-1,-1,-1
539,167,1344,227,135,380,1,-1,-1,-1
539,176,1124,269,54,151,1,-1,-1,-1
540,167,1344,226,135,380,1,-1,-1,-1
540,176,1124,268,54,152,1,-1,-1,-1
540,178,735,252,63,178,1,-1,-1,-1
541,167,1348,227,134,376,1,-1,-1,-1
541,176,1126,272,52,146,1,-1,-1,-1
541,178,734,252,64,180,1,-1,-1,-1
542,167,1349,227,133,374,1,-1,-1,-1
542,176,1127,273,51,145,1,-1,-1,-1
542,178,734,252,64,180,1,-1,-1,-1
543,167,1349,227,133,374,1,-1,-1,-1
543,176,1128,273,51,144,1,-1,-1,-1
543,178,734,253,64,180,1,-1,-1,-1
543,179,960,265,46,129,1,-1,-1,-1
543,180,177,261,77,188,1,-1,-1,-1
544,167,1367,213,140,393,1,-1,-1,-1
544,176,1127,274,51,143,1,-1,-1,-1
544,178,739,246,61,172,1,-1,-1,-1
544,179,948,256,49,136,1,-1,-1,-1
544,180,177,261,77,188,1,-1,-1,-1
545,167,1373,208,143,400,1,-1,-1,-1
545,178,741,244,60,169,1,-1,-1,-1
545,179,944,254,49,138,1,-1,-1,-1
546,167,1376,206,143,403,1,-1,-1,-1
546,178,742,244,60,168,1,-1,-1,-1
546,179,943,253,50,139,1,-1,-1,-1
547,167,1380,202,146,409,1,-1,-1,-1
547,178,743,242,59,166,1,-1,-1,-1
547,179,950,256,46,130,1,-1,-1,-1
548,167,1382,200,146,411,1,-1,-1,-1
548,179,953,257,45,127,1,-1,-1,-1
549,167,1382,200,146,411,1,-1,-1,-1
549,179,954,258,45,126,1,-1,-1,-1
549,181,1332,219,129,362,1,-1,-1,-1
550,167,1390,197,151,423,1,-1,-1,-1
550,176,1132,266,49,138,1,-1,-1,-1
550,178,737,247,63,176,1,-1,-1,-1
550,179,951,259,49,137,1,-1,-1,-1
550,180,130,269,79,194,1,-1,-1,-1
550,181,1335,222,130,364,1,-1,-1,-1
551,167,1392,195,153,429,1,-1,-1,-1
551,176,1132,265,49,139,1,-1,-1,-1
551,178,737,247,63,178,1,-1,-1,-1
551,179,950,260,50,141,1,-1,-1,-1
551,180,127,270,80,194,1,-1,-1,-1
551,181,1336,223,130,365,1,-1,-1,-1
552,167,1392,194,154,433,1,-1,-1,-1
552,176,1132,265,49,139,1,-1,-1,-1
552,178,736,247,63,178,1,-1,-1,-1
552,179,949,260,51,142,1,-1,-1,-1
552,180,126,270,80,194,1,-1,-1,-1
552,181,1336,223,130,365,1,-1,-1,-1
553,167,1401,192,156,438,1,-1,-1,-1
553,176,1132,264,49,138,1,-1,-1,-1
553,178,738,246,64,180,1,-1,-1,-1
553,179,951,258,52,145,1,-1,-1,-1
553,180,102,269,82,191,1,-1,-1,-1
553,181,1336,224,129,362,1,-1,-1,-1
554,167,1404,191,157,440,1,-1,-1,-1
554,178,738,246,65,182,1,-1,-1,-1
554,179,951,258,53,146,1,-1,-1,-1
554,180,93,268,83,191,1,-1,-1,-1
554,181,1336,225,129,361,1,-1,-1,-1
555,167,1405,191,158,441,1,-1,-1,-1
555,178,738,245,65,183,1,-1,-1,-1
555,179,951,258,53,146,1,-1,-1,-1
555,180,89,268,85,190,1,-1,-1,-1
555,181,1336,225,128,361,1,-1,-1,-1
556,167,1411,185,161,448,1,-1,-1,-1
556,178,739,235,69,194,1,-1,-1,-1
556,179,951,257,54,148,1,-1,-1,-1
556,180,79,265,85,189,1,-1,-1,-1
556,181,1340,222,129,362,1,-1,-1,-1
557,167,1413,182,162,450,1,-1,-1,-1
557,178,740,231,71,198,1,-1,-1,-1
557,180,75,264,85,188,1,-1,-1,-1
557,181,1342,220,129,363,1,-1,-1,-1
558,167,1413,182,162,451,1,-1,-1,-1
558,178,740,229,71,201,1,-1,-1,-1
558,180,74,263,85,188,1,-1,-1,-1
558,181,1342,220,130,364,1,-1,-1,-1
559,167,1416,183,162,451,1,-1,-1,-1
559,178,738,233,70,197,1,-1,-1,-1
559,180,68,263,85,188,1,-1,-1,-1
559,181,1346,220,129,361,1,-1,-1,-1
560,167,1417,183,161,451,1,-1,-1,-1
560,178,737,235,70,196,1,-1,-1,-1
560,181,1348,221,128,360,1,-1,-1,-1
561,167,1417,184,161,450,1,-1,-1,-1
561,178,737,235,70,196,1,-1,-1,-1
561,181,1348,221,128,359,1,-1,-1,-1
562,167,1420,187,165,458,1,-1,-1,-1
562,178,736,235,70,196,1,-1,-1,-1
562,181,1350,221,128,358,1,-1,-1,-1
563,167,1420,188,168,460,1,-1,-1,-1
564,167,1420,188,170,461,1,-1,-1,-1
564,182,5,267,106,200,1,-1,-1,-1
565,167,1420,197,172,468,1,-1,-1,-1
565,178,737,239,70,197,1,-1,-1,-1
565,182,5,267,106,200,1,-1,-1,-1
566,167,1420,200,172,471,1,-1,-1,-1
566,178,736,238,71,200,1,-1,-1,-1
567,167,1420,201,171,472,1,-1,-1,-1
567,178,736,237,72,202,1,-1,-1,-1
567,183,854,253,62,162,1,-1,-1,-1
568,167,1465,193,178,490,1,-1,-1,-1
568,178,733,230,75,212,1,-1,-1,-1
568,181,1411,219,148,414,1,-1,-1,-1
568,183,854,253,62,162,1,-1,-1,-1
569,167,1481,190,181,497,1,-1,-1,-1
569,178,732,228,77,215,1,-1,-1,-1
569,181,1416,219,148,416,1,-1,-1,-1
570,167,1488,189,182,500,1,-1,-1,-1
570,178,732,227,77,216,1,-1,-1,-1
570,181,1417,220,148,416,1,-1,-1,-1
571,167,1503,186,183,502,1,-1,-1,-1
571,178,737,242,70,196,1,-1,-1,-1
571,181,1428,215,138,387,1,-1,-1,-1
572,167,1508,185,183,503,1,-1,-1,-1
572,178,739,248,67,187,1,-1,-1,-1
572,181,1432,212,134,375,1,-1,-1,-1
573,167,1510,185,182,503,1,-1,-1,-1
573,178,740,250,66,184,1,-1,-1,-1
573,181,1433,211,132,371,1,-1,-1,-1
574,167,1543,173,189,526,1,-1,-1,-1
574,178,745,258,64,179,1,-1,-1,-1
574,181,1464,196,158,443,1,-1,-1,-1
575,167,1556,169,191,534,1,-1,-1,-1
575,178,747,261,63,178,1,-1,-1,-1
575,181,1475,192,166,466,1,-1,-1,-1
576,167,1561,168,191,536,1,-1,-1,-1
576,178,748,262,63,177,1,-1,-1,-1
576,181,1480,190,169,475,1,-1,-1,-1
577,167,1562,177,195,537,1,-1,-1,-1
577,178,752,267,66,179,1,-1,-1,-1
577,181,1488,212,169,473,1,-1,-1,-1
578,167,1561,181,198,537,1,-1,-1,-1
578,178,752,270,68,178,1,-1,-1,-1
578,181,1491,219,169,475,1,-1,-1,-1
579,167,1559,182,200,537,1,-1,-1,-1
579,178,752,271,71,178,1,-1,-1,-1
579,181,1491,221,170,478,1,-1,-1,-1
580,167,1569,182,202,543,1,-1,-1,-1
580,178,747,253,76,193,1,-1,-1,-1
580,181,1488,219,172,484,1,-1,-1,-1
580,183,843,245,76,202,1,-1,-1,-1
581,167,1573,182,203,546,1,-1,-1,-1
581,178,745,247,78,199,1,-1,-1,-1
581,181,1486,219,173,485,1,-1,-1,-1
581,183,843,244,76,203,1,-1,-1,-1
582,167,1574,182,203,546,1,-1,-1,-1
582,178,745,244,78,201,1,-1,-1,-1
582,181,1486,219,173,485,1,-1,-1,-1
582,183,843,244,75,203,1,-1,-1,-1
583,167,1577,181,212,572,1,-1,-1,-1
583,178,740,242,78,201,1,-1,-1,-1
583,181,1490,227,172,481,1,-1,-1,-1
583,183,843,244,76,206,1,-1,-1,-1
584,167,1578,180,215,582,1,-1,-1,-1
584,178,738,241,78,201,1,-1,-1,-1
584,181,1491,230,171,480,1,-1,-1,-1
585,167,1578,180,215,585,1,-1,-1,-1
585,178,737,241,77,201,1,-1,-1,-1
585,181,1491,231,171,479,1,-1,-1,-1
586,167,1573,177,216,594,1,-1,-1,-1
586,178,735,244,75,198,1,-1,-1,-1
586,181,1497,221,171,481,1,-1,-1,-1
587,167,1571,176,216,597,1,-1,-1,-1
587,178,734,246,74,196,1,-1,-1,-1
587,181,1499,217,171,480,1,-1,-1,-1
588,167,1571,175,214,598,1,-1,-1,-1
588,178,734,246,74,195,1,-1,-1,-1
588,181,1500,216,171,479,1,-1,-1,-1
589,167,1611,175,229,641,1,-1,-1,-1
589,178,730,249,70,187,1,-1,-1,-1
589,181,1512,219,169,473,1,-1,-1,-1
590,167,1626,176,233,654,1,-1,-1,-1
590,178,728,251,68,183,1,-1,-1,-1
590,181,1517,220,168,470,1,-1,-1,-1
591,167,1632,178,234,656,1,-1,-1,-1
591,178,728,251,67,182,1,-1,-1,-1
591,181,1519,222,167,468,1,-1,-1,-1
592,167,1642,167,240,672,1,-1,-1,-1
592,178,729,252,71,194,1,-1,-1,-1
592,181,1541,210,186,522,1,-1,-1,-1
593,167,1646,163,242,678,1,-1,-1,-1
593,178,729,252,73,199,1,-1,-1,-1
593,181,1549,205,194,543,1,-1,-1,-1
594,167,1647,162,242,679,1,-1,-1,-1
594,178,730,252,73,200,1,-1,-1,-1
594,181,1552,202,197,552,1,-1,-1,-1
595,167,1659,170,244,685,1,-1,-1,-1
595,178,729,253,74,202,1,-1,-1,-1
595,181,1565,210,197,553,1,-1,-1,-1
596,167,1664,175,244,683,1,-1,-1,-1
596,178,728,253,73,202,1,-1,-1,-1
596,181,1571,213,197,553,1,-1,-1,-1
597,167,1666,178,242,680,1,-1,-1,-1
597,178,728,253,73,203,1,-1,-1,-1
597,181,1572,215,197,552,1,-1,-1,-1
598,167,1677,187,236,662,1,-1,-1,-1
598,178,739,261,78,216,1,-1,-1,-1
598,181,1590,206,204,573,1,-1,-1,-1
599,167,1681,193,232,652,1,-1,-1,-1
599,178,742,264,80,221,1,-1,-1,-1
599,181,1597,204,206,579,1,-1,-1,-1
600,167,1684,197,230,644,1,-1,-1,-1
600,178,744,265,81,223,1,-1,-1,-1
600,181,1599,204,207,579,1,-1,-1,-1
601,167,1682,198,225,632,1,-1,-1,-1
601,178,750,278,75,204,1,-1,-1,-1
601,181,1606,202,209,587,1,-1,-1,-1
602,167,1681,201,222,623,1,-1,-1,-1
602,178,753,284,73,197,1,-1,-1,-1
603,167,1682,204,220,616,1,-1,-1,-1
603,178,753,286,72,194,1,-1,-1,-1
603,184,1135,274,61,171,1,-1,-1,-1
603,185,82,309,49,138,1,-1,-1,-1
604,167,1676,228,216,605,1,-1,-1,-1
604,178,753,290,72,194,1,-1,-1,-1
604,183,840,305,65,176,1,-1,-1,-1
604,184,1135,274,61,171,1,-1,-1,-1
604,185,82,309,49,138,1,-1,-1,-1
605,167,1674,237,215,603,1,-1,-1,-1
605,178,753,292,72,193,1,-1,-1,-1
605,183,840,306,65,175,1,-1,-1,-1
606,167,1673,240,215,602,1,-1,-1,-1
606,178,753,292,72,193,1,-1,-1,-1
606,183,840,306,65,174,1,-1,-1,-1
607,167,1688,242,216,607,1,-1,-1,-1
607,178,754,291,75,200,1,-1,-1,-1
607,183,840,309,64,173,1,-1,-1,-1
608,167,1694,245,215,604,1,-1,-1,-1
608,178,754,290,76,202,1,-1,-1,-1
609,167,1697,249,213,599,1,-1,-1,-1
609,178,754,290,76,203,1,-1,-1,-1
610,167,1700,251,214,600,1,-1,-1,-1
610,178,754,288,74,200,1,-1,-1,-1
611,178,754,287,74,198,1,-1,-1,-1
612,178,754,287,73,198,1,-1,-1,-1
613,178,756,279,78,211,1,-1,-1,-1
614,178,757,275,80,217,1,-1,-1,-1
615,178,757,274,80,218,1,-1,-1,-1
616,178,757,274,81,220,1,-1,-1,-1
616,183,840,296,73,184,1,-1,-1,-1
616,184,1166,274,62,175,1,-1,-1,-1
617,183,839,296,76,184,1,-1,-1,-1
617,184,1165,270,66,182,1,-1,-1,-1
618,183,838,296,78,184,1,-1,-1,-1
618,184,1164,270,69,182,1,-1,-1,-1
622,183,829,294,80,194,1,-1,-1,-1
622,184,1166,270,68,182,1,-1,-1,-1
623,183,827,294,79,198,1,-1,-1,-1
624,183,826,293,78,199,1,-1,-1,-1
628,183,828,299,74,189,1,-1,-1,-1
629,183,828,302,72,185,1,-1,-1,-1
630,183,828,302,72,183,1,-1,-1,-1
631,183,829,298,74,191,1,-1,-1,-1
632,183,830,297,75,194,1,-1,-1,-1
633,183,830,296,76,195,1,-1,-1,-1
634,183,831,290,78,203,1,-1,-1,-1
635,183,831,288,78,206,1,-1,-1,-1
636,183,832,287,78,207,1,-1,-1,-1
637,183,835,287,75,200,1,-1,-1,-1
637,184,1220,262,75,206,1,-1,-1,-1
638,183,836,288,74,198,1,-1,-1,-1
638,184,1223,261,74,207,1,-1,-1,-1
639,183,837,288,73,197,1,-1,-1,-1
639,184,1224,262,73,205,1,-1,-1,-1
640,183,838,293,71,192,1,-1,-1,-1
640,184,1227,262,73,206,1,-1,-1,-1
641,183,839,296,70,189,1,-1,-1,-1
642,183,839,296,69,189,1,-1,-1,-1
642,186,1497,284,77,217,1,-1,-1,-1
643,183,840,297,69,188,1,-1,-1,-1
643,186,1508,284,77,217,1,-1,-1,-1
644,186,1511,283,78,218,1,-1,-1,-1
645,186,1511,282,79,221,1,-1,-1,-1
646,186,1522,270,84,237,1,-1,-1,-1
647,183,869,313,65,176,1,-1,-1,-1
647,186,1526,265,86,243,1,-1,-1,-1
648,183,871,314,64,174,1,-1,-1,-1
648,186,1527,263,88,246,1,-1,-1,-1
648,187,1154,267,67,179,1,-1,-1,-1
648,189,1238,258,64,170,1,-1,-1,-1
649,183,874,316,64,173,1,-1,-1,-1
649,186,1553,276,84,237,1,-1,-1,-1
649,187,1154,267,67,179,1,-1,-1,-1
649,189,1238,258,64,170,1,-1,-1,-1
650,186,1563,280,84,235,1,-1,-1,-1
651,186,1565,281,84,236,1,-1,-1,-1
652,183,842,270,83,226,1,-1,-1,-1
652,186,1578,287,85,240,1,-1,-1,-1
653,183,839,265,84,232,1,-1,-1,-1
653,186,1582,289,86,241,1,-1,-1,-1
654,183,838,264,85,234,1,-1,-1,-1
654,186,1584,290,86,241,1,-1,-1,-1
